epoch,loss,val_loss
0,0.7549967722643428,0.7511484141089484
1,0.750753756865408,0.7505466104736991
2,0.7506185222390839,0.7505385174053183
3,0.7505669373877856,0.750500630297081
4,0.750492182991298,0.7503861529655551
5,0.7504647946400639,0.7504089416996125
6,0.7504445283359072,0.7506742796294447
7,0.7504499647558052,0.7505514391006962
8,0.7504028955126697,0.7504057745779714
9,0.7503770829797907,0.7505200548148333
10,0.7503796256443148,0.7503858270479491
11,0.7503562651183057,0.7503779370790675
12,0.7503469228867564,0.750293646763927
13,0.75034387725593,0.7506166167649678
14,0.7503499945165703,0.7503348516767138
15,0.7503155920946353,0.7503319997349684
16,0.7503106915809259,0.7503107297213438
17,0.7503078972857398,0.750369861433583
18,0.7503094070941654,0.7506904463909991
19,0.7502935306771055,0.7502644339802839
20,0.75029473021575,0.7502986406274232
21,0.750285999516923,0.7502465089260792
22,0.7502884378439348,0.7502552747726441
23,0.750284691119992,0.7502591021599309
24,0.7502808089763409,0.750285344798275
25,0.7502851330404604,0.7503094654225239
26,0.7502693372558376,0.7502978324298527
27,0.7502760206829036,0.7502539427049698
28,0.7502719959790716,0.7502451789881988
29,0.7502700046328608,0.7502270449184011
30,0.7502656972705999,0.7502454093608903
31,0.7502724371856505,0.7502642179245392
32,0.7502597422395707,0.750263389050221
33,0.7502645623062175,0.7502355771088423
34,0.7502509387579356,0.7502934547866841
35,0.7502488459589571,0.7502213392305019
36,0.750249786341519,0.7502753111328144
37,0.7502425262321589,0.7502477047461138
38,0.7502444487775664,0.7502380248334805
39,0.7502416838196884,0.7502133183384652
40,0.7502414981950116,0.7502729232790453
41,0.7502325130565055,0.7502232969546733
42,0.7502459642024485,0.7502132752693025
43,0.7502371994136235,0.7502868723336875
44,0.7502345960203745,0.7502231284643225
45,0.7502348061689299,0.7502627993339936
46,0.7502318934390835,0.7502412107387193
47,0.7502392130181986,0.750195454574992
48,0.7502300815867768,0.7502069285726429
49,0.7502323499228974,0.7502132997619307
50,0.7502364406571683,0.7502228497867253
51,0.7502341157549691,0.7503882064121237
52,0.7502354918270457,0.7502815897943956
53,0.7502267344910692,0.7502133776473052
54,0.7502343423158833,0.7504155636721155
55,0.750231606605387,0.7502389825899015
56,0.7502293720437331,0.7502327700702487
57,0.7502241933497723,0.7502238108265784
58,0.7502279623612661,0.7502267946676344
59,0.7502247134588882,0.7501975740747475
60,0.7502278171340573,0.750203231457741
61,0.750224621396331,0.7502023896863383
62,0.7502176132197542,0.7502774639105975
63,0.7502220754550146,0.7502159832133253
64,0.7502214767186629,0.750197673405962
65,0.750217818096571,0.7502306546525979
66,0.750214514768994,0.7501975622721405
67,0.7502231689120479,0.7502316741434575
