epoch,loss,val_loss
0,0.7535269062670938,0.75087795171785
1,0.7508585191876107,0.7511480231438914
2,0.7506941030261531,0.7505794476042906
3,0.7111052077331285,0.7006901527456847
4,0.700621111787452,0.7007034717363401
5,0.7005612345788818,0.7006293594689287
6,0.7005083732079873,0.7003994392697923
7,0.7004744169401615,0.7004348601655984
8,0.7004587598496727,0.7005459263661955
9,0.7004129479102792,0.7004246262995244
10,0.700398696822374,0.7003441549116566
11,0.7003957086710892,0.7004406407216642
12,0.7003524499546848,0.7004185038523993
13,0.7003662345122607,0.7005065582526233
14,0.7003430596495809,0.7004628775729139
15,0.7003222478344638,0.7003200395527311
16,0.7003245264458601,0.7002896382554293
17,0.7003146958720938,0.7005491529741595
18,0.7003115102692318,0.7002648842837615
19,0.7002993124892007,0.7002722348823737
20,0.7003000183129197,0.7002775060627656
21,0.7002948762639712,0.7002913995652873
22,0.7002902105828281,0.7002533836341082
23,0.7002909824764275,0.7007496703351401
24,0.7002996133340629,0.7003489604658879
25,0.7002781329981218,0.7002461890724694
26,0.7002761348435351,0.7004879816590113
27,0.700285628849567,0.7002761552114937
28,0.7002698408151808,0.7002424292469734
29,0.7002773586559998,0.7002301121172183
30,0.7002642112420302,0.7002874316707735
31,0.7002687104465114,0.7002433362728905
32,0.7002658922640308,0.70057359167719
33,0.7002682012050812,0.7002183584953952
34,0.7002671315406829,0.7002299471765239
35,0.7002651108674186,0.700257352593519
36,0.7002693044711925,0.7002332690927586
37,0.7002569909992568,0.7003650300260217
38,0.7002564469476285,0.7002275195370241
39,0.7002627765576547,0.7002617887764355
40,0.7002590014926936,0.7002526172633207
41,0.7002665878156294,0.7003162214537116
42,0.7002525915594509,0.7002317333339757
43,0.7002494820422205,0.7005106027901321
44,0.7002534260686522,0.700255226260675
45,0.7002492256060173,0.7002062476894104
46,0.7002532541837844,0.7004612979462957
47,0.7002454753867768,0.7002660110629818
48,0.7002517568743409,0.7002458218309483
49,0.7002454648740639,0.7002414334500694
50,0.7002445128381436,0.700238211870785
51,0.7002452903142798,0.7002464032942249
52,0.7002542581727162,0.7002273669018048
53,0.7002417872877542,0.7003298260142135
54,0.7002499160594196,0.7002431132361552
55,0.7002429342186597,0.7002438701411926
56,0.7002813648326248,0.7001988546428255
57,0.7002346043991494,0.7002360577618809
58,0.7002368744967233,0.7003509729139267
59,0.700241514600902,0.7002272776871106
60,0.7002419670569594,0.7002219509545982
61,0.700240954605479,0.7002037083836407
62,0.7002358014285316,0.7002237607468447
63,0.7002469323437156,0.7002151882973853
64,0.700235414223551,0.700216003002659
65,0.7002352491983329,0.7002428341444313
66,0.7002330519908477,0.7002293061086026
67,0.700238119691953,0.7002014485541408
68,0.7002289212890203,0.7002051815501513
69,0.7002448743486245,0.7004493924879258
70,0.7002321631613616,0.7002542482120523
71,0.7002224890690155,0.7001984723152653
72,0.7002275097977703,0.7004644832303447
73,0.7002224343606271,0.7001896074924516
74,0.7002272944508373,0.7003689983642427
75,0.70022680595401,0.7002263424414263
76,0.7002260046473749,0.7002431093611138
77,0.7002244074746528,0.7002670532716415
78,0.7002180272833871,0.7001940668960362
79,0.7002179021854953,0.7002045791143223
80,0.7002161091057213,0.7001983025825349
81,0.700219930890608,0.7002183343281521
82,0.7002153643880409,0.700200067175825
83,0.700224742477352,0.7002202698373913
84,0.7002130464291071,0.7002673737168608
85,0.7002235486711217,0.7001802555680571
86,0.7002126014148546,0.7002760419774587
87,0.7002204561200074,0.7002210132833154
88,0.70021330943546,0.7002008204128842
89,0.7002176905854961,0.7003975626848472
90,0.7002221907381487,0.7001908376258301
91,0.7002125093097008,0.7002054376578508
92,0.7002123721561482,0.7002761451245537
93,0.7002132958762928,0.7002031029897647
94,0.7002167041692892,0.7001970571560541
95,0.7002106444883718,0.7002094286547109
96,0.7002124484642293,0.7002180429013728
97,0.7002142995615258,0.7002571434004431
98,0.7002160026131306,0.7002158130073074
99,0.7002150071025237,0.7002619497533472
100,0.7002116471094757,0.7002512833024964
101,0.7002150445852715,0.7002010890922831
102,0.7002101638648385,0.7002685276509515
103,0.7002165009032595,0.7002234840215583
104,0.7002098731027778,0.7003689848459684
105,0.7002099499220196,0.7002382484026641
