epoch,loss,val_loss
0,0.6069534246920056,0.601176616364614
1,0.6012798295627382,0.6008689284028841
2,0.6010662913622203,0.6009514137178141
3,0.6008960724088359,0.6019950882968477
4,0.6008448255948589,0.6011030997295238
5,0.6007781020417533,0.6007298154807268
6,0.6007354385364276,0.6009400000051588
7,0.6006817478026469,0.6008098360326687
8,0.6006629528949285,0.6005635442272309
9,0.6006179152645262,0.6005100219776258
10,0.6006092910078049,0.6007688342193812
11,0.600575113907535,0.6005689951385517
12,0.6005906991460331,0.6005991320456228
13,0.6005333637184994,0.6005968804690738
14,0.6005344013690955,0.6007008872611943
15,0.6005041772926313,0.6010959764272344
16,0.6004865881056037,0.6004729650156669
17,0.6004818848052457,0.6004515296768018
18,0.6004716051902591,0.6004171984958885
19,0.6004532347170553,0.6006665404913739
20,0.6004575761361832,0.6003849598373432
21,0.6004393739642008,0.600499497660928
22,0.60043633551881,0.6005636124989531
23,0.6004539607111103,0.6003794327858956
24,0.6004377263672158,0.6004408615990253
25,0.6004308038905082,0.6008482963216512
26,0.6004348572043489,0.6005266259385101
27,0.6004142607038228,0.600403989455836
28,0.6004179840200787,0.6004562104014546
29,0.6004139715628041,0.6005943474639438
30,0.6004052346929742,0.6004529550116944
31,0.6004129032267924,0.6003607641674449
32,0.6004087426993722,0.6003807514240369
33,0.6004076762518151,0.600434636744317
34,0.6004020371220113,0.6010609932632067
35,0.6004112668311674,0.6003565937354606
36,0.6003882460274166,0.6004026325405679
37,0.6003992253566479,0.6003833948234767
38,0.6003893925031683,0.6003325212682151
39,0.6003916594517401,0.6003582949082253
40,0.6003973617714127,0.6004949133390233
41,0.6003769765545658,0.6003754959508739
42,0.6003891898847664,0.6005799562700334
43,0.6003862735452423,0.6003408384086476
44,0.6003771893401738,0.6003680926102858
45,0.6003848424318918,0.6003762645697771
46,0.6003851433027854,0.6004575947082368
47,0.6003738509223648,0.6004232869254744
48,0.6003821576962604,0.6005379065982166
49,0.6003724192315921,0.6003320982379298
50,0.600369862644251,0.6003191206058852
51,0.6003733432065282,0.60031786417547
52,0.6003779326221869,0.6004246749002348
53,0.6003730351604537,0.6003212940899965
54,0.6003710495711108,0.6003948184751695
55,0.6003699545995275,0.6003463924374829
56,0.6003629554526666,0.6003637920242385
57,0.6003719845967407,0.6003321570734824
58,0.6003699127340504,0.6003134841954442
59,0.600360676300923,0.6003093786038477
60,0.6003683601443183,0.600340367221359
61,0.6003643849710065,0.6003216912373716
62,0.6003656117336886,0.6003258795655395
63,0.600358550457144,0.6007736997628035
64,0.6003700812261682,0.6004513767161973
65,0.6003722627722591,0.6006898892132875
66,0.6003609132767355,0.6006280661516686
67,0.6003661403676704,0.6002909805579457
68,0.6003755902001141,0.6003457475832615
69,0.6003413940969738,0.6003131683943586
70,0.6003603617320284,0.6004713788221847
71,0.600366709009439,0.6005938411350582
72,0.6003535960806702,0.6005089189811025
73,0.6003583513182633,0.6003208723316713
74,0.6003635510408052,0.6004662942945513
75,0.6003620627358353,0.6003022264014403
76,0.6003694990623073,0.6005798223592508
77,0.6003518007913885,0.6003135170001842
78,0.6003561208103972,0.6003231425439158
79,0.6003491221202679,0.6007480142134295
80,0.6003614408544764,0.6003378727299995
81,0.6003476557660192,0.6010651232291097
82,0.6003446956496874,0.6003377817404772
83,0.6003546893586394,0.6005245920446315
84,0.6003543766939761,0.6003044057129039
85,0.6003368144422748,0.6003671831587704
86,0.6003541548620868,0.6003138939145185
87,0.6003539307536393,0.600408400998222
