epoch,loss,val_loss
0,0.3183617232252749,0.30694236746903186
1,0.3052301675700646,0.30333116024897244
2,0.3006613844280525,0.2966997922172486
3,0.29494008077658435,0.293082149671398
4,0.29026921821845997,0.2890619919256799
5,0.28754115666297797,0.2853462431453398
6,0.2860526317160288,0.2858913279275962
7,0.285169051735283,0.2840150864155347
8,0.28459078780443164,0.2843458602865004
9,0.28385316777667646,0.28354848640211566
10,0.2832367139861738,0.2840729017448689
11,0.28265833833830345,0.28416829525060133
12,0.2823678986679355,0.2817660200849893
13,0.2820610028031252,0.28176234172099957
14,0.2819681043068854,0.28133750015953535
15,0.2817588687884055,0.28252849768444416
16,0.28175784886883887,0.28140456399394476
17,0.2806824536012898,0.2795767547487742
18,0.28037826756803064,0.28009358387155237
19,0.27970882060287666,0.2799896313011317
20,0.27876247559710565,0.2782483035382457
21,0.27745563087227054,0.2768095942021545
22,0.2767829175749652,0.27611036459902843
23,0.276215277141709,0.2759565970821463
24,0.27590040522489806,0.27581595047873214
25,0.2751048877775717,0.2765767066118373
26,0.2747945984502395,0.2740431837002499
27,0.2745757430291576,0.2732636821533435
28,0.27407081960607393,0.2736405349191757
29,0.27377661668973197,0.27657850331317374
30,0.27382804742224404,0.27521610908039745
31,0.2738147419062164,0.27448155164671584
32,0.2734098606151071,0.27388511142960287
