epoch,loss,lr,val_loss
0,0.4313623172630795,0.003,0.4197214297191685
1,0.41472834558914795,0.003,0.4140702579655606
2,0.41763232070074185,0.003,0.416725452762941
3,0.41376770380065503,0.003,0.41160151363595227
4,0.41042137378863963,0.003,0.40935123897059844
5,0.4074593899097088,0.003,0.405591106499474
6,0.40297241313018195,0.003,0.3858178141861331
7,0.37269347605945397,0.003,0.3632043613725134
8,0.362395170328619,0.003,0.3575497868264295
9,0.360420093208337,0.003,0.3478728230769181
10,0.3531345375876823,0.003,0.35150716470844084
11,0.35039299752691283,0.003,0.3504516535042399
12,0.3489633110686124,0.003,0.35089515320127557
13,0.34821847141932527,0.003,0.3447585540228974
14,0.34800567416597805,0.003,0.3438338287580455
15,0.34747167271699647,0.003,0.34829627360851634
16,0.34805569061629776,0.003,0.3502291491183128
17,0.34821130125690325,0.003,0.34762617857463735
18,0.3484074075063832,0.003,0.34912200911880575
19,0.3468562064530085,0.003,0.33983367807345777
20,0.3520596384418478,0.003,0.36266254835365885
21,0.3331969634806224,0.003,0.3117535180620255
22,0.3155752152925153,0.003,0.3087316904902082
23,0.31652818663085963,0.003,0.30029049074687447
24,0.31102363033879765,0.003,0.3053319122474685
25,0.3103231056827864,0.003,0.3108001187114426
26,0.30936149477684716,0.003,0.3123674992039717
27,0.3084922733185865,0.003,0.2999743060888789
28,0.3082962340022401,0.003,0.3102379774802674
29,0.3079670550321027,0.003,0.3020308384144033
30,0.30762013092899115,0.003,0.30098421158946775
31,0.3074976162914988,0.003,0.3034869862783586
32,0.30702301822334743,0.003,0.29675785201618593
33,0.30649936349569656,0.003,0.29581482694929007
34,0.30588991828054357,0.003,0.3012469170149048
35,0.30431420498078676,0.003,0.2980657664275395
36,0.3054843798464389,0.003,0.2970237601092695
37,0.3038481637317357,0.003,0.3001294668466911
38,0.3036536631151307,0.003,0.29506512054469325
39,0.30351437576752394,0.003,0.2951568910982916
40,0.30310437877139124,0.003,0.29038990051401065
41,0.30149072712119057,0.003,0.29412292152196284
42,0.3005631360665357,0.003,0.2929285159591812
43,0.3006512668820546,0.003,0.28995992396182685
44,0.3006417412820051,0.003,0.29471065390387574
45,0.2984493584762946,0.003,0.29799445005223424
46,0.2982448927706761,0.003,0.30085282744553116
47,0.29790883971382676,0.003,0.30343256646733446
48,0.2980613144342419,0.003,0.2921260803902629
49,0.2976722656656131,0.003,0.2947918637328573
50,0.29631572400482536,0.003,0.29080229682440634
51,0.2965319588822093,0.003,0.2937536233861143
52,0.2960196470887922,0.003,0.28910501495932817
53,0.29491627947996846,0.003,0.30055719739283365
54,0.29842571184027206,0.003,0.28528209984443653
55,0.2988495069543282,0.003,0.28523467235919897
56,0.2978188627474695,0.003,0.2868959305906446
57,0.2991001299626345,0.003,0.29212141254565427
58,0.30068660257376734,0.003,0.3025929319783281
59,0.3006203073909957,0.003,0.2927027856482703
60,0.30230588439723954,0.003,0.2959815786170884
61,0.3012446779504621,0.003,0.2959167351497847
62,0.30094443236013874,0.003,0.28915097670307666
63,0.30132690939805107,0.003,0.2985604633448532
64,0.3012678357366797,0.003,0.2975617031130907
65,0.3008941926276512,0.003,0.2931746255544668
66,0.3010076871997923,0.003,0.2925705086872064
67,0.300860714712303,0.003,0.3125226070726586
68,0.30163356158242144,0.003,0.29413078741803356
69,0.30193087357363635,0.003,0.29881447246673076
70,0.3017498990960068,0.003,0.29235287498162316
71,0.30256840424667253,0.003,0.30427095909686
72,0.3020829804551354,0.003,0.30339920040934504
73,0.3012032502417942,0.003,0.2959440281495581
74,0.3011971422933417,0.003,0.2985964102557351
75,0.30219923037824203,0.003,0.3031454425137534
76,0.3016000384960672,0.003,0.29430296937122813
77,0.3015864422882823,0.003,0.29900270970957243
78,0.30218795454687924,0.003,0.3008581296891421
79,0.3022318464174545,0.003,0.29256862914740994
80,0.2879611059165687,0.00075,0.277786896126705
81,0.28760336000296616,0.00075,0.28084358338916404
82,0.28794227527092686,0.00075,0.2804769178603988
83,0.28787981208672914,0.00075,0.27904192439406145
84,0.28784131396302787,0.00075,0.2813899297952276
85,0.28691794761388806,0.00075,0.2814588368868113
86,0.2875589948120735,0.00075,0.27978813586478735
87,0.28696328667785337,0.00075,0.2778702960323892
88,0.2876583129423652,0.00075,0.2863875874145443
89,0.28714735294095906,0.00075,0.27799714861794916
90,0.2870502358944201,0.00075,0.27776452771372556
91,0.2880353434093231,0.00075,0.2779571721131818
92,0.28746706733314825,0.00075,0.2752467506133673
93,0.2878202709624712,0.00075,0.28358928808073597
94,0.2874750693549784,0.00075,0.2784171485251673
95,0.2879177824818164,0.00075,0.286424658375174
96,0.28759968978800265,0.00075,0.28169608723016454
97,0.2883467549602572,0.00075,0.278124799591731
98,0.2883863102087824,0.00075,0.2824366554653165
99,0.28820077488891227,0.00075,0.2834261811405256
100,0.28766475209026793,0.00075,0.2856014999895465
101,0.2876388613524721,0.00075,0.27796671151432734
102,0.28803711116826125,0.00075,0.28444546741016663
103,0.28935048963240295,0.00075,0.2755813742293179
104,0.2877193019568301,0.00075,0.2833411961311699
105,0.2878068586935004,0.00075,0.28008463053766347
106,0.28827594753077845,0.00075,0.27996501234237287
107,0.2880338132202768,0.00075,0.2821161577561848
108,0.288091047615599,0.00075,0.28503849505554907
109,0.2876914926826192,0.00075,0.27721212866062617
110,0.2881991514038268,0.00075,0.2754198872170396
111,0.2879549782339046,0.00075,0.2834962280239284
112,0.288824935956634,0.00075,0.2829718847230559
113,0.287951907674543,0.00075,0.2804138845725142
114,0.28905354857111243,0.00075,0.2822374017892998
115,0.28778000579749363,0.00075,0.28121705454404466
116,0.28820346353603876,0.00075,0.2817401072361757
117,0.28852760996059074,0.00075,0.28051673910259356
118,0.28367646139779157,0.0001875,0.27426980256493294
119,0.28439665698021244,0.0001875,0.27479602134218345
120,0.28380343556213533,0.0001875,0.27036111052688316
121,0.2836468178930757,0.0001875,0.27132341198052773
122,0.2835379048592324,0.0001875,0.27242552262055375
123,0.28374341533457537,0.0001875,0.2725344741777256
124,0.2835853466843005,0.0001875,0.2720239670754608
125,0.2838222146105709,0.0001875,0.27495185709201925
126,0.2842320432092884,0.0001875,0.2748543867795789
127,0.2837236407462308,0.0001875,0.27124972118104457
128,0.28331534220255633,0.0001875,0.2715324976355802
129,0.2836904431775891,0.0001875,0.2715093034548184
130,0.2828881899646813,0.0001875,0.27102736698282737
131,0.28281145854938705,0.0001875,0.2712734106048977
132,0.2829835021869837,0.0001875,0.2696049419638202
133,0.282894345502154,0.0001875,0.2700406502588302
134,0.28333883159023393,0.0001875,0.270732950292757
135,0.28316485503618477,0.0001875,0.27063031843918556
136,0.2828067615062451,0.0001875,0.27385099123995793
137,0.28290679796243745,0.0001875,0.27023932059025707
138,0.2834307717190658,0.0001875,0.2702000106860543
139,0.283415676771308,0.0001875,0.27277230852428347
140,0.283410010149153,0.0001875,0.26994748223622955
141,0.28324568796334126,0.0001875,0.271807519735176
142,0.2832513601123858,0.0001875,0.2708665329342577
143,0.2832022394231565,0.0001875,0.26964923335443636
144,0.283395150034643,0.0001875,0.2712844360999075
145,0.2835432778266694,0.0001875,0.27092032053970216
146,0.28316886448185985,0.0001875,0.2724723980336464
147,0.28450533726828087,0.0001875,0.26987451724796285
148,0.28317800890818107,0.0001875,0.2716458233127748
149,0.2828320616172801,0.0001875,0.2715914295464401
150,0.2825857379274974,0.0001875,0.2694076168297216
151,0.28277437332913363,0.0001875,0.2690757910508571
152,0.28229912577403915,0.0001875,0.26977399757812603
153,0.28302248152826043,0.0001875,0.2725455393366392
154,0.2824943671337992,0.0001875,0.2715251758612322
155,0.2824317696872804,0.0001875,0.2706238780385317
156,0.28232462390911855,0.0001875,0.27142809753636254
157,0.2828256023837794,0.0001875,0.27157796327180533
158,0.28330496718271747,0.0001875,0.2707808367031808
159,0.2821977618340251,0.0001875,0.27300545662618003
160,0.28257222914938734,0.0001875,0.26959201306598624
161,0.28288254635832866,0.0001875,0.27228516936537406
162,0.2828703713115695,0.0001875,0.27387298395432347
163,0.28332766136236426,0.0001875,0.2716822575574892
164,0.28345008501760677,0.0001875,0.2759525770793398
165,0.2834340875192607,0.0001875,0.27278259391848647
166,0.28332634456902384,0.0001875,0.2726941940851727
167,0.28282974575825637,0.0001875,0.2708824356545965
168,0.2835199887649142,0.0001875,0.2714447477845668
169,0.28301163862268036,0.0001875,0.27169749528851767
170,0.28270437348065236,0.0001875,0.27059165124311724
171,0.283488038266234,0.0001875,0.2719068945559725
172,0.2832720785481419,0.0001875,0.26977489777526803
173,0.28341668533335485,0.0001875,0.27095591527980994
174,0.2832678620674484,0.0001875,0.2704202362528069
175,0.28356415528259116,0.0001875,0.2746176332494078
176,0.283482741826563,0.0001875,0.2699421813098483
177,0.28239455094321264,4.6875e-05,0.2688406617178537
178,0.28233570747262093,4.6875e-05,0.2675092369023984
179,0.28245272151798273,4.6875e-05,0.2691910848280249
180,0.2820833891028647,4.6875e-05,0.2678207416372593
181,0.28186986645717893,4.6875e-05,0.26863803532218594
182,0.2823346351786293,4.6875e-05,0.26755652810140396
183,0.2820219281319377,4.6875e-05,0.2682565484598761
184,0.28168841778374404,4.6875e-05,0.2683353779547875
185,0.28210244835507003,4.6875e-05,0.2676358510282158
186,0.28222565735272653,4.6875e-05,0.26785923267737466
187,0.28237388307730454,4.6875e-05,0.2689453384000293
188,0.28272264929924557,4.6875e-05,0.2678330882137087
189,0.2819772046342266,4.6875e-05,0.2679979908908552
190,0.2823542680034487,4.6875e-05,0.268226618754318
191,0.2823345297389179,4.6875e-05,0.2674510750063969
192,0.28232132038957686,4.6875e-05,0.2676440211220247
193,0.2815777051130788,4.6875e-05,0.2677021168801572
194,0.2819848377272475,4.6875e-05,0.26844998856605085
195,0.2823364622593164,4.6875e-05,0.26802322630136144
196,0.2813915866825411,4.6875e-05,0.26825902849177063
197,0.2821392266036605,4.6875e-05,0.26865573205647736
198,0.2824442477213393,4.6875e-05,0.268955230777576
199,0.2825203030455789,4.6875e-05,0.2683355068904072
200,0.28292851027050653,4.6875e-05,0.2695683345563222
201,0.28271821148985393,4.6875e-05,0.2682207636623375
202,0.2823628268474869,4.6875e-05,0.26830331688333703
203,0.28180593066066384,4.6875e-05,0.2686399046064082
204,0.28189661989597486,1.171875e-05,0.26773831212412397
205,0.2820148315611217,1.171875e-05,0.2671639768564052
206,0.28174371967653483,1.171875e-05,0.26823823161029214
207,0.28147034077859706,1.171875e-05,0.26746032599891933
208,0.2818938035139744,1.171875e-05,0.26737728349764517
209,0.2816805544344308,1.171875e-05,0.26713009845486
210,0.28147682550547126,1.171875e-05,0.266940688377727
211,0.2816482508759037,1.171875e-05,0.2673341988541051
212,0.28173450285868107,1.171875e-05,0.2676023062503799
213,0.28175990597950185,1.171875e-05,0.2670168929807577
214,0.28132610064116026,1.171875e-05,0.2670602695024098
215,0.2819579647456428,1.171875e-05,0.2681840444020427
216,0.2819255406735279,1.171875e-05,0.26854018799390206
217,0.2820877098261738,1.171875e-05,0.2671866326900853
218,0.2818542307169794,1.171875e-05,0.2675113810642366
219,0.2817113825755058,1.171875e-05,0.26696248840020226
220,0.28168683277545786,1.171875e-05,0.2681438154008037
221,0.28171913361818574,1.171875e-05,0.2670538385928665
222,0.2818752091428597,1.171875e-05,0.26765648257384267
223,0.2822134184757535,1.171875e-05,0.26706370293223775
224,0.2818557613378139,1.171875e-05,0.26773803128369134
225,0.2822640303293054,1.171875e-05,0.2670392078107139
226,0.28195725736036287,1.171875e-05,0.26737485900697694
227,0.2815867506718035,1.171875e-05,0.26723925023682965
228,0.2813112355566187,1.171875e-05,0.267279565393125
229,0.28202767063566536,1.171875e-05,0.2675195599493777
230,0.28161511954655655,1.171875e-05,0.26688897446821125
231,0.28201026307176247,1.171875e-05,0.2674222251763472
232,0.2821934983390365,1.171875e-05,0.26728519853189786
233,0.2822895501848224,1.171875e-05,0.26761034005795675
234,0.2814554509064324,1.171875e-05,0.2676721915026396
235,0.2816010177862063,1.171875e-05,0.2670778619168119
236,0.28149841819926325,2.9296875e-06,0.26736061005090855
237,0.2819278813946209,2.9296875e-06,0.26738155432686433
238,0.28170478429427914,2.9296875e-06,0.26739623409937757
239,0.2813725934909593,2.9296875e-06,0.2688378207767772
240,0.28183356528993037,2.9296875e-06,0.2682324657900275
241,0.282008524832251,2.9296875e-06,0.2677983762115687
242,0.28143434234553105,2.9296875e-06,0.26732385502547473
243,0.28149304481790505,2.9296875e-06,0.26820538283546985
244,0.28132852992648893,2.9296875e-06,0.26817510915065995
245,0.2821349098528032,2.9296875e-06,0.2680504690170664
246,0.28177188403255266,2.9296875e-06,0.26842293029778946
247,0.2816800352850025,2.9296875e-06,0.26801836578250404
248,0.28176137419353475,2.9296875e-06,0.2674914597935722
249,0.28163712243322464,2.9296875e-06,0.2682351354677186
250,0.2820960194331041,2.9296875e-06,0.2678008252768039
251,0.2815560725012081,2.9296875e-06,0.2679954560292736
252,0.28232830645833656,2.9296875e-06,0.2673266333099322
253,0.28123739699748973,2.9296875e-06,0.2669312471925224
254,0.28198960062256345,2.9296875e-06,0.26826517564415836
255,0.2816708812759601,2.9296875e-06,0.26801469488673635
256,0.282108824563136,2.9296875e-06,0.26754940855710074
257,0.28166084272636593,2.9296875e-06,0.26715839825329485
258,0.28120821545259367,2.9296875e-06,0.2672184542550661
259,0.28110244069144213,2.9296875e-06,0.2674379170340822
260,0.2818467782246028,2.9296875e-06,0.26781202638676155
261,0.2818648386195743,7.324219e-07,0.2678913753582628
262,0.28139628717105547,7.324219e-07,0.26693345132359575
263,0.28172126410902737,7.324219e-07,0.267480525440274
264,0.2819517570749509,7.324219e-07,0.26765639065590635
265,0.281812914516881,7.324219e-07,0.2671630134734001
266,0.2817742755736331,7.324219e-07,0.26862859682436524
267,0.28162975122126266,7.324219e-07,0.2676779991625893
268,0.28193009187944595,7.324219e-07,0.26819298379329026
269,0.28184050445457537,7.324219e-07,0.26792866622568967
270,0.28156620560944984,7.324219e-07,0.2675910947966406
271,0.28154746201529585,7.324219e-07,0.2679230029788089
272,0.2815164507185812,7.324219e-07,0.2676043291976815
273,0.2813750568935149,7.324219e-07,0.26696942582573585
274,0.28200601719968993,7.324219e-07,0.2676731095353072
275,0.2815296097988371,7.324219e-07,0.2688394195290654
276,0.28206539017071636,7.324219e-07,0.26811405912265124
277,0.28217439067592437,7.324219e-07,0.2673203763923216
278,0.2817689512463973,7.324219e-07,0.2673255837953928
279,0.2814826438103696,7.324219e-07,0.2680256343854631
280,0.2814547248798118,7.324219e-07,0.26767721895684193
281,0.28200056642401133,7.324219e-07,0.26735357772014984
282,0.2814752337076872,7.324219e-07,0.26847952711906786
283,0.2817888851973603,7.324219e-07,0.2673507966659816
284,0.28186558953506485,7.324219e-07,0.26748127683162126
285,0.28171444279577235,7.324219e-07,0.2669445970746223
286,0.28145686454540914,1.8310547e-07,0.26762972640986504
287,0.28175149903559,1.8310547e-07,0.2679661751475594
288,0.28160286044104876,1.8310547e-07,0.267698595254743
289,0.28150473313508845,1.8310547e-07,0.2677334361336978
290,0.28153063683546514,1.8310547e-07,0.26777108691650386
291,0.28229925509610715,1.8310547e-07,0.2669831071146003
292,0.28134669702675796,1.8310547e-07,0.2676429541953549
293,0.2814461614975302,1.8310547e-07,0.2675180314336598
294,0.2819145308237234,1.8310547e-07,0.2677109657589055
295,0.2812203853417167,1.8310547e-07,0.26691881932418177
296,0.281521741187663,1.8310547e-07,0.2672309886308383
297,0.28185707398598714,1.8310547e-07,0.2681900147692651
298,0.28187329770266106,1.8310547e-07,0.2672531698149024
299,0.2820378786725678,1.8310547e-07,0.267448415031514
300,0.2816347786628133,1.8310547e-07,0.268229338157431
301,0.2815009027534871,1.8310547e-07,0.26788734170095885
302,0.28195961002263425,1.8310547e-07,0.267529155762062
303,0.28157043359655554,1.8310547e-07,0.2670898581513196
304,0.2819042658294848,1.8310547e-07,0.2676544920515619
305,0.2818929656184644,1.8310547e-07,0.2671287956146998
306,0.28197959920675825,1.8310547e-07,0.2669428875456669
307,0.2821197840455863,1.8310547e-07,0.2681335726107493
308,0.2817367227654234,1.8310547e-07,0.26780221781207525
309,0.2818054758327947,1.8310547e-07,0.26741828950564506
310,0.28121769368696176,1.8310547e-07,0.26766092719505785
311,0.2823477130916288,4.5776368e-08,0.26734342885327883
312,0.2818857184309754,4.5776368e-08,0.26730926788243703
313,0.2819947065215269,4.5776368e-08,0.26831693052892713
314,0.28238645104541005,4.5776368e-08,0.2681913893925645
315,0.2821737887601344,4.5776368e-08,0.2671746440414095
316,0.2818692578382486,4.5776368e-08,0.26850409385907714
317,0.2814928020635764,4.5776368e-08,0.26682976288713617
318,0.28114952751808314,4.5776368e-08,0.2678302990209426
319,0.2816216879659038,4.5776368e-08,0.2678854741632421
320,0.2818551181668906,4.5776368e-08,0.26685548782489765
321,0.2823241882675367,4.5776368e-08,0.26822782873566353
322,0.2821098292837564,4.5776368e-08,0.26744181140610435
323,0.2819751732402759,4.5776368e-08,0.2680365221711624
324,0.2815763827600925,4.5776368e-08,0.26731125632302444
325,0.2815718286329036,4.5776368e-08,0.26765044454570447
326,0.28126942978905356,4.5776368e-08,0.26731555882456176
327,0.2818564735174322,4.5776368e-08,0.267758260774349
328,0.28170485983637694,4.5776368e-08,0.2674815555785995
329,0.28203794366414314,4.5776368e-08,0.26765244971040486
330,0.2816177765867836,4.5776368e-08,0.267416317324612
331,0.2812799216061235,4.5776368e-08,0.2670186802262665
332,0.28183532019944596,4.5776368e-08,0.26719665283303423
333,0.2818355999416489,4.5776368e-08,0.26787899605688753
334,0.2815053487668554,4.5776368e-08,0.26900557861990504
335,0.2822721880569542,4.5776368e-08,0.2677571917424639
336,0.28135708353216415,4.5776368e-08,0.26708682857001026
337,0.2815433179797362,4.5776368e-08,0.26758557718009013
338,0.28182928539294416,4.5776368e-08,0.26961278696651053
339,0.2821644055489585,4.5776368e-08,0.26747983985748836
340,0.28140528504249096,4.5776368e-08,0.2684940410147244
341,0.28133245493820624,4.5776368e-08,0.2673407325546104
342,0.28180622019701534,4.5776368e-08,0.2670771837375629
343,0.28174593233519035,1.1444092e-08,0.26804514766774407
344,0.28149085055045087,1.1444092e-08,0.2672290265407257
345,0.2819530439170764,1.1444092e-08,0.2678040865788144
346,0.2819429666732998,1.1444092e-08,0.26718730553573006
347,0.28130871312116545,1.1444092e-08,0.2667118780661871
348,0.28202878591789904,1.1444092e-08,0.2671545540888947
349,0.28148474317076777,1.1444092e-08,0.267170751321805
350,0.28165884291846977,1.1444092e-08,0.268238101769077
351,0.2819231997052733,1.1444092e-08,0.2680714438245253
352,0.28159179847589216,1.1444092e-08,0.2672342194601505
353,0.28132239139253956,1.1444092e-08,0.26687214230117406
354,0.2817248670096925,1.1444092e-08,0.2677834615840532
355,0.2812260942165848,1.1444092e-08,0.26783712159462963
356,0.28161682034853835,1.1444092e-08,0.2675855393920626
357,0.2819598356126357,1.1444092e-08,0.26740584717129945
358,0.28211105910898876,1.1444092e-08,0.2675232672218554
359,0.2819698467689881,1.1444092e-08,0.26794865991458616
360,0.28152356982874355,1.1444092e-08,0.2677113882485768
361,0.28149233770360954,1.1444092e-08,0.2676199202520601
362,0.28154979043191286,1.1444092e-08,0.26680612141279697
363,0.2815916151773158,1.1444092e-08,0.26708199255515386
364,0.2819863583216612,1.1444092e-08,0.26904414927597203
365,0.2817608715056611,1.1444092e-08,0.268415700035624
366,0.2819059566497136,1.1444092e-08,0.26736123635247644
367,0.28196215686454573,1.1444092e-08,0.2672547278095157
368,0.2815646855361599,1.1444092e-08,0.26797947960287544
