epoch,loss,val_loss
0,0.056885188812230425,0.00021996396489370828
1,0.00025850530728697496,4.2634345885207613e-05
2,0.0002565692837529666,0.00021689143983739844
3,0.0002249627511968302,0.0002901522239545932
4,0.00025770362880983414,8.476470866327482e-05
5,0.00023209696892619402,1.208911657511925e-05
6,0.000290774436046927,0.00015749272922961367
7,0.0003222885515141469,5.837402821396001e-05
8,0.0002168757954852614,6.917234906863719e-05
9,0.00022846255620020853,0.00018848888441422645
10,0.00022611887388740884,3.313111112748538e-05
11,0.00022268279513750942,6.861600631562406e-05
12,0.00025864789318725585,1.2490431030443567e-05
13,0.00023776409385492216,8.266170650383203e-05
14,0.00022366885358594005,0.00031924193193264976
15,0.00024219882377530695,0.00011857191143717672
16,0.00029299171961943017,6.925798813779265e-05
17,0.00023434632925295573,0.00016230157767020052
18,0.00021459012050312665,4.0773623994963784e-05
19,0.0002316927676919303,8.313130867834172e-05
20,0.00020773165602285787,4.526905471528586e-05
21,0.00021450837194418788,0.0009022084540825693
22,0.0002034700895865862,5.894012029076289e-05
23,0.00020897975915247445,4.2814663674406915e-05
24,0.00022846686632458992,0.0002935643922283969
25,0.00016098916649897612,0.00020945922356224218
26,0.00022596539592919786,0.00032635450204385956
27,0.00016832910985298328,0.0005368179414116637
28,0.00020782967943686322,0.0001284824279289481
29,0.0001628007595504558,0.000257173456494559
30,0.00022974440867201237,7.067573821443999e-05
31,0.0001596813573139256,9.494449008036275e-06
32,0.0002139852095114984,0.00014348387865993932
33,0.00018695433196690958,0.00014184376658975045
34,0.00018520569273491321,2.810326641237682e-05
35,0.00021146511908460338,0.00016581708573256256
36,0.00022736749860887445,0.00033365305233912153
37,0.00025435235213355697,3.91463392040351e-05
38,0.00020804043619153877,0.00038576963618206596
39,0.00023833348044206333,0.00032638259201814827
40,0.00020427869574503088,2.1054024474678142e-05
41,0.00019014680741812065,1.3619818350017377e-05
42,0.00019051287586743836,5.5930335093384255e-05
43,0.00018921579942952544,0.0002410709272763025
44,0.00017530787536822895,1.1994549297966447e-05
45,0.00022523438882863622,0.00015547784651442553
46,0.00019175584030137156,2.0164779799496672e-05
47,0.00020128056524504627,8.587433951326161e-06
48,0.00018447156369236925,7.804680673595541e-05
49,0.00017229541046996988,0.00015868335493142703
50,0.0001665730256404891,9.44707426644517e-05
51,0.00018605165337394166,3.0320485026539034e-06
52,0.00019837779067090366,1.8695352907222162e-05
53,0.00019757896230869859,5.606036280733812e-05
54,0.00019506618143337847,2.074974771454111e-05
55,0.00014815007695036887,0.00011132119791011636
56,0.00018695720566173143,3.748805746691553e-05
57,0.00018597797841555573,8.372287329125726e-05
58,0.00019572966384863157,8.213698354080369e-05
59,0.00019616886011421,8.237773778126106e-06
60,0.00015535139529091713,4.136200469878856e-05
61,0.00014315989175175695,2.4908934126126334e-05
62,0.00017592575585481416,5.6086484718360865e-05
63,0.00017495201192275136,7.493292572231847e-05
64,0.00019720022061023995,7.227011509380254e-05
65,0.00015615263101571356,5.1382840477351335e-05
66,0.00018762881383989387,0.00028172184648131914
67,0.00018646269009193748,7.618692713973775e-05
68,0.0001698700278948265,3.520876515813358e-06
69,0.00015867945237307263,6.86528113538428e-05
70,0.00017031580094296748,0.0002508556882414567
71,0.00021234676220298733,5.798085042126271e-05
72,0.0001629151998963589,0.0002391529976323779
73,0.00016551802159121796,0.0003006004402377211
74,0.00017011952938379598,0.00013990533760426847
75,0.00019819151201364693,8.085068174135807e-05
76,0.00014966836451644501,6.469298488591506e-05
77,0.00016134071285500414,7.726282085013269e-05
78,0.00017188060415029946,9.81587772862214e-05
79,0.00013794970616756144,5.016070930767329e-06
80,0.00019163444765364868,2.8009346249677248e-05
81,0.00015285310413503747,3.4638162773278386e-05
82,0.00017703478115207145,1.487880179564766e-05
83,0.0001671337593403851,4.003617746556371e-05
84,0.00015370708118786746,0.00010474560756333527
85,0.00015523493347140076,7.999586081899513e-05
86,0.00015202913680510176,3.33460311127944e-05
87,0.00019498092267682102,8.709213615035133e-05
88,0.00017094460510682762,6.860401867297144e-05
89,0.00015698980530969107,0.00013663450040823824
90,0.0001777203579391087,0.00015827981741263163
91,0.00016166692751643958,1.8400909331024074e-05
92,0.000182509907570378,6.447600530355363e-05
93,0.00015601074603141058,0.0001062036646419681
94,0.00014922351539235095,7.393799216082047e-05
95,0.00016368435230777512,1.03141018060567e-05
96,0.00015734526171821227,2.3241315520705357e-05
97,0.0001445186462658968,0.0002989376716969216
98,0.00015574501093815736,2.867313007828579e-05
99,0.00012627637087605465,0.0004310481962927962
100,0.00014474199288291693,3.250090884668052e-05
101,0.00015293823178049994,3.384590841772672e-06
102,0.00014134292457130776,9.49183691412862e-06
103,0.00014155531952598368,0.0001929709319494431
104,0.00014286173158045172,7.043364923918269e-05
105,0.00016248212071375348,3.071189522274394e-05
106,0.00018987635480756534,2.2557598975070458e-05
107,0.00015370411998539673,2.0730429767120495e-05
108,0.0001594025183405122,0.00015827942555608564
109,0.00017106459749121865,0.00011362460747259377
110,0.00016284947202879424,1.5993364118286772e-05
111,0.00016101606148805162,0.0003355042140862163
112,0.00016242691192473103,3.575170315838299e-05
113,0.00018347165354034775,4.979104149216788e-05
114,0.00016502133900157722,3.8910882796775385e-06
115,0.000144312536644466,6.496540577507478e-06
116,0.00016918824018512786,2.65336339823676e-05
117,0.00017596829539999836,5.328026055203069e-05
118,0.00014521042193981187,7.853619293982329e-05
119,0.0001588572191002681,7.758865509830539e-05
120,0.00012781373373814165,5.901178371833528e-05
121,0.00012851371638703584,0.00011216536448752447
122,0.00016509479735568464,0.00010813183929362674
123,0.00015629527713748457,3.652317241732527e-05
124,0.00014952076805856495,0.00012276705152241383
125,0.00018165980038288,4.6659500086998886e-05
126,0.00016029272159385778,1.4082831002116915e-05
127,0.00017264575853301304,0.00010016730961796144
128,0.0001463037416630718,7.451881004651587e-05
129,0.00012714400312968386,0.0003441616544074025
130,0.00019717419612455244,0.00025789885227515155
131,0.0001636427057041347,5.935283386311696e-05
132,0.00017542906486338894,1.2885940840057371e-05
133,0.00013974041864602235,0.00015191877901088446
134,0.00013132129795570877,1.4838655777813534e-05
135,0.00013141949010719926,1.8783639128542367e-05
136,0.0001377356078480169,4.8462318221076624e-05
137,0.00014239067875298074,5.045198968857627e-05
138,0.00014615180265727424,5.9598917278806454e-05
139,0.00012594371360915207,1.0347629069158073e-05
140,0.00013090970099692835,5.739347600477237e-05
141,0.00011523661239051298,5.666501764326148e-05
142,0.00014996080209508242,3.759556070543295e-05
143,0.00015106348405579287,8.77147025447824e-05
144,0.00011833444934289656,2.829695783411585e-06
145,0.00015540098317921665,8.878395497699135e-05
146,0.0001557633924395438,1.2012987565170645e-05
147,0.00012410342556957543,3.8695310790623015e-05
148,0.00011184707925277783,2.256953241557159e-05
149,0.0001573908868351782,5.45712380070293e-05
150,0.00012939349273096651,6.969549333262856e-05
151,0.00013913409574077407,2.4231865317740824e-05
152,0.00015840120896474364,7.268035441273919e-05
153,0.00015612287926056789,8.225087166470552e-05
154,0.00013227125153474268,2.8854333775622614e-05
155,0.00013828470897986008,0.00010739985929971859
156,0.00011791787242879177,1.1237851705256915e-05
157,0.00013924540370150013,0.00021382936867254975
158,0.00011609846875808835,2.315350031714402e-05
159,0.00013677877366784325,1.6148179467876726e-05
160,0.00012579383263228432,2.7469552315185206e-06
161,0.0001450758781482845,5.296160583637012e-05
162,0.00013930318926994834,3.7788759178890116e-06
163,0.00011148565720187528,8.38637769883539e-05
164,0.00016673394970716032,2.906244848943736e-05
165,0.00012452646377927257,4.578346404572342e-05
166,0.00013178025456489712,6.255286021071545e-05
167,0.00015342719378116858,0.0002555043523576759
168,0.00011855917308270622,3.998256412108433e-05
169,0.0001327674316091585,6.035158286902439e-05
170,0.00015741963565631023,9.863137991892605e-06
171,0.00012982417978474418,6.326464825289392e-06
172,0.0001317584352387875,2.7555226782491793e-06
173,0.00014827154469122428,7.912035727215197e-05
174,0.00012203714588098738,1.768326927475595e-05
175,0.0001341716440855799,0.0002972068231635166
176,0.0001253846969332893,3.4429714799644176e-05
177,0.00014411055995298475,2.290648636993213e-05
178,0.00012399293511011138,1.5544420862532733e-05
179,0.00014156195231299076,2.6900930276440384e-05
180,0.00010418370027993568,2.456080271338222e-06
181,0.00013533897169735792,4.067367635604476e-05
182,0.00012776121867188352,0.00011934766668164603
183,0.00013756211681667524,3.92343510371925e-06
184,0.00012871276255309,5.483657579165027e-05
185,0.00011401872166490759,3.824728942798629e-05
186,0.00012132029143490919,6.118969569751686e-05
187,0.0001489080427570256,4.440027556884534e-05
188,0.0001236470948787674,8.999853185496314e-06
189,0.00012217315898067582,0.00011449123571215943
190,0.00013549618790753,7.571696430858557e-05
191,0.00012570213887803114,5.6212502136382174e-05
192,0.00013271602060176515,1.6060666164872382e-05
193,0.00011661397429138047,8.169642868317625e-05
194,0.00011326345144185334,3.09890480900875e-05
195,0.0001204011301462519,0.00011039935745879193
196,0.00014123366713856574,3.7169027123841553e-06
197,0.00015548413186335463,7.233235775272568e-05
198,0.00011648825849942968,6.229288232315316e-05
199,0.00015856682776436612,2.5428880310998977e-05
200,0.00012583763337039995,8.54147751963261e-06
201,0.00012416569496612382,9.751729696244626e-05
202,0.00012873025458185798,0.00015325797795249707
203,0.00015511480147830075,6.099460416539328e-06
204,0.00010583421530666149,5.296273086193472e-05
205,0.00012222290901057914,3.243298249730497e-06
206,0.0001474211690318728,1.7458956012374687e-05
207,0.00011716676095975228,3.435710580768589e-05
208,0.00014663507936139633,3.6688370931703943e-05
209,0.0001455656111759946,7.945447135335363e-05
210,0.00012683066613193523,0.00014769323808539822
211,0.00012862306702516162,5.2522709776482735e-05
212,0.00011502630876226484,6.836872401220199e-05
213,0.0001447471696181617,1.8787738467380055e-05
214,0.00013245573700596382,8.944549879121492e-05
215,0.00012910499836293798,1.3102456098454797e-05
216,0.00013610747976685637,0.00011982651131503076
217,0.00013733178221961596,6.755810071921509e-05
218,0.00012539271772130778,0.00018314596837248299
219,0.0001417698374583754,3.7799565905841815e-05
220,0.00014186474476711797,5.3345709344161377e-05
221,0.00013179550021074992,1.173326447441387e-05
222,0.00014204615557747216,0.00012454603438599338
223,0.00012243606799998804,7.441846526205564e-06
224,0.00012523340510222015,3.1700235912421954e-05
225,0.00011136439957158528,9.927178471317342e-06
226,0.00013991722721191623,0.0002792394656067583
227,0.00013358122701835108,6.751211184325415e-05
228,0.00014383322626523173,0.0001802400792384742
229,0.00012856787533668202,3.718429126996998e-05
230,0.00016190018815574777,6.172171463206765e-06
231,0.00012653200078612364,5.9074286812178905e-06
232,0.00014118975526856728,6.591156584769064e-05
233,0.00011408034408645199,2.3037810628522454e-05
234,0.0001281895890513829,1.6619117502031005e-05
235,0.00014359305369947075,9.293598131508762e-05
236,0.00011359194031748705,1.1340441054446974e-05
237,0.00013939462929296885,1.315934911456693e-05
238,0.00013980753171511683,0.00017798099587217558
239,0.00016241837508166698,6.487678888962007e-05
240,0.0001228857311429024,3.906742372018265e-06
241,0.00015364037287569942,9.609740840461727e-06
242,0.0001289997433471106,7.466598613304454e-06
243,0.00012111614401914871,3.0860149117920852e-06
244,0.00012772597169874515,3.009111122186054e-06
245,0.00012922980664329986,0.0001361037783636017
246,0.00014986471179857048,1.529910980022435e-05
247,0.00013106535397550422,0.00021492985614761785
248,0.00016334595280026112,7.362867682300627e-05
249,0.00014775346389594396,2.391662646462248e-05
250,0.00011546418594036687,6.306656308127321e-06
251,0.00013015296874319287,6.239498555783371e-05
252,0.00014827939612440904,6.262605317149126e-05
253,0.00013735413240198408,6.0616971059894736e-05
254,0.0001493798680950559,5.034833382369032e-05
255,0.00015478549724416566,2.295385487326534e-06
256,0.0001366806271033661,3.099206327391335e-05
257,0.00015777887907651833,2.4107369133335137e-05
258,0.00011987270885534456,3.761916746664351e-05
259,0.00012449894968332668,7.881801820088566e-06
260,0.00013303561679973543,7.154248412625346e-06
261,0.00014225469679473896,0.00022585715312215234
262,0.00012179050565314839,0.00015695530892231803
263,0.00015740978710300952,4.252937690558186e-06
264,0.0001084647070567464,6.387808038099212e-06
265,0.00015184562503106568,0.00032365004812373143
266,0.00016898622852031287,0.00012722147234419474
267,0.00012189171305906676,0.0001730491205670995
268,0.0001328960107366838,6.937314392646444e-05
269,0.00013265910306024483,1.037779777936877e-05
270,0.00012744555242882774,7.076968008226293e-06
271,0.00012951516546475298,1.5770660757717303e-05
272,0.00012382376997708625,0.00010113608237910368
273,0.00012681462172543906,4.963740300575136e-05
274,0.0001197019047431871,3.7527150509541965e-05
275,0.00015466135023669972,4.103536631660418e-06
276,0.0001313367299397866,3.466526201711442e-05
277,0.00014298694777402653,8.89979541330119e-05
278,0.00014179695783201563,5.132983075309197e-05
279,0.00015499297745804962,6.191791583027823e-05
280,0.00013848435490332575,3.577052868405242e-06
281,0.00013877282513673368,0.0005342326216670172
282,0.00012893639836148067,1.804460356330682e-05
283,0.00020718662963888516,9.330783977815115e-06
284,0.0001680167768365122,9.869790776945265e-06
285,0.00013804802733857264,4.511292057253634e-05
286,0.00011888977155304295,8.695661999837804e-05
287,0.00012422593502383367,0.00011735671027256625
288,0.00015635775840156438,5.41768452693879e-06
289,0.00014147852507774328,0.00013543014255100192
290,0.0001489009905516249,1.5100106282300312e-05
291,0.00012590118452024887,9.587930233661845e-06
292,0.00012216800104763005,5.8925555985732974e-05
293,0.00016343521520547692,0.00018850984551205838
294,0.00013023387445406656,0.00011129671536365247
295,0.0001237171835694996,1.2713784846262113e-05
296,0.0001239104166772437,0.0001930670203130557
297,0.00011295809958995913,4.675356749452183e-05
298,0.00015425859421164563,0.00023180270515990185
299,0.00014616986321005116,1.6833335905137008e-05
300,0.00014757218331642964,0.00042954077446614937
301,0.00017395056589413158,7.346353925410445e-05
302,0.000150576373469995,1.2476587904463839e-05
303,0.0001333180429616796,2.190863559520527e-06
304,0.0001489756536570338,9.118853185744203e-06
305,0.00013973109900735254,5.536115414573886e-05
306,0.0001607862858631372,5.724417611962293e-05
307,0.00010487605398349015,5.478714689805893e-05
308,0.00015189195303867082,4.082977917255215e-05
309,0.000125673912373036,2.0158103525505076e-05
310,0.0001280316149274599,0.00011008444241880775
311,0.00012426647328454214,2.148688400216206e-05
312,0.0001349108565499892,1.8192961711557153e-05
313,0.00018545214291468753,3.040165211562962e-05
314,0.000128300143632768,2.546127819487722e-05
315,9.814944582068238e-05,7.593265943462213e-05
316,0.0001317445484125523,6.850804654163318e-06
317,0.00016734804548267218,9.033708587969155e-05
318,0.00015381840669748828,3.287255203155852e-05
319,0.00012960726696534662,0.00013610601376519034
320,0.00014707806626439485,1.4110487976530273e-05
321,0.0001402187914410227,0.00013605689984533476
322,0.00012434729175183213,3.5852229250289e-05
323,0.00014338909045663728,0.00027278971444575034
324,0.00012824388258434363,0.0001293759837870386
325,0.00012664528026345843,0.0005905280329728824
326,0.00012877629255447217,0.00021404504722525274
327,0.00012036859797367658,0.00018355171730000916
328,0.0001434890026807585,2.9729402565334657e-05
329,0.000124196010252611,0.00017792271650833648
330,0.00014996831357497385,0.0004224946326190266
331,0.0001365999942876363,0.00012599336460128723
332,0.00017530715975402423,1.271781686454604e-05
333,0.00013097153247575372,1.2944015964550344e-05
334,0.00015244922573651892,7.354841993783669e-07
335,0.00012512352161019413,0.0001260488525012048
336,0.00013214326077140839,4.691242286838972e-05
337,0.0001456648809747437,3.41417141628751e-05
338,0.0001377382670760727,3.0399105507493992e-05
339,0.00013853435225324204,0.00018214571940522984
340,0.0001600516827470252,6.380869675442928e-05
341,0.00013164823181973173,8.20724175887913e-05
342,0.0001266435589594702,5.169711710230319e-05
343,0.0001347051280863783,1.8390329919962242e-05
344,0.00013096638088826921,0.0001994540401544766
345,0.00015437844785592782,1.3265573727718807e-05
346,0.0001674332425399015,1.2995309674736429e-05
347,0.00013635927795495873,0.00011388703063033902
348,0.00012702078410179972,0.00019871221325165814
349,0.00015669869700967812,6.2343471335740016e-06
350,0.00014117176142671104,2.1088111832181663e-05
351,0.00014599615722524158,5.074329174804279e-05
352,0.00010700995719312021,4.661713658361678e-06
353,0.00012693197681032723,0.0001078844668877777
354,0.000152591735328554,7.391102465230303e-06
355,0.00014925142358112985,2.768565840648832e-06
356,0.00014291093579666647,1.3828826320428417e-05
357,0.0001492064725744485,1.0854576068786577e-05
358,0.00014546802415587928,3.1139148915967502e-06
359,0.00014161183495154734,2.5328636448148136e-05
360,0.00012370014959358865,0.00014935100762410224
361,0.00014704315811040776,0.0002848586862250404
362,0.0001329217036776555,5.100178811395939e-05
363,0.00013307796581943384,8.099628198582601e-05
364,0.0001451575494181218,6.147757341970206e-05
365,0.00015909882558084673,2.795804834770402e-06
366,0.00013388102937976024,2.4014168986078075e-05
367,0.00016634139018219813,2.7516431107305503e-05
368,0.00012082228257703918,0.00011740499581287497
369,0.00013740873708282427,1.0451828288575262e-05
370,0.00013775750951252304,5.5255325195802583e-05
371,0.00012722623698956106,0.0001311517365905934
372,0.0001619904444693692,1.2752078447352693e-05
373,0.0001495758284248769,1.785426440300913e-05
374,0.00014698392388611214,2.395586423822032e-05
375,0.0001177215498734399,6.037374360974946e-05
376,0.00013997311165383372,7.519775827868453e-05
377,0.0001369999294440117,5.279032153617877e-05
378,0.00012674392154683116,0.00023326610776457213
379,0.00015239431652810373,0.00021394348164478975
380,0.00015286188861461555,3.522000946042965e-05
381,0.00013440822889144516,1.2922478355470306e-05
382,0.00012475776847725056,1.3289252372748972e-05
383,0.00013994494952253368,1.2780260718484565e-05
384,0.00012763868735805918,7.452413074700889e-05
385,0.0001597886899174309,0.00010934091437757404
386,0.00014512414558759184,3.8577873153681296e-05
387,0.00013829376556783916,2.6213427504003087e-06
388,0.00015848267710487352,5.740159062920141e-06
389,0.00013148851505477308,0.00011138550502295152
390,0.00014211878424372017,0.00020009671538344555
391,0.00011682823539225586,0.00010883358044214635
392,0.0001388334187205458,0.00013338569277896006
393,0.00011398510912190587,5.098871370338197e-05
394,0.00014779178068894384,1.0992655561588076e-05
395,0.00014233654969615712,2.185859374848518e-06
396,0.00012056576425319103,4.62116033488248e-05
397,0.00013053226483076167,3.8416404258135464e-05
398,0.0001701551224969818,5.0192410930646244e-05
399,0.00013754322212545142,0.00020928385404442843
400,0.00012638870387770434,3.710507611909862e-05
401,0.00013872729474848465,0.00010624685999813314
402,0.0001474877066342572,2.423373571548893e-05
403,0.00014272513596646892,5.6046470580847664e-05
404,0.00014689276858877778,4.3611950386892976e-05
405,0.0001703511470907415,4.4924835692841234e-05
406,0.00014450709818393122,2.325745428237785e-05
407,0.00011940155506680513,4.720196141834733e-05
408,0.00016830209577739966,2.495351323217987e-05
409,0.00014326449632588153,7.2971814450789355e-06
410,0.0001302953939596469,2.0969870263657235e-05
411,0.00013897037094210305,7.92090358453231e-05
412,0.00014415472218789042,1.6132781476358913e-05
413,0.0001392648328841668,0.00016517280488868185
414,0.00014006908516417846,2.5810810481062606e-05
415,0.0001252387698848548,2.1207569186232897e-05
416,0.00015484585538360466,5.4267129423014775e-06
417,0.00011111524189873976,9.605865060015866e-05
418,0.00014599052845990675,3.4622915200124644e-05
419,0.0001380655370622062,0.00031142208182003756
420,0.0001256510971118552,2.2966299021242432e-05
421,0.00014734670621993005,5.949008112734984e-05
422,0.00014495165934794404,0.00012765182301869958
423,0.00015926044450097026,9.139666618820327e-06
424,0.0001241274885444818,0.0002793399476036047
425,0.0001666903962054283,1.098882519701498e-05
426,0.00013389833302843848,0.0004179138317786895
427,0.0001522683239507563,0.00010835393826158764
428,0.0001709964244309722,2.4055102947464576e-07
429,0.00013543348406491016,6.829286691963423e-05
430,0.0001337292181723041,0.00012042714847856728
431,0.00015266680978904258,6.889927454566286e-06
432,0.00013258699756432988,7.168907838382544e-05
433,0.0001454277594332792,3.763528430712484e-05
434,0.00016212825328876024,3.713654723146492e-05
435,0.00014229084654390054,9.02522297856955e-05
436,0.0001291761480591205,1.2507953249846438e-05
437,0.00013442076627168334,2.28251659922213e-05
438,0.00012995477259192752,5.314768641370649e-05
439,0.00013065569949525144,1.4560571206725912e-05
440,0.00013652612851198197,1.3461914945761285e-05
441,0.00019590703670041676,2.7911204122125053e-05
442,0.00013532391387365697,0.00023272024596820423
443,0.00013393741348766602,1.917205096944474e-05
444,0.00015258510708438571,4.2991883057067074e-05
445,0.00014646319594004866,5.672900860152521e-06
446,0.00013833033399315836,0.0001160198551827866
447,0.00016155002352164627,6.362570017241213e-05
448,0.0001310904326987984,6.575335218227394e-05
449,0.00015106830125682227,6.61581645398646e-06
450,0.0001420024392748708,1.5809893804383324e-05
451,0.00013893592549895262,1.0034814329523912e-05
452,0.00014134569006081954,2.167877582568549e-05
453,0.00015519591691119623,0.0001075507570385669
454,0.00012535053148282656,5.854617111160583e-05
455,0.00012429763987163354,9.834767193061203e-05
456,0.00012136073095114722,7.70435276848121e-06
457,0.00017190611692926983,8.371686234530142e-05
458,0.0001259101188546417,4.053994310369157e-05
459,0.00015615760825857087,3.2313208731698006e-06
460,0.00012055365692453046,2.573300375344352e-05
461,0.0001471451167683101,2.9298408331804587e-05
462,0.00012149425322945081,0.00012875926309335395
463,0.00014021237942588003,3.1264568468278876e-05
464,0.00011761619545194539,2.9868908407119833e-05
465,0.00016270363299182943,7.330568952152109e-06
466,0.00013210966161603146,6.74165027338189e-05
467,0.00013254821740808897,5.653257488277494e-05
468,0.00014594754802212576,5.2733709222290533e-05
469,0.00015084391570718305,0.00016029210642982427
470,0.00015331890712317375,3.528229058947121e-05
471,0.00011679670398144407,2.336750579871099e-05
472,0.00012743227468048452,1.846755938691533e-05
473,0.00015185250246801263,0.00010845098113091685
474,0.00015413052839798177,2.0397434809458612e-05
475,0.0001245985800670083,0.00012894460589892503
476,0.00017304827907784314,8.398158282780103e-05
477,0.000157713940492002,0.00014238562385869363
478,0.0001507071224918902,9.739325057664917e-06
479,0.0001347236402834393,2.8199628534612495e-05
480,0.00014416824926044285,7.010875356944289e-05
481,0.0001714938834297402,2.7066446571282755e-05
482,0.00011394910174508397,2.3678849657141417e-05
483,0.0001538320426463621,1.834627977157669e-05
484,0.00011911579413541592,2.886609390964715e-05
485,0.00016112268195484262,0.00015088917732603726
486,0.00015861041802861373,5.466835122975766e-05
487,0.0001376680876369806,4.366830808533471e-05
488,0.00016096735770580205,0.00013059593166694913
489,0.00016662924776156558,3.0493727702478016e-05
490,0.0001547221984434728,2.5977788499710202e-05
491,0.0001602162301619799,6.611747155177327e-05
492,0.0001424294354976166,2.2341727840633024e-05
493,0.00012647216128637914,2.06994085355547e-06
494,0.00012932556991494294,9.522130277874202e-07
495,0.00016965771634725788,8.604080539450945e-06
496,0.00011464053627728746,5.4664902544291015e-06
497,0.00011491606875876654,3.149897486067514e-05
498,0.00015969431285511827,0.00013116265185931315
499,0.00014265543618823036,2.620382368752138e-05
500,0.00016383442640218403,1.321104591538904e-05
501,0.0001311342937700008,6.370892360138685e-06
502,0.00012986088211814083,0.000111909710830208
503,0.00015186299341276576,2.7416331383931482e-05
504,0.00014917417720187776,7.036624395238635e-05
505,0.0001463550501847117,3.537100962977281e-05
506,0.00015928304280129482,9.148288578775509e-05
507,0.00016566155213760742,3.8200493816586045e-05
508,0.00015720794238013644,5.425422409446539e-05
509,0.00015931789449122815,0.00015893873471526713
510,0.00016870824246713217,8.364020103545332e-05
511,0.00017298461033406884,0.0007277177420724845
512,0.00016584322029822526,0.0004318221979625685
513,0.00018447370264251778,2.3009605325711413e-05
514,0.00018026271381830326,0.00023552683154633746
515,0.0001803860175364065,3.986790568747259e-05
516,0.00018271429989078324,2.6725371827791964e-05
517,0.00017189536122237786,7.1701209339011005e-06
518,0.00018474561514465155,4.625306242720232e-05
519,0.00019321986141251522,9.39668684956822e-05
520,0.00018151589085137516,0.0002714663498485299
521,0.00019171493108546437,0.00029498100741645107
522,0.00018498162876694245,2.700810836665384e-05
523,0.00018209719103747844,0.000786625552985335
524,0.0002111431281421448,0.00018185095813040106
525,0.0001785456554930599,0.00022738696459218441
526,0.00018941352537677825,3.010040343016757e-05
527,0.00020350378386072314,7.144348328136865e-05
528,0.00019088453559010745,5.286604724516622e-05
