epoch,loss,val_loss
0,0.32551190516740963,0.3065785035291053
1,0.30691119550848656,0.30772488917670293
2,0.30788717864395426,0.30703317735641134
3,0.30746822056772233,0.30860962879262577
4,0.30628401544287526,0.3058950190785934
5,0.3054990763906285,0.304769287287201
6,0.3068771462360446,0.30740311684200117
7,0.30644617993816387,0.30555341623858756
8,0.3071082762772326,0.30793599466827787
9,0.306852230333167,0.30675482127783144
10,0.3066365802102238,0.3072271216969464
11,0.30943117261552316,0.302442192466784
12,0.30252897628634384,0.30127189535979876
13,0.30161516852587533,0.3024595783348618
14,0.3037952997630163,0.30335979909292804
15,0.30449698144773973,0.3057442269013826
16,0.30488537629540685,0.30624710747879513
17,0.30181712109288816,0.2994648511473739
18,0.29993212555976606,0.29926037436737823
19,0.29992918182405637,0.3007351219912825
20,0.2991335670427262,0.2977765180058807
21,0.30514576482615596,0.3028198413098056
22,0.29996802174835374,0.29739917592449083
23,0.300009578811846,0.29925918016926734
24,0.2974680230069122,0.2935981816467377
25,0.2916898859395302,0.29145342542039376
26,0.28931763116642534,0.2904883734382036
27,0.28881208904736716,0.2884124689386318
28,0.2880829153217667,0.288137554263824
29,0.2868515982282914,0.2782493480308468
30,0.2733898001978342,0.27557661762459595
31,0.2792410351556363,0.27951526189047987
32,0.2780141463811449,0.27566895982648976
33,0.2754214039678387,0.2739494621412624
34,0.2740660933353346,0.2716821015892578
35,0.2722302426477607,0.27296632352478406
36,0.27148732609099907,0.2688964341356233
37,0.2708703283515337,0.272659920179524
38,0.2709043956667685,0.2725531311371991
39,0.27081469248393647,0.27113688867112834
40,0.27078538140256725,0.27181718263248805
41,0.2717295802867622,0.2721738927095729
42,0.271770711803584,0.2737752301023057
43,0.27127555785752794,0.27025680302773863
44,0.27140749298292194,0.2720746861354704
45,0.27128406831746005,0.2729233189558738
46,0.27178720370840304,0.2714869430393051
47,0.27235238903837145,0.27441823931194803
48,0.27343521937787485,0.2750660621670634
49,0.27618065921010543,0.2787902450928466
50,0.2788845839903509,0.2780190758530606
51,0.2808930527666013,0.2819432912845732
52,0.2778067581421084,0.27471308450155024
53,0.27586114402118916,0.27689412797212415
54,0.27777813510190574,0.27799276705910675
55,0.27914397215409625,0.2788749727660874
56,0.2800533026575947,0.2800510115127631
57,0.2838260539346557,0.2852992575730314
58,0.2883812362889496,0.28529052456345444
59,0.2866310988553613,0.2893555617134874
60,0.2636418745106311,0.26482733333778835
61,0.2594701800373294,0.25748230309917314
62,0.25727287364258566,0.25261354133569075
63,0.25431616573060734,0.25687879368063027
64,0.2540129240509941,0.25185042272756303
65,0.25142878445563654,0.2467804121319572
66,0.25219370576022243,0.25501796748450917
67,0.25264717307355666,0.2538386309062202
68,0.25268173570648655,0.25530391780405226
69,0.2544339067793245,0.2511379972582458
70,0.2521058374749337,0.24999323508451562
71,0.25194111001565395,0.2516474401153442
72,0.2524009590639437,0.25286733982430354
73,0.25328783621247725,0.25455560115325515
74,0.25360773480553134,0.2517407806009501
75,0.25500379311297533,0.2525786498257186
76,0.25591775447392257,0.2563727650123971
77,0.257809765357003,0.26041763382886657
78,0.2597377743902538,0.2619060408720936
79,0.2631690789588826,0.26437666772878726
80,0.2686144582552018,0.2631261021416302
81,0.2689938883302357,0.2666716396444034
82,0.26942984467084935,0.27035780861420994
83,0.2687748326368326,0.2686010502519905
84,0.26953354874234214,0.27047189042242664
85,0.270827461620696,0.26959733113399525
86,0.27141358875792376,0.27116636229177676
87,0.2853915153040017,0.2841399515366686
88,0.281189397346678,0.28155410415606885
89,0.2847026933690341,0.2821707429148216
90,0.2835513585679632,0.2834650462150762
91,0.2840965165556382,0.2827269259455078
92,0.28836614368773766,0.2955065783474891
93,0.2944023338713044,0.29537875188224977
94,0.29422386999515227,0.2944639171425903
95,0.2942950300556674,0.2950423192865
96,0.2962587882431863,0.29305000015150023
97,0.2936601250839653,0.29299041417139954
98,0.29522057155148684,0.29563311365710154
99,0.29724335980763156,0.29735329467288696
100,0.29762564693018495,0.2979299927684578
101,0.2983175153605086,0.2968738368861583
102,0.29345301090837195,0.2913570305613335
103,0.29183506947770105,0.2921440819867879
104,0.29198838223060736,0.2930988883798106
105,0.2929383853106476,0.29439343579095845
106,0.2940965471662682,0.29416222042376916
107,0.2939803901788809,0.29421240858139724
