epoch,loss,val_loss
0,0.18207201684306232,0.05284383224989357
1,0.04922559490757916,0.06073776064786087
2,0.042833318493495004,0.043955923396955816
3,0.038253865911246396,0.05216782973475031
4,0.034408524542001724,0.03614626654615624
5,0.029291213351971122,0.026322356677351735
6,0.028817085030158875,0.027989048213825137
7,0.030667509983586284,0.027560260756957125
8,0.024478993122298405,0.03150595824698011
9,0.026572924202604355,0.017942746083862968
10,0.024159016072389773,0.032639883683543085
11,0.024945547016222865,0.03141816772061864
12,0.023398058859335123,0.033163668536349555
13,0.021605771507317427,0.026673962027657757
14,0.02158275910773777,0.02327698004015243
15,0.024881602097995024,0.031223799270337364
16,0.022960674259245847,0.033422157580022656
17,0.021474767705614715,0.026458058160771604
18,0.021283377961573497,0.012398873072120507
19,0.02006611337574075,0.013374940257728242
20,0.02068375176686844,0.010388389490721212
21,0.018998118034257983,0.014401020549073074
22,0.01930400708688052,0.015658838308365588
23,0.019015207217237966,0.012563582643537232
24,0.01914756854033495,0.024519178450354555
25,0.02076037165070091,0.016879463501439238
26,0.017998401559129965,0.01143639832044104
27,0.01789971554933263,0.019839729841772083
28,0.01752946499755962,0.01711427967263284
29,0.01846154732406318,0.029047927697907306
30,0.017522250523613534,0.01990988725486146
31,0.017359091219478113,0.014365498810836012
32,0.015593601765370162,0.02571548457127344
33,0.0162780058017815,0.013503901081949167
34,0.017635593188183606,0.04673416731142584
35,0.01698898163353868,0.016039969055562764
36,0.014806709739362461,0.010836437093160147
37,0.015446465253066137,0.0353188929372212
38,0.017570088705164102,0.008844809273321068
39,0.016473472801515076,0.009877319729224659
40,0.014224254065189514,0.01443313481249415
41,0.014031777128880228,0.013293538164662017
42,0.014689999122208329,0.003873918605556722
43,0.014398604582010253,0.010310239923769504
44,0.01415010809358269,0.015438543785519268
45,0.013213356412637482,0.008922903587557993
46,0.01374143954079083,0.01749519878247166
47,0.012766060047707768,0.013477463153909066
48,0.012604587794494458,0.021716390152027407
49,0.013357118500745018,0.01602588558235833
50,0.014575425192801583,0.00852420719284579
51,0.012525541755053654,0.011608169458206705
52,0.012513729847139783,0.006483068007199592
53,0.013529822958051134,0.01983159471923616
54,0.01213410669789954,0.02146098509595539
55,0.012940510610329936,0.010362912825769623
56,0.012397007250467496,0.018694738912577693
57,0.012185138106780896,0.01221055640811843
58,0.011858642856079748,0.01760119827642108
59,0.013609081308515987,0.023554816709768143
60,0.013317535391455587,0.016273414580138208
61,0.012261181932238997,0.012785295241357261
62,0.01288949286680204,0.009319646098013694
63,0.011306908382806364,0.009880287066284323
64,0.013430714780326298,0.019769518386981294
65,0.013016106738566721,0.0179528536380878
66,0.011989079206976458,0.014596138867654712
67,0.011387560725045338,0.012704042971410569
68,0.012247398547135102,0.012774038374065272
69,0.0114467442904835,0.009658807935670971
70,0.011910921981581281,0.011332279835675491
71,0.01168042371396815,0.014876578992560518
72,0.011155530740097492,0.009251708183922727
73,0.011087801937906474,0.01143889218030737
74,0.011839771243225453,0.011243862412346567
75,0.011425562236245147,0.006534507865308186
76,0.011305161181083179,0.010269976675292829
77,0.011264380336803147,0.008013774934882664
78,0.012280253776375928,0.010216776841711885
79,0.011477645141720998,0.007632425067403839
80,0.0105494729407559,0.007757786598538755
81,0.012866860522767998,0.00825917855825425
82,0.011209022014965412,0.011296955889918574
83,0.011318921810760498,0.013670728306691056
84,0.011553555274185695,0.01274788835848187
85,0.011555639990355275,0.01884482283624449
86,0.012197361069472341,0.03231603089034934
87,0.010785268021667068,0.004603032874650577
88,0.010876756191229839,0.010318802726979132
89,0.011028479841027072,0.014616180103251619
90,0.0104998819058021,0.011576964545645108
91,0.012122077782706117,0.012394793128011117
92,0.011272129740921124,0.012398591276108277
93,0.011242685665980988,0.005744236179251861
94,0.009960293174824782,0.008141014852502987
95,0.010569917581633751,0.01090187120568169
96,0.010391674528782853,0.012156231618459147
97,0.010569524589005104,0.010144113905539688
98,0.010234227228398285,0.008651265863479125
99,0.010772352582859926,0.008092773829431707
100,0.010710093051401361,0.01322455462377045
101,0.010852736894686748,0.004561526713717873
102,0.00988645443544283,0.01116025216595197
103,0.010322019891745651,0.015142756543653681
104,0.009887174084439404,0.011471033449142866
105,0.01001466349992666,0.006848726250325354
106,0.009742875134931217,0.006347737491539523
107,0.010804173021895928,0.01142526323735808
108,0.009063041651994437,0.008065778903968944
109,0.009628662810870093,0.0050708141645391626
110,0.008968382679148585,0.008017602126719026
111,0.009639653595455502,0.012714581652276142
112,0.009958383609741021,0.011999778770757126
113,0.010062433942369997,0.007626791335804051
114,0.00943387773114634,0.0056852067606825004
115,0.009492456640800288,0.009358773016809664
116,0.009667699859063659,0.01703104990348514
117,0.010066262566388475,0.012577145381726988
118,0.009914665327159514,0.009742503332293165
119,0.009196810832293295,0.01662467363868982
120,0.009467633868225937,0.011466429414464295
121,0.009565032170646245,0.009414068933344066
122,0.009909814161112269,0.012551694088883774
123,0.010048025039037307,0.007055156088368739
124,0.009185263496298019,0.0063566724871209545
125,0.009570967329540948,0.012482685895508777
126,0.009541052343457085,0.01513513475627107
127,0.009604811570126947,0.010929071068052194
128,0.009010214853263516,0.01493933457504861
129,0.009784596787168563,0.012198675141597039
130,0.009906067307364735,0.005360822767039854
131,0.009984469180070548,0.009895935234185176
132,0.009300950301463435,0.005709923600561876
133,0.008917861742147658,0.009811736646989668
134,0.009650308385786923,0.009608231149702065
135,0.00951461440805036,0.009763947422686015
136,0.009913564006389259,0.007521107493316859
137,0.009511218853495854,0.01288046835588722
138,0.009134321218839647,0.011245194928398636
139,0.00942792680890982,0.010910624073672784
140,0.010016548035064821,0.007518505991819508
141,0.008970518335629311,0.00984666808622271
142,0.00858926537830448,0.009762832509014158
143,0.009756632413131466,0.005701855040760306
144,0.009524656376960747,0.009704718899919747
145,0.008552043601482671,0.009275251227683126
146,0.008585727051478162,0.011159529210448313
147,0.008932118591622447,0.006477768213547701
148,0.009332091255533359,0.006370060707809258
149,0.008618056640880618,0.005086686517293517
150,0.009057586064389486,0.009519481389021065
151,0.009828432761173662,0.006192727942437215
152,0.008566834444130252,0.014600583000789267
153,0.009557195297303906,0.00615978664582582
154,0.008986340362584586,0.011115585326642715
155,0.009584144735950782,0.00691463845806239
156,0.009466959642049827,0.00752676334401156
157,0.008948568390945879,0.009306784819932133
158,0.009063166724019151,0.008289114850695996
159,0.00896960021609695,0.007784265838857466
160,0.009222215478703808,0.01140528036635766
161,0.00915994000365045,0.009703311500240237
162,0.008980130432356003,0.01345782998093678
163,0.009115467443399661,0.009675998179699222
164,0.008255350603468919,0.008874308855596992
165,0.008887133640639162,0.009439261246475537
166,0.009253904064964626,0.00696846110056777
167,0.008886236931754948,0.008648539989622164
168,0.009465381501709296,0.009508301314678051
169,0.0085306495350289,0.0050098284812175155
170,0.007996616379576002,0.009221774179726581
171,0.008707510519044684,0.009686018558602778
172,0.008657057937938157,0.007820737026279003
173,0.008858635859135136,0.012358160954830255
174,0.008484790706430092,0.006145927487948252
175,0.008455190779291374,0.00734419971572172
176,0.00864813611939472,0.009172422640854765
177,0.008379607133643269,0.006649944563370548
178,0.008675307301405392,0.01184804212954704
179,0.009180580368741966,0.010862708303433473
180,0.008443248902743818,0.004929744581167822
181,0.009217338060768847,0.013259906314413381
182,0.008507779252873235,0.007247139629926283
183,0.009146701131439615,0.009914504609643332
184,0.009097686228468913,0.009555908375005837
185,0.008599651093463705,0.007878669322598446
186,0.007897173464529032,0.005920168265609193
187,0.00883357208153288,0.007530008783768319
188,0.009125695049522264,0.011719565671716465
189,0.008472568962330685,0.004734817388796063
190,0.008775400393512205,0.007092549458981125
191,0.007983800557759895,0.007782525917693043
192,0.008982538199182495,0.009415323882795217
193,0.008294634243136914,0.006083500209531284
194,0.00843094066475897,0.004332691487645247
195,0.008589439713459412,0.00759740461446139
196,0.009002265601819433,0.009195215732517822
197,0.008310849111781066,0.010016178169038555
198,0.00835429348762882,0.013145972108696282
199,0.009391566706753576,0.005147528742023265
200,0.009011609084661499,0.010128816175873625
201,0.008358703124791764,0.010256466604975046
202,0.008393374144480818,0.017951811470485336
203,0.008750045158938288,0.006130479202674144
204,0.0088978906532081,0.004121071673729755
205,0.008338386780950132,0.011850402434668911
206,0.00822859244264043,0.009205709867937976
207,0.008628260919271108,0.0033190606590860245
208,0.008400154641370098,0.007383795245605703
209,0.008556561553378037,0.007254912126544736
210,0.008024916182820061,0.007007085796498533
211,0.008136752807031975,0.009249994568026903
212,0.008411477810869233,0.014893430093304794
213,0.008598153070035985,0.005676748992944314
214,0.009029368586227042,0.008901647652992603
215,0.008350217750826054,0.006480828943811563
216,0.008411856045552658,0.008796937288106335
217,0.009019759321807892,0.01636555477471077
218,0.008652295595850889,0.0110830987179571
219,0.009503654177322221,0.01469058841952044
220,0.008539834774924154,0.005521204804409157
221,0.008986220039765267,0.008718136420889502
222,0.008328043013460469,0.01193348197200304
223,0.00839558901251491,0.007218101714247428
224,0.008062339550219953,0.006874136588497244
225,0.008571470949257597,0.0070411577279037765
226,0.008193598759321899,0.004669245095054701
227,0.009224563414289755,0.005501726267369789
228,0.008083030138426065,0.008907887518652895
229,0.008205427417269559,0.00920186468841833
230,0.008414130098075508,0.007453707499236998
231,0.008625275934383803,0.009114917629378558
232,0.007671402490825849,0.0037888089798011576
233,0.007833755179624752,0.006171769587853784
234,0.00807718728152703,0.008642438386405958
235,0.00851464401482032,0.011001165818067263
236,0.007693411202308053,0.009371048398168894
237,0.007933608300017594,0.011636664886571519
238,0.008298678833583324,0.010364900878244671
239,0.008359793832411708,0.013242272539586182
240,0.009062416368364383,0.01260260293802692
241,0.008027399341735117,0.008306321257985569
242,0.008447388819936993,0.006488895449484533
243,0.00810410684340527,0.008811247258299364
244,0.007945215764573122,0.007463705037215515
245,0.007534561397267325,0.007981306787627295
246,0.00838170778028649,0.003609102383078074
247,0.008056644185112684,0.009678468729303922
248,0.007593887790067525,0.010729049952831575
249,0.007696996934970262,0.006266304250253804
250,0.008531149944847377,0.010366941766185656
251,0.007376411116308273,0.008001317762223608
252,0.008603269041204701,0.0067738699300424875
253,0.007297400468102412,0.008039202199309429
254,0.008404883504513917,0.010350913827431748
255,0.007200961376612576,0.010443467995991317
256,0.007884130895165332,0.0061910828166062805
257,0.007902239607985792,0.007764522266671967
258,0.007262237682037031,0.0062568634888120495
259,0.008201602052414804,0.005261331436098586
260,0.007925033739538675,0.0061189081003829165
261,0.007326843755913051,0.008059318864316736
262,0.007922595348130975,0.00627097020171224
263,0.008365137872269763,0.009478921615375292
264,0.0077417410306556585,0.00554370969877929
265,0.007397047883319519,0.007906153982971231
266,0.007728320808405969,0.006700975267288599
267,0.008543260181307804,0.004376869692063605
268,0.0071298017424883415,0.008661300186126625
269,0.00889776178433163,0.006021870334354106
270,0.008030316010370648,0.009188796839020387
271,0.008413339332717625,0.008208213020454219
272,0.007680660345080532,0.005143640877865696
273,0.008395423748914591,0.010584115450606398
274,0.008550075957995298,0.012414735339834827
275,0.007108465019188416,0.005607795398814667
276,0.008327133926584554,0.009123115201981263
277,0.008065984331832218,0.00857057589699456
278,0.0074134064632818564,0.0063657961607908485
279,0.007672218265470495,0.008178014661778638
280,0.00809847291776364,0.00833566086741654
281,0.007241975523711597,0.006164242341473475
282,0.00817036269743332,0.009323817657581703
283,0.007945309551399228,0.0060830907186826995
284,0.0076409991702446785,0.007676494022979803
285,0.007682701005402366,0.008795372736011798
286,0.008163926323025608,0.005891967063141956
287,0.007593158662946765,0.016280286138305396
288,0.007748853474900835,0.006923600105861321
289,0.0070635549856058,0.006768306832681186
290,0.007866038383244515,0.0044282051949999235
291,0.007482197353721326,0.0061897049792516675
292,0.0075561236275611616,0.006355720478820819
293,0.008025664862410593,0.010009212416450433
294,0.00813593411106999,0.00771850258355994
295,0.008383542999251486,0.004579502533299477
296,0.007622273428906068,0.006212564321615584
297,0.007453999141829355,0.004788677709804879
298,0.007607332619128944,0.005734270368353556
299,0.007616316834330666,0.003038600272585027
300,0.007634081900939435,0.00930891018478463
301,0.008048886304451741,0.010654341726436705
302,0.00820515713309028,0.012587742241953618
303,0.007669281553113007,0.008227299722448145
304,0.0077157855177369655,0.010506730312047836
305,0.00791182301359342,0.0049694575080479
306,0.007817831509623775,0.0035108226908616364
307,0.008102964386336512,0.004682413277921179
308,0.007582496844424154,0.011342827728328361
309,0.007978231626764523,0.0046047187721225905
310,0.008260778596827226,0.007033413358403174
311,0.007973268552371364,0.0037873570339411683
312,0.007394844933385424,0.010474650180459776
313,0.007134039812826653,0.005140758139370178
314,0.008058560405411927,0.005700043838871047
315,0.007911320254530499,0.0050098052995916
316,0.007052683013557962,0.006456348562470527
317,0.009044664957896352,0.004475799900786135
318,0.007310166331832569,0.011871427216000367
319,0.008265615579840407,0.007019266292111744
320,0.007000281205337545,0.01402733310904198
321,0.007716504920130338,0.0063313401701853515
322,0.008732963572639665,0.01437165180402025
323,0.007766588994258677,0.0031503564812281207
324,0.007820135571569171,0.004364016012677477
325,0.007464616394268243,0.005054943169442894
326,0.007888949715620208,0.01676043989496995
327,0.007116796254661667,0.008700523943726293
328,0.008097488039953383,0.009737635206287079
329,0.007542196595767732,0.006606411058367498
330,0.007451543030120599,0.003781637885102792
331,0.00760479065623852,0.0065934280243767655
332,0.0070388721567180325,0.011113555003001686
333,0.007632679663824482,0.0066678817244283355
334,0.007971791758594348,0.005971552560072107
335,0.006977816989688541,0.005457446042333613
336,0.0072180419170344585,0.005499944056662854
337,0.007507408272008226,0.01340527870731271
338,0.007876575254346822,0.0052159799809766835
339,0.007164835143252927,0.007325699339725883
340,0.0073227016312024775,0.00758984447813401
341,0.00766493671033591,0.004766080259465287
342,0.007589736899404193,0.00752954485943069
343,0.007318659642280238,0.007626555172760324
344,0.007714294336059114,0.010660046388137124
345,0.007553849849093565,0.005539106885037417
346,0.007639076215770396,0.011791907654429808
347,0.008345974154668383,0.0076922541179186305
348,0.007499707409077965,0.01032024579991505
349,0.00796713970727559,0.004552449918945262
350,0.0072491651166976395,0.008424377888470488
351,0.007551487797661294,0.011374806050261175
352,0.007440684807410897,0.006977692133972705
353,0.00824659738688172,0.005606199822725983
354,0.00741122288742571,0.00872847662750564
355,0.006744503478171955,0.00794946103949973
356,0.00779270359871836,0.007211202650089126
357,0.00807868903182703,0.005884870440988039
358,0.00774216111706604,0.0073399346082191255
359,0.007032252198139534,0.009299039586367058
360,0.00768045472440129,0.008040898187701968
361,0.007154030588378818,0.013776688566012418
362,0.007525420342337528,0.009275608169004591
363,0.007179898849270083,0.005599463337939747
364,0.006685733040281051,0.00890134963711934
365,0.008031434984672979,0.0056624731953801985
366,0.0066853760403665086,0.008820488505012518
367,0.007640391755808177,0.005758808742717626
368,0.007915794002197439,0.004844021999248507
369,0.007415342101210105,0.006475957661452567
370,0.0069497701413051,0.00454003579183919
371,0.00702276035927781,0.010214463960535195
372,0.007863934755215136,0.015294511412177015
373,0.007589497331840296,0.008519681274961466
374,0.006741457795210594,0.004223435500823402
375,0.008042585373268747,0.0062236734651229045
376,0.007226165939330144,0.0068706061000823266
377,0.0075592630248565934,0.010768550048246332
378,0.007400064690814292,0.00979137713061653
379,0.007331084486913773,0.006439242411284298
380,0.006903717683503132,0.0077241499872985515
381,0.007717657340992001,0.005010918665959573
382,0.007317670728552709,0.009837475267915907
383,0.007416496553058497,0.00402368950615648
384,0.00792776291464477,0.004382286758486243
385,0.007283106851439884,0.004350250193609576
386,0.006441552449789398,0.010659296619070028
387,0.00708766027100959,0.008568785612742639
388,0.007154406393276264,0.00835885456524313
389,0.007911748134997858,0.005700152713567277
390,0.007979818326376415,0.005204145845846106
391,0.007495900064728764,0.011103269111897265
392,0.007870467292494047,0.002782067121723233
393,0.007100908672619465,0.0031756548717803224
394,0.007204220258090332,0.005129616907867585
395,0.006869313222377358,0.005047663019407003
396,0.007641316934194279,0.00621051839519742
397,0.007379066693480406,0.01011726502975965
398,0.00713741322818341,0.006089978874164862
399,0.007454762404044192,0.008080300540187718
400,0.006894620115372563,0.007321014264179504
401,0.00791521179605183,0.006757135534234163
402,0.0072950687017299225,0.012353685042793673
403,0.007025620331139052,0.0068148518394276015
404,0.006775407432515225,0.0039343150331099955
405,0.00763487391364422,0.019866317335660286
406,0.007554294208098548,0.01305658913613683
407,0.006949763218408821,0.013586050448549622
408,0.007272717991903749,0.009404281973868209
409,0.007299344624914929,0.020382787431013235
410,0.008341729853365147,0.005317541850391179
411,0.00725899490104954,0.00982388563824622
412,0.007025583334238105,0.007604783882725846
413,0.008025717294717625,0.0070440006841506276
414,0.006892711375572002,0.007238749155205775
415,0.007651893145439746,0.009124744199098755
416,0.007367236662092511,0.010111646964887323
417,0.006815535263705561,0.0062640763259836085
418,0.00726907315133936,0.007149087078795836
419,0.008230042293761595,0.01264997231520436
420,0.007512139667766906,0.010525102034687478
421,0.007638355279225948,0.0055180728073866234
422,0.00659556417471188,0.007237191461967547
423,0.00703856961432767,0.008958879667139468
424,0.007405614771461077,0.007696283261946622
425,0.007169761034443403,0.0064054298256512885
426,0.007163704131736601,0.005526953538910625
427,0.00759177859699492,0.00917838121034446
428,0.0073312582574869625,0.005243613526163345
429,0.0070635130741357275,0.006077024582905758
430,0.007186826857027979,0.005219119056638833
431,0.006864990337847097,0.008750696766874573
432,0.0072236592565171065,0.004568224107212995
433,0.007589207258638289,0.008218005280456584
434,0.006772836362630379,0.0062650395358817825
435,0.0067089686396257795,0.004896984465387904
436,0.0069183062240526045,0.007572092758322571
437,0.007525359058278433,0.0031654434328224003
438,0.007539854959869902,0.008820817100167886
439,0.007694338820204674,0.00831146343025337
440,0.007241597044844475,0.00995908677357454
441,0.006826836435268704,0.005283838122180459
442,0.007034116870180952,0.009502670940102887
443,0.007218059455174848,0.005317202578103956
444,0.0070273210261974466,0.0032702842900042893
445,0.006691277960499974,0.012450270549538997
446,0.006972808252757997,0.01053756564464523
447,0.006520554877547391,0.003366759222959357
448,0.006951664881721186,0.0070338396725980615
449,0.008294210453770108,0.0045291262902260624
450,0.007019421939799885,0.006689817364597377
451,0.007042272868350321,0.006130962913757412
452,0.007292864629146393,0.004979151706839746
453,0.007252737281112213,0.006298151653371722
454,0.006831923370073876,0.008247893478209778
455,0.007041459123296537,0.004925629556261374
456,0.007683043733784865,0.004723948131050053
457,0.00705460629173384,0.00666460178016252
458,0.006971503196752814,0.004612808589894845
459,0.006897129542227808,0.007780695224552759
460,0.007681207196981676,0.011311774454487528
461,0.006735653456986891,0.01081645082691192
462,0.007233227811214759,0.009772182434162195
463,0.007393893171034807,0.007258656488006733
464,0.006172444639892372,0.006369841636409182
465,0.006711620329912725,0.005096904500501543
466,0.006680628479488915,0.008037916562889703
467,0.006834528671786394,0.009507878632788219
468,0.007884307718918779,0.017103309376310813
469,0.007581183781120018,0.009545850973273462
470,0.006680303872719282,0.006138362961835224
471,0.007378227419551569,0.02827702208047978
472,0.007708581096174822,0.004406704654477555
473,0.0072134014572293095,0.004467341583957212
474,0.0072656014365040595,0.006868911319762915
475,0.007110371853955995,0.0068693572104759305
476,0.00721930520399455,0.008472423385622917
477,0.007624605262605883,0.010780547216281754
478,0.007815835447118377,0.005298186226247353
479,0.006744979273268788,0.008290719412540651
480,0.008253560709985916,0.007208910237794894
481,0.007202031662137501,0.0073572193487784765
482,0.006704501487943027,0.00449736976621918
483,0.00693882977604668,0.006163126912156169
484,0.007028275747600344,0.01237887322635117
485,0.006646829196248207,0.006706145269709515
486,0.006680620851354014,0.007795943200497079
487,0.007194173669976314,0.00318291350969811
488,0.006686532295861398,0.00805473307459288
489,0.0077982108154018475,0.008699164805226704
490,0.0076294884709700896,0.010099264961426994
491,0.007186962986926285,0.005341819945455256
492,0.007369801064292125,0.00920870386309563
493,0.007052469728032512,0.005740372855848417
494,0.006903187127653241,0.006118028098680579
495,0.007935026205276221,0.012056700859568725
496,0.0067101286415816195,0.0037343857297931094
497,0.007628479729647369,0.00949199409933427
498,0.007249250018922277,0.009655645157592025
499,0.006815609713304612,0.009548047445008815
500,0.0065278610532197336,0.004439029012731003
