epoch,loss,val_loss
0,0.3437360576645649,0.3358846110238627
1,0.3345244767909264,0.33531981203751293
2,0.3339159586729319,0.3338986699693552
3,0.33382318441408826,0.3336953311788829
4,0.33378264674268127,0.3340137855734482
5,0.3337285662717816,0.33395664643117273
6,0.3336722099058154,0.3335458413690846
7,0.33366762404422207,0.3336485312683115
8,0.33363728979331175,0.33352547193283477
9,0.33361037249160364,0.33365577969598414
10,0.3336260073174176,0.3335215154859623
11,0.3335915852201362,0.33362506626557475
12,0.33358364784066463,0.33353081777433013
13,0.3335829080791916,0.3335013538525063
14,0.3335728560679501,0.3336344878519735
15,0.3335787493353118,0.333481358061949
16,0.3335686960122491,0.3335027190355154
17,0.33356621687521215,0.3336450734594028
18,0.3335523075218657,0.3335924820627823
19,0.33354709974183855,0.33369372352477045
20,0.33354314252422795,0.33356661796569825
21,0.33354517380565335,0.33365914178249556
22,0.3335489414232878,0.33358838416210773
23,0.33354091434024963,0.3338582098779844
24,0.33353758666943556,0.33348848717680046
25,0.33354240932659407,0.3335090459576316
26,0.33354407367947236,0.333557223726443
27,0.3335379146850894,0.333489061126638
28,0.3335363343613423,0.333699396748105
29,0.33354918141912876,0.3334831268556656
30,0.33353326025539687,0.3335170094339783
31,0.3335284421359724,0.33358145730371214
32,0.3335345484196743,0.33371308803854155
33,0.3335318355094673,0.3334716678701027
34,0.33353129263437625,0.33347689763783817
35,0.33352486050666447,0.3334770887720378
36,0.33352663904439134,0.3335679957499871
37,0.3335228898462889,0.3335801192164125
38,0.3335238131396775,0.3334761723543219
39,0.33352059614184904,0.33349793974874037
40,0.33352150669014097,0.33360377576747546
41,0.3335197226885958,0.3334839526092444
42,0.33352335535193056,0.3334682086413315
43,0.3335137347303015,0.3334722116626522
44,0.3335177183996869,0.3335892220732592
45,0.33352465658709063,0.333484735766948
46,0.33351445339141,0.33361634663849254
47,0.33351224943786634,0.3334856802861093
48,0.33351524606550403,0.3335498634993882
49,0.3335164235970261,0.3335150585724757
50,0.3335065212383194,0.3335627721645696
51,0.33351318983738804,0.333481931094792
52,0.333513455870869,0.3334804062364119
53,0.333508264737877,0.3336423162047384
54,0.33350855016548714,0.33358020190861326
55,0.3335113156601627,0.33354084667733525
56,0.3335081415177906,0.33349598498261596
57,0.33350147341055636,0.3335267315579407
58,0.3335120531789972,0.33351411037054607
59,0.33351206141317996,0.3335720572371045
60,0.3335112761698472,0.3334967640877953
61,0.3335074303998514,0.3334792822969167
62,0.3335095003354345,0.3334902791320242
