epoch,loss,val_loss
0,0.05617781779735547,0.02177640943425169
1,0.01979977443613225,0.018796684824984068
2,0.017862423487849003,0.018649422890384203
3,0.01709271355948426,0.018708877299655757
4,0.016526334384653656,0.016129715807698945
5,0.016284961167052584,0.01629332231621145
6,0.015848054940392497,0.016487353191556173
7,0.015578948176433993,0.014948476017649209
8,0.01543030742304615,0.01487033229700241
9,0.015215068010224356,0.014348962329438986
10,0.015053173895504295,0.015726401384171126
11,0.015013900222463723,0.01490930609922699
12,0.014835321566132905,0.01457147442784262
13,0.014669497503801334,0.019022900659230447
14,0.014646648084012311,0.014105540807948218
15,0.014589591841598514,0.014170847412559294
16,0.014437952444956773,0.013992907042631293
17,0.014316309040329702,0.015094936197212257
18,0.014292520023195615,0.015777944675450288
19,0.014161902707404328,0.014438146991059
20,0.014111163878722646,0.014196228098688143
21,0.01405902791981444,0.014070726573818523
22,0.013892811360093897,0.01473622438000982
23,0.013835270325855454,0.013470610402173204
24,0.013804922175016388,0.013209985729038863
25,0.013835288048383824,0.014222997024415
26,0.01371067942452022,0.013185300623013572
27,0.013665642325516954,0.01273552424623342
28,0.013586410397552758,0.013530170404936924
29,0.01360351488260818,0.013522070156359495
30,0.013528856570764752,0.013622083519550765
31,0.01351197064477527,0.013507411269836183
32,0.013423484262029255,0.013519048125069431
33,0.013423755513657846,0.013436358562548167
34,0.01340514253385917,0.013253494649755747
35,0.013336185202134851,0.013290271963508194
36,0.01333079713843858,0.012877639877626086
37,0.013303285021668117,0.013214442196761999
38,0.013352737380672499,0.012996029016323777
39,0.013196916996084208,0.013933262378254688
40,0.013276959736038159,0.013058812060756216
41,0.013239662817156956,0.01263828079768505
42,0.013256135979208971,0.013213639266825936
43,0.013162404087709188,0.012730955496134592
44,0.013132627410913878,0.012896133037214687
45,0.013096352702833512,0.013040057370536233
46,0.013063201210909032,0.013037485354776418
47,0.013049089966669931,0.01314739731207453
48,0.013071820698375288,0.012926561078957973
49,0.013054257638938723,0.01318112600770393
50,0.013025564960165622,0.012891018447967676
51,0.01302958802871984,0.012271597699051904
52,0.012995515807763898,0.012818532603476243
53,0.012979004169854088,0.012838026504529173
54,0.01296602429091953,0.01281704738615982
55,0.012995128588572068,0.012730971958127713
56,0.012899353742949825,0.012836755198835587
57,0.0128819283175115,0.012695974173953309
58,0.012905423712380307,0.012727485326287468
59,0.01290029624206091,0.013276863959213491
60,0.012943353466842914,0.012655672745284608
61,0.012815124508104339,0.012670738652126664
62,0.012889601586233751,0.012766954667921694
63,0.012806039259785872,0.013101068931740359
64,0.012857278914950162,0.01297823122792667
65,0.012857729983384834,0.01312159823055007
66,0.012843331439301197,0.012590933133554518
67,0.012790805135260033,0.012417856989793535
68,0.012818941454503937,0.012718986301560408
69,0.0127744451479498,0.013283118141570103
70,0.012777942265536303,0.012481359891112773
71,0.012783257439550628,0.012302982429084055
