epoch,loss,val_loss
0,0.05346252484388412,0.021410499007508122
1,0.019634744402349667,0.017110660564958604
2,0.01853835303601379,0.017996777370387212
3,0.017132794236089197,0.015731612971473123
4,0.016768167534628207,0.016771538140571148
5,0.0164251352907027,0.01642591185109787
6,0.015832420925925263,0.014732476826710974
7,0.015694870872928913,0.016168396542814767
8,0.015308920866427512,0.015548084091127066
9,0.015278927639674618,0.014215403352459665
10,0.014971204594724152,0.014080323638029342
11,0.014953876634711965,0.016691646362578604
12,0.014676550986427863,0.014845576348527342
13,0.014657988553702496,0.01466537609271169
14,0.014525445202284342,0.01411208737012988
15,0.014381003967612152,0.015198086277020184
16,0.014329813918695679,0.015503567683212366
17,0.014243635156908326,0.014540336756659649
18,0.014204715918264195,0.014323004424368626
19,0.014067241845566207,0.01368610945070352
20,0.014149382213039064,0.01485649777608681
21,0.014064561691843091,0.013753655906905311
22,0.013943530589021064,0.014592252286248112
23,0.013903768107948185,0.01326023327792179
24,0.013824039699254331,0.014148229845885011
25,0.013744386065418479,0.014340031970634354
26,0.013953255472816905,0.012879577941416066
27,0.013704466250411667,0.013667472501380125
28,0.01368581442538641,0.01499559041852173
29,0.013632828914077405,0.014157051423439761
30,0.013666986586976335,0.013624223052216672
31,0.013583913199161123,0.0135249621519084
32,0.013541981220472446,0.013702912280155766
33,0.013540269173317888,0.01403522229621709
34,0.013458532354124936,0.013665255089810409
35,0.013501564478333188,0.014109925029535892
36,0.01350964277038238,0.01296044809387872
37,0.01346342480387812,0.013382257169422233
38,0.013420257007425641,0.013245144596429675
39,0.013459271643447302,0.013356007540843476
40,0.013408745424970248,0.013794271365066911
41,0.013352497784952247,0.013122665551179101
42,0.013368233560249148,0.013341127688217696
43,0.01329614685179355,0.013272537315546283
44,0.013299087824017704,0.01384511393940922
45,0.0133517035999811,0.013028580567362735
46,0.013249906082954064,0.013588647003616056
