epoch,loss,val_loss
0,1.219856226067844,1.2441883932537419
1,1.1923722388218347,1.1738859928773913
2,1.1741359281382686,1.1607986297914148
3,1.16953945907948,1.1540295261281066
4,1.1642863864568973,1.1470755679737232
5,1.1519810401564308,1.1299221113665234
6,1.1456919389186526,1.1345605157498027
7,1.1400789544522334,1.125870157318409
8,1.1429335548342179,1.1352074616474717
9,1.1427025897540062,1.1356864168404968
10,1.1417056640727723,1.1388513785511278
11,1.1413950078326354,1.1381156148643312
12,1.1441141838054483,1.1418695166859931
13,1.1390172449304616,1.1261532320784318
14,1.1366143993955913,1.1344272507958837
15,1.1338034995215878,1.131705480644622
16,1.135078504252777,1.1277166560774443
17,1.149802519072541,1.145287169724256
18,1.1472524207272976,1.1409565045453474
19,1.1465339609901968,1.143743134805699
20,1.1438269808614474,1.148828983236319
21,1.1425025851058541,1.1361343865801052
22,1.1441755508609432,1.13134430371219
23,1.1439920012875617,1.143422681394297
24,1.1411694459777941,1.1293513994096487
25,1.1406191781484822,1.1270775123666192
26,1.1413401265105279,1.134555467631559
27,1.14171182824601,1.1497707283205185
28,1.1416956250258772,1.1336919921490745
29,1.1416994568517358,1.1311123332548254
30,1.1408259800845961,1.1289873064128828
31,1.1392498874812007,1.1300062976113059
32,1.1399168021244397,1.1313799717996473
33,1.1392769177707074,1.135926459916671
34,1.140266364915289,1.1428590272718653
35,1.146175724067848,1.1336566032202298
36,1.14674679896862,1.1457736455697947
37,1.1475900775022645,1.134820944743544
38,1.1478428847903162,1.149614340010457
39,1.1471523164178161,1.1551368463763874
40,1.1475562246964512,1.1445026556713522
