epoch,loss,val_loss
0,0.15019731104022546,0.06088855244578013
1,0.05394331353912346,0.048250156983250976
2,0.048213397613544165,0.04813411528716524
3,0.04801376433603817,0.048688602199353094
4,0.047916550756537085,0.04817026074690525
5,0.04793274209951516,0.04792692645760907
6,0.04785059516479691,0.04843224171951895
7,0.04790987898644021,0.04792845713734721
8,0.047905270523912045,0.04780619109862417
9,0.04789985510424601,0.048130622411465776
10,0.04788391037786798,0.04817403706221385
11,0.04784787316872872,0.04752655848919546
12,0.04779741305003254,0.047501847389041674
13,0.04778959381309964,0.04785869811274164
14,0.04783068700797028,0.048453456783209996
15,0.04776774495572066,0.047989775089292704
16,0.04781006164491462,0.04808163797834208
17,0.04776728655294263,0.04755288526862742
18,0.047748822185823575,0.04764990733191077
19,0.04772254983655554,0.04768930497302158
20,0.04769872062706309,0.047487854507723096
21,0.047664393829427464,0.047403388128166794
22,0.047712803122213036,0.047796655584482484
23,0.047701225024190164,0.048057185037571705
24,0.04777078439059446,0.04758707681507601
25,0.04764070768478058,0.047602806502002
26,0.047608840174311925,0.04816888265999735
27,0.04768087454795313,0.04798316996729835
28,0.0476157575276949,0.04750709917216952
29,0.04762130492120433,0.047300605198931485
30,0.04765240968816238,0.04749951371959842
31,0.04757999873114861,0.04769377019947311
32,0.047587327370278654,0.04737760843422437
33,0.04758765156433689,0.04839512905445547
34,0.047515499638579636,0.04777561917889278
35,0.04758996008444938,0.047400713399134944
36,0.04761485533147074,0.04870650323068145
37,0.047549758448922855,0.04744961097448382
38,0.04765860736370087,0.047329684738554915
39,0.04756497366757368,0.04757494169515988
40,0.04752608937033408,0.047256598453424815
41,0.047479845111449655,0.0474786192308097
42,0.04756481187800757,0.04760988196615356
43,0.04751445775439175,0.04721595555096982
44,0.047518339512838445,0.04755609785666029
45,0.047544848269147934,0.04817914037179458
46,0.047524554269324296,0.047461382930050144
47,0.04750690560082166,0.04746767962623414
48,0.047502457741186395,0.047472419653855256
49,0.04749798998057985,0.04757228252296384
50,0.04751392380951596,0.04758281115774762
51,0.04748540684479556,0.047222072562907
52,0.04746107738926637,0.04759010076287608
53,0.04752941333877145,0.04755119159935305
54,0.04751272960234698,0.04725759408797631
55,0.047386446701203414,0.04739399495716159
56,0.04748935335361176,0.04736771982019119
57,0.04743344731611028,0.04754545461407024
58,0.04740975145920575,0.0473092361908309
59,0.047415814637172995,0.0475652982828508
60,0.04743911364345813,0.047197758178237674
61,0.04751579718683645,0.04723754186468418
62,0.047436979129541215,0.04724255863403653
63,0.04743346925541985,0.04722072238774401
64,0.04748683721780015,0.04769581884745547
65,0.047405197474953656,0.04845399518909658
66,0.047418857304502925,0.04756587502659073
67,0.04742099766691717,0.04809534463857983
68,0.0473493454124716,0.04750671982765198
69,0.04740674242222433,0.047408800810316745
70,0.047408988650182456,0.04722546537619175
71,0.0474083600349897,0.047532893405623014
72,0.047391181098495265,0.04728426425567084
73,0.04737225939913524,0.04732216072828166
74,0.04740541150345267,0.04720699436956724
75,0.04737622228463729,0.04753798924110118
76,0.04739761741446267,0.047428867229111285
77,0.04740513992502535,0.047219728211554
78,0.047377856807123656,0.04822781791979625
79,0.0473750197796894,0.04743413603625715
80,0.047372222463373276,0.04717995578330525
81,0.04735659683148543,0.047312810870024195
82,0.04739037850539652,0.04817195433385276
83,0.04741532014583131,0.047065118311565506
84,0.04731457618077834,0.047348712089500186
85,0.04731173691697877,0.04721031643173877
86,0.04743787701532757,0.047273944998667196
87,0.04731829560471239,0.047215728123026185
88,0.047316326647341776,0.04757315213273808
89,0.047408861906932505,0.04771584978925495
90,0.04730704674373666,0.04820786870210399
91,0.04733433796585702,0.04716976293919119
92,0.04735830512573774,0.04769328405349953
93,0.04732268466521129,0.04718451512111579
94,0.047337088698177314,0.04726174003323327
95,0.04736347714041492,0.04764957659846229
96,0.047320687774119144,0.04721213675206255
97,0.04733030253397427,0.047454243406782774
98,0.04731464338936299,0.04729498523539601
99,0.04732127502548704,0.04756413633334609
100,0.047339604899501626,0.04760574764368472
101,0.04733664666612943,0.04726014966946374
102,0.047337100898428595,0.047245699868205975
103,0.047327655271517576,0.04767464253031182
104,0.047319897408072326,0.047707296590355316
105,0.04731598208627874,0.047189619350993174
106,0.04733770818179317,0.04720976366275582
107,0.047331416986876734,0.047482174654339085
108,0.047323088180258883,0.047369020099398085
109,0.047363942511361855,0.047494915261829376
110,0.0472867613915893,0.04718274000999771
111,0.04731154779521681,0.04724176351830728
112,0.047293105173847085,0.04721000350147321
113,0.0473273498155802,0.04749569248322812
114,0.04729794608287626,0.04780824799987399
115,0.04733043803508095,0.04753204585944656
116,0.047276753137151684,0.04726081332390292
117,0.04736506337855312,0.04742586667389971
118,0.04729514705280749,0.0481413992881869
119,0.04725481804421575,0.04707947504819145
120,0.047349511360605175,0.04746416223183239
121,0.047277462170671504,0.04726704824848164
122,0.04728267747584245,0.04730566945911959
123,0.04730234370767165,0.04759131878873167
124,0.04727672692611635,0.04801830188933563
125,0.04738373420596551,0.047236182104322795
126,0.04730773482659309,0.04749533707524437
127,0.04725934328923789,0.047317212698915014
128,0.04729682593483576,0.0480607149662375
129,0.04733866629608387,0.04744657654765091
130,0.047291373038928,0.04724610706566353
131,0.04735209995495091,0.047317148531010135
132,0.047281004696917664,0.04802442190914335
133,0.04732082504406869,0.04731163192884416
134,0.04725274819728854,0.04741638835340197
135,0.04734688811450839,0.047273658607052176
136,0.04726732947932873,0.04722056013032876
137,0.047275940184112936,0.04765907667971259
138,0.04732829432854121,0.04710832081188249
139,0.04729886105109891,0.0472120746217474
140,0.04727457427113748,0.04748919529762434
141,0.04731326489348253,0.04742996569284794
142,0.04726829909705382,0.04720304870791292
143,0.04726086362308974,0.04720188095142452
144,0.04730535286972277,0.047571456875731465
145,0.047282539954264576,0.047095962245114316
146,0.047294125937634136,0.0484692471773726
147,0.04729768617315401,0.04728257093334537
148,0.04730740558210132,0.0471070664034364
149,0.047252884393723174,0.04717854195184
150,0.04727770186228146,0.04729613458595129
151,0.04728398087481372,0.047192354011036976
152,0.047328430300148175,0.04719195289106565
153,0.0472541331848819,0.048998718582911105
154,0.04727226725483922,0.04761201007131431
155,0.0472922568126834,0.04729501875418796
156,0.04729736225752474,0.04708265061854093
157,0.047241383810623656,0.047495958598914256
158,0.04727598651648044,0.047277463589748624
159,0.047279213031800056,0.04716025574548845
160,0.047304360523557874,0.047507371832840824
161,0.047284669950783106,0.047132491938999155
162,0.04724006962439092,0.04718528375405915
163,0.04732948391855382,0.047615552040283005
164,0.04730038342180012,0.0474273609151827
165,0.04729613330033567,0.048490588583387347
166,0.04723383491631034,0.04738499767837227
167,0.04725627064687028,0.047917968610444214
168,0.0472503182866114,0.04720110034286364
169,0.047326645542153545,0.04738818122854643
170,0.047239018452289006,0.047696581861590814
171,0.047330548203618025,0.04754413780186622
172,0.04724060733922475,0.04733756193398676
173,0.047344537579910834,0.0477925319380429
174,0.047252792774213494,0.047382090258358406
175,0.04725855954890724,0.047271301747897336
176,0.047276320442152346,0.04765555053808224
177,0.047257666653997416,0.04717294819470739
178,0.047300016879737616,0.04763266498600768
179,0.04720925782128966,0.04752781838413854
180,0.047295661477876796,0.047399468902254445
181,0.047265054963284925,0.04726466821137619
182,0.04724916295080686,0.04730834884843962
183,0.04726484793273331,0.04720936695315185
184,0.047265402411373496,0.04705163028793911
185,0.04728577725833459,0.04716652273049765
186,0.04728616256829646,0.04752914778353101
187,0.04726219718470324,0.04782099570217524
188,0.04720722686954968,0.04802464169539047
189,0.047286074834880974,0.04707179287920435
190,0.047262874654502414,0.0472733855024039
191,0.04729589466437352,0.04731508994205975
192,0.047305204231831,0.04765061645723744
193,0.04723923548246078,0.04719188468620451
194,0.047276954587212476,0.04723929869923991
195,0.04724896080988488,0.04728275431936053
196,0.047251357096169205,0.047323642044248035
197,0.04723621803603108,0.04738742618835527
198,0.04729666157389621,0.04715313105281639
199,0.04724913612186766,0.04735696626549268
200,0.04724076966629278,0.04724465564022689
201,0.04724931789131807,0.04802761270408096
202,0.04724602275591293,0.04719385763464147
203,0.04726084353153606,0.04717279952416386
204,0.04726343121317079,0.047686539331617185
205,0.04726534851526709,0.04747912833421552
206,0.047270636914743126,0.04737914738193119
207,0.047246482540413345,0.047161443048725
208,0.04725351781814361,0.04723896668384465
209,0.04726577777680543,0.047292550762596336
210,0.04727575080625588,0.04764994941563614
211,0.0473594521950308,0.0472009403053333
212,0.04725351311314068,0.047085066432546424
213,0.0472510933926661,0.04768722445572467
214,0.04723438686973376,0.047375128755159236
215,0.04720949634409351,0.047499914630812365
216,0.04729924033389246,0.0472876175373628
217,0.04723427013801537,0.04717475102057397
218,0.047277574620241646,0.04716424572251402
219,0.04725281272580822,0.047150522602785266
220,0.04722705001024891,0.04720828363461671
221,0.047257826403736304,0.047532744729198995
222,0.047239161456088655,0.047256104130630146
223,0.04727315850597587,0.048131530420838516
224,0.04727621684573013,0.04724714324031181
225,0.0472268324827762,0.04716214168031759
226,0.04729172453838144,0.04753351514099052
227,0.04721720857794384,0.047139109648181965
228,0.047221506182714805,0.04820988046471397
229,0.04731759067615874,0.0471658972286764
230,0.0472421362209949,0.047481040716547615
231,0.04726982289563409,0.047228798576011
232,0.0472453436259624,0.04744534786046727
233,0.047234724324157866,0.04778890339356289
234,0.04721545449180378,0.047643842944476954
235,0.04726202997396128,0.047054116676643123
236,0.04726832890682083,0.04717466509191653
237,0.04725694707888874,0.04715993926340704
238,0.04723882356540953,0.047391990983260364
239,0.047229239434230144,0.047241396628667165
240,0.047249050715641915,0.047155051103307206
241,0.04720449094756616,0.04743958600071254
242,0.04727010253510124,0.04727624576971017
243,0.04724677865036862,0.04719617181614147
244,0.047222552731704656,0.04725196812634122
245,0.04723012018397891,0.04720244620174711
246,0.04721081434495205,0.04777873216906964
247,0.047281816506462036,0.04715306745825928
248,0.04729662714250606,0.047200938511783905
249,0.047207159662453965,0.04731040868699409
250,0.04731019926544049,0.04726558966648889
251,0.04726147445605146,0.04724266149556439
252,0.04720925732994442,0.048840409137408565
253,0.04725084740885918,0.04713239489033548
254,0.04722536755480069,0.04742301234588815
255,0.04726118049014815,0.04724646909507881
256,0.04721076071536322,0.04830865653697769
257,0.047240497666499695,0.047156199892275714
258,0.04719947323465137,0.04715912204291657
259,0.04729450028464138,0.04721180660372281
260,0.047189445722458076,0.04727709763804664
261,0.04724048166800079,0.047159301192038816
262,0.04726637681748131,0.047356692578675905
263,0.04722937922492969,0.047182253667027725
264,0.04719428320398195,0.04719968153944426
265,0.04724221148913046,0.04728091268814165
266,0.04720174883909935,0.04727213129389446
267,0.04725754795094236,0.04723015843634071
268,0.04723137808289173,0.04728400293846439
269,0.04725127416900356,0.04773231182944238
270,0.047205713067611725,0.04715750004505208
271,0.04725370376998429,0.04792136713662482
272,0.04726412790648038,0.04815825920525553
273,0.04720555939417568,0.04719013487589387
274,0.047230686521906554,0.04743277871923928
275,0.047252622505219624,0.0476508581336079
276,0.04724477276468067,0.04717244124944133
277,0.04721718727738308,0.04722713408866734
278,0.04726034787585505,0.04717381406449011
279,0.04723679888204371,0.047146613303139726
280,0.047188095280902086,0.04713803114870824
281,0.04723912450692636,0.047377281429006435
282,0.047217661242405,0.04733238354231207
283,0.047276341540219306,0.04742065139979289
284,0.04720098071461387,0.04717442961064209
285,0.047217575457992315,0.047264669631514475
286,0.047252101342764787,0.04747657544305217
287,0.04718436612535438,0.04741181726637278
288,0.04722487432606739,0.047260058239608084
289,0.04719942296556622,0.04974433923788492
290,0.047285378543581134,0.04776725651668392
291,0.04720411649186739,0.04743810372916657
292,0.04725432326104477,0.047634811726440664
293,0.047198650487464106,0.04726908228638705
294,0.04723861626834035,0.047072226874054
295,0.047233002386885964,0.047246782707481186
296,0.047257270602930744,0.04767723700829914
297,0.04725590000877516,0.04711743425386763
298,0.047198627699467297,0.04713047720968206
299,0.04718008679713753,0.04724990759682919
300,0.047239615161308375,0.04714174543661025
301,0.04725376344014177,0.04709888453982718
302,0.04722496447898596,0.04718667000308692
303,0.04718263845274345,0.047127995722366305
304,0.047211317424413014,0.04713394874214373
305,0.04721850336646195,0.04734074310256255
306,0.047195240097354166,0.04773338360751626
307,0.04726297462241446,0.04722733969705351
308,0.04723028275374171,0.04728100470604629
309,0.04722534396278439,0.04722068951874619
310,0.04725811150160244,0.047095851744830185
311,0.04723945847279924,0.04717438064674364
312,0.0472250398647466,0.047220346803799704
313,0.047175178692924036,0.048128598373333296
314,0.047238097942287595,0.04730111062409093
315,0.04721037036241244,0.04747592455809664
316,0.047161197601009806,0.047205100910651374
317,0.04730295330333672,0.04730143769105401
318,0.047159556361982866,0.04748842006383115
319,0.04720560642187115,0.047536080448808124
320,0.04727206237131743,0.04713643339022277
321,0.047170608028245395,0.047234911268728405
322,0.04726764338640429,0.04701582222130229
323,0.047225897753541225,0.047242876983173455
324,0.047203131451857366,0.04713436385180034
325,0.047213915550856474,0.047162453957848786
326,0.04722720776036155,0.04772601474514606
327,0.04720503785204497,0.04722542139600842
328,0.047238449718681075,0.048322425480423335
329,0.04722469589032,0.04766616061176949
330,0.04720040034505722,0.047423893087429614
331,0.047219322686143914,0.047352877266899095
332,0.04726882589211186,0.04719327249356208
333,0.047179488188249886,0.047071835206970045
334,0.04726210675931139,0.047369921134509906
335,0.0472050043973896,0.04712076551900572
336,0.04717712220307782,0.04738767483016592
337,0.04725114895934634,0.047265369283372057
338,0.04716135407213589,0.047480871373142136
339,0.04726687165276467,0.04729573482731335
340,0.047160069502109915,0.04716151913638273
341,0.04723562274893506,0.04708594269609489
342,0.04722805218331867,0.04730969839144995
343,0.04719425288946937,0.04711080207573963
344,0.047217880870750864,0.04732260224133753
345,0.04722759940569921,0.04714250328767554
346,0.04723666931728093,0.047097945857819554
347,0.04721212672065202,0.047126542641571775
348,0.04731943262376183,0.047259958230117784
349,0.04719311679950912,0.04719544075364754
350,0.04714065501622731,0.047095825917718916
351,0.047286677033566746,0.04767053731920781
352,0.04715107136713467,0.048255610852351596
353,0.047253475217022105,0.04733657971871304
354,0.04722322187096857,0.047218470827580065
355,0.04717448478985986,0.047192371955351656
356,0.0472246437228555,0.04729979368251614
357,0.047213499449926026,0.04732943545871112
358,0.047195343007381964,0.04757622191895626
359,0.04722162726656091,0.04804194820331793
360,0.04724946613613364,0.047868684266459405
361,0.04720656640327377,0.04744583902837916
362,0.04718923345535732,0.04711709781634403
363,0.047252837267758654,0.04758872321403299
364,0.047196063699184373,0.047098393751206884
365,0.047232645764041674,0.047206686702340066
366,0.047212715871888196,0.04703295905063636
367,0.047172113720008985,0.04719753282022646
368,0.04730295058753756,0.047187569506331135
369,0.047207316775306714,0.04738894974388
370,0.04720372575477397,0.04715312551339499
371,0.04720613751247776,0.04714423416868946
372,0.04721189788628301,0.04717983820291138
373,0.04720291418494652,0.04717424121444961
374,0.047275767881247543,0.047254520729360566
375,0.04717346456357472,0.04719568711382814
376,0.04723727280835358,0.047349269718707974
377,0.04721394433922095,0.04709857416757469
378,0.047288520828925734,0.04713122596951009
379,0.047164007333471335,0.04723420256973724
380,0.04717132651048313,0.047282951412797446
381,0.047205830198362005,0.0472632091354223
382,0.047292157675591494,0.04707619420531329
383,0.04721945896893621,0.04721447722523252
384,0.04717696613693933,0.04721410007119743
385,0.04719762154501214,0.04735041370037605
386,0.04720809247097571,0.047143388051472036
387,0.047194897576118354,0.04716431153989629
388,0.04722018752375143,0.04715138040159571
389,0.047215278329644846,0.04709957589431362
390,0.04719755850988422,0.04737853067144222
391,0.047183620400256296,0.04719066180306433
392,0.047203271400382954,0.04731949470825523
393,0.04720684987821167,0.047139646963237684
394,0.04724303099939482,0.04716648552169834
395,0.047162816952839554,0.047087096518762674
396,0.04720217166103714,0.047226094188728765
397,0.04725023434846569,0.04722279874165414
398,0.047167107614753345,0.047736405085510594
399,0.04720195303920457,0.047128288785397016
400,0.04717845218531567,0.04730201839236359
401,0.04725358154711058,0.04752297093466971
402,0.047207554744230475,0.047105364207451796
403,0.04719539356234072,0.047840722305104784
404,0.04719582930516949,0.04729840604569278
405,0.04719777650487938,0.04720019719665598
406,0.04714425252549511,0.04704802516250979
407,0.047204797523175114,0.047132551276081645
408,0.047190358232465576,0.04771694180797477
409,0.04719998157746214,0.04712602930127304
410,0.047202407870051574,0.04706265477150467
411,0.04724321399869726,0.04731951884178543
412,0.047178267920426994,0.047980882395014766
413,0.047197101366736716,0.047470753675807435
414,0.0471999270292066,0.04716603758714758
415,0.04718831236765301,0.04731259925177743
416,0.04721541342725285,0.047214563386169306
417,0.04721813429024913,0.04867002613189753
418,0.047208212067385756,0.047147971252310246
419,0.047169209317230495,0.04723618332452443
420,0.047228884145462634,0.04719617264529054
421,0.047190594514437335,0.04844920346020899
422,0.04721548902592975,0.047218802516608135
423,0.04717834895665792,0.04715596530777597
424,0.04717309489923654,0.047322419825603194
425,0.047182232680485596,0.04733814620181342
426,0.047247111833066964,0.047089868490514365
427,0.04717936049059903,0.04746186296325456
428,0.047194176975140376,0.04725094747030556
429,0.047174987589402924,0.04717739829947935
430,0.04722725488483715,0.047182195835350625
431,0.047200797436882456,0.04715924721208255
432,0.047219680053450695,0.04711644534953673
433,0.047198554920814303,0.04760734395556969
434,0.0471923066024705,0.04706358902256321
435,0.04717699837365406,0.04702186523315562
436,0.0472090310877938,0.04732407423378731
437,0.04720932503136323,0.047317450017842516
438,0.04719395079999138,0.047322574270787725
439,0.04721693296452983,0.04738625019036039
440,0.047200523683135744,0.04823931062560243
441,0.04721219872506403,0.047387213835047286
442,0.04719811799726802,0.04733260009428979
443,0.0472216116015812,0.04731601103258208
444,0.04720044469417666,0.04727640214369536
445,0.047190289936965696,0.04754274571645232
446,0.047166019192726304,0.047269411302732496
447,0.047172054319346936,0.04728836679997271
448,0.047192865544907765,0.04712749649230288
449,0.04720875612950678,0.04717849360539298
450,0.04722321954675668,0.0472008440475955
451,0.047191737155667504,0.04735503762948673
452,0.0471875738891528,0.04721939590507449
453,0.04718620773794935,0.04724842334943864
454,0.04722367325644318,0.047175724273981215
455,0.04718579738129148,0.047250995272807274
456,0.04721911859621914,0.04714908944509024
457,0.04730300513877095,0.047321098514824474
458,0.047148080031982335,0.0479180897926381
459,0.047164670540858135,0.047388994282709866
460,0.04718931751559488,0.04736672845487531
461,0.04723656608564533,0.04792019442582375
462,0.04719027172443535,0.047094174496823626
463,0.04723120101993318,0.047724994162616524
464,0.047172652733185404,0.04712950437672983
465,0.04717876995615155,0.047909592734774735
466,0.047203519577376375,0.04744205970225978
467,0.047206355415159565,0.04707511121608558
468,0.04718503011442679,0.04738752655067496
469,0.04718664698719645,0.04709692080317752
470,0.047196939980669275,0.0471776990247883
471,0.047187713379089495,0.047108779719427236
472,0.047186028754277576,0.04719236484289922
473,0.04718787270299584,0.047461831684929234
474,0.04717319312361743,0.047203310807224515
475,0.047190270315912324,0.04824343256375972
476,0.0472371466889632,0.04746813839558738
477,0.047180672854387595,0.0470930853713048
478,0.047170610182719834,0.04722658968468115
479,0.04721962456419457,0.04717432451158785
480,0.04720843134136747,0.047363401408988655
481,0.04723370884754342,0.047582162022237806
482,0.04711703688418455,0.047110137274604946
483,0.04722625668273031,0.04706272415540401
484,0.04716210885585355,0.04725459544392392
485,0.047184711338566554,0.04725869932015674
486,0.04718326422557842,0.04714960335873673
487,0.0471589897843383,0.04712590406448143
488,0.047214785790283806,0.047356223400855685
489,0.04722080263588354,0.04712801980885259
490,0.04717292921166483,0.04736661668440537
491,0.04721674086342899,0.04719264246964417
492,0.04719154728199843,0.047442093403346916
493,0.047177600481515404,0.047300114798423526
494,0.04721736487188785,0.04719040814813612
495,0.047155413146820854,0.04727654570115299
496,0.047196588893648056,0.04713078425063707
497,0.047200647628695656,0.04711457252231939
498,0.04718371502292766,0.04734141334609056
499,0.04716980281463868,0.047068736285865075
500,0.04720349485973279,0.04711342957855776
