epoch,loss,val_loss
0,0.6541559359667639,0.6515683851821843
1,0.651209165608813,0.651573316749213
2,0.6509225208478074,0.6506987815755176
3,0.6507273648708778,0.6509506014972999
4,0.650665284093712,0.6505166371466208
5,0.6506013716401989,0.6505613858587392
6,0.6505362033817174,0.6505292808447523
7,0.6504985650075965,0.6504148721694947
8,0.6504998142779125,0.651153352982353
9,0.6504370536626051,0.650486226827276
10,0.6504107251832564,0.6503448609382876
11,0.6503951680049537,0.6504248932928365
12,0.650367911400644,0.6503504973487286
13,0.6503700817248654,0.6507572244473782
14,0.6503511314787387,0.6503226542886966
15,0.6503300486309422,0.6502903667040557
16,0.650299837683734,0.6506933441233103
17,0.6502945446893613,0.650292748700892
18,0.6502876075144185,0.6504080192622712
19,0.6502799078360869,0.6502594756429307
20,0.6502733872207871,0.6502497327238986
21,0.6502606331843784,0.6502643824511072
22,0.6502717618072278,0.6502355193086061
23,0.6502529539272303,0.6503301191862404
24,0.6502714453972083,0.6502192155599003
25,0.6502569448092659,0.6502434358111682
26,0.650245772138252,0.6503419767538312
27,0.6502457769556256,0.650226929081285
28,0.6502409472029577,0.6502423066063495
29,0.6502367003643263,0.6503089889107507
30,0.6502314490958082,0.6502330295797022
31,0.650233266984228,0.6502514805746433
32,0.6502501526185729,0.6502196254564574
33,0.6502239071484005,0.6503845639915088
34,0.650232012461894,0.6502579249755917
35,0.650225307372029,0.6503214989347434
36,0.65022329039758,0.6502125017992024
37,0.6502223518616649,0.6502433208318857
38,0.6502273888954978,0.65026723865244
39,0.6502170779813874,0.650190880458349
40,0.650215192564544,0.6502023797177203
41,0.6502183902617195,0.6502100366220877
42,0.6502177496520023,0.6502234901742959
43,0.6502097136236528,0.6501896529280519
44,0.6502173385652491,0.6502943197491743
45,0.6502134200952722,0.6501875420657932
46,0.650211565443516,0.6502609905770635
47,0.650214233292703,0.6501948998228788
48,0.6502072788400569,0.6503126201499485
49,0.6502087507121586,0.6501985749003313
50,0.6502075816680332,0.6501797023837087
51,0.6502081787857096,0.6502075116628453
52,0.6502001100714764,0.6503021877693479
53,0.6502015498201288,0.6502806487805198
54,0.6502029957650264,0.6502846811308755
55,0.650200940121432,0.6501799191789651
56,0.6502031445309183,0.6501827113385827
57,0.6502048253438795,0.6502472726346246
58,0.6501960984677136,0.6501993716502604
59,0.6502010658969272,0.6502227743565296
60,0.6501970828227126,0.6502415432527698
61,0.6501961880896365,0.6501798709332204
62,0.6501920993471566,0.6502091739372935
63,0.6501984030938739,0.6501879165249486
64,0.6501958657444739,0.6501951118556797
65,0.6501910201371488,0.6501989306646304
66,0.6501984395432567,0.6501751087143759
67,0.6501892322399758,0.6502162815323539
68,0.6501950480775428,0.6501865941300877
69,0.6501935066260642,0.6502203598211775
70,0.6501922058586793,0.6501861632313977
71,0.6501879350317835,0.650221249897486
72,0.6501915395804937,0.6501827065761273
73,0.6501878926922208,0.650239853054359
74,0.6501879867552461,0.6510612148209186
75,0.6501928464297438,0.6502946315273161
76,0.6501869259659536,0.6502446763864522
77,0.6501868483697161,0.6502462731401618
78,0.6501835423774776,0.6502037123770039
79,0.6501883967297516,0.6502224050147953
80,0.6501814204754729,0.6501706982664671
81,0.6501829374598683,0.6501587749710745
82,0.6501872669385044,0.6501754100506122
83,0.6501822692924393,0.6501608398357042
84,0.6501781837959874,0.6501793459982198
85,0.6501906094739963,0.6501528608296113
86,0.6501779657796598,0.6502430904887746
87,0.6501794954137037,0.65030120182274
88,0.6501794981477821,0.6501936019206461
89,0.6501885218520971,0.6503244604721259
90,0.6501791057002495,0.6502200582778779
91,0.6501858191548483,0.6501764449824766
92,0.650180611699424,0.6501721073321018
93,0.6501805149551717,0.6501590983151798
94,0.6501754052205688,0.6501632480408358
95,0.6501727824395013,0.650180983484235
96,0.6501739680939813,0.6502450456394451
97,0.6501721409100104,0.6502574468664732
98,0.6501732806128836,0.6501699120176045
99,0.6501782980135723,0.6501595088033463
100,0.6501710343757839,0.6501612479278527
101,0.6501735691291505,0.6501699155376803
102,0.6501752019324519,0.6501770001487164
103,0.6501722830371246,0.6501610223471971
104,0.6501682167336507,0.6501760975007088
105,0.6501783742711684,0.6501547333028713
