epoch,loss,val_loss
0,1.4596406883663602,1.461107534221899
1,1.4578045619001014,1.4634445009028338
2,1.459707997781005,1.464506599878644
3,1.4626081229018555,1.4652956847421936
4,1.4612223167690062,1.48269404043997
5,1.4650218840792693,1.4665364170036828
6,1.4632540601048825,1.4689529613895311
7,1.4613626162401683,1.4652069791998559
8,1.4632077697846149,1.4653899965083026
9,1.4630258563611147,1.4670678968963984
10,1.4615430813803851,1.4661419170525662
11,1.4655410225728718,1.4670989679932689
12,1.4621332735657024,1.4703594583550492
13,1.4647100206664045,1.4705270430001105
14,1.4630562401503968,1.4670639198976139
15,1.464071165695846,1.4676670180405795
16,1.4663343984160206,1.469715018110569
17,1.4618613300658911,1.4684141240161332
18,1.4623869095774864,1.4683254575202478
19,1.4639962366063723,1.4684761938563273
20,1.4650815287463481,1.469275590558643
21,1.4614441511537626,1.467489284046447
22,1.4642752688660992,1.468904947707666
23,1.4656103459193552,1.4650001464721811
24,1.4655347745672023,1.4737705365823024
25,1.463327699809147,1.4654048045225376
26,1.4628228083979502,1.4698734751063816
27,1.4643782382007602,1.467804897461901
28,1.4628190408698278,1.4704005067143369
29,1.4654647583107678,1.4692015854881426
30,1.4650290089069034,1.4701910160993532
31,1.4650174855328293,1.4691404127754748
32,1.464559020041276,1.4699991934865877
33,1.4632600180917887,1.46921141352725
34,1.4630946014806046,1.4660021093010245
35,1.4619589594723605,1.467261239309996
36,1.4639647169936476,1.4679767126724677
37,1.4648340143364587,1.4675264345348211
38,1.46406283953207,1.4633778102207862
39,1.4642693408482748,1.4640559380507978
40,1.4637845886601724,1.4690759468944221
41,1.4637102115926126,1.4691082256086812
42,1.464209044484688,1.4657223351658473
43,1.462860725194716,1.4760160189307197
