epoch,loss,val_loss
0,0.7806538888730697,0.7804021242238748
1,0.7786687714915577,0.7784811902578652
2,0.7785275608955495,0.7783277937259627
3,0.7784082570507446,0.7785641172683564
4,0.7783459512114381,0.7782239568144749
5,0.7782981143974815,0.778271122310061
6,0.7782737045911828,0.7783221430873161
7,0.7782378572853241,0.778193579743577
8,0.7782159996654943,0.7781997474783999
9,0.7781847339296093,0.7781463885721439
10,0.7781695261745736,0.7782484786090424
11,0.7781462077711996,0.7780737326103759
12,0.7781343135235682,0.7781362146952607
13,0.7781244364633695,0.778123974238081
14,0.7781042100210663,0.7781436739725156
15,0.778105099458739,0.7781347009739272
16,0.7780889952841126,0.7780997110359722
17,0.7780857966292998,0.7781201928484233
18,0.7780814276737583,0.778041814278728
19,0.778077830887906,0.7784872756110823
20,0.7780705714356398,0.7781273683010792
21,0.7780707282546786,0.7780261048903832
22,0.7780677187190512,0.7780217079903292
23,0.7780570830349205,0.7780557721779305
24,0.778057135094424,0.7780346503624549
25,0.7780549364520603,0.7780664547205562
26,0.778054021572313,0.7780596897856473
27,0.7780506154186185,0.7780553649436156
28,0.7780474826349014,0.7780866575004445
29,0.7780408511718906,0.7780126295669498
30,0.7780427965941035,0.7781889428275987
31,0.7780376388001449,0.7782140569414749
32,0.7780378089306589,0.7780992205030569
33,0.778041391766085,0.7780110692267974
34,0.7780307254706886,0.7780090623694673
35,0.7780350764015066,0.7780192259819277
36,0.7780337531170218,0.7779937469042264
37,0.7780364790736577,0.778128252283811
38,0.7780289068833671,0.7780155261752032
39,0.7780264387607378,0.7780095694378647
40,0.7780271778966702,0.7779977027299091
41,0.7780291930528702,0.7781696473398516
42,0.7780376517408709,0.7780370703110329
43,0.7780320285138429,0.7780038313297717
44,0.7780311979953233,0.778023402980776
45,0.778032942099912,0.7780307686358469
46,0.7780209513036578,0.7779969843386421
47,0.7780207870948769,0.7780083472616324
48,0.7780349399310792,0.7779991239531164
49,0.7780237524119528,0.7780024121771971
50,0.7780192571129598,0.7780034886104593
51,0.778025946929534,0.7780136733729549
52,0.7780197939160461,0.7780508967546317
53,0.7780218670676816,0.7779934125857673
54,0.7780239136918148,0.7779990209835043
55,0.7780168208108699,0.7779828864942413
56,0.7780224400140854,0.7780331510763902
57,0.778026345898309,0.7779977990734962
58,0.7780206086114616,0.7780054299470509
59,0.7780213078539872,0.7780058570890214
60,0.7780190496125006,0.7779984143768292
61,0.7780145725125622,0.7780607535288884
62,0.7780203373397672,0.7779911841411449
63,0.7780169178343673,0.7779993442684486
64,0.7780160997170152,0.7780127773213918
65,0.77801883247335,0.7779808058928024
66,0.7780150383558223,0.7780915917297155
67,0.7780200840904298,0.7780380608721938
68,0.7780159400794936,0.7779868376166293
69,0.7780165130755936,0.7780176527742713
70,0.7780196343613514,0.7779940660774856
71,0.7780146117733286,0.7780188369987621
72,0.778019208714408,0.7780139722835929
73,0.7780137655673834,0.778049562261359
74,0.7780130948378405,0.7779870390596224
75,0.7780135251096836,0.7780014451916697
76,0.7780134294855672,0.778342808979025
77,0.7780135913515285,0.7780583512398505
78,0.7780159786042834,0.7780123375781417
79,0.7780132347207386,0.7779944401816754
80,0.7780155176178383,0.7781800448154989
81,0.7780154281915448,0.7779988742643787
82,0.7780134288024421,0.77804953708838
83,0.7780077012386906,0.7780380974040729
84,0.7780114322515429,0.7779937190098443
85,0.7780185942030706,0.778006536404489
