epoch,loss,val_loss
0,0.5606830340650912,0.5576794620187348
1,0.5571357138709607,0.557075215746688
2,0.5569691404956056,0.5570900457964346
3,0.5567847125990382,0.5564539152398594
4,0.5566360083539932,0.5566139449552626
5,0.556503810574105,0.5565208988509166
6,0.5564431144136025,0.557115856796577
7,0.5563838179726672,0.5565913130272707
8,0.5563545900678479,0.5564925704937124
9,0.5563013756293005,0.5561811087149249
10,0.5562739396178576,0.5562021436525634
11,0.5562724210423958,0.5561765599783242
12,0.5562414806839289,0.5564615336600367
13,0.5562304479123784,0.5562182852411388
14,0.5562198714574103,0.556119957484915
15,0.556206361718889,0.5562035571552684
16,0.5561870140382582,0.5562110941699954
17,0.5561907722120418,0.5564964508596189
18,0.5561856525397818,0.556229630741233
19,0.5561646057824514,0.5561604283287862
20,0.5561682689040192,0.5562743095547035
21,0.5561723184322733,0.5560895141241864
22,0.5561769926927115,0.5563468016998347
23,0.5561320337652726,0.5563095073546133
24,0.5561196095710494,0.5560861683069328
25,0.5561460523815743,0.5561097499454584
26,0.5561167240155444,0.5561114765574263
27,0.5561228644866644,0.5561940490164177
28,0.5561175083994488,0.5571768276448877
29,0.5561118478245626,0.556479807379228
30,0.5561139184582585,0.5560673544779605
31,0.5561062588310991,0.5562586780221528
32,0.5561078990146769,0.5560598392344586
33,0.5561044615689582,0.5560371639414993
34,0.5560979377155189,0.5563274197483773
35,0.5561034812748467,0.5561711681391998
36,0.5560980922532665,0.5560689164154583
37,0.5560998866748372,0.5560427634355152
38,0.5560844254385486,0.5561306319520728
39,0.5560932816959431,0.5560869297082016
40,0.5560811864122993,0.5560453350727375
41,0.556078708085389,0.5560716140950583
42,0.5560765174062455,0.5561315385047023
43,0.5560790181035339,0.5561015255989566
44,0.5560744114622346,0.5561626463610836
45,0.5560811039182277,0.5561303058865644
46,0.5560762279867705,0.5564711573106184
47,0.5560672588109911,0.5560495479526946
48,0.5560823436610772,0.5560021354601934
49,0.556061397155918,0.5562194121682614
50,0.5560681546563149,0.5560406897559059
51,0.5560590737556474,0.5560470024054459
52,0.5560673223227017,0.5561095303400575
53,0.556064753678122,0.5560017021654853
54,0.5560553782250747,0.5560104590787486
55,0.556068214585168,0.5560275020729519
56,0.556056778742936,0.5564956157142412
57,0.5560619104669127,0.5560194976572364
58,0.5560595273823258,0.5560169587951735
59,0.5560585527977524,0.5560366969546372
60,0.5560471781173121,0.5561779178697477
61,0.556063451230533,0.5560020660348329
62,0.5560418100501632,0.5563459595143055
63,0.5560503838613235,0.5559935657617177
64,0.5560483893763655,0.5559957808063877
65,0.5560479345830103,0.5561736127283082
66,0.5560404934249658,0.5560140443498975
67,0.5560601852878893,0.5561018867469011
68,0.5560514740147444,0.5562266623116013
69,0.5560396828133136,0.5561925714128366
70,0.5560469428603563,0.5560474684161525
71,0.556039132548086,0.5559969631673088
72,0.556042383551902,0.5569588847254997
73,0.5560481307716737,0.5562578270216437
74,0.5560465242221511,0.5563975680258966
75,0.5560442357551357,0.556201811404737
76,0.5560425095553686,0.5560576512559177
77,0.5560413172455454,0.5560202595022121
78,0.5560340221658553,0.5562281121687025
79,0.5560427223646414,0.5561236501627466
80,0.5560363626844856,0.5559944449524135
81,0.5560441649948831,0.5560267957209357
82,0.5560432440474695,0.5560921488861292
83,0.556043019035025,0.5561454532164202
