epoch,loss,val_loss
0,2.1281568571436797,1.9128509731676604
1,1.869591405351671,1.8851169263084009
2,1.8716737115316444,1.7641110474797996
3,1.8063224795148622,1.7922155381942604
4,1.8071393808491414,1.7728231593013846
5,1.7690297167935818,1.7639564018881781
6,1.7606697233556081,1.711200719944774
7,1.751626348133377,1.7767973895513267
8,1.7493264687528236,1.7591893816897506
9,1.7402229420096278,1.7338128565989241
10,1.738924466591659,1.6759988875867065
11,1.7347598725276219,1.7169975917360025
12,1.7376109004306564,1.684781307014971
13,1.7175331538339123,1.6916091061052414
14,1.7190603644346638,1.7092097323055613
15,1.7201474101709233,1.7558006903460954
16,1.724013778660223,1.7349101545872798
17,1.720083753029696,1.6675859387690568
18,1.7118092731510897,1.660982840439421
19,1.7121100459072134,1.707444087482383
20,1.7029313603274638,1.6813563938298937
21,1.704110714886114,1.7202283429083338
22,1.7029871346948626,1.6549534903046834
23,1.68745331160075,1.6574743658704088
24,1.6837895197167003,1.6997481842349624
25,1.6890118090178279,1.6707387764621364
26,1.6889864243477655,1.6294871722983861
27,1.6745180689650092,1.6449270244649572
28,1.68156647367729,1.6491803570629202
29,1.6905968291201086,1.6560334496923386
30,1.688254725065925,1.654862082183314
31,1.6950951587858436,1.678407597372451
32,1.6796816609841552,1.6510543476058068
33,1.669478476619263,1.6613595456520027
34,1.668592508367116,1.6521005762216137
35,1.6801046346493667,1.6505593309839033
36,1.675821983938118,1.6755404303933845
37,1.6764317819540449,1.6520269558762788
38,1.6715416410367647,1.6229809175444665
39,1.6646252029614863,1.6336885065004971
40,1.6721481367838469,1.6381038994702564
41,1.6676418063737792,1.6380341021960048
42,1.6779381415540937,1.6603700054284618
43,1.6590025377311677,1.5958388270405963
44,1.6627552786128794,1.645204733936638
45,1.6529413555547012,1.6005917884462353
46,1.6610779890911185,1.64405152387476
47,1.6515724605126538,1.6201182191731334
48,1.6531047686684333,1.5955078078708784
49,1.6372506322620584,1.597112061757221
50,1.645251902316114,1.6296224463334117
51,1.6424503777143384,1.6303046199404168
52,1.6436047897064427,1.6135136599416515
53,1.6387740941070539,1.5841188359279377
54,1.6324577841350882,1.6367891966685029
55,1.623131802566141,1.5870034228936838
56,1.6385629875577992,1.6039499617413262
57,1.6263096720385228,1.6043648937130501
58,1.6209416106926928,1.5706635918688756
59,1.606454138847278,1.58054642848547
60,1.6022001299069082,1.5338248265664598
61,1.5841551826631042,1.5086827240502072
62,1.5628076240980178,1.4874123734757951
63,1.520688394657809,1.4606518299446016
64,1.4934886450009,1.4569166195891274
65,1.4376561028970707,1.3088699685558147
66,1.406878324602243,1.3337777361873575
67,1.3833125562881299,1.3890736833179478
68,1.3960203807607448,1.3986764968429481
69,1.4206163028923633,1.314819240061994
70,1.4120512122539974,1.3630279420206841
71,1.4177807048260926,1.3642138741387093
72,1.4151952488721609,1.383678556899904
73,1.4076163416190874,1.3677642567005324
74,1.4068193723448366,1.3561010036114736
75,1.3929755826600545,1.2707634118004116
76,1.4278607887091588,1.3925238167477483
77,1.4258053749442385,1.354277551738691
78,1.4167813606542363,1.4101328974929304
79,1.4359908034856752,1.4002500967238019
80,1.4200114725019148,1.33071267077936
81,1.4424325246795666,1.4948369136643203
82,1.4454621827002052,1.430068031670827
83,1.4408251437351858,1.4223736011803196
84,1.4456365432718294,1.3420090870115826
85,1.4327567197817217,1.4252228624912915
86,1.422662308366655,1.3797651536839162
87,1.4316014827107735,1.488925646587724
88,1.4349300700792973,1.4223318475386055
89,1.4175279249580834,1.4143512914193928
90,1.4218135908972636,1.429725383244449
91,1.4180361761463631,1.4478385954648374
92,1.4155053022763522,1.4620321586363505
93,1.4002206706457572,1.2845234836098145
94,1.3790366588641318,1.3813388369265935
95,1.3809026814193177,1.4037175657434922
96,1.3797586767984142,1.296388355784277
97,1.3637160589750246,1.2428511949910268
98,1.3640948142603242,1.3389452841682705
99,1.3444688814483006,1.2753471964536545
100,1.3566756896930727,1.3266185721545682
101,1.3554999943879202,1.410835559008718
102,1.3557088618322337,1.3389299067814895
103,1.3669078044897074,1.4423334773544636
104,1.395429342294292,1.2750246678644404
105,1.3891853091242217,1.376999583033567
106,1.4067829613872378,1.4766954821494027
107,1.407231526385299,1.378362905442856
108,1.3633420799466536,1.3138097750453752
109,1.3810476865128076,1.283752830600588
110,1.4013865507906862,1.450815636244174
111,1.4107048714237151,1.3463702759784135
112,1.3926725285373431,1.4038342778477597
113,1.3788196590783404,1.348147387286294
114,1.4340431171355488,1.4702877921200024
115,1.4371307109900229,1.3896352267208867
116,1.4649045749676886,1.4132215504394146
117,1.485810023512867,1.3852698908326375
118,1.5060125322078914,1.4638503910334164
119,1.513438777576724,1.508998368044208
120,1.529262733402298,1.4557217032117173
121,1.5766695893163398,1.6125266795658935
122,1.6686488030721054,1.5607192244413055
123,1.5842932840045407,1.4304236228200706
124,1.3864176936334462,1.1794725501734908
125,1.3831376289482789,1.3101035220564683
126,1.3155072351677908,1.2621489794779313
127,1.2660446622484116,1.1330321053397308
128,1.168917498523764,1.0855622489619838
129,1.1872868063829118,1.2734766493844722
130,1.2320784885439275,1.120236342924264
131,1.314592475894925,1.365906001924998
132,1.3530817936650283,1.2087265772902316
133,1.349114866136647,1.322644308409356
134,1.3715778932296971,1.4075893906974943
135,1.423603172401349,1.5756040205613027
136,1.4730295023853355,1.3789035855265424
137,1.3714096857537088,1.3594085367156843
138,1.368732425425169,1.3973156624924223
139,1.4087215444023946,1.550334765766207
140,1.3103642413179746,1.2909667669268414
141,1.2363594441915111,1.213716467582248
142,1.088998580507809,1.023472754806633
143,0.9179339447467447,0.7511295032435359
144,0.783226511711411,0.7421456448610316
145,0.7191802625842899,0.6692528381249805
146,0.6818749494403958,0.7349660395635049
147,0.6472376115816675,0.5994901232062688
148,0.627542474692007,0.5177128797642528
149,0.6177850494281851,0.48528384002720926
150,0.5872096770720707,0.4209609950797804
151,0.576762742442574,0.4800560523556647
152,0.5379958950537,0.5218626357197479
153,0.5495887870530335,0.5470171160319703
154,0.5380375731310589,0.48880003026929914
155,0.5782558616759966,0.48965328606029335
156,0.549841771439778,0.2856690521868741
157,0.5348635441203007,0.5862550215403114
158,0.5170619763213572,0.42736338549414865
159,0.5109258785450773,0.41171782554936576
160,0.4521805073300616,0.39265758935259193
161,0.46932319742288714,0.4266623614242722
162,0.4690941644015072,0.38360648893331484
163,0.49261933410887143,0.6178278820478925
164,0.5089464495233971,0.44005577353247527
165,0.5547999316315761,0.42874774314469016
166,0.5574865571195654,0.4372909125749201
167,0.6167224644423484,0.6119593186179013
168,0.6581054414323956,0.5828147872800232
169,0.6598565270074551,0.6247868954476731
170,0.6336315999047266,0.46810713899634254
171,0.631766778042467,0.6837521459328065
172,0.6599018353400089,0.5114083274810824
173,0.7054141694002395,0.8460398839041297
174,0.698219650273891,0.7080841324370775
175,0.714821440972489,0.6952078293276849
176,0.7102797096677059,0.5583754003800646
177,0.6924562092117078,0.8153680593081131
178,0.6570224076580944,0.5548080353635263
179,0.6776864103895488,0.5750595543830528
180,0.6605256442233718,0.5053396416679554
181,0.6879599029354626,0.6124869808260625
182,0.718338657054398,0.7449286740975956
183,0.6728343814254093,0.6727197162495322
184,0.6452600218171028,0.5672627610772636
185,0.6348789189573673,0.6097479571059828
186,0.643831021732373,0.7953248084673471
187,0.6335622363572688,0.4700135961468989
188,0.6188800525989273,0.4885811222145288
189,0.6106601328277093,0.5951322385337094
190,0.6521353808810099,0.6059892130302649
191,0.646314817807562,0.5780332452355169
192,0.6518705428528081,0.5507899788109073
193,0.6998501883493625,0.695777322752982
194,0.6614899063925092,0.6909952620022298
195,0.6281138311306255,0.5472543690979904
196,0.6371256486951209,0.6230016660530359
197,0.6366010715992902,0.4227771549217326
198,0.6527643069732103,0.6754190790060476
199,0.6548149943065872,0.6881155746841204
200,0.6359590189300662,0.4645954099760906
201,0.70299131040879,0.6503272067164472
202,0.7409712055937754,0.8223991305600402
203,0.6809749856507845,0.5453850504866528
204,0.6704850664718165,0.6684935851038772
205,0.6281881333469487,0.6570664776434744
206,0.6324520364737244,0.582908354764297
207,0.6311234265065594,0.4386223406187643
208,0.6664239547068743,0.7619016393019443
209,0.6634126547143328,0.6640241347435618
210,0.6043217588099931,0.681547446851196
211,0.5899155398162245,0.5687194515751777
212,0.5772464491016002,0.5209220665218139
213,0.6200600872151285,0.435945872796645
214,0.5964768157779075,0.6835342429948775
215,0.6674699925666423,0.6231570605838402
216,0.5991042553425597,0.7567014952955419
217,0.5799230541066109,0.5212525505669585
218,0.5936337350595959,0.49312219033113314
219,0.610104741035796,0.5478978931386356
220,0.6088817113047119,0.6478339531521394
221,0.5835146630803744,0.38889767745864046
222,0.5951037379703839,0.6284715849862103
223,0.6140172440978549,0.6354350354037326
224,0.6310247931358435,0.5164131027747066
225,0.5839089777329557,0.46330385026540355
226,0.5936042886557911,0.6348640517447064
227,0.610657158914468,0.6909700300435712
228,0.618046760082626,0.6647673715449922
229,0.6044489347058044,0.4602913397828142
230,0.6023270705168386,0.458099481291722
231,0.6381572785375597,0.4996451530385036
232,0.6540316448842498,0.6104404277799632
233,0.6268302943352029,0.37909234021720495
234,0.7398716112037452,0.6515774356867257
235,0.6738127897516619,0.6634459612683791
236,0.6636805615836768,0.8333731436927015
237,0.6748000415418741,0.7211644969169042
238,0.6644351084788831,0.6418229801126042
239,0.6171702138073057,0.5871806637499402
240,0.6164200676264141,0.5525213730975033
241,0.6458685121280875,0.7861892985093283
242,0.6456665838365074,0.30427602622672717
243,0.6236764980282048,0.5410077040507837
244,0.6239953718477969,0.6342053504185876
245,0.5880268187486201,0.8224409861929697
246,0.632038652777767,0.4453563611386983
247,0.6445826858901482,0.3818196994682514
248,0.6881695968641651,0.6438991393549949
249,0.7664280583461126,0.48323495695463015
250,0.6241352204248297,0.37525025958043906
251,0.6450744580736549,0.4185735677157976
252,0.6288104830242747,0.49187585019933583
253,0.6100894062281799,0.3758275701878291
254,0.6479697753247216,0.4319197240549462
255,0.6034743726896725,0.6005366959953835
256,0.6440445719589051,0.8622881411188874
257,0.6086877039332184,0.9670482806643822
258,0.6213522510562869,0.45259950686931233
259,0.6119740240984588,0.6145145188849463
260,0.6868650972914638,0.6570957666696671
261,0.622215744200275,0.571841631499255
262,0.6261882614984596,0.4409639835828105
263,0.6025134241528552,0.6517190712121121
264,0.6556192739285249,0.6994941756540899
265,0.6703914583181972,0.5512331530816365
266,0.6999135958395607,0.6973821802363211
267,0.6084936867586429,0.5744931724425273
268,0.6425896639303623,0.5385365366418247
269,0.5884952372688946,0.45209118608611726
270,0.6362120425529617,0.9304688324962155
271,0.6221557760314881,0.8323243545234532
272,0.6321211447842496,0.8929611786482554
273,0.6331839135272517,0.7088332467175132
274,0.6049011655086332,0.5442437025017878
275,0.7323263792349376,0.6604296322074008
276,0.6520987194266727,0.7158495202343014
277,0.6762806281483145,0.42916644120555086
278,0.6273750477700496,0.4619747762051547
279,0.6616170894947174,0.5089941853223678
280,0.6570489319275132,0.8070623457384749
281,0.6540687763266902,0.5239832866775208
282,0.6344174188818578,0.6333823406094158
283,0.630656933130549,0.49315403261895996
284,0.6571828424215889,0.6309094623307496
285,0.6514884307504082,0.6510407541714602
286,0.6810051618005446,0.9454756964824288
287,0.7036804925504444,0.559317663488373
288,0.6279101138956827,0.5940702283768176
289,0.7053685327895063,0.6491953314950171
290,0.6672622463423953,0.93403343271814
291,0.8159762039768705,0.7351084581584374
292,0.7498266798534172,0.5949619056299716
293,0.6613630622291832,0.6121608031106541
294,0.6651923685884781,0.6897786775487751
295,0.6230293389240043,0.37839605028269885
296,0.6772421429947697,0.8294404271840108
297,0.6408226652968702,0.6620340058675599
298,0.6773688048124313,0.7053448166918735
299,0.6367234548778652,0.6566822625043924
300,0.6849382245283333,0.3724717892641709
301,0.6037961367389663,0.7779953481883822
302,0.6747908234167442,0.6998746341010578
303,0.6633343806000446,0.4985076006981173
304,0.6638562262987348,0.566790633697442
305,0.6225628609851681,0.5123530081998859
306,0.7165448408213546,0.4714529256276851
307,0.6386717650458681,0.6586532532557222
308,0.6711459452395054,0.6000323558803986
309,0.6439112584224994,0.3080481903917129
310,0.6545545939537738,0.6549496880505343
311,0.64549153714443,0.6800364200863767
312,0.7300972376676867,0.5326344626290458
313,0.7588969444413837,0.6964416265628802
314,0.6624560717651121,0.6239989060723321
315,0.6446198269212655,0.7927696635709942
316,0.6344185416623176,0.571216009339669
317,0.6674504070449695,0.7903640419127157
318,0.7475734468486955,0.8749425958345137
319,0.8013242448715092,0.4380575892439769
320,0.6775238132126612,0.6798153565968692
321,0.72084499166595,0.6436581005001971
322,0.6338404387616806,0.5206636943117126
323,0.670848021041051,0.6508143658043365
324,0.676042367567976,0.48957242472677975
325,0.7214085091885141,0.49388404958532284
326,0.6582584489616368,0.5913963540859267
327,0.613001243221007,0.5887851009664332
328,0.6710885191421143,0.5992192663164146
329,0.633673302978158,0.7619206640272509
330,0.7173995644473534,0.5052187384445082
331,0.6302655055868825,0.4718749273359634
332,0.649101356474711,0.5236335072634064
333,0.7871252263812043,0.6863945864887809
334,0.7457406869132837,0.5852155770574298
335,0.7012848449672917,0.38254168667281435
336,0.7225112063612202,0.619495004486078
337,0.6354060282857774,0.45820531653624025
338,0.6200288165327933,0.4414983119495101
339,0.652557664399715,0.40910542575788006
340,0.6866822044412009,0.8626418729983829
341,0.7248948569730412,0.4522224072405176
342,0.6977197883202494,0.5815833331142342
343,0.6520036236702396,0.6606957815769816
344,0.7039043463462834,0.46867753673512447
345,0.6530716638627956,0.8669579328282574
346,0.7381564584924735,0.8347237880482106
347,0.6988617024190135,0.5893115368572482
348,0.6358128520522377,0.6516789391507478
349,0.6392183289420214,0.8406795880036178
350,0.6443190165608526,0.6928094205841269
351,0.6195342062498264,0.5629123474964497
352,0.6456486500746055,0.4864789899071089
353,0.6348400540667758,0.7370022248356194
354,0.6782920060874366,0.31690704839005657
355,0.6326584004931789,0.4368528821568086
356,0.6344929964279385,0.6546393392023931
357,0.7070605643957163,0.6207040693455074
358,0.6377533122563629,0.5932623332847078
359,0.653099280276554,0.5591068494809173
360,0.6647259740592193,0.7011824185771084
361,0.6037807190160958,0.5869701152348387
362,0.7244106146464531,0.6175920789460074
363,0.6763301898988127,0.4352649106646299
364,0.7284538409025739,0.7702523546606515
365,0.6960957143351519,0.9330199620059464
366,0.7623969505754687,0.7544475664938164
367,0.7226343054851468,0.53970973644091
368,0.6352007407769501,0.9578921930377843
369,0.6412339316640826,0.7905685980440409
370,0.6767005080299126,0.7858141543080511
371,0.6586741199620145,0.409074768506361
372,0.6554572766633342,0.7476045060035462
373,0.6478063242255355,0.4222219695749486
374,0.6390646820564827,0.5155418812287729
375,0.6421326147638065,0.9397697513651077
376,0.666392767362648,0.5007424641521125
377,0.6059431482990869,0.655331230389385
378,0.6832885498599374,0.7204228509291006
379,0.6718985758167948,0.6643564173953215
380,0.6464434824020361,0.5196913322455882
381,0.6641107358092027,0.640161343700978
382,0.6856005777248281,0.6593650196279798
383,0.6858170510267468,0.6625493419339737
384,0.722907660795535,0.4785716464035889
385,0.7070123892274501,0.732352942933976
386,0.6362455853586384,0.5319264279450595
387,0.7163607219783522,0.9625582871892457
388,0.7044372303928021,0.49931707230250294
389,0.6758604283860737,0.4442384761200237
390,0.6899865870233729,0.5268142875622085
391,0.6487593056200791,0.6559428431287749
392,0.6583965694327816,0.48599140159050686
393,0.6302313037174974,0.5051518854374197
394,0.6694350870345518,0.4329732659771956
395,0.6595812730735345,0.669664809834609
396,0.7409821704423113,0.7950073927523306
397,0.6528752209733335,0.7428518580044925
398,0.6861683980142661,0.6972279235802962
399,0.6498360601927546,0.7308720058357988
400,0.644247962214011,0.5001158146356727
401,0.6233018024219311,0.5689439866941749
402,0.6494526988167842,0.43774630859694147
403,0.6485768522170903,0.5010374802346294
404,0.628026991403646,0.652172013493909
405,0.6346456319343844,0.5411576468030016
406,0.6448995461471552,0.6654792755207116
407,0.8108467254802573,0.7299641609050763
408,0.6796285181189422,0.7506728610751566
409,0.6863321992847845,0.6216330184133013
410,0.6477672543457086,0.7345700755586
411,0.6571394437365681,0.48355460500942976
412,0.6543625325655384,0.5797500651514991
413,0.7615027627665744,0.6677885303698663
414,0.7121770719258333,0.6737339084272603
415,0.7508746316249993,0.6389372168607192
416,0.6997748236599968,0.5254492042990491
417,0.6918877969733436,0.3862311302345384
418,0.676835451456759,0.7420782088857047
419,0.6814782489522946,0.3534097231412931
420,0.7011987518230312,0.7505141363759256
421,0.6583574860454273,0.7456974764225891
422,0.7207239142877402,0.710496411844794
423,0.7357078448926612,0.7496350273290016
424,0.7010151232770688,0.7950290677673533
425,0.7388411149751845,0.31433711279163046
426,0.655884116971426,0.4695619990624305
427,0.7106498844272418,0.8440873581966079
428,0.7034895119430731,0.7938590976508847
429,0.6810613262126867,0.43588550701655077
430,0.7037124555769394,0.521778432421545
431,0.6817969862672446,0.462108707253916
432,0.6190092991010177,0.44557218765215134
433,0.6678158249572027,0.6150471096257102
434,0.7028573484634228,0.5513266854241031
435,0.7064698675601221,0.6219223689731878
436,0.6755862210889896,0.5833611797891269
437,0.6606981685335973,0.7456282887669557
438,0.6758716706987574,0.6091300527364509
439,0.6398892910372344,0.5029310373781982
440,0.6533485784781256,0.6855775064949737
441,0.6583488641573275,0.6438745288464999
442,0.6833183910075328,0.7721123891546675
443,0.7390598741223772,0.6852484879855011
444,0.6919817451021368,0.4157122681953819
445,0.6684441359506713,0.5194419837882411
446,0.6830359509737371,0.6091372572067881
447,0.6858891812946013,0.5882108807799001
448,0.7221564633383167,0.419661875329059
449,0.6435549313263547,0.6326546779794776
450,0.6393504405764939,0.7222689022769492
451,0.6622381031060581,0.7539307944117895
452,0.6676391607863631,0.74749948487756
453,0.685937949733959,0.4817946422683412
454,0.7115411281609516,0.3505037586662651
455,0.6316392797169735,0.9506610670989202
456,0.6440060944865933,0.39883448584585934
457,0.6503166552189348,0.6263645200768887
458,0.7449080362665853,0.9442015868900513
459,0.7052948217955138,0.4391098537827065
460,0.5986571003564541,0.6565279055036892
461,0.6400642824901951,0.8433622401251789
462,0.6471440012006165,0.8026578873748749
463,0.6475216116574551,0.5468525553935141
464,0.6714260271317858,0.8654890129108925
465,0.7341571570181256,0.7041326683388043
466,0.6229434536038924,0.793903674257018
467,0.6094518378376961,0.6387790997336958
468,0.6238816971663568,0.5388571316083774
469,0.6503996817494849,0.42240995929621294
470,0.604250980938653,0.5675020772778527
471,0.6617339580750866,0.5682432271169694
472,0.660992474066649,0.8924608216477645
473,0.6309987471329508,0.6003205035978542
474,0.670974448656769,0.7200729675244043
475,0.6489741773270875,0.5928396957073047
476,0.6253810120310238,0.4846306114377426
477,0.7247718941036174,0.6932374973323464
478,0.7501222697093333,0.7527863263801599
479,0.7235428187653696,0.6692745805774605
480,0.6013174413753261,0.506592944229129
481,0.7215249055473925,0.8355253793728474
482,0.6559792804799015,0.6681406775044002
483,0.6174903045907962,0.39241192617469073
484,0.6652964684102747,0.47836603693540586
485,0.6709580463256767,0.41091360254088255
486,0.6000590128101986,0.6007745753570909
487,0.6296624530502837,0.46753117049314324
488,0.7791531911785368,0.8801204201830779
489,0.6641459405231628,0.7380674782237766
490,0.6680280750961327,0.6700336392366143
491,0.6392004998872797,0.4151169217376137
492,0.6722815526749114,0.5198495083892073
493,0.6324553483610245,0.7511829011018764
494,0.6755117639649114,0.5176077723126762
495,0.6768785591939275,0.5084796892251193
496,0.6397922727391779,0.6796576635942934
497,0.6628211688318794,0.8084866946244108
498,0.7233801191563991,0.7485056456704731
499,0.7208699419093932,0.7602732868390283
500,0.6934607084349191,0.7157111178022157
