epoch,loss,val_loss
0,0.5034573860496259,0.41517337347544736
1,0.4009348394797384,0.3800035513990398
2,0.3459806175207158,0.2949603082231395
3,0.3002192797087175,0.3005356010528841
4,0.3082541517561955,0.3100389222413795
5,0.31427739743444083,0.30075180352957304
6,0.31555917940074973,0.3181649488591734
7,0.31175322860455534,0.3094335596864395
8,0.3112333171980844,0.3108748222724038
9,0.31461227127164004,0.29119870105453993
10,0.31660990256199734,0.30042407514076114
11,0.3196862967704221,0.3272697651301582
12,0.3221545972817426,0.3285211394551992
13,0.32384309279832907,0.3148007557772235
14,0.32089178714987565,0.33014709293701183
15,0.3250692232395057,0.3342901849332718
16,0.32050442193552175,0.3083649664152863
17,0.3202613127424563,0.28642264808268647
18,0.3148610018294969,0.31026135617903866
19,0.31679628732250176,0.28510006427200363
20,0.30674925479862236,0.3066363086969531
21,0.3018613376860901,0.2866768156602426
22,0.29437390153856874,0.2708504006748794
23,0.28149550394426814,0.24962493926639526
24,0.2600071063871197,0.2515784596587695
25,0.2410368314273447,0.22912468668881983
26,0.23598400633231245,0.22987525977764717
27,0.23269591730037373,0.23994298672102152
28,0.22804373116801968,0.2249191585801771
29,0.22548531063145202,0.19491395897628194
30,0.22635096761820128,0.196862465686561
31,0.21819235739423978,0.2025398812899932
32,0.21785764374750125,0.18375976159051355
33,0.2120866843318339,0.22083266758034337
34,0.1991853551160422,0.1609412157980118
35,0.18773162964996484,0.1840751254026967
36,0.1749178343486014,0.19633353662095676
37,0.17424048710283901,0.13500360694097174
38,0.1795818926267725,0.14487367602625323
39,0.1781224545797141,0.1441496313559134
40,0.18098555571383995,0.17609610519685798
41,0.17929220173082097,0.16276826561908603
42,0.1813982624849446,0.17372886548384778
43,0.1815879208167537,0.14675817726842982
44,0.17645560162399504,0.16603053509365787
45,0.17477846759662544,0.19973431368841368
46,0.17249682726119633,0.14816611546555558
47,0.17134894935978498,0.15928977137488837
48,0.17229751679453728,0.13110268463534264
49,0.17206644075368044,0.14506843436771052
50,0.17214385538900212,0.16661403921521736
51,0.17308911425973492,0.1403667655991774
52,0.17706044713298766,0.14334157567938766
53,0.18120244414591008,0.15377936746863372
54,0.17592464388607978,0.15042932463285014
55,0.17545785829960872,0.1486457291734717
56,0.16873221253331522,0.1373253715031243
57,0.17090145701603543,0.1450407735609406
58,0.17296911346064292,0.13798903353400557
59,0.17010155756720347,0.16576498396394757
60,0.17278351123146207,0.16617155349104068
61,0.18117269065728386,0.1887731072393664
62,0.17679531170988827,0.14153095358290255
63,0.1795321886571382,0.17446032007707793
64,0.18865050261409924,0.16401444295540324
65,0.18766296005172792,0.17984643853736282
66,0.18663682894621916,0.16746307012713982
67,0.17990008146047212,0.16603140724674398
68,0.18432003697402757,0.15664063224711566
69,0.18149324514263634,0.1493852711984654
70,0.17999269075685745,0.15903469306823298
71,0.18332385681837582,0.15174107730459208
72,0.17684924646878508,0.14480705863275017
73,0.17653211619225528,0.1518223606690988
74,0.16957187485232722,0.125350713100646
75,0.16909501156051288,0.1431763511218701
76,0.171399410155942,0.13739212431254685
77,0.1736439424071857,0.1596723054583466
78,0.16764639570511025,0.14494359498548057
79,0.17294479315157987,0.13322004727025435
80,0.16936903698243302,0.13649109593388972
81,0.17309708133351792,0.1462247773487453
82,0.17749577615079548,0.13946774731895165
83,0.1788197377269312,0.15675588784226302
84,0.178765300789373,0.17347675621885902
85,0.17647058432467644,0.15368635293857827
86,0.17634499890746164,0.15840232945043645
87,0.17918487817799444,0.13778541939246344
88,0.18321974258080756,0.15464218150186276
89,0.17658764685241343,0.15838474548041773
90,0.17127046650417035,0.14641602710183435
91,0.17102053174845797,0.1339035657452803
92,0.1758901358222504,0.13252488050342265
93,0.1739232886543901,0.13568087074473417
94,0.16929609553931618,0.14223162431766787
95,0.17375797186966993,0.1264921279113972
96,0.17383367142124143,0.12981690728085757
97,0.1710097909741979,0.13971304884084867
98,0.17635801853202612,0.1640059400611537
99,0.1802262513906502,0.16022985961932126
100,0.18198983199138055,0.20409230122250088
101,0.18165382044278175,0.1558267472880792
102,0.17594195382117178,0.15191545181605604
103,0.17478542419062626,0.16681467745844172
104,0.17914116288796603,0.1696442360589141
105,0.17915701360213193,0.13790088540917791
106,0.17954404768850402,0.17187477331887857
107,0.18088622811696323,0.1419436154032939
108,0.1798329706058847,0.16427265038829952
109,0.17269462175804268,0.132535993741221
110,0.17063637134685314,0.14745386320018541
111,0.1706337729524032,0.14879688311841607
112,0.17371486384662793,0.129627533309932
113,0.17466732819708322,0.1943471731872378
114,0.18276905373548813,0.1514782908695273
115,0.18462044655454815,0.1297408061744476
116,0.18682126952506464,0.12409099430175118
117,0.1834388052066453,0.14348156093939515
118,0.17929499836669838,0.18015551597656185
119,0.17856125619045074,0.19714185935404702
120,0.17829214135924878,0.15924308591925826
121,0.17322848079134998,0.137712421079461
122,0.17672514555742033,0.15438910324388164
123,0.17347750364006947,0.12772087636385362
124,0.16895811088222393,0.1307483419670114
125,0.16738139832917925,0.1840137263499759
126,0.1596123687654948,0.1242239680949778
127,0.15461194120365368,0.11338290238742671
128,0.15609186347559106,0.12285348016183585
129,0.15629149962672226,0.12686271507413535
130,0.15513384891904705,0.1509182866318732
131,0.1545216909480943,0.14486086747852384
132,0.15232527711623006,0.14166148497348896
133,0.14381439967168796,0.12121657697864659
134,0.14317698693937725,0.12430270281403481
135,0.1441583280458296,0.15107256502218855
136,0.15061108468116807,0.12940517526587447
137,0.15681214714876945,0.12725825172032346
138,0.14825251257474378,0.12772577829312037
139,0.15849054514242114,0.12588463013296344
140,0.16505205553832006,0.11297945184272956
141,0.1627136852732189,0.11709153671596778
142,0.15823337404454926,0.12729269690699904
143,0.15564586681356246,0.13966407909130804
144,0.16181098786499098,0.149326996379418
145,0.15976070661803515,0.13824740819039077
146,0.15615543007826824,0.11787258205022413
147,0.15739894567800464,0.16279073640551261
148,0.15591673572941556,0.11837717801944045
149,0.15266294955170984,0.14423537992334967
150,0.14679560933312732,0.12042226715876346
151,0.1440473838830642,0.1421861892364678
152,0.14928493945659113,0.10963962261212935
153,0.15773084547689303,0.11449634725405837
154,0.1531293352456878,0.136092897719206
155,0.15191176416371746,0.10889426458865145
156,0.14744626711920011,0.12451868029730284
157,0.15760945235129645,0.1501014994746978
158,0.16670093674072736,0.14171780410039678
159,0.1678419204728066,0.12282381968274302
160,0.1649450267241489,0.1682156212304461
161,0.1684775503812362,0.1335628187400013
162,0.16936457287862622,0.1438657329921282
163,0.1597232797818123,0.14020296965373624
164,0.15394956466081522,0.1382174728160405
165,0.15937875224639186,0.1404313119723746
166,0.15674747365543978,0.12333392113117882
167,0.1588709842946699,0.15318704107754233
168,0.15384874698057543,0.10896625228655461
169,0.16271710445840867,0.11593885815040089
170,0.15897775479524637,0.14855484720892856
171,0.16123175799703712,0.11844868430516432
172,0.16204215435208463,0.11369558453160002
173,0.16420128503494222,0.1578199956933626
174,0.16436464410963103,0.13010535143380478
175,0.1607539725186918,0.15874353100581723
176,0.16813733585947138,0.16421998942001842
177,0.17281172309312032,0.15500078703722994
178,0.17416024505258274,0.1822774906678753
179,0.18114741315706362,0.15545890901322992
180,0.17939361322709887,0.16949000105485262
181,0.1766924695681325,0.18093320716763445
182,0.17758784861230165,0.14222993354747496
183,0.17741687205745924,0.14111135770649824
184,0.1775083183336982,0.16208925874405428
185,0.18135809000852487,0.14608512926426287
186,0.17972998720981614,0.13537846562094638
187,0.18025593931595388,0.16076458615398634
188,0.17802417331295525,0.18222582197932624
189,0.17472418792825714,0.148643710330752
190,0.17328566821108904,0.15028160676395413
191,0.1780682538541482,0.13978216279042266
192,0.17424722733519538,0.14654634508944536
193,0.17548284475370754,0.1798840914430257
194,0.17520563105801693,0.17631176064686221
195,0.17492277126351324,0.18146349961304156
196,0.1747141065244242,0.1321164812442818
197,0.17688966418901603,0.16552748322345745
198,0.17797779063764904,0.13314846898381316
199,0.17105391874706907,0.12974532162616267
200,0.17547369822502423,0.1285049966473982
201,0.17505406275046148,0.1455438662652623
202,0.17253811187524018,0.14954162962387751
203,0.1749139489958898,0.15735757760203722
204,0.16934371718483196,0.132675077933774
205,0.1736731294819491,0.2453658461406086
206,0.1725319704855327,0.1417695653125726
207,0.17556432924336857,0.1395470449537768
208,0.1739339330475584,0.12898276037674017
209,0.1734622754781938,0.14178024752810892
210,0.16950298193321048,0.15289225681569507
211,0.17206787066958507,0.1439333729851688
212,0.17344275004059959,0.11809237712983928
213,0.17276247537476744,0.14246345277296435
214,0.17219537829490397,0.1911940366123827
215,0.17596816278988128,0.1533169402684296
216,0.17387912148754184,0.14581733831478652
217,0.17447870715463953,0.1283542065342393
218,0.1698337386665251,0.1550877999629011
219,0.17123769559293722,0.1417587669220795
220,0.17202987331006644,0.15882882615808624
221,0.16974275066352768,0.15164307224981033
222,0.16889575969496315,0.1379779719327883
223,0.16651414586104554,0.11379606924192494
224,0.1672235015514705,0.15568107311873333
225,0.16865109269924872,0.1368668969035525
226,0.17276784953334445,0.16238497750394065
227,0.17106097970279954,0.16829675547749204
228,0.17047334300706998,0.17909416262333847
229,0.16973701548233305,0.14590487209896263
230,0.16814160821058577,0.13687984486005395
231,0.16807463119546476,0.14182283611116958
232,0.16797822462521392,0.1503179432043619
233,0.16992629161901135,0.16302731863701542
234,0.1664408054426134,0.1365082219019591
235,0.1659848282871534,0.14123260496212162
236,0.1691729010676118,0.15983254063195287
237,0.16906329450442445,0.16366994351548478
238,0.17147189215850012,0.14381303717606445
239,0.1745386466109972,0.14811571268769072
240,0.17409102487668907,0.14238786692095254
241,0.17319495213046063,0.14470331700137964
242,0.17308597970339987,0.137836295843783
243,0.17483150185071689,0.13722601959859657
244,0.17099196687757634,0.13099290703400535
245,0.1677695857219511,0.14104448278870466
246,0.16933298633276797,0.1518046581542859
247,0.17160404438106752,0.19183455823958157
248,0.1701220126597763,0.1382110204133069
249,0.17243503741949773,0.1729920816614389
250,0.17302495248609787,0.14034513014809014
251,0.17079650567506524,0.13391781875888664
252,0.1693550333243718,0.12820935908531522
253,0.16782783079954933,0.12988410064481618
254,0.16414434724538732,0.16909574770795707
255,0.16374403651026512,0.16297803716859013
256,0.16464027144509158,0.12821281154440817
257,0.16696458576406412,0.1741300180566151
258,0.16937678154531144,0.15406576472304426
259,0.1651317542887849,0.12866899930969786
260,0.16493093724742972,0.150002194690535
261,0.16635569895235755,0.15435514377978438
262,0.16911728264425965,0.12578223198769878
263,0.16890871477462976,0.14237861046545508
264,0.17049406366430217,0.1649641119996299
265,0.17147525504445857,0.13778593945710227
266,0.17783697644512145,0.16014438187784347
267,0.1727724057450283,0.14116080180574989
268,0.17107669239361986,0.1461891667607175
269,0.1684767033883946,0.1315421054423467
270,0.1729776266542413,0.13426084070809732
271,0.1754478348209132,0.16346838204712028
272,0.16998408325939632,0.14252486012305626
273,0.173884736941301,0.1442004302964967
274,0.1750872340008652,0.12382600176564897
275,0.17605731170252265,0.1688201567650594
276,0.17965680394443773,0.14697976931400344
277,0.1754762126292161,0.1349243224137584
278,0.17540858656191807,0.1347576114154276
279,0.17442560004744884,0.1761746321993732
280,0.17572841398435818,0.17458294459046014
281,0.1696948718955572,0.12442892207672207
282,0.1773609261927035,0.14600659520515985
283,0.17060207241742636,0.13052521949456072
284,0.16830916996065565,0.14578308815455568
285,0.17045530485068197,0.1485329326345117
286,0.17091407607809053,0.18884171833649524
287,0.1717433530411465,0.14166339729701616
288,0.17092008906588566,0.15044841589001848
289,0.1679982383646887,0.14326023630909593
290,0.1688487230778503,0.1188089390415419
291,0.16709002868222486,0.15848005824114453
292,0.1634518086409969,0.12581539489828703
293,0.16902404707327162,0.13849956138851893
294,0.17060782795818114,0.14587151746676488
295,0.1709388436304389,0.13944680645368
296,0.1681353061896958,0.15118434751184323
297,0.1694483674056143,0.12896707998007984
298,0.1681809338103,0.13186711471030912
299,0.16677837791762573,0.14778582767628268
300,0.170114839308077,0.1592641354501012
301,0.1717047500852153,0.15893528768653087
302,0.17334202555812997,0.1682512535292423
303,0.17807680797531641,0.13826923318142578
304,0.17333715213693493,0.15868675609978522
305,0.17294378322567777,0.13156739133685805
306,0.1722998275763268,0.14295389964859037
307,0.17629936741565247,0.16776030982867318
308,0.17460213834754854,0.14368296638660386
309,0.17522255939057024,0.1623294002655085
310,0.17307631789053754,0.15458871605905286
311,0.1713062961705678,0.1554299031620244
312,0.1709483090094287,0.1466363401349925
313,0.17060618547143505,0.1456912684047796
314,0.16661507737853354,0.1174835576877974
315,0.1711434498578191,0.1511680660644383
316,0.17226493710593926,0.14697821383623974
317,0.1743648334545531,0.13039072807040286
318,0.17326294873460688,0.132485213688771
319,0.17269406156788628,0.1725667963817351
320,0.17501950370286296,0.1485725227322932
321,0.17275883781788445,0.18491966016855219
322,0.1761241350099623,0.14157188110988536
323,0.17297472522186813,0.14432304191396475
324,0.17395986846799283,0.12842613378658763
325,0.1772031980208594,0.1302686256798309
326,0.17489102456292852,0.1780332315951327
327,0.17727071634656805,0.15590339820264545
328,0.1731157582863677,0.15898855543315363
329,0.1757709611799839,0.12689941251781295
330,0.1767304614007616,0.14218736350559869
331,0.17502041022292525,0.14756141497732245
332,0.17386571137751225,0.1481712711261969
333,0.1734678859619214,0.13605650009818215
334,0.17238674490905398,0.17167235840326608
335,0.1739954912184859,0.1652761071791024
336,0.17130500000181625,0.1779103788599407
337,0.17588500571038893,0.15064519701412368
338,0.17232584095389533,0.14049125512166577
339,0.17520719758874412,0.1449818427850152
340,0.17389400696439994,0.1520090391175805
341,0.17649373838858162,0.14773357325566502
342,0.17557477111891687,0.15894442276283804
343,0.17532235199062945,0.16739919138359288
344,0.17429116535351144,0.14570826720137622
345,0.17255478887130127,0.13155158085788246
346,0.1744157397638646,0.13935084635687325
347,0.17315730386429268,0.16114251583744055
348,0.17205293317564385,0.12917422380918767
349,0.16893727719176302,0.157207330434503
350,0.17180950986109764,0.14158094082183506
351,0.171178580348869,0.13582481594422527
352,0.1701217029812477,0.1317884741908185
353,0.17070893337019533,0.14461595893800022
354,0.1758532428877245,0.1571292281033208
355,0.16903908922374963,0.17613681401666356
356,0.17092499972807226,0.1683160277596589
357,0.17439502527673753,0.1396483513567047
358,0.1740678789899599,0.15552678567246367
359,0.1740379378878527,0.13797178485187472
360,0.1709036572123889,0.1451153738605007
361,0.16923271611535387,0.13270533622934202
362,0.17555458708811436,0.14701717206951004
363,0.172781284868741,0.14119848774212407
364,0.16925875926546627,0.14119831792533916
365,0.17075158762548276,0.12267472864890908
366,0.17191222154622454,0.15458915022737696
367,0.17437990908797601,0.1564968910888602
368,0.1730323797203511,0.12705436156623084
369,0.17118429469404747,0.12906667908863845
370,0.1714923216058291,0.13172365227550997
371,0.17027971277431808,0.12426870332144337
372,0.17119387478875123,0.1363543274135409
373,0.17099402629905086,0.1494058995274643
374,0.17078236665883414,0.1376857445961204
375,0.1711409200730322,0.1566223373199977
376,0.1734060288565479,0.14921754262841586
377,0.1707174756454764,0.13845460598475368
378,0.1699576171980106,0.15243575182738225
379,0.1734622259922832,0.17468410722129252
380,0.17494749324284584,0.15883206366763494
381,0.1728496719672859,0.13981884954336976
382,0.16924476659567142,0.17120198103369177
383,0.16686655337707126,0.15858681486432913
384,0.17088399513912716,0.14863301659533615
385,0.16654261256412542,0.15046742429108534
386,0.1679962823907439,0.1379741004593935
387,0.17028157438317554,0.14014297335069764
388,0.16851549341583805,0.14873419584443273
389,0.17154189242388038,0.15745641773929725
390,0.17258936930879606,0.16558018243256384
391,0.17459116791554397,0.13642919185882305
392,0.173637768829898,0.163766052029974
393,0.1778163879061584,0.15070937045253724
394,0.17345571878264182,0.15037378679369978
395,0.17661828989629075,0.14824696261532774
396,0.1728106434408614,0.14357360841701985
397,0.17715019315814706,0.1654286624506504
398,0.17289388837883893,0.17158456942935393
399,0.1742838072023994,0.17702037541764687
400,0.17014718999703535,0.17327647552117648
401,0.17054488204961582,0.17918468067376936
402,0.1725978535636485,0.14346351461586468
403,0.16923199297129202,0.13903461069738948
404,0.17234941561826223,0.14319043872317838
405,0.17214928264562174,0.15168095143084084
406,0.17039950121399597,0.1367223618615304
407,0.17269402457107838,0.1560873451871296
408,0.17208285708662321,0.19292206697654046
409,0.16645402285894997,0.1677223115147995
410,0.16772592136804626,0.15016392766018033
411,0.166942885522243,0.15087665562189367
412,0.1710929164765693,0.1545718126145986
413,0.1701012186253433,0.1611370267295047
414,0.16443944594962037,0.1260472397013452
415,0.1618347128571795,0.13465025338866904
416,0.16524475298935085,0.1508460289724436
417,0.16398811604467323,0.12603856906612368
418,0.1702572583890171,0.19753031371471538
419,0.17181212529480505,0.13916307928271432
420,0.1736039997552701,0.1377332769657743
421,0.17096419434110038,0.16615456054553143
422,0.1717303422607964,0.167691461618434
423,0.17031594121651494,0.17499205693543757
424,0.17316239470129105,0.14779538265484568
425,0.1728745966786437,0.1483463018179975
426,0.17103490956443296,0.14702534378633408
427,0.16763203981206667,0.12801727242679603
428,0.16901699089103464,0.14929143291175506
429,0.17212850151719045,0.1314468689633338
430,0.17194336471404675,0.13635478107568874
431,0.17094147067180546,0.13957285349446202
432,0.16939921292969934,0.15499994051719898
433,0.1681993327987232,0.1371472538952387
434,0.17330581497409933,0.15560874169443947
435,0.17444082979056286,0.16108011263227875
436,0.17670350259156536,0.16007570397835033
437,0.181370790839362,0.13815550004509178
438,0.17946829939250655,0.1595898105894475
439,0.18023197139076572,0.14292147409850062
440,0.17829404659956383,0.13686568532859422
441,0.17426718135388922,0.14519991805069823
442,0.18014659351117604,0.14963963184426315
443,0.17686830453580613,0.1326927793489353
444,0.17869600151582873,0.13845567061215192
445,0.18142188967560693,0.14843685718601674
446,0.1791142255728908,0.17103783966239833
447,0.17720066914729457,0.1539190236035067
448,0.1776161761098295,0.12467867368280934
449,0.1764180569840278,0.13745578942377923
450,0.17150642684133027,0.13579689033311845
451,0.17603776605128288,0.13005964239822568
452,0.1731751006778529,0.12741430762981748
453,0.17926821036399793,0.1503640279091524
454,0.17460068691965583,0.14360041935776008
455,0.17480940134417144,0.11576136876112283
456,0.1724960400695376,0.14012951614377814
457,0.17443285458427157,0.14852825315241372
458,0.17261286564379763,0.12662236093181084
459,0.1757790676588349,0.13273743374806835
460,0.17775861361770512,0.1654629469882247
461,0.17360826502505727,0.13670285745290855
462,0.17069041350190875,0.16997646391626975
463,0.17264844784788566,0.1491034754214554
464,0.17382973207415436,0.13725214816729855
465,0.17213987008475667,0.16360151528982828
466,0.17426637351977453,0.16098143753684593
467,0.17406737011709184,0.13532451995969666
468,0.17408820140144998,0.15554820141669043
469,0.17297230079936848,0.16909204142340167
470,0.17524381916669252,0.13424733501653927
471,0.17402566985475074,0.12742791949949964
472,0.1753607886127955,0.1753570508114823
473,0.1760477363068661,0.1345522368610517
474,0.1762555604167789,0.15000326208176346
475,0.17514053071967417,0.15189987191108614
476,0.1725395447421941,0.13203450948023476
477,0.16991397726247542,0.14484152363667643
478,0.16581576236551232,0.1346688676205035
479,0.16826707349537756,0.14382928965029607
480,0.16946678110163846,0.13478182536133088
481,0.1663455808167454,0.11306793100385094
482,0.16608875581948496,0.16508563389764966
483,0.16771918403016006,0.1446030165856056
484,0.16896014525104674,0.12503543150947144
485,0.16956149960617176,0.13816978623054116
486,0.17255625576019096,0.14674805109436906
487,0.171769541111305,0.16049711951352333
488,0.1711621769904185,0.14900237509441264
489,0.17339053524019335,0.13843874229910624
490,0.16771569492803107,0.14748028008930308
491,0.16886426799660392,0.12544893795637607
492,0.16829850359095466,0.13404726254700108
493,0.1696345305068792,0.16614625937560457
494,0.17243329625275972,0.13679986353596083
495,0.17308071598732214,0.1622770490873114
496,0.16972328442261278,0.12487205747741362
497,0.16865879711177614,0.16053885259704506
498,0.1701371023456732,0.1340708540665793
499,0.16688759189596375,0.13249328346730407
500,0.16608877686692847,0.1662006284203601
