epoch,loss,val_loss
0,0.6054937297664142,0.6025199027208746
1,0.6019635639808022,0.6025382379738133
2,0.596040042662214,0.5518140085106599
3,0.5517944447628718,0.5516509983404034
4,0.5517319654571539,0.5516837440408637
5,0.5516282340369733,0.5514113845495037
6,0.5516065047467793,0.5518754810468723
7,0.5515864680380802,0.5519677550428838
8,0.5515614629850382,0.5517479569898326
9,0.5515469500734035,0.5525790173817726
10,0.5514637421265486,0.5512952875557146
11,0.5514599787096995,0.5513037832668892
12,0.5513863295478992,0.5512992343165032
13,0.551370000954714,0.5512963550628812
14,0.5513804483753828,0.5522000003622054
15,0.5513633698617647,0.5517134615896769
16,0.5513439189482418,0.5512344613280848
17,0.5513135541997279,0.5513143651595622
18,0.5513068968834484,0.5512605216487241
19,0.5512870147507682,0.5513308184505058
20,0.5513028264668081,0.5514003767869918
21,0.5512815588167117,0.5514503782592881
22,0.5512517445676368,0.5512296822698831
23,0.5512735364895034,0.5512027737212897
24,0.5512519468231909,0.5511830236318472
25,0.5512386351482452,0.5513842053757559
26,0.5512556876026039,0.5512185506126285
27,0.5512374582488607,0.5512478390070528
28,0.5512475708423789,0.5514141212706909
29,0.5512324888293806,0.5511778072126142
30,0.5512271193878648,0.5513401866546033
31,0.5512126837867205,0.5511882405527551
32,0.5512141546734232,0.5511880718338427
33,0.551208184499581,0.5514122821592955
34,0.5512145913830372,0.5511778232472765
35,0.5512039020036457,0.55112381032654
36,0.5511957563847028,0.551154914390895
37,0.5511790593306357,0.551260359887
38,0.5511848940699242,0.5514329639487519
39,0.5511950001112581,0.5516652837099869
40,0.5511995716116489,0.5512133576206618
41,0.5511766618681228,0.5511626791429648
42,0.5511945798323911,0.5511324317971733
43,0.5512086669612923,0.5513738889021781
44,0.5511700071746102,0.5511956327261007
45,0.5511814609548683,0.5513189307456738
46,0.551173020136613,0.5512809652278438
47,0.551165492847776,0.5511592029957274
48,0.5511869772863157,0.5511802947055504
49,0.5511728238392752,0.5511224522029519
50,0.5511817768535302,0.5512110293668775
51,0.5511566603084436,0.5511453397807496
52,0.5511607788222899,0.5511613634534918
53,0.5511717511469538,0.5513295500273172
54,0.5511657922024978,0.5514395712802803
55,0.5511706489408144,0.5511843267794505
56,0.5511789546877595,0.5515739306279813
57,0.551149396623847,0.5511467969046522
58,0.5511638119890632,0.5511313263756975
59,0.5511619772062762,0.5511626596344412
60,0.5511573908681242,0.5511432860803278
61,0.5511634453940927,0.5512252336591884
62,0.5511347449828324,0.551734111929803
63,0.5511857740149118,0.5513702113230455
64,0.5511490286867298,0.5511876331807621
65,0.5511539904406314,0.5511468553355673
66,0.5511565122400417,0.5511372262179823
67,0.5511840568965455,0.5512512329979437
68,0.551143843348855,0.551139290212203
69,0.5511255718750536,0.5512119230437282
