epoch,loss,val_loss
0,0.5559369392165383,0.555055228063601
1,0.5524406703013816,0.5526343469054089
2,0.5521033046133991,0.5516526352768572
3,0.5519965842695642,0.551712193734422
4,0.5518558581402458,0.5516703790173524
5,0.5517951480063368,0.5523147930914549
6,0.5516474181772437,0.5514778569470857
7,0.5516022966889115,0.551331730083528
8,0.5515885381891487,0.5514437447886098
9,0.5515131073833957,0.5518696687279078
10,0.5514921642172829,0.5515451450205539
11,0.5514694298019747,0.5514167696166572
12,0.5514485493460204,0.551472385175383
13,0.5514252551758643,0.5512818115200905
14,0.5513868062726531,0.551328319101953
15,0.5513781242320217,0.5515015268441286
16,0.551364022110754,0.5513513031290962
17,0.5513397691497168,0.5512724488864763
18,0.551321823451168,0.551288978550308
19,0.5513017972954573,0.5513523678770516
20,0.551303612356615,0.551287363626019
21,0.5512941288019797,0.5512449246314626
22,0.5512712681144483,0.5512177799833528
23,0.5512658125874137,0.5512228542771702
24,0.5512709429682654,0.551399166477622
25,0.5512546597339597,0.5518342642315005
26,0.5512642761007761,0.5514154660525692
27,0.5512582835912148,0.5512366763216855
28,0.5512618703869993,0.5513434574417374
29,0.5512573971244118,0.5511807987987948
30,0.5512349896667704,0.5521980435134154
31,0.5512257829536572,0.551566451238946
32,0.5512423485199417,0.5512162594212527
33,0.5512379985475114,0.5512878074567621
34,0.5512297173682009,0.5515369658661737
35,0.5512171410804045,0.5512171309818176
36,0.5512097451783834,0.5515838780345587
37,0.5512201150109035,0.5511976229835923
38,0.5512012540956885,0.5513202985004715
39,0.5512067304640569,0.5512760137307638
40,0.5512255219631127,0.5513334779090421
41,0.5512083797154711,0.5517020738227075
42,0.5511973096621754,0.5515987335812086
43,0.55121447219189,0.5512472108676166
44,0.5512134060048192,0.551138529162076
45,0.5511672630047987,0.5511738035637972
46,0.5511734523114039,0.5512912907173695
47,0.5511801962531373,0.551235074530864
48,0.5511912396760809,0.5511568179911652
49,0.5511700497237767,0.551144339720446
50,0.5511865478526119,0.5511399448126181
51,0.5511850783731321,0.5514038520539319
52,0.5511860305810655,0.5517680286954126
53,0.5511829446820854,0.5512648132730708
54,0.5511734041013994,0.5512660225033665
55,0.5511766488540719,0.5512749395835053
56,0.5511931359085206,0.5512234270336023
57,0.5511880877729048,0.5512410708745548
58,0.5511581099637499,0.5516609951288185
59,0.5511843869609092,0.551147311040858
60,0.5511562864726646,0.5511814599730428
61,0.5511735926653215,0.5511478124080205
62,0.5512167403918311,0.551168068370233
63,0.5511561357901726,0.551917886031664
64,0.5511436547119686,0.55115733396369
