epoch,loss,val_loss
0,0.08137927668334012,0.06560377604763659
1,0.0603490888093219,0.05727164358745421
2,0.057127729592925586,0.0577967034341353
3,0.055425112587772024,0.05578513992354286
4,0.05411915081660901,0.05397670341506825
5,0.053045153962294235,0.05237905809421217
6,0.052403617907395283,0.052226097471935136
7,0.051853957219166656,0.05212239601985223
8,0.051309827132209086,0.05102071932867366
9,0.0507647585201499,0.05176417749864356
10,0.05037915643298646,0.05056289573505755
11,0.05006610776581538,0.05039296091272563
12,0.04964317555978395,0.05106388242394371
13,0.049435403890596634,0.05013201586258483
14,0.049280351766374596,0.05109744353702906
15,0.04906040005439564,0.05008796972812893
16,0.04887132927895872,0.04978893302695769
17,0.04872303216333836,0.04894958002049383
18,0.04846968724149841,0.048776283328656134
19,0.04840223904361455,0.04869605002284987
20,0.048125626961606174,0.04895776398485854
21,0.04802382886982134,0.04922795334110019
22,0.047896190587365946,0.04874317125740157
23,0.04774598118950096,0.049336066366020545
24,0.04784915256524461,0.05001607838274468
25,0.04747513158366267,0.04802638570511409
26,0.047496960948706125,0.04897877575860093
27,0.047320988361820235,0.048818350293195416
28,0.04725688191764474,0.048803917645528966
29,0.04714363609822781,0.048373288911280274
30,0.04705948095957978,0.04800553642135254
31,0.04697912498022642,0.04821111266784475
32,0.046937060549534684,0.047818681208024294
33,0.04688627514631867,0.04804165412745666
34,0.04672035865663001,0.04874549000746573
35,0.04674779625913612,0.04782605736682211
36,0.04662333706254282,0.048168752765750646
37,0.046504950004561625,0.0485705122155236
38,0.0464450937253955,0.04767630764987093
39,0.04642674474587529,0.048156220962544724
40,0.046362974782278105,0.048143310273592387
41,0.04627932976754519,0.05034189868398331
42,0.04626364677958988,0.04880904691311288
43,0.04620810415478017,0.04824787813031888
44,0.046189758282301985,0.048213346904637376
45,0.04613540388533161,0.04768717836819936
46,0.04608231577849321,0.04790636744780286
47,0.04594381842404929,0.04793717911414008
48,0.04598440109866637,0.04905290165240185
49,0.04596167267041517,0.047799686002782435
50,0.045885283009419846,0.047478045090353825
51,0.04585245413544877,0.04781021783594264
52,0.04585603021444512,0.04767495819910407
53,0.045762351326372235,0.04729710630134839
54,0.04579878976270548,0.04806232785994484
55,0.045667794841427724,0.04756128933971101
56,0.045597147023783646,0.048017211415776376
57,0.04560096531150371,0.04785723244078896
58,0.045549897290984395,0.047660419012986184
59,0.04554484487887828,0.04752599817507084
60,0.045562686038450956,0.04755350082301636
61,0.04538824229266464,0.04862876548151544
62,0.045489394401555944,0.047450000627271914
63,0.045440248965553855,0.047821462475625943
64,0.04537753015741817,0.04808825345324494
65,0.045275196472507426,0.04746955177263526
66,0.045285878292143214,0.04724751735407529
67,0.04520682825173712,0.0475399512313963
68,0.04526891068606742,0.047964681885137916
69,0.045234257637292136,0.04720458545797052
70,0.0451498379975606,0.04734743272387851
71,0.04513816660798728,0.04782931542662054
72,0.045118200649348676,0.047214192752849875
73,0.04515415269111443,0.047423277037241585
74,0.04503307568555105,0.047261309675246416
75,0.045158000528814184,0.04748904087567577
76,0.0450618186185669,0.04773514170766975
77,0.04509262827520762,0.04784699723275953
78,0.04498188126817777,0.047381819187689675
79,0.045007978692661446,0.04776692363583362
80,0.044947664358108666,0.04750453824186554
81,0.044894508445807856,0.04851435788868509
82,0.04492793770840949,0.047517462066651736
83,0.04486553710146121,0.047483634936513974
84,0.044799756192713244,0.04820666470731585
85,0.0448544164881594,0.0482483261390723
86,0.04482279129973802,0.04787579072056326
87,0.04485722298792674,0.04726545708909174
88,0.044774678150854855,0.04752224862631141
89,0.04479048550977392,0.04719842238269175
90,0.044741246528083485,0.04751437358091999
91,0.04474360518515845,0.047744464107912006
92,0.044747808697159934,0.047498843180805765
93,0.04467215268198394,0.04737401765629079
94,0.04466472811334294,0.04749897155216786
95,0.044666314358649976,0.04754412540971017
96,0.04463618770695792,0.049172135789349036
97,0.04460825897163658,0.04687395712902939
98,0.04459678201583141,0.0468813067144447
99,0.04461382083568473,0.0473969237749063
100,0.04458003812443567,0.04802711491235049
101,0.04457716475982773,0.048401803860276094
102,0.04455044493024955,0.04749916374523057
103,0.0445632319499438,0.04739402006670882
104,0.044523613793453,0.04738815237464949
105,0.044488839966904566,0.04755707141097735
106,0.044499613413097924,0.047049226857099447
107,0.04445741661971897,0.04743649551580733
108,0.044519991464206175,0.04729468644000158
109,0.04449434596251821,0.047866608402949866
110,0.04436686383403094,0.047106411036358944
111,0.04439313123830952,0.04805566715654853
112,0.04443445421438659,0.047448534387737225
113,0.04445475649144306,0.04745783624652645
114,0.044368782104799206,0.04727975879268588
115,0.04439749094403969,0.04815419752884947
116,0.044370827482725375,0.04775855667257292
117,0.04437881185248253,0.047283499099802874
