epoch,loss,val_loss
0,0.07710167255997007,0.06485178710220446
1,0.06083153504419914,0.056727903686985624
2,0.05723885325745204,0.05603103954016651
3,0.05541482552967552,0.05787052809470359
4,0.05438584469725805,0.05486798026815367
5,0.0533836568880032,0.05240931686907841
6,0.053474565588836426,0.05290639924489782
7,0.05249745351426788,0.052345185861706126
8,0.05196747491454734,0.05223233843503565
9,0.05167854460461627,0.051450703591546104
10,0.05125659801413438,0.05051958008716793
11,0.05084790880939466,0.05120568146950738
12,0.05062908790339813,0.050749841082130646
13,0.050430178738334254,0.05029022162645577
14,0.05012053449763589,0.051133163604629175
15,0.04992304653970722,0.05150275923340107
16,0.04991512963241915,0.05046449243911149
17,0.04952151092270091,0.05046459703268571
18,0.049393915160854965,0.050309422367949164
19,0.0493234392379214,0.050357411530804155
20,0.04912205261711378,0.05017721339408294
21,0.04898304934871462,0.049782172685504736
22,0.04898660995957364,0.049633860593989707
23,0.048908603659150146,0.05029797621369504
24,0.04875060842356658,0.04986049597812244
25,0.04865320879037132,0.0496214134362774
26,0.04846957302226932,0.0497340251618725
27,0.048417073522760354,0.04927381117483141
28,0.04824734148515699,0.0496102921665898
29,0.04829930565857419,0.04914118959134356
30,0.04810706544042973,0.04891144069985717
31,0.04803334856564169,0.04965371771113483
32,0.048044722312292336,0.04909473513406109
33,0.04788301390147331,0.04896436987140973
34,0.047843924884943385,0.05000765263124394
35,0.04773688310750883,0.04958210792614341
36,0.04772288821598141,0.04922150348398786
37,0.0476218255280585,0.04953946241964295
38,0.04761782455252322,0.0487957123687116
39,0.04753917371052011,0.05008662928073855
40,0.04745737618777762,0.04877853556007398
41,0.04739953006253218,0.04903472563210737
42,0.0473739352732617,0.048694341520238854
43,0.04728902089039255,0.04903890597812236
44,0.04732919341448438,0.04897934037997398
45,0.04730037176735425,0.04908798121942903
46,0.04711921550386004,0.048911344224481484
47,0.04715855206129239,0.050110972268876335
48,0.04704905117100357,0.049194503262312485
49,0.04707640567106767,0.04895132455568981
50,0.0469423153995807,0.049455801361504154
51,0.04694250216730204,0.04927125163447323
52,0.04685762587967788,0.04923088689806046
53,0.04687869581163142,0.04859334389459208
54,0.046794140100709064,0.0486961691389628
55,0.046854710082411925,0.04919738097570994
56,0.04682002391294722,0.04983147990703346
57,0.04666546328143134,0.04875446972625775
58,0.046669592287232456,0.04807036197913655
59,0.046604550649263665,0.04904686034433289
60,0.04662032383887956,0.04944828340045106
61,0.04654430528978188,0.04860198426011424
62,0.04654379948477992,0.04849540677802495
63,0.046529228269333686,0.0481063390056898
64,0.04641976164737966,0.04873290512316214
65,0.04647246271008401,0.04841339065488774
66,0.04639649733990159,0.048632346918637534
67,0.04648485680008387,0.048265489430887196
68,0.046330426140396154,0.04822572479129538
69,0.04640193211540263,0.04828344924206514
70,0.046288693708457306,0.048508764871561624
71,0.04626197071657165,0.04842704178950882
72,0.046301248026661905,0.04898208444200046
73,0.046209278592880425,0.04803790323074202
74,0.046124456147973114,0.04818476451987101
75,0.046152301163171115,0.04831459457153827
76,0.04620089383675972,0.04809259964729683
77,0.046124615035288294,0.049335535550606865
78,0.046161711025427904,0.04854804455668411
79,0.046113263205157906,0.048086270917729386
80,0.04612256228154518,0.04792394285185367
81,0.04605488783900958,0.04815655337149366
82,0.04597739300048204,0.0482330796008136
83,0.0460015746761209,0.04922718491108858
84,0.04591189878955977,0.04811821099665334
85,0.04594710154863918,0.04914174728052345
86,0.04596387021595033,0.048413487429020234
87,0.04594330701532352,0.0485920760950953
88,0.04586521878511088,0.04816917009380709
89,0.04588502228028921,0.048543911654432934
90,0.04578294330143839,0.0478716208168381
91,0.04578802240453576,0.04804946787919206
92,0.045833859290219874,0.048533843302226966
93,0.045856070435955375,0.04827325729978914
94,0.045775655379739766,0.04879667871578882
95,0.0457157822508495,0.04840870830130583
96,0.045690141184805064,0.04817540323036672
97,0.04574056963164483,0.04841738261210861
98,0.04564332558036366,0.04970390925310198
99,0.04570565645560721,0.048525197413697194
100,0.04561222614286438,0.0480272610314937
101,0.04560599421200855,0.04866402336021056
102,0.04567908459554717,0.04872244914287572
103,0.04560627659981977,0.04941315408449987
104,0.04555944310344949,0.04883669834889854
105,0.045659768802190866,0.048073380573819664
106,0.04557332412125544,0.04933764581012881
107,0.04559017163694977,0.04917732447773876
108,0.04560350369192783,0.04799592185381558
109,0.04553391748413341,0.04823566000622872
110,0.04552784849841244,0.04824206855799426
