epoch,loss,val_loss
0,0.48379913028433835,0.3642959626245988
1,0.28427670881164063,0.22575431881029961
2,0.2428759808996789,0.23497804424239596
3,0.24083897933590231,0.22915162455405225
4,0.2453143967867946,0.2500196681332193
5,0.2448766394365701,0.23228142345243302
6,0.24470809813764552,0.22039557330092766
7,0.24563565567362128,0.2513652101170857
8,0.24576453246372781,0.2123169777966336
9,0.24678764367203632,0.2584864856012242
10,0.244895380392349,0.25055020423084146
11,0.2474971253106253,0.22567423192553382
12,0.24483623210903552,0.22719965843394127
13,0.24790947061839055,0.25090455671371015
14,0.24423683848645952,0.2543185912043256
15,0.24488588708410447,0.23633261804704883
16,0.2474620902626444,0.22396990499255595
17,0.24507150093285585,0.2513900250078847
18,0.24669714510250243,0.2458315068633893
19,0.24742026915915197,0.22385142115551182
20,0.24062705486059952,0.21864820127658421
21,0.2479031619717844,0.23613051083394648
22,0.2449752472930675,0.23826583359028847
23,0.243297566839164,0.23234499339381823
24,0.24507059327823272,0.2275996744609199
25,0.24037727400910655,0.22894634930938834
26,0.24018844411217813,0.2310872097229901
27,0.24251136321315375,0.22664132736617407
28,0.24114497437727728,0.22057612893048853
29,0.24013135270725527,0.23306985441727626
30,0.24049455150783206,0.2127306183892719
31,0.23891042515957098,0.22265930640810386
32,0.24100008865983652,0.2400911422277306
33,0.24424697074005836,0.24412914055628201
34,0.24301798323051726,0.22785997915286763
35,0.23948163343228693,0.23382065425779092
36,0.24215241037398505,0.23428198795151128
37,0.23852395627209894,0.23330538344129204
38,0.24165235488391895,0.2489321437423965
39,0.23871243141180606,0.23811243326295148
40,0.24079014117912137,0.2306744413363623
41,0.24028841473406357,0.21381644858745674
42,0.241896179981893,0.2291330692094428
43,0.23938861241538842,0.23708262804369334
44,0.23919877701764294,0.24560584663027557
45,0.24076566078680026,0.24774385317160375
46,0.24079305709575674,0.22599083852043467
47,0.24066764029334012,0.22130630391737374
48,0.24128410667419242,0.21799969581421097
49,0.24061658975484368,0.2295828362737195
50,0.2391304297805976,0.2353546791007976
51,0.24218801848536772,0.23792147425892038
52,0.2396094298167385,0.22829026028502147
53,0.24037961275886288,0.23723199112074717
54,0.2406453955456984,0.2256355729268683
55,0.2416167578441824,0.2429479755161311
56,0.24069024404461722,0.2220873818707071
57,0.24200760233673832,0.21427919717407076
58,0.24145226154348357,0.22347240420477354
59,0.24316399164503807,0.2300039652349823
60,0.24114408779392044,0.23273038486608297
61,0.23936238404300858,0.2533885113771449
62,0.24096778231701976,0.22710423333821753
63,0.241084545588703,0.2556095158691564
64,0.24345622329022007,0.23869416307019925
65,0.24084951585050013,0.2549157629543717
66,0.2439670612236007,0.2216241662438309
67,0.24356584764903874,0.24273564829399197
68,0.24477567268813924,0.2267237941557343
69,0.24387453317189578,0.23865916903976767
70,0.24237131650189606,0.25891995794583045
71,0.24746384914758965,0.2376927499495441
72,0.2429005871359393,0.21804980660811502
73,0.24244672228559125,0.23805646929998706
74,0.24223231986391364,0.2344549596192052
75,0.24338154674624557,0.21533583686778934
76,0.2442066836461937,0.22603369723555602
77,0.2441976342996438,0.22851090808270386
78,0.24523672348351405,0.22815279895476498
79,0.24393233431162212,0.23052192676368433
80,0.24536790380136764,0.22178900733460755
81,0.24501199160905765,0.22522344237344888
82,0.2457662597417736,0.2290296301469148
83,0.24655736758292532,0.2562189596486826
84,0.24774683692115101,0.2258213503843419
85,0.24635067313528367,0.2484206006860018
86,0.24712670039382578,0.23882822043188182
87,0.24671307539673065,0.236734625313728
88,0.249136400773085,0.24249530565390554
89,0.2514262102562175,0.2376290862261073
90,0.24520847567027326,0.22970596717960173
91,0.24975355923604622,0.2455679263152188
92,0.24777232292744752,0.2214250313007841
93,0.24785570800899984,0.23592875530941804
94,0.2488223336797824,0.21936588304524546
95,0.24680350934692044,0.2256663875285339
96,0.2457955053670229,0.2308424123296045
97,0.25248651169568037,0.2343507300071483
98,0.2483526141904622,0.23166966167790926
99,0.24547607055623277,0.25348623915507085
100,0.2452966782281534,0.2327951993190499
101,0.24739701991720642,0.23142301581135488
102,0.24621790416425557,0.24649291059212508
103,0.24588699029575434,0.2226677630228985
104,0.24569066337568107,0.2218122832071339
105,0.2460759108622583,0.2267086997028402
106,0.24790121632800113,0.22664696917866944
107,0.24424797078545432,0.22303779876034563
108,0.24672862982673707,0.2237949792145742
109,0.24799231364191485,0.24527590747131733
110,0.2464459455318207,0.24185184094740259
111,0.2483781727550508,0.24292743798777544
112,0.2510370574504447,0.22503945445487514
113,0.24657637861778411,0.24059418375414943
114,0.24854896826852713,0.23061440252326282
115,0.24833791773263023,0.22451585147826805
116,0.24796347885871295,0.22101563249362577
117,0.24674985453569823,0.2221467230224948
118,0.24704164835951214,0.24812724882914686
119,0.2489213308067821,0.23340260234515123
120,0.25061679004336435,0.24136462782957277
121,0.2480911266901415,0.21945486696997119
122,0.24796128028826558,0.24069791691173412
123,0.2479855583654605,0.22565454677417698
124,0.2485691644459796,0.2347814609850121
125,0.24820270292836127,0.22893656776143326
126,0.24845827040936258,0.22223062368716984
127,0.24553066959603131,0.23096784631756223
128,0.2483063028465739,0.2246732186546642
129,0.2440771174004419,0.23748856390096487
130,0.24507804756923068,0.23223541508816128
131,0.24586748970831804,0.21564456112477
132,0.24286833100562855,0.21917614209059194
133,0.24464719975404411,0.22202220036932682
134,0.24412524768655344,0.2529677412786536
135,0.24341327722052591,0.2250061975211352
136,0.24354374134759726,0.23474401928302144
137,0.2455295230165946,0.21431608654517495
138,0.24354704961978751,0.23805414027319052
139,0.24452524855554247,0.2522049418870351
140,0.24550863598986306,0.2205313241613504
141,0.24396759243034344,0.23454450021461887
142,0.24601397718147314,0.22234931363538202
143,0.24509012758684195,0.23231718826218675
144,0.24569016734925772,0.2459112378373895
145,0.24495921861067665,0.21951875279950833
146,0.2444435249475076,0.21796558059946045
147,0.24254429349891668,0.2253634465098287
148,0.2442642503993498,0.9403696937549745
149,0.2450083376620885,0.21981583505092686
150,0.24538602334537285,0.22599713058573295
151,0.24460076126191826,0.22599806875907819
152,0.24607829987216626,0.2186910284605192
153,0.24501288012801695,0.23161203287771207
154,0.246593847864871,0.22937143664004395
155,0.24497843853575435,0.2206555440045758
156,0.24669298915554294,0.2256243538696557
157,0.2492613104178751,0.2161096026319731
158,0.2470909060596181,0.24074040135720065
159,0.24882955714571867,0.22677341743351065
160,0.24707161683997186,0.22243532985331227
161,0.2468617852869556,0.25479197016407773
162,0.24669142864900623,0.25751422750215974
163,0.24848165735900163,0.2327836671257546
164,0.24727577258118813,0.22107884722990415
165,0.24783993468319865,0.2391732723202965
166,0.24735886754868605,0.22848542574454972
167,0.2455265949205529,0.2257900484782462
168,0.24725720478142862,0.9741523028266834
169,0.2497333433333156,0.24669048177179806
170,0.24708143273870245,0.22650856324181184
171,0.2463499540619427,0.21952118640493576
172,0.248041396030038,0.24613071386514918
173,0.24973303062929142,0.22631943029452237
174,0.2500940981350071,0.22180796812722883
175,0.24602890244538456,0.2366108869297258
176,0.24807065434688383,0.25201247065624294
177,0.246312590692636,0.23091088737572096
178,0.24797395520883023,0.23414848217977344
179,0.24779527919660274,0.226678193791607
180,0.248005073258488,0.24830873381131827
181,0.24984929364600436,0.22530953072146723
182,0.24816393267979725,0.23913074440624926
183,0.24802998010870173,0.226177327517176
184,0.25023431351764214,0.22539563411177851
185,0.2492598867733225,0.23728074415659658
186,0.2481246732836433,0.24681625634596494
187,0.2489851781313749,0.23714880485325793
188,0.24800548259374336,0.24111613347808866
189,0.2508253553014198,0.2540716995568189
190,0.24815539112217802,0.22984015811073
191,0.24803651234419416,0.21964168895532885
192,0.24706614748846523,0.23335264476152887
193,0.24753487578255953,0.2258703870597371
194,0.24702823002466098,0.22141616608603507
195,0.24892138430683447,0.22724958849687132
196,0.24930610018763705,0.24200232156450202
197,0.2506462333085154,0.23830689596866375
198,0.24653865969319233,0.24728681764549973
199,0.25066262851659055,0.23349185623140342
200,0.2468489838911475,0.22976731310797754
201,0.24739390837369588,0.22962128265739523
202,0.24701990377154948,0.2307508773895917
203,0.24772067123251282,0.2485852561532369
204,0.24733773716610016,0.238881026571815
205,0.24676978078891906,0.24310039443676174
206,0.2500305609058419,0.2223505405642992
207,0.24829450282428286,0.2393972908970683
208,0.24842755564992472,0.23101683049194438
209,0.24567272794618308,0.2267606264155214
210,0.24643675544017035,0.23216932982606217
211,0.24931439102815686,0.22426632691201207
212,0.24882236872907643,0.24088281791748356
213,0.2483167931747189,0.22857140832607822
214,0.24804311205181095,0.23171808706462713
215,0.24767380597279798,0.2346380862812405
216,0.24723551805309063,0.23048748452313414
217,0.24708128185700073,0.230316656388066
218,0.24697865318241927,0.22297357747238644
219,0.2476611042218052,0.22826230665926117
220,0.2468338905871629,0.2419977400396034
221,0.24732255159045677,0.23809981991808152
222,0.2499193908106223,0.23103385863806566
223,0.24654435378303535,0.22827823330731306
224,0.2481100855888032,0.23196601922952387
225,0.24979055289932484,0.23985073070358648
226,0.24762059596302413,0.23662406100282166
227,0.24715369885607208,0.2507737039484748
228,0.24806356599791157,0.22863403309633532
229,0.24807653799474383,0.22619139478963102
230,0.24967864644136742,0.2285112085404505
231,0.2505428520300024,0.22768973745552687
232,0.2502369567049112,0.23776068796580857
233,0.25104443072010096,0.2474709440143257
234,0.2484890606632526,0.2223412953758202
235,0.24788232306710822,0.23161847603631566
236,0.250043766919991,0.22554084328139215
237,0.24987770187602246,0.2454835560111051
238,0.24732214721034376,0.21924737706227668
239,0.24980354909416583,0.23025815245337436
240,0.25046056345236195,0.24930093259254402
241,0.24959354523083957,0.23539529203333626
242,0.2501940202596281,0.23157245270031687
243,0.2480671781716015,0.23403453833960886
244,0.24797801733564892,0.23014804378634093
245,0.24649332930668175,0.24599930976871062
246,0.24680074629523485,0.24712737515015967
247,0.2502140331504156,0.24118688330936355
248,0.2495908537964455,0.23073443960936502
249,0.24933448608973616,0.22850420041966835
250,0.24857327150259848,0.2318695082778336
251,0.24885440404585701,0.23506547930490904
252,0.24734851166451102,0.2386796771891962
253,0.24777392854245542,0.2509396460668817
254,0.24771445147472795,0.21889534853722226
255,0.24726193255896,0.22681853582093164
256,0.24877429355701192,0.23899863144028535
257,0.24877485326177878,0.24846892074138607
258,0.24980251255819647,0.240322940139763
259,0.24826331888076117,0.2249730967732048
260,0.24733219573275744,0.2223204377959258
261,0.24857012174731727,0.24447143601213936
262,0.24882205298168958,0.23736686570586044
263,0.2500158082440698,0.2262291148504876
264,0.2502684985919536,0.2361003193172208
265,0.24990556834579752,0.2523502306314369
266,0.24797085311105974,0.2295976167202184
267,0.2486356939438531,0.21723009651819364
268,0.24849927346769282,0.24710332771032556
269,0.247223732253011,0.23790407547728698
270,0.2480857200819335,0.2279975084027815
271,0.2480173261164666,0.2331975638137244
272,0.2505008283552887,0.22979379471776612
273,0.2483880402122756,0.22602052819615945
274,0.24938905264119166,0.2467451841932822
275,0.2480660444981665,0.2450945671021515
276,0.24809645589211768,0.2521346036312424
277,0.2483149774366622,0.23541632628666667
278,0.2488219354935973,0.23225550472312964
279,0.24616229808706935,0.22552131451578147
280,0.24949843962963442,0.24436633980405922
281,0.24812294400448232,0.23580037173833449
282,0.2497306119123523,0.2421385655745617
283,0.24750645981608727,0.23616578437582
284,0.24777465385736988,0.23292549751881267
285,0.24751521430784565,0.2255303887701825
286,0.2481544749389926,0.24057559923054952
287,0.24819181909521135,0.23465970042143267
288,0.2485240603284203,0.2594985425848611
289,0.24827406763863696,0.2498609598640767
290,0.2510488773707292,0.24056415330403982
291,0.24827738524936468,0.23098331741582906
292,0.24988960519397288,0.2526747648910735
293,0.24993257318659842,0.2510145866762679
294,0.2495681912921887,0.22869857262464235
295,0.250679213098056,0.24250665027133667
296,0.248011832292989,0.25313572827858916
297,0.24944953870573203,0.2311870213936141
298,0.2502603490206359,0.22648346175946113
299,0.25127920594146785,0.2301409929732027
300,0.24718322172510823,0.22270141566655913
301,0.24975761861133156,0.25319776214194656
302,0.24996091537981582,0.23424441519692457
303,0.2466994754189877,0.22929682122174452
304,0.24555056629706914,0.23887410454140373
305,0.24863119105355058,0.2198195500150852
306,0.24855829777120114,0.23962843348731558
307,0.24972893675263647,0.22334877333964714
308,0.2495226627893204,0.21982594106078807
309,0.24826697577580178,0.21867240826586803
310,0.24806072836299595,0.22632771786875674
311,0.24893369438122218,0.22624851439821503
312,0.24838693901527223,0.22303729581381265
313,0.24943059760865738,0.22146579016355802
314,0.24719466800860268,0.2162904119105817
315,0.24904261921926274,0.26690594387411976
316,0.2480934402294201,0.22780216147133753
317,0.2506032224765403,0.22859761579919258
318,0.24905917499896338,0.23130521275861676
319,0.24768068286464465,0.22124771068156376
320,0.2485572616699979,0.24245740079277597
321,0.24866396843267383,0.22480786919311546
322,0.2474593209276954,0.24065400892905392
323,0.2477163002133179,0.22783856109172787
324,0.2474017205307905,0.2429801790659693
325,0.25019116107699013,0.23063386817945677
326,0.2501809579207838,0.2370772866419007
327,0.2491277276242761,0.23208247734367518
328,0.24818277122567503,0.2400438737332962
329,0.24979919747864124,0.22461817356527747
330,0.24971134484195404,0.23886565786463684
331,0.25013830297165734,0.2397483557509736
332,0.24906824223643584,0.24025715065454062
333,0.24947754932131222,0.230241043521084
334,0.2508347378455573,0.2329321370975371
335,0.25036937610613264,0.237869157316935
336,0.24725621917264926,0.24169536548848217
337,0.2507780538938886,0.23647252420270734
338,0.24879833795636488,0.22381901642235602
339,0.24927756969901108,0.23911302351490568
340,0.24791606088622298,0.22270480972062723
341,0.2491410557243178,0.2232212691252497
342,0.2503866598569899,0.22825900050675482
343,0.24954240073522121,0.2305508328876631
344,0.2485043698434921,0.23594555535133938
345,0.25079359198741014,0.22578081660319615
346,0.24928569445292725,0.23613049884950824
347,0.2483859742454869,0.2411633243971014
348,0.2473640600256592,0.22430521100406678
349,0.248921859351327,0.24405600658626
350,0.250565571339725,0.23100065862746716
351,0.24945583374356384,0.25662719761186825
352,0.24918335718478707,0.22292364863259828
353,0.24850857297150636,0.23376850752070275
354,0.24844755592653983,0.22254487424030395
355,0.24774223922206154,0.23041340455871542
356,0.2479243144202385,0.2570090741154333
357,0.25003635502166505,0.24264782724788833
358,0.24961030716113716,0.22921279667867106
359,0.24772209220295616,0.22801039005087978
360,0.25058591581410544,0.24315422325267882
361,0.24901513413464327,0.22406470776780346
362,0.24902117347045483,0.22781628818378358
363,0.24750745055272425,0.22469709906506558
364,0.2501989465287263,0.2293259618831791
365,0.2469233752523871,0.22668789187188965
366,0.2488477489800095,0.2393074714253056
367,0.24790065936285624,0.22855807284529792
368,0.2491765374438368,0.24113489284041179
369,0.2488863986375616,0.23483201687319033
370,0.24890056796234955,0.23806415426514707
371,0.2475737500891125,0.2317234488834804
372,0.2506110412921075,0.22837136288327126
373,0.2480261452037463,0.2522078637612929
374,0.25048128679859266,0.22518156502975095
375,0.25055860170571925,0.24587688338079128
376,0.2498279385786834,0.23285575455676502
377,0.24756157440509347,0.25422862041579897
378,0.24722629418071035,0.24182679193078202
379,0.2505167396329671,0.23616734938585768
380,0.2494071777895105,0.24041117252612923
381,0.24833914713798572,0.2320083759977955
382,0.24886911068198017,0.25496747566426753
383,0.2507267688556636,0.2300598889989183
384,0.24897985461709216,0.23001531949641674
385,0.24861612273968287,0.25346456890324487
386,0.24780682263542994,0.24297538730179877
387,0.2492303241261666,0.23037392149172906
388,0.2486126289831744,0.23112831907471806
389,0.24962605964198864,0.2256586583303295
390,0.2489617368657526,0.24505368832442925
391,0.24913938336973662,0.22546372141015747
392,0.24938645190615163,0.2277054607562409
393,0.2480813535712034,0.24363828469846976
394,0.24848232755391336,0.23205751007762404
395,0.24733386898664927,0.22609329110727408
396,0.24987359700514544,0.24016039126391664
397,0.25060241901093155,0.24917782966603233
398,0.24760844137409418,0.22919671540901995
399,0.2480206510705723,0.23479806715894516
400,0.2468933354166867,0.2548274726216588
401,0.2497578031129593,0.24801370278059637
402,0.2482384165747465,0.23808669194802584
403,0.2475345031522828,0.22865995046136506
404,0.2486836750456374,0.24542967608197053
405,0.24856112156507018,0.23773262813840218
406,0.2500318559489662,0.22410979832874667
407,0.251485329106462,0.2291529691280487
408,0.24935776862999995,0.25951695310476736
409,0.2490642839293781,0.23669544157543423
410,0.2499116130000491,0.23293861396310833
411,0.24711298283269936,0.23163423676046688
412,0.24804471692235636,0.22483727906337383
413,0.2492278733496948,0.22481417747680466
414,0.24905881644200553,0.22773847268525313
415,0.24733866958452358,0.2302788667492539
416,0.24975764769896996,0.22921461584347858
417,0.24905987134535346,0.23848725709514346
418,0.2494924338899261,0.23527812165073644
419,0.24865316324454131,0.24572235362305825
420,0.25119895823329663,0.23583196403477827
421,0.2519328648285519,0.23069828596986366
422,0.25048958042638003,0.23622373883754322
423,0.24726369215263355,0.22328423030656816
424,0.24986515478264515,0.22355850758332385
425,0.2480567193610205,0.23220187246846513
426,0.2479193610407942,0.23175896920598954
427,0.24962961548666873,0.23631963912388804
428,0.24886149926175125,0.2336657571340981
429,0.24774809222188976,0.231203795714273
430,0.24875345963130086,0.24656059998128013
431,0.24923254842523762,0.23175407166356823
432,0.24801243029290634,0.22803827400459675
433,0.24849097963145597,0.23249431665995596
434,0.2482411265432787,0.23442889525369104
435,0.24828182415162725,0.2310790049695743
436,0.24968872087107574,0.2354813632338463
437,0.24746082137099845,0.23629289836091324
438,0.24909723931841618,0.23030880721610836
439,0.24883847846258744,0.22891266903918656
440,0.2500110387825947,0.23772220434687133
441,0.24797312236375374,0.24092299388258498
442,0.2492032034291352,0.23646626667940626
443,0.2503860237882387,0.22840594852544607
444,0.24798415108717126,0.231822590389963
445,0.24874850031997947,0.2501946686639876
446,0.24693185772350748,0.23060721724684444
447,0.24879333884310093,0.23793573049503514
448,0.25125164566613695,0.23742079487821674
449,0.24864542667123435,0.22200291627913643
450,0.2480418724979428,0.2243569861765254
451,0.2505079137383224,0.2410492225128925
452,0.24712818916395698,0.2691090252682649
453,0.24864009606371298,0.2475278383295839
454,0.24876456802411617,0.23599580153764094
455,0.24907609016941987,0.23380648887524383
456,0.24903396337771777,0.2268806952092247
457,0.24984644776244433,0.23215269815432527
458,0.2472089063956869,0.22981668060796884
459,0.24895598218857432,0.24448394927107261
460,0.24797848656142263,0.22244915396751339
461,0.25183995096065065,0.2264062744971797
462,0.24928334095090224,0.23228311996198397
463,0.2507280656140295,0.22983207034377856
464,0.24933622960301993,0.2291275051252618
465,0.24951932481009897,0.22344399399426196
466,0.2500481751027534,0.24364536875989745
467,0.2504306878153083,0.2220684247827944
468,0.24799695082133907,0.2456261095515178
469,0.2473946438073445,0.24546994059548757
470,0.248483033554493,0.22557701366852848
471,0.2496776865135661,0.23284613260530354
472,0.25041722524151816,0.22090686417839708
473,0.24887682201503086,0.22978664932282966
474,0.24782064656535688,0.23861376517808805
475,0.24667945498232838,0.24528227224299168
476,0.2504311664987335,0.24534577908672117
477,0.248907872777191,0.23071273930823605
478,0.24920992725353827,0.22773619286639538
479,0.2507775414714234,0.2500331649746402
480,0.2461702083107188,0.22506347491502196
481,0.24933760812123426,0.22767733204477683
482,0.2494290629081684,0.23940436083355943
483,0.2464950895316595,0.23736260290350986
484,0.25053462368264184,0.24254012151364746
485,0.25152763327677474,0.22490692068105997
486,0.2488700753445629,0.23011009392770332
487,0.25094370635674534,0.22973464374101904
488,0.25081248304469406,0.22351104769070693
489,0.24936021772100866,0.22938449544377842
490,0.2475394538993077,0.2275880132143951
491,0.25021095747212996,0.22901729093871911
492,0.2459668221352674,0.262915882569368
493,0.24959272218884515,0.23172885999259935
494,0.2480594891843369,0.22162966401960874
495,0.24915199371264707,0.2343864407987226
496,0.2489966478743713,0.23729063387028138
497,0.2464830766586091,0.23722545048714436
498,0.2513877442188495,0.23511706135032115
499,0.2516698581423405,0.22363921216650093
500,0.24861500996479885,0.21919508163112303
