epoch,loss,val_loss
0,0.8015476219422665,0.800124173024656
1,0.8006689021450388,0.8001412339147659
2,0.8001193093109935,0.8004183276354254
3,0.7743308621840163,0.7502969213046592
4,0.7501396488694385,0.750154387535359
5,0.7501647473272938,0.7501791563510365
6,0.7501627701136734,0.7501548972748112
7,0.7501554922022426,0.7501405688227217
8,0.7501443588172125,0.750366621023514
9,0.7501438909996115,0.7501212777325856
10,0.7501396507700571,0.7503961736917003
11,0.7501302970810328,0.7501078394503561
12,0.7501329490213462,0.7501264853961737
13,0.7501284655938609,0.7501575543006981
14,0.7501270275682579,0.7501372059072713
15,0.7501283109235802,0.7501178909023924
16,0.7501243967832216,0.7501226184395394
17,0.7501256346424129,0.7501886233472059
18,0.7501230751315591,0.7500956005921
19,0.7500394655026347,0.7137954323721893
20,0.7001927258350296,0.7001231416115709
21,0.700144263890248,0.7001733940301177
22,0.7001400489851838,0.7001189833995898
23,0.7001456122708628,0.7001848440378909
24,0.7001442552331453,0.7001649213581213
25,0.7001449694725111,0.7002956287925615
26,0.7001431708081819,0.7001690088907498
27,0.7001430034705288,0.700131025577663
28,0.7001438490679192,0.7003172880764214
29,0.7001372804220629,0.7001124437846928
30,0.7001379075559888,0.7001653175581556
31,0.7001400304223049,0.7001167167098216
32,0.7001343874644622,0.7001442224691269
33,0.7001380702614018,0.7001092239554125
34,0.7001353391060356,0.7002435033427774
35,0.7001373952329922,0.7001382444271005
36,0.700137114522396,0.7001190472590046
37,0.7001341160893384,0.7001081415257872
38,0.7001336627387617,0.7001206778156694
39,0.7001331467458635,0.7001114895187788
40,0.7001316231762541,0.700135040272791
41,0.7001359912899487,0.7001268657376052
42,0.7001305223781262,0.7001192293764202
43,0.7001316125925023,0.700298714523223
44,0.7001328110474809,0.7001067204798747
45,0.7001354155401669,0.7001149707064281
46,0.7001297921872107,0.7001511264892349
47,0.7001323400009187,0.7001587083903081
48,0.7001315152219868,0.7002544409891377
49,0.7001289597849012,0.7001083832289163
50,0.7001366775323629,0.7001867557170184
51,0.7001300538494202,0.7001559180703752
52,0.7001297608197078,0.7001725849327973
53,0.7001343356831563,0.7001493182876327
54,0.700131358916125,0.7001070164869337
55,0.7001278106111204,0.700130822673873
56,0.700127687772947,0.7003329058800574
57,0.7001292207383721,0.700117551397289
58,0.7001302262705082,0.7001050645839
59,0.7001289689077915,0.7001090572195354
60,0.7001297962874038,0.7001154884111508
61,0.7001281889817226,0.7001242216842712
62,0.7001292744889224,0.7001557556081995
63,0.7001311046094947,0.7001159474057244
64,0.7001272415302656,0.7001106092830263
65,0.7001273982147524,0.7001099213401685
66,0.7001299289359085,0.7002484240862459
67,0.7001300715296297,0.700128855275714
68,0.700124127400454,0.7001138469548912
69,0.7001281712597066,0.7001111776143081
70,0.7001293912316279,0.7001107201720866
71,0.7001268086088736,0.7001088354934751
72,0.7001236371079103,0.7001293172282758
73,0.7001293802112742,0.7001265097946066
74,0.7001260947082982,0.7001066160983882
75,0.7001249207069724,0.7001167090379834
76,0.7001279047037691,0.7001186813014414
77,0.7001250314717415,0.7001564688335737
78,0.7001276565706982,0.7001060494567092
