epoch,loss,val_loss
0,0.5548646668323975,0.5502802971215102
1,0.5506081656888049,0.5502313460852393
2,0.5503710140330954,0.5505410397982283
3,0.550331736116663,0.5503030400702513
4,0.5503272299622126,0.5503561469331817
5,0.5502983579794043,0.5502023871964986
6,0.5502996309694731,0.5502082635357927
7,0.5502815555066742,0.5501846073117543
8,0.550271420269804,0.5501989583770718
9,0.5502661459254764,0.5502666192990324
10,0.5502615555549681,0.5502405110873816
11,0.550255534026562,0.5502021365768098
12,0.5502627561239362,0.5505971720109993
13,0.5502455515139978,0.5503752180531193
14,0.5502576535444132,0.5502217661554479
15,0.5502492093808482,0.5501863030956078
16,0.5502577527015655,0.5501858069818323
17,0.5502315931144383,0.550186825481051
18,0.5502396328737778,0.5501956852614094
19,0.5502391738891822,0.5503533688900829
20,0.5502235911706641,0.550173406319257
21,0.5502371218919989,0.5502463656511499
22,0.5502216992711141,0.5501713115714251
23,0.5502197009475728,0.5504664067609056
24,0.5502270537782403,0.5502767501766007
25,0.5502218209560589,0.5501745101221217
26,0.5502303348773344,0.5501989963008465
27,0.550217513003509,0.5501892260801268
28,0.5502081640969916,0.5502037506018704
29,0.5502053466340587,0.5501778009999114
30,0.5502199441285444,0.5501772197008095
31,0.5502048019378366,0.5502993875038668
32,0.5502128038674123,0.5502123507371266
33,0.5502090425645528,0.5501620327080358
34,0.5502061941711134,0.5502413857005902
35,0.5502065074016523,0.5502071350467419
36,0.5502071066147459,0.5501631518451111
37,0.5501978471717923,0.5504538648200826
38,0.5502019145393183,0.5501615132947791
39,0.5502081997338857,0.5501770144779569
40,0.5501975915553562,0.5501726564763557
41,0.5501980648294955,0.5502222885834862
42,0.5502019324218556,0.5501862921108229
43,0.5502017303067083,0.5501945333924202
44,0.5501947801050672,0.5501773483993251
45,0.5502037042586322,0.5502410931579268
46,0.5501959720504567,0.5501588259081017
47,0.5502059227857352,0.5502249474220282
48,0.5501923533350079,0.5501711404009321
49,0.5501894327220067,0.5502003913022647
50,0.5501929493495091,0.5502043254927867
51,0.550197743862386,0.5501595351153449
52,0.5501925987262029,0.5501710486133761
53,0.550191747320074,0.5501835871465967
54,0.5501960405310966,0.550217407330343
55,0.5501907759876347,0.5501770132710977
56,0.5501893597522942,0.5501543210814335
57,0.5501953533965473,0.5502393712822513
58,0.5501889434020558,0.5501714617425684
59,0.55019483836441,0.5501577248549828
60,0.5501887965693124,0.5501731046423262
61,0.5501982308222411,0.5501905857749982
62,0.550192227063179,0.5502000873488662
63,0.5501904995401192,0.5504912565166049
64,0.5501906009339197,0.550380401295557
65,0.5501882482718145,0.5501884777517153
66,0.5501890971001381,0.5501851235067199
67,0.5501887283221578,0.550171550165117
68,0.5501892803534504,0.5501599988568978
69,0.5501915841516343,0.5501783637181149
70,0.5501839706625078,0.5501565042565469
71,0.5501881207327751,0.5503520233698908
72,0.5501918616427348,0.5501664526664739
73,0.5501858137324492,0.5503771342094577
74,0.5501871219602782,0.5501689280387578
75,0.5501893753922671,0.5502359650760524
76,0.550188771307532,0.5501631083508531
