epoch,loss,val_loss
0,0.3277990506004563,0.309271758644244
1,0.30713044221905306,0.3120925379086406
2,0.31160615395298963,0.3112494100734956
3,0.3107202848156007,0.31146747592451446
4,0.3094744348971487,0.30709979168617924
5,0.30486346124340113,0.3044454979915363
6,0.3025494417507681,0.2975696750226318
7,0.29336401250222316,0.29270143726959696
8,0.2918142384226374,0.2895521106052888
9,0.29133606965926817,0.2920546999999455
10,0.291434710313805,0.2913249270151051
11,0.29083148259624875,0.2904111791781393
12,0.29068896411467704,0.29157680851696227
13,0.2904858062807605,0.2911106499636747
14,0.29019106192578326,0.2905087175690102
15,0.28999807291346297,0.2894403377008325
16,0.28975443119148936,0.2898505486859613
17,0.2890098432628371,0.28721302277287253
18,0.28862632860501797,0.2890435204368552
19,0.2893558608637535,0.2901938929506993
20,0.2891287703177245,0.2904866442919342
21,0.28979366838479403,0.2894190691217439
22,0.29082740481189495,0.29013707257672006
23,0.29146806452628804,0.29131418399530407
24,0.29035901694560795,0.2898963895268391
25,0.28939034823152565,0.2889340857327596
26,0.28851305897668494,0.28772966222633223
27,0.2873422030946143,0.287186928605036
28,0.2905271709572783,0.29363894114460454
29,0.28981553321238235,0.2862699523909222
30,0.2857979215580306,0.286162551136683
31,0.2857887261002946,0.2867991731876262
32,0.2864023751849465,0.28544933647034954
33,0.2855837333331005,0.2863321233284972
34,0.2853547508875243,0.2856200501593249
35,0.2829543150288405,0.27436835867453485
36,0.27276733556656624,0.2693169270689881
37,0.2688013902998609,0.2649894159319557
38,0.2653938488756343,0.26565306682518924
39,0.2648668195233404,0.26674696595511665
40,0.26366255924605925,0.26042347249075853
41,0.2624568952877316,0.26291087492653586
42,0.27116648745026994,0.2765296806758468
43,0.27602130429838584,0.2798375299034292
44,0.2749392780141055,0.2728438364796123
45,0.2753060416018458,0.27536384927163277
46,0.27645666562288784,0.27884592926210555
47,0.2782975369148689,0.2793379960656637
48,0.27917541282997427,0.2811177930285259
49,0.28088839021589546,0.28002814423431066
50,0.28162887160607475,0.28263885974178377
51,0.28275040580595523,0.2843387594303938
52,0.28420142572727514,0.2842512891084638
53,0.2813589710959618,0.2754924700205121
54,0.27529364625672453,0.2729960683889058
55,0.27587240761358867,0.274884233623155
56,0.2776745245319238,0.2783703717455303
57,0.27745435247532757,0.27317459736645644
58,0.2753519681062725,0.27752025215500625
59,0.270904770723993,0.26510136744452917
60,0.26589186962464634,0.2634212312059978
61,0.26474576553911994,0.26266141642758295
62,0.2647744309392383,0.2653005520247905
63,0.2673215172488055,0.27926467823036655
64,0.28348904865370284,0.2808156774306542
65,0.27642814100360413,0.27352929759209044
66,0.272556814751465,0.27204612549614887
67,0.27009422233481584,0.2686319163726274
68,0.2698673076248712,0.26827971616079227
69,0.26827248106960006,0.2688434944027225
70,0.27042814816454713,0.2709017536458107
71,0.2683810272323285,0.26509927571901865
72,0.2622854457014232,0.25952820222892437
73,0.25881949330655507,0.2564747073314937
74,0.25744423811003075,0.25728990229900744
75,0.2571428936037371,0.2549024958813294
76,0.25711796009581056,0.25561953698238615
77,0.25682749330318516,0.25885476675928343
78,0.2568893255613786,0.25750814997477145
79,0.2565915824936258,0.2567567101840721
80,0.25655681764979443,0.25744343723075636
81,0.25677470022813975,0.2565697916645936
82,0.25659374644954525,0.2573279542135458
83,0.25636732988327526,0.25978097008525053
84,0.256433407283968,0.2562117336910356
85,0.2569896843608954,0.25534231431529386
86,0.25681344115679305,0.2585076352944502
87,0.2559574862136591,0.25329469512462993
88,0.2558967504444883,0.2561133885263644
89,0.2565368333940121,0.2551979031693117
90,0.2559462178030984,0.25306197897411276
91,0.25582164181746264,0.25545827703346113
92,0.2556639770589334,0.2536293110724218
93,0.25527685608783307,0.25625556058176124
94,0.25555881564851574,0.2546629669657822
95,0.2572950517638124,0.254967184668229
96,0.2555457417347687,0.25610029510418636
97,0.2556723918822362,0.25426710822164494
98,0.256483517089884,0.25312699885611095
99,0.25669605500227827,0.25638367914857124
100,0.2573294280428919,0.25958515182078684
101,0.25808487662511004,0.26137200327797394
102,0.2580257299617469,0.2585025539396782
103,0.26141544904330555,0.25853131489200487
104,0.26028901799846227,0.2595340648008879
105,0.262074078554563,0.2575017999278436
106,0.26278975277805594,0.2607513071459019
107,0.2620022427216232,0.2626357817729816
108,0.26376561488774564,0.26313308828114146
109,0.26461681745035187,0.26584266043828997
110,0.2655981457550272,0.26870038202760155
111,0.26627943147238875,0.26611829860152086
112,0.2667027547014512,0.26726070168151006
113,0.26727764169387014,0.2648590641668112
114,0.2684740462332225,0.26855574457096887
115,0.27006087058799255,0.27034303972875406
116,0.27134166610279054,0.2722378584020422
117,0.27202696739424237,0.26921006948955434
118,0.2687257960867539,0.27134887684186615
119,0.27038115589953154,0.2689761502143428
120,0.2710618109559174,0.27057634227583516
121,0.2715295381445012,0.2713607191486724
122,0.27169944124994616,0.27227735153054666
123,0.27146441436452357,0.2705126719662498
124,0.2717445103599013,0.26979174025668434
125,0.26964180820958794,0.2730926513648353
126,0.26902428424234487,0.26981430950603247
127,0.2698849125160016,0.26927475725912914
128,0.2711754773023555,0.2725090179195438
129,0.27140734963220275,0.27129580402171977
130,0.27051333205805694,0.2680716239321674
131,0.268411979665883,0.26711559295654297
132,0.26988756072392567,0.27441581599737774
133,0.2738812586499585,0.2737195488438892
134,0.2706622584796638,0.2642956661161891
135,0.26689465408869306,0.2661963719183663
136,0.2687615226093623,0.27016316306054733
137,0.27183821858416835,0.2666717620703209
138,0.26194987678937587,0.2640957873558659
139,0.2666287950748544,0.2677441733376944
140,0.26940589435666584,0.26760043979467324
141,0.2677985600007476,0.2684215506760737
142,0.2680550863643249,0.26428516269694563
143,0.27466969328413576,0.3034404961255562
144,0.29781910293489144,0.2949434630072954
145,0.28655992571612915,0.2830850104812383
146,0.28326204509662684,0.28194235588681915
147,0.28138454410312275,0.27960035776471
148,0.28896911620950816,0.29004780135478386
149,0.290357958629644,0.2925889072167939
150,0.29039910410662634,0.2907166033748011
151,0.2907600698353861,0.2906838722979825
152,0.2905175498158907,0.29135004246949964
153,0.2909677861322411,0.2928080130206758
