epoch,loss,val_loss
0,0.4748470344417673,0.37092426939093415
1,0.3722467751954671,0.32787282664943324
2,0.32806532052781084,0.32338702422291066
3,0.3179206902936971,0.3105126421519312
4,0.2872777198501628,0.2699627491697704
5,0.2810929294982307,0.2995269761465625
6,0.2795207849759564,0.25044965334736463
7,0.27671175965254635,0.2584582236731438
8,0.2798615883139493,0.28582230927724017
9,0.27535265967023553,0.27444222483610486
10,0.2754688918245115,0.256804158227502
11,0.2789749807650618,0.3091843806107212
12,0.2803196406824221,0.24610843466508078
13,0.27755091449530195,0.25865599142583034
14,0.276633286695305,0.2714155691763314
15,0.27634068451625265,0.27255232962643716
16,0.27585938697953305,0.2515993963430129
17,0.27895496215084664,0.2768453335023434
18,0.2772378194972956,0.2507684538354061
19,0.27891285742501276,0.25497770942188946
20,0.27655423382560695,0.2526208157132908
21,0.274962136094614,0.2495394251129245
22,0.27519004442971007,0.2656122668695525
23,0.2747134351246744,0.26758990972505
24,0.2731287689994184,0.2461539215004717
25,0.27707980769119867,0.26281270187204053
26,0.27381071893216896,0.26094156910607263
27,0.27552421106923397,0.29328987889150604
28,0.277692879936535,0.27559320173493124
29,0.2748383315656778,0.2618799452458956
30,0.2753819043068386,0.2658358623215601
31,0.27584567875098837,0.2540977261813494
32,0.27574156325378957,0.24878463701836784
33,0.2779961118249775,0.2514260084542498
34,0.27902701149860637,0.26016034028289253
35,0.27848800957846126,0.276403994426637
36,0.2758834683042255,0.2684053691499517
37,0.27621673541865666,0.2601249433683427
38,0.27585557793422666,0.25793909527884756
39,0.2759313975854648,0.2608292930904297
40,0.2740378270296456,0.25921375916619516
41,0.27731248615480825,0.27560944503559875
42,0.27575033243230396,0.26623482913978475
43,0.27499729941645973,0.26568349399666386
44,0.2729996168773047,0.27240094641295587
45,0.2756548085325151,0.25919845821402065
46,0.27633240196011144,0.2625374632175268
47,0.2732781831452029,0.2428219662398547
48,0.27321345195900815,0.28961728811969695
49,0.2758894480711265,0.25777131023845434
50,0.27363915014848245,0.2671183006163178
51,0.27646214581674616,0.2706179303758805
52,0.27520324269549357,0.25563596533618765
53,0.2725098463211605,0.26596661794110366
54,0.2713739985792185,0.26287526207451944
55,0.2718244340243957,0.2536509311401477
56,0.27085079611253016,0.24741080857301756
57,0.27199524763128835,0.2598714239383741
58,0.270429198345025,0.2492002352731098
59,0.2714589140195545,0.26319380397390174
60,0.2728852261837533,0.24017081946581484
61,0.2696849863877971,0.26767190776900596
62,0.2708013634637391,0.24601675433583775
63,0.26960974460025483,0.2809846426265486
64,0.2693631656164174,0.25266136171409437
65,0.2693689473562961,0.2506933284257469
66,0.2677363967128414,0.2662556831796243
67,0.2683979142293465,0.2636626713395401
68,0.2692767374402137,0.2606905611039337
69,0.27015664557711205,0.24543481120794142
70,0.26820171476125143,0.24730034951111796
71,0.26764644925995507,0.2719429871559896
72,0.2685938992148204,0.26401220370251643
73,0.2696822187383112,0.24896332412228964
74,0.2694357653899635,0.23936019476794218
75,0.2675934098214268,0.25753185789276506
76,0.26935401875123705,0.2578851393267406
77,0.2675137356531134,0.24169625294848324
78,0.2676582247090282,0.25126699706937916
79,0.2698130761559823,0.25837133282644126
80,0.26755253244623195,0.2468731083922623
81,0.2663589952220257,0.24544350439484136
82,0.2673049552870883,0.24854334988929008
83,0.26689770558683706,0.3001222981179711
84,0.26622653421428466,0.25066612818481987
85,0.26711560149701663,0.24483132960999585
86,0.26554902491094967,0.25209881278267976
87,0.26617150174246895,0.25462788067046543
88,0.2651392765980449,0.2495505489062021
89,0.26488954399963266,0.2449923596376496
90,0.2666578272239958,0.2575867642261141
91,0.268028140568333,0.24148451179948113
92,0.2666572879770582,0.26355245436564523
93,0.267278448729921,0.2671797119710233
94,0.26955854761705317,0.24865288950132403
95,0.2692040128649758,0.2429548539956348
96,0.26687952556269917,0.26157833121852225
97,0.2671525068849111,0.2748569334080206
98,0.2671743926289175,0.25593425843926426
99,0.2683036775945378,0.243168942918435
100,0.2653750906661927,0.2596033919299787
101,0.26606703753904,0.2554674284986934
102,0.26746934661857613,0.25008965401830124
103,0.2668634126845786,0.23915117232227476
104,0.2653181908025349,0.25500462428264575
105,0.2647389120740189,0.25219249368984115
106,0.2641210822190503,0.2427193416839711
107,0.26531168741049715,0.2650535687651329
108,0.26672676736883505,0.23603699075818155
109,0.26661045166204494,0.2455625213688532
110,0.26655626023630447,0.24603915817876829
111,0.26550924959037897,0.2430558214882931
112,0.26599146665143164,0.2646178886729521
113,0.2643362704059965,0.2435327597791601
114,0.26504599366733117,0.25103684037853247
115,0.26342967450976085,0.25452272596327263
116,0.2630206871030333,0.2627753223033053
117,0.26526223792494247,0.25565227088772036
118,0.26575350002657405,0.25097978717243946
119,0.2653157996366636,0.24809394312262442
120,0.26755239047425733,0.2682814037908036
121,0.26671399392908235,0.24909093979549107
122,0.2659719072038131,0.24907866606066897
123,0.26386147280700867,0.258957277310111
124,0.26477599590063855,0.2558574122218702
125,0.26741125859874043,0.2466306693457955
126,0.26603085937783966,0.24691278318673865
127,0.2678487961717266,0.2473126324430261
128,0.267770830366156,0.24758202891323447
129,0.2678131867858241,0.2554734049816252
130,0.26678811994006785,0.24900592462510318
131,0.26616987269773756,0.25253796859717126
132,0.26701242733392405,0.25042724248312925
133,0.26655950235257997,0.2556814801156662
134,0.26567379490053245,0.2634292289720526
135,0.2656600864397155,0.25423798564859706
136,0.2642396095273592,0.2443711421766334
137,0.26511447912426017,0.25023540580423215
138,0.2640827426450144,0.24147459832861748
139,0.26508122575368814,0.24330050245974133
140,0.26610911856714387,0.23879976048418736
141,0.26728469859376897,0.2511549644589706
142,0.26656480214531,0.24821305282019968
143,0.263792844186965,0.2475587977441917
144,0.2654232398199616,0.25023138860641925
145,0.2656295752341894,0.23190740972827906
146,0.2639065250742445,0.26633755249965824
147,0.26680799011441825,0.2972897246726969
148,0.266777018443953,0.24218367874010774
149,0.2658833929960676,0.2523082471448978
150,0.2628993869042225,0.24460994341096826
151,0.2650994211911774,0.26580232310078705
152,0.2643637731016206,0.2558013568643331
153,0.2660025492858448,0.26252471379812253
154,0.26774825155735016,0.2653380388477795
155,0.26610657153465,0.2543536485323496
156,0.2642200772079537,0.28673402291164685
157,0.2641458737728693,0.236928699566044
158,0.26505211166007153,0.24583165300532223
159,0.26488775306111045,0.2495047686578913
160,0.2650082997328562,0.27005883237463146
161,0.26443713752747916,0.25046310687309753
162,0.2645445013646599,0.24636971022589713
163,0.26531729184918934,0.23607384276465346
164,0.26352680365530423,0.25867332249950403
165,0.26632219040803584,0.25588208997964673
166,0.2657205793711779,0.24492243329840752
167,0.2628690278191837,0.23380603939412425
168,0.2632516763276524,0.2417951279864503
169,0.2637297515686658,0.24951681963975916
170,0.26491550228697697,0.2482437620317268
171,0.261838571541458,0.2679297542750788
172,0.2641210307141574,0.26622090015292826
173,0.2636503202678393,0.2525880212800749
174,0.26438927234148235,0.2384759942047598
175,0.2666548104833165,0.25043675172912294
176,0.2632864875902089,0.24200358505830485
177,0.265401589284412,0.24209401959401938
178,0.2645657174259448,0.24642000551428866
179,0.267003516064321,0.25730885437086237
180,0.26998979150415137,0.270590032308988
181,0.26429469170544645,0.26654006179713224
182,0.2641931340562926,0.2404013693379716
183,0.266276513757132,0.23194532379825564
184,0.26287475901899293,0.2736681115467339
185,0.26378404545626766,0.2399059494320765
186,0.2641728200393615,0.25851331869965005
187,0.2631499406804951,0.2589504334666923
188,0.2683365040545841,0.24234059797607263
189,0.2668273131505286,0.28137730691220314
190,0.2677478595531816,0.24338916029954577
191,0.2675954598745854,0.2588524066658592
192,0.26577348606906637,0.2762565614439506
193,0.2686177747403022,0.2500422701839396
194,0.2673198256811364,0.24635247439263652
195,0.2718254525681956,0.25412722574083846
196,0.26963089621491093,0.25982608011649555
197,0.26934302539872135,0.2549806255803112
198,0.26972104443444145,0.27268831089621187
199,0.26918939447445833,0.25498717511697555
200,0.2679206270882361,0.2416547937781771
201,0.26961263745046443,0.2696291568623628
202,0.2687497912860698,0.2567007685493275
203,0.26507914034749486,0.2544206918673715
204,0.2681390866935015,0.23817951611486493
205,0.26715869473801146,0.2500567517369021
206,0.27258466006659393,0.2617195856881687
207,0.26942418574048077,0.24542310242353693
208,0.2666632169716173,0.24549202992630081
209,0.2654817918543335,0.23742130231744393
210,0.2651978195440188,0.23597257369695543
211,0.26492671468417994,0.23343541912422844
212,0.27294072236040895,0.25507063766163734
213,0.26472793668389416,0.2649029572836131
214,0.2689385794275861,0.2436741823132055
215,0.26410795499881107,0.2381612071510178
216,0.26484880065150873,0.24528249797147375
217,0.26633197737397624,0.24825669028858735
218,0.26644612455682504,0.26501729312898986
219,0.26864011334977467,0.2722080758263393
220,0.26977282073452985,0.24249586811099547
221,0.26965719855708375,0.2654742329207197
222,0.26640109957860625,0.2544582451692979
223,0.2665829642666139,0.24431111319571286
224,0.2669215502320148,0.2677068410304558
225,0.26322082105538636,0.2701146328011741
226,0.26663988955515466,0.24745124343256358
227,0.2650412396489859,0.24279685005627943
228,0.26684630416828,0.2441634507915968
229,0.2664959800007532,0.25027128016751116
230,0.2691187412737847,0.23253534796582306
231,0.2683953336364836,0.25045519449763537
232,0.26639246065720473,0.2463999392836698
233,0.2634042346839615,0.24511222517810285
234,0.26486539173064283,0.252919898401496
235,0.2655431341341169,0.2665765192109765
236,0.266269168050455,0.24890093813520203
237,0.26555972664857463,0.23959812652481383
238,0.2669552481002945,0.24250201284650186
239,0.2668627261710491,0.23417446443012782
240,0.26716593763739654,0.24849262552507861
241,0.2654599428212614,0.24650740898681045
242,0.2664974126562798,0.2503712767560179
243,0.2652801568333289,0.26288819273061986
244,0.2666424301197584,0.2362905415076389
245,0.2644641119822991,0.2474173423029253
246,0.26802682357845453,0.2581152784702057
247,0.2670436835677313,0.2542987669323407
248,0.2689330031831773,0.2626400129971019
249,0.2638645565790905,0.2610443575747293
250,0.2677750289261484,0.24426794830700876
251,0.26561320517703496,0.25346114066000897
252,0.26538477277608036,0.2578699189372766
253,0.26526670980391553,0.24803976577007592
254,0.2671498247830988,0.25148116694300215
255,0.26493014131995035,0.24320558609695253
256,0.26596423792991514,0.24540274609659446
257,0.2664002860955102,0.2527342905961536
258,0.2668119737748905,0.2704768824290364
259,0.278943076759553,0.23149358024254688
260,0.2644140614951543,0.2389122244167629
261,0.26486866837211076,0.24913136401135055
262,0.26575857824939997,0.23738514015123235
263,0.2637231360188872,0.24364179478636291
264,0.26407443936899316,0.2770803806790237
265,0.2687670814512159,0.3454660134420869
266,0.2695241610078122,0.2530371439132337
267,0.26462675825202114,0.24451969988532393
268,0.26393314540314733,0.26103024820972826
269,0.26325855860345176,0.2418823477171873
270,0.2632812324652283,0.26560879000642684
271,0.26407947929666864,0.24071242931374623
272,0.26381092130256406,0.24532470732762668
273,0.2644513527588021,0.24175964585184204
274,0.2647581925268749,0.25032878073774745
275,0.2646926681367423,0.2366947144881514
276,0.2665352617546046,0.24439817504705927
277,0.2656299816630632,0.24757131600154134
278,0.2641228862303338,0.24882391905492934
279,0.26697995689370746,0.24142256221530375
280,0.2643598699800783,0.26584563842418163
281,0.2661638938837486,0.25302912857039483
282,0.266504249942722,0.2698577693953887
283,0.26713623727063573,0.24285634821714522
284,0.2674161574835305,0.24253971310186875
285,0.2655224821788611,0.24523834800663763
286,0.26779971281282433,0.26797110316267897
287,0.2651334404528475,0.2646797662916951
288,0.2661319522977733,0.24435300448793262
289,0.2649178628286393,0.240897973962628
290,0.2659905376575357,0.2501587184659119
291,0.2632443878016502,0.2405248586714691
292,0.266111919812733,0.25222595050142993
293,0.2657764411206059,0.24060064682409155
294,0.2653879874246679,0.24645628003313866
295,0.2663956071189839,0.2623472793090974
296,0.27127898611920437,0.2515343014847696
297,0.2666180273718971,0.25233636762367617
298,0.26787474551956525,0.24987514411123513
299,0.2677131402585432,0.2590135878338622
300,0.26851371884774816,0.25975172071120073
301,0.26802879304503746,0.2701163069883857
302,0.26545944725342696,0.2486753834568805
303,0.2677986577665396,0.2510941544078708
304,0.2682724539741433,0.2480707903875548
305,0.2651367615119254,0.2337024421346592
306,0.26486927027896723,0.240589586528343
307,0.26422474399911794,0.2576000298584364
308,0.26702494024753953,0.24157060790974602
309,0.2632286922632457,0.24894915204774515
310,0.26501904631094586,0.23940305007237944
311,0.2675448097080159,0.2526487350557955
312,0.2656580895709572,0.24956068642372772
313,0.26591581136559983,0.2397164643728178
314,0.26438525534100193,0.2416562541037351
315,0.26689325807263237,0.23842099197238284
316,0.2661685424385597,0.24307516630042136
317,0.26722675802515183,0.252028701513794
318,0.2663402267687803,0.2469436310837376
319,0.2665278434419899,0.2578869058611643
320,0.266253320016354,0.24711475066764202
321,0.2668010255189346,0.2611964984893234
322,0.2649846815174337,0.2575673238560263
323,0.2666492831352041,0.2425060031469544
324,0.2641637032385543,0.23908054869807227
325,0.26549016578282286,0.24422444601932095
326,0.26882852528759427,0.23967509579733778
327,0.2657036507587067,0.2425900714408721
328,0.2662827979496343,0.244241461604716
329,0.2673917514540785,0.26490432572063727
330,0.26540453457455937,0.24886577747521102
331,0.2666277547510598,0.2616109545530065
332,0.26758684545493333,0.2512155304697431
333,0.2667296023058186,0.2618945062677975
334,0.2665250913249694,0.2306040782649026
335,0.2671292670529714,0.24322987460158618
336,0.26595175133453763,0.2547604866331736
337,0.26587225984540774,0.24375849425933827
338,0.26994703792267855,0.26333293064711316
339,0.26608970095451884,0.23558782158682642
340,0.2671204071274574,0.25936771932792363
341,0.2663801629111159,0.2532964749842435
342,0.2659353029301508,0.25938732203481324
343,0.26710308922661674,0.26019775338218076
344,0.2650638794262918,0.2812284521211671
345,0.2671338064934043,0.2513550193340833
346,0.26491443048135266,0.24036956456766978
347,0.26362671157558093,0.25014730272983693
348,0.26362847752398627,0.25200650494636845
349,0.264266890420807,0.251559197596894
350,0.2656214580082779,0.2486690029372544
351,0.26536224112450646,0.2561718132802607
352,0.26803447484231585,0.25386251203404137
353,0.26317636840206254,0.23495075113677377
354,0.26605628252172353,0.2479491688622766
355,0.26489957086712146,0.2391261597294081
356,0.2636068169292596,0.25071709850639834
357,0.2656679437529269,0.2404533974420582
358,0.26593784151746214,0.2530935426090492
359,0.2655069051946191,0.24360219870812327
360,0.26413975348122876,0.26333424913525677
361,0.2655046091472312,0.23616353728776854
362,0.26758333891749286,0.252786351689788
363,0.26676735844757915,0.25613524329031934
364,0.26458717485983596,0.24308476796419298
365,0.26524281211727435,0.24350062925324445
366,0.2651013582587528,0.24708236704544467
367,0.2652475498765588,0.24954868339137384
368,0.2666416700592906,0.2526845249281968
369,0.2654152563531145,0.24721911129701205
370,0.26529799654877345,0.2589456851711025
371,0.2689492761207332,0.2517335494978746
372,0.2676566812774832,0.26307593041409066
373,0.26705734292380245,0.2560947095091736
374,0.26637559123247934,0.23685016471895534
375,0.2651480913257523,0.23844695618139447
376,0.26607159968855665,0.252919985597399
377,0.2643592362936071,0.24888492509099377
378,0.2650481077442638,0.22901708909678667
379,0.2638798107167514,0.23996844272634224
380,0.2646296992778873,0.24923386820536855
381,0.2657540684862198,0.2600171593294994
382,0.2661712590298302,0.2485288552581182
383,0.26692438576456834,0.2467222767099209
384,0.26787969556977326,0.2867732951748343
385,0.26747129696140665,0.2347659701282995
386,0.2635718287764598,0.2510297170354328
387,0.2646865542772577,0.24453324261808734
388,0.2647825182734919,0.24813326574632663
389,0.2647449467524731,0.2805433062441065
390,0.26536100255332884,0.2526824184897008
391,0.2668013177234397,0.24998547963580467
392,0.2648323730563374,0.2383797618236331
393,0.2637557309927891,0.25378270093248695
394,0.26459929046870995,0.24788942071002773
395,0.26439203325507166,0.2508047094190789
396,0.2659526508417633,0.2595871899456327
397,0.26385905532289944,0.25850553154333805
398,0.2651503648248603,0.24980785644186135
399,0.26434481924148107,0.24033237242190594
400,0.26314399702300273,0.24002498609396822
401,0.2681810234805091,0.24661463082730534
402,0.26578145346743504,0.2515709004655257
403,0.26288905614118974,0.24824895646831796
404,0.2631606791647885,0.25055516774059755
405,0.2640025358882358,0.2492336601418779
406,0.26387399428492064,0.24090474317086993
407,0.2669461961332366,0.2570146120314346
408,0.26496196654346066,0.2422488702971256
409,0.26768410094469475,0.2714245090968231
410,0.26520027941484436,0.24863096434202547
411,0.2646873207520143,0.2525447013346153
412,0.26507310942708734,0.25628368381260885
413,0.2650390303463673,0.26030883774008445
414,0.2645632254777195,0.25510153528405816
415,0.2646674868836106,0.26303896681944405
416,0.27008688067503683,0.2510271220340819
417,0.26819294744091543,0.24364076394825915
418,0.2676886037099276,0.2523400593598997
419,0.2671941269001515,0.2346762656789176
420,0.27148578247482735,0.27683842834893796
421,0.2746261171133017,0.2492681817102357
422,0.2739797856072061,0.26734041510224815
423,0.2661957394995754,0.25150784080952476
424,0.2687206667997568,0.239320928702791
425,0.2652360137811096,0.23640747939919335
426,0.2648261290648096,0.24580373949626344
427,0.26501534565937795,0.24245840316930906
428,0.2646147419365762,0.2406219588599999
429,0.26590241574578816,0.27145768482099863
430,0.2650752818817906,0.24985613069999096
431,0.26405217248997054,0.23448900375059484
432,0.263909273659535,0.25545488142694367
433,0.2631002382325421,0.2356178115909271
434,0.26381635078065974,0.24084641769728327
435,0.2664231570433084,0.24857192814067863
436,0.2653981572706446,0.24107387772487107
437,0.26498459647599454,0.23918069261637087
438,0.2666890177366545,0.24316671795278624
439,0.2652143209481792,0.25356490823022004
440,0.26669150035229805,0.23943288097394763
441,0.2646294067279517,0.25033742436387924
442,0.26759849152833726,0.24708508072684107
443,0.2663591585034947,0.24844289456377278
444,0.26659378271809014,0.24690363003968627
445,0.26798632811847256,0.2487468508608057
446,0.26670698902542167,0.2525959894378635
447,0.26383107980425885,0.2562318686881024
448,0.2659433087844738,0.24874414545913898
449,0.266697005044928,0.25842387071019
450,0.265757920424477,0.23774713229596756
451,0.26449530478194655,0.2518102321318029
452,0.26504950190810184,0.2480367617218534
453,0.26500633811588575,0.2498400503241743
454,0.2641657667396833,0.25636094327554426
455,0.265694109364141,0.254489938316142
456,0.26671864457434413,0.27245300803583444
457,0.26474983169496963,0.25366820893658365
458,0.2658438783207481,0.2569956994353078
459,0.2657790032865332,0.2520357595599347
460,0.2659837888072816,0.24507077626337098
461,0.26639342240149455,0.26006466534867845
462,0.26828682022414907,0.25557242653787654
463,0.26660072176957683,0.2485107065493795
464,0.26641780391728564,0.24863319541162265
465,0.265242625483506,0.2543252472131386
466,0.2674551360505662,0.2429216434236766
467,0.26400442766866905,0.25348627226222853
468,0.267152075376585,0.24530826951211704
469,0.26502737426143186,0.2451191272971756
470,0.26556137206552505,0.24033016213395977
471,0.2672199094288355,0.2491096427991998
472,0.2671308419782576,0.26796955699373065
473,0.26733359057816575,0.25434168654581457
474,0.26623323560356615,0.2625636781235803
475,0.26684707203667035,0.24465880524764028
476,0.2665086940621777,0.25529145672270515
477,0.2675897814363217,0.24452025722638773
478,0.2664194877246777,0.23782494217274974
479,0.26691738173043983,0.24654886926264866
480,0.26575524152087554,0.24619620064627776
481,0.26420231435677227,0.24721265716541443
482,0.2651192037631377,0.25241297846858485
483,0.26542309151112226,0.2895771766518079
484,0.26703566369369064,0.2546411066447644
485,0.265421336217464,0.2541835024635342
486,0.2653371057302641,0.2883806883018602
487,0.2669274794707577,0.2590529558549458
488,0.2644377400835069,0.2381043887058392
489,0.26628007849367213,0.2552205855769253
490,0.26855080948768856,0.2617830653640353
491,0.2659702049516183,0.2543387257897581
492,0.2654885367797814,0.2584777321157817
493,0.26528840649613944,0.2555409346919598
494,0.26591976136445616,0.24461177164349107
495,0.26632058952185367,0.2529980244839765
496,0.26623163056030547,0.23871513526084015
497,0.26666322078326526,0.25528395435851486
498,0.2662119622960937,0.24490832959043762
499,0.2656982883775263,0.2573778741032285
500,0.26750006965643686,0.24905011440085537
