epoch,loss,val_loss
0,0.46460980990474265,0.4108334942040899
1,0.34894633908375655,0.2787772830584525
2,0.24639556348490582,0.2265864263135049
3,0.23508297494180103,0.22890867823301195
4,0.23096192691275638,0.22836012071573367
5,0.23118634566033391,0.23887826177720112
6,0.2328040906958443,0.23224713056456317
7,0.23235947449358818,0.22451225965156646
8,0.23211557757582882,0.23660755028099928
9,0.23097957902960925,0.22192219824139867
10,0.23147471388466925,0.22912768379806436
11,0.23146554265472052,0.24693168325742212
12,0.23242493807006892,0.21922269842242667
13,0.23124267154341216,0.22078781666112116
14,0.2304063256529214,0.22366355558314846
15,0.23054773031140594,0.2346641394385411
16,0.2307345026569496,0.2212349163352173
17,0.2302574695264407,0.22309802908923745
18,0.23031556512788237,0.2221708848731388
19,0.2292049531873277,0.2255397607420219
20,0.23065331412090673,0.22794924578802173
21,0.23151556617445607,0.21874686742779206
22,0.230132818120799,0.2326833460047759
23,0.23046053267068428,0.22617161324528512
24,0.22978542605154426,0.2212967774885888
25,0.22930035588862321,0.22215761094932587
26,0.22973091247603952,0.21705387830263814
27,0.22933283905617052,0.21876469570864066
28,0.23018546013547173,0.22541725884861333
29,0.230889757623156,0.2292654004003838
30,0.23073081547717492,0.22727451860998782
31,0.2307864796581695,0.23092129218503069
32,0.23137536642553327,0.2219523621315832
33,0.2299965592585117,0.2211887452930753
34,0.22907533172628194,0.21891791657518944
35,0.23116212881964554,0.2236227415496191
36,0.23005986222022062,0.21653125646223492
37,0.23000302335484135,0.2218673138657986
38,0.23038041567821488,0.22064753438933402
39,0.23003100368568746,0.22665379172295402
40,0.22919560018941748,0.21994195269286962
41,0.2298474108322347,0.22432165654654002
42,0.22986200292238132,0.22309267406823038
43,0.23040242957697213,0.24471496444286656
44,0.23001775633898094,0.2220952612566214
45,0.23105485525896413,0.21349825614206228
46,0.23104268947927406,0.2193141416620813
47,0.23005980025711867,0.21758419891559147
48,0.2297089344961085,0.2207391519267068
49,0.22996545789672507,0.23112050266884968
50,0.2309444258086306,0.22148723057055905
51,0.23098985274894823,0.2236428335015004
52,0.2301574387996317,0.22828296492583375
53,0.23075006722951297,0.22183215467593007
54,0.22885265082811757,0.2168328522600898
55,0.22947234971870145,0.21839625013796665
56,0.22915105647344192,0.226931017771328
57,0.23023087410427492,0.21354905895200788
58,0.23034421050791545,0.2225215619205017
59,0.22936383089263568,0.21712396649648188
60,0.22942949203754978,0.22681840980203488
61,0.23075257573458408,0.22866673375926058
62,0.22973258169792254,0.22869108794896548
63,0.23283171347624582,0.21851616963779447
64,0.23006990799705665,0.23531581127417775
65,0.2316049848981708,0.21898661863173474
66,0.22924152487140004,0.21918309856891255
67,0.23211904742615783,0.216050414137701
68,0.2312323553897113,0.22135138572814808
69,0.2310555168657566,0.21998094635021057
70,0.2297398550011557,0.22653502925654143
71,0.2314678784325826,0.22183693670200944
72,0.23059984395424907,0.22453877080493587
73,0.23072129900125768,0.22146943686699058
74,0.23008732578094057,0.21495485201113415
75,0.23088344614163672,0.22236539539899428
76,0.23075899620541185,0.23052439090061488
77,0.23037154737898677,0.2237538498456589
78,0.23202828715125814,0.22049493614904694
79,0.23254435527310383,0.22250021049707258
80,0.23208587474936396,0.2256483222639457
81,0.23309004234729244,0.2244932223772946
82,0.23217599727600502,0.22250437925863004
83,0.2315758758907219,0.23169784178485434
84,0.2325415017424251,0.2191686956616208
85,0.23085864314096247,0.22180238983578446
86,0.2306804362234833,0.218975877187905
87,0.23127369437333967,0.22435980794132462
88,0.231693175288556,0.22970518422766567
89,0.23196889324296865,0.2227816738382323
90,0.2323607970163119,0.22482443869631405
91,0.23269541720620734,0.23148675265280205
92,0.23187373863230887,0.2251000228413655
93,0.23146515238961632,0.21780800316027044
94,0.23187501090083668,0.2334098834970756
95,0.23206113674324289,0.22681828631174875
96,0.2329429653610924,0.22164156598986465
97,0.2323253495420674,0.23431440465734432
98,0.23234670754554843,0.22135165638357238
99,0.23220512008876631,0.2324524663077063
100,0.23155126125692463,0.2219753452027606
101,0.23335945286410603,0.2293217540046034
102,0.23372555937436368,0.22279170676536605
103,0.2339012477037718,0.22574200845178696
104,0.23288063605507311,0.22557436634257919
105,0.23405208897819335,0.2192421151999893
106,0.23197177013785814,0.21902358469618713
107,0.23288058270391324,0.2156507839061373
108,0.23227165278485068,0.22851386928567757
109,0.23283198608649816,0.22228473768332105
110,0.23280907195391987,0.22459518193210687
111,0.2319492636610278,0.22021300327429738
112,0.23223313733899623,0.21963073857769594
113,0.2315620921796365,0.22199440048309227
114,0.23286843582761468,0.2255217904826272
115,0.231910789107009,0.22389311371069776
116,0.23193211700442692,0.2276970616761586
117,0.23275603119918198,0.219690009645806
118,0.23162899805392198,0.22730460327821353
119,0.2335994974803105,0.22261277533885335
120,0.23324616364747597,0.22547560907906214
121,0.23397258691174044,0.23009394599681965
122,0.23316333791930421,0.22189383837964088
123,0.23328588135260567,0.23021443399888095
124,0.2325972382017939,0.2292566633567908
125,0.2327448898415676,0.21957973701895553
126,0.2329106565287931,0.23618743097631595
127,0.23292478318694684,0.22381445184502907
128,0.23326288422734903,0.2203056564012097
129,0.2332362139718138,0.23093310575976367
130,0.2333272471011495,0.22081510929630419
131,0.2328939802831502,0.2228587313063425
132,0.23181101125326278,0.2229914210189866
133,0.23255885973703758,0.2266825355689358
134,0.23190863342355672,0.22012919539199066
135,0.2310575471043015,0.2181886791265566
136,0.232079003360584,0.2305701163309996
137,0.23161281170033152,0.2180380639991331
138,0.23155009178973313,0.2269306726806636
139,0.2312580791594599,0.2335384821176717
140,0.23081938774703886,0.2212079755532619
141,0.23131375494215795,0.22204789487555351
142,0.23156834805874135,0.22840697874021793
143,0.23240609871421597,0.22486974651783398
144,0.230643311028572,0.2182581926436526
145,0.23161984668623248,0.22062242513297578
146,0.23150269202977347,0.22067926521835687
147,0.2305034671863206,0.22138821775271558
148,0.23215473107368254,0.22363799942132517
149,0.23146803669339652,0.21772972187990267
150,0.23017320643178374,0.2224700697995399
151,0.2308377949394387,0.22526946458039362
152,0.23147015146119035,0.22215784879161696
153,0.23129837931417446,0.22160286796826872
154,0.23139944630894635,0.2180076464363789
155,0.2324917934578862,0.23015648426507154
156,0.2311789810502653,0.22309084990500652
157,0.2315870280579316,0.2191183163527908
158,0.23099870508094486,0.21778896192254846
159,0.23176539757792994,0.22501303052093066
160,0.23085140226055964,0.21738649569540017
161,0.23145425077870213,0.22026705192644574
162,0.23219794879476133,0.22085921375791012
163,0.2321052428999012,0.2206948049772228
164,0.23206621514473982,0.21976306782807528
165,0.23205012500548153,0.22326496958544428
166,0.23209480290933193,0.22625228000515168
167,0.2322067857193623,0.22314650115528348
168,0.2327024675042128,0.2187520381542483
169,0.23221208516666167,0.22408583207495492
170,0.23225564896750697,0.22060451130276132
171,0.23126585255685947,0.22435263038010886
172,0.23193500851460402,0.2148330460148904
173,0.23125369067815282,0.2252813774883606
174,0.23200686163396286,0.229028734442467
175,0.23204170848182637,0.22294942864114692
176,0.23189823938121232,0.2343360247838751
177,0.2319114820348273,0.23244042161796258
178,0.23216094579294527,0.2256117400425856
179,0.23250356519060264,0.22079071737737663
180,0.2321179945001023,0.2225831327070471
181,0.23172667455806625,0.22806364279049254
182,0.23396152427656758,0.21691675729984924
183,0.23253106839841695,0.21793460447250057
184,0.23385955173549033,0.22297650923762816
185,0.23249272738905738,0.2210070067089001
186,0.23169599298974403,0.219363507786038
187,0.2330415384124795,0.23380884030670657
188,0.23255403786540318,0.23401084332929037
189,0.2334588807132795,0.22482679450286122
190,0.23273627052037454,0.2231600217656442
191,0.23361753767057003,0.22654435307893023
192,0.23318539421073348,0.22122051351025243
193,0.2331486663503422,0.2274271708919763
194,0.23437379550138157,0.2368049538667125
195,0.23327413236470723,0.22675213248313839
196,0.2328315620763982,0.22506051775782523
197,0.23363922756734035,0.24192876303487626
198,0.2347189687388978,0.22653629509077922
199,0.23447592545756332,0.22487133549674815
200,0.2337687542672447,0.2182297539715703
201,0.23235591930403507,0.22691089786359805
202,0.2329128016527894,0.22466501909960135
203,0.23363435634677646,0.22888740403217506
204,0.23399433414998957,0.22543014481299115
205,0.23364061348253398,0.2221329708031622
206,0.2327262704118455,0.22210510952461396
207,0.23411530732727356,0.2238488080892962
208,0.23330007155807755,0.22806952923136428
209,0.2339823326642374,0.23036475853601965
210,0.23329911939055323,0.22383430868316656
211,0.23303464251599437,0.2189031596036059
212,0.23225432013174135,0.23238662505065164
213,0.23322582112060938,0.21977769580523424
214,0.23359827823537907,0.23037737618540816
215,0.2336471106151311,0.22972634900434805
216,0.23316855351034876,0.21855070427260065
217,0.2334439679384708,0.22753667560918367
218,0.23336835405666478,0.22771360397621132
219,0.2331037080044941,0.22543764685963494
220,0.2329020966037953,0.22100675950486923
221,0.23388967924504925,0.23953738907424127
222,0.23445345126062656,0.23225795534669458
223,0.23418629748953712,0.22071364950079944
224,0.2344581613199507,0.21865422674399618
225,0.23395027415596134,0.21990668231469962
226,0.232925494416631,0.22279839566963908
227,0.23365435730234133,0.23137594385465113
228,0.23396065894314808,0.23017158439851879
229,0.23355280093961864,0.2278729427985159
230,0.2331698100558288,0.22369985678766124
231,0.2338611314074694,0.22698480789362208
232,0.23332527669356595,0.22648134403042466
233,0.23437274789972176,0.221885935071894
234,0.2341085960098403,0.2324540060316378
235,0.2348638522289068,0.23006500850630823
236,0.2336710926523502,0.221846666019454
237,0.233694063655907,0.22502652689191235
238,0.23305088463875887,0.2216473194963836
239,0.23383217279335483,0.2273524910823134
240,0.23450916872726832,0.22995018212223203
241,0.2340073566749799,0.22684512425569822
242,0.23343859450351134,0.22554698905186477
243,0.2339390298064283,0.22394432442669993
244,0.2346808554516803,0.22736397611408038
245,0.23377721137303908,0.22901694549522536
246,0.23402059856030963,0.2346638284782396
247,0.23375654256315254,0.22406900902855745
248,0.23421111230632002,0.23328605782308254
249,0.23454942775191925,0.22258847993052466
250,0.23421142069841747,0.22587777032048661
251,0.23241417484579802,0.2253922173590197
252,0.2339580249395683,0.22357920163855743
253,0.2333033360380063,0.223803297731946
254,0.23325178694786977,0.22514210000410734
255,0.2336469226949316,0.22123576684222038
256,0.23444462377581,0.22635924576207608
257,0.23383238182651053,0.22814244027201735
258,0.2348676695109462,0.22733308494843738
259,0.2338819267759792,0.2211778020190741
260,0.23428326209695885,0.22830376428887894
261,0.23464140755166824,0.2225339558290137
262,0.2335866621489243,0.22573682035436382
263,0.23353750667245174,0.23074176412402125
264,0.2341578202686912,0.23350234019210608
265,0.2339467067155335,0.23525406182659078
266,0.23418349397482632,0.22713326004752044
267,0.23427833193878858,0.2309476190791322
268,0.23448094626744206,0.22953595764399892
269,0.23566550959786065,0.23075941209729112
270,0.23581662325026226,0.22603871215255408
271,0.23837234944605426,0.2323285912611208
272,0.24480405594590757,0.23870121407151315
273,0.2577292763357826,0.25705877560372414
274,0.27230449886225777,0.24894642988668245
275,0.24085009244563196,0.22694264861572042
276,0.23860813009676982,0.2218168365056814
277,0.2371211125612926,0.22987498748744672
278,0.23660488290299805,0.23324309993938094
279,0.23504105512853815,0.22357241202501585
280,0.23414010838638966,0.22887299759658944
281,0.23457149468022856,0.2347784769539769
282,0.23556397416942315,0.2352723767414936
283,0.23573689032301343,0.23002744990018004
284,0.23352157590176753,0.23222005182631672
285,0.2351292956242268,0.22511899149032116
286,0.23527911029678644,0.22434118751145388
287,0.23573054235092075,0.2255939346250814
288,0.2355933046276621,0.23174504467654436
289,0.23620388914140866,0.22904026757664067
290,0.23608028633798436,0.2296160481864294
291,0.23687742957822996,0.23093830070207697
292,0.23701559366892092,0.22882964036882442
293,0.2362255201422625,0.2334206412298621
294,0.23725321626872847,0.23524585582651109
295,0.23833424460401925,0.22575910417649722
296,0.23795411093153065,0.22712246442085754
297,0.23819956929087163,0.23343313521254974
298,0.23842186440261814,0.22706949839040624
299,0.23763925533333746,0.23203010107930852
300,0.2391960609623854,0.2376384952215106
301,0.2371628911708661,0.2308210702914371
302,0.2379879937540713,0.2327194509891045
303,0.23689159203609594,0.24001412561726362
304,0.2380968781648208,0.22881997510167493
305,0.2365879590074412,0.22614584380985717
306,0.23639838064579274,0.2312023106200919
307,0.23797730514280896,0.22325197917180636
308,0.23775941429497432,0.23255573275433625
309,0.23807930634866992,0.22836980408303081
310,0.2376814589952584,0.23196007590079365
311,0.23707325293196382,0.22565828737727092
312,0.23785179021428052,0.22680026245756985
313,0.2381593032384948,0.23344167395426518
314,0.23727667647943224,0.24099981121501304
315,0.23552684253640027,0.23425106554870637
316,0.2370044041713841,0.2397873357067733
317,0.2365843579947329,0.2355135980208464
318,0.23729786693120747,0.23632149404207364
319,0.2355538799370126,0.2301349332225351
320,0.2361381256656586,0.2217475516455514
321,0.23735857606053257,0.2359003044764828
322,0.23680189606263866,0.2350528618672182
323,0.2356945845625288,0.2256552634177099
324,0.23560406476688042,0.22763655472902586
325,0.23684866763323809,0.2231146232552103
326,0.2368621466149815,0.2265948660395328
327,0.23615998619323153,0.22987446185398402
328,0.2373401490058735,0.2378284588467915
329,0.23722402518577904,0.242484733285919
330,0.23761527290304216,0.23457582573676167
331,0.23667180105198107,0.23599036550700617
332,0.23778420423479865,0.22614758911571262
333,0.23671755095799382,0.22363724239058821
334,0.2366379646124314,0.23008558060018303
335,0.23802299894017281,0.24413787401277623
336,0.23751742517252525,0.2257987208482122
337,0.2376468721375191,0.23872613685753935
338,0.23779781368210448,0.2340100555435917
339,0.23752276631567976,0.23075519202257952
340,0.23849823667134026,0.22993346086711328
341,0.23763634212654558,0.23149317513560347
342,0.23684074027503996,0.2412934730795301
343,0.238666116411118,0.24276135881867292
344,0.23745332536199015,0.23665927396388908
345,0.23826982093443402,0.22768922876963582
346,0.23693284762205838,0.22730657726455694
347,0.23519944971938023,0.22795020982376119
348,0.2360704829462236,0.22972092479349782
349,0.23454436653261657,0.22609712936178192
350,0.234282941090689,0.21971195088236373
351,0.23333669830855133,0.23922220170027456
352,0.23420359020967849,0.23132691534137576
353,0.23413786427866068,0.2296906744130691
354,0.2337259997685941,0.23306764922183426
355,0.2351363061441125,0.2312615640114496
356,0.23394430120238108,0.2358719903766968
357,0.23467874709817527,0.2239377977886629
358,0.2338606037086339,0.23354730309937635
359,0.23508210551681563,0.22994720344244257
360,0.23477329110070097,0.23145488717232338
361,0.23398291348791617,0.22142142563140949
362,0.23556814982974938,0.23019463998789663
363,0.2350734574355477,0.22608829105615427
364,0.23548211699290622,0.2316726421571286
365,0.23511379327086046,0.23090641175844392
366,0.2352014402095839,0.23567817143172662
367,0.23547103494215163,0.23320751814223126
368,0.23439668692487606,0.22703938764808868
369,0.23614550810709273,0.23711080068241638
370,0.23475459122734008,0.22262929204701437
371,0.2360134002664011,0.22221619497628878
372,0.23495890067325984,0.24261150330940193
373,0.23776080629689325,0.2273579876702323
374,0.23656572933367592,0.23059488577737333
375,0.23695861951981803,0.22418199027958308
376,0.23564449183160452,0.23436866471310158
377,0.2364428950656804,0.24292436373826548
378,0.23609835611020538,0.2322999677652436
379,0.23691090563837763,0.22855049323499343
380,0.23590985060834008,0.23180580820120877
381,0.23595143753371173,0.22251106352907707
382,0.23500617930619455,0.23163040311626307
383,0.23331110149050216,0.23866481796765573
384,0.23287423636963803,0.22918022032930047
385,0.2333703840331589,0.2281747633251696
386,0.23134179293013496,0.22244829101739386
387,0.2318505271018552,0.22815338445161398
388,0.23185919077514555,0.2311460013430045
389,0.20083393713981984,0.17255682925728238
390,0.17625979681928858,0.16476445951467436
391,0.17538682255837368,0.16141702147713777
392,0.17569787794356342,0.16663818468281671
393,0.17455995620654927,0.16920820479564244
394,0.17485217430251393,0.165795557877165
395,0.17523031322647342,0.17480447308558034
396,0.1740873173254428,0.16414599316437223
397,0.1753647661776089,0.1653765775763151
398,0.17320619076252175,0.16089317249611973
399,0.17234542950999726,0.15840650696216274
400,0.17258895224602008,0.16866192652093395
401,0.17118006814226544,0.166370665606026
402,0.1728187874942232,0.16357804058618025
403,0.17208811438841215,0.16729526299374634
404,0.17278205937475896,0.18260599274097133
405,0.17123163673136352,0.16517241323850432
406,0.17203223460810266,0.15513049975778517
407,0.17182720624369016,0.17907744497884046
408,0.1721415919103592,0.17095677460519554
409,0.17112738810640446,0.16622649728310984
410,0.170729326186992,0.16407235999368924
411,0.16917207829064604,0.16682265283747177
412,0.17163619849023867,0.167568415162266
413,0.16882396351805123,0.16136191324305138
414,0.16906486685089261,0.17083317803508574
415,0.16967979019029822,0.16413830864612944
416,0.1690086032227456,0.1733395757055132
417,0.1691676866051724,0.15953127264788325
418,0.16868532431735506,0.16889928845834243
419,0.16786080502051054,0.15301357541930138
420,0.16570076334188216,0.1615522293213699
421,0.16763281975266078,0.15512360485995388
422,0.16355284255781144,0.1760476180297141
423,0.15773313936236188,0.15004097683253773
424,0.15264647966809125,0.14310074734612535
425,0.15141005200638377,0.14430302895470312
426,0.15197008783570964,0.14985773925858403
427,0.14992649920231146,0.14856318207406208
428,0.15231031280377214,0.15161855832836058
429,0.15090669430107426,0.15075990440060796
430,0.15204986195555695,0.1459278986210793
431,0.15312438086568594,0.14439519984616758
432,0.15133864052599663,0.1407136166940172
433,0.15291300917760456,0.15432836765154384
434,0.1507321596562529,0.14333217206463253
435,0.15339604202660917,0.146605166305965
436,0.15255424561951278,0.13544813780541862
437,0.15111321119441212,0.14738503732404656
438,0.1512570530980182,0.1507638739076485
439,0.15417114404334628,0.14726193608523544
440,0.15449872731471614,0.13825708981706292
441,0.15167129351545294,0.15025138868505594
442,0.15312742568749033,0.15666158139799746
443,0.15505021691715404,0.1600723526166383
444,0.15499428103415133,0.14282728148875692
445,0.15382769764315404,0.15248116446863316
446,0.154943754153548,0.14144292789575333
447,0.1554652978297618,0.15037007863914864
448,0.15404487932793243,0.15200074909706235
449,0.1547773756610928,0.141564470346085
450,0.15473351489713819,0.16277206381569723
451,0.15746198506425801,0.15121456096867641
452,0.15644761131440613,0.14884945938412186
453,0.1572203145151754,0.1504290021644301
454,0.15852434772083895,0.15081341823984906
455,0.15822929035214117,0.15204779759649226
456,0.15803198633696156,0.15315655852361468
457,0.15830432188858706,0.15103096136236718
458,0.1580859422326374,0.16281041542939906
459,0.15978966577114057,0.15206432233152187
460,0.15894931595590855,0.15649290216444228
461,0.15858516652735588,0.1526632584402104
462,0.16039103226100418,0.14863736445309142
463,0.16041309237599277,0.15234743049272703
464,0.16035439539775193,0.1495695456556664
465,0.1615249211255976,0.15447225810955525
466,0.159709184432773,0.15033061226099237
467,0.1611858231903647,0.15412559466114548
468,0.16212794822838,0.16337446392099972
469,0.16150103217894607,0.15342665282566903
470,0.16300441990558096,0.1615285313237626
471,0.16210137218010606,0.1555358026332524
472,0.15907919682044205,0.18209338922056514
473,0.16449933986274076,0.1693178069290441
474,0.16658654169951506,0.17543821811864202
475,0.16538812846040649,0.1542164739324243
476,0.16540837108636264,0.1541976566355155
477,0.1660910557887013,0.16070095872493267
478,0.16742357011917208,0.1613305463104993
479,0.16581584929193047,0.1563958059452421
480,0.16414093951300845,0.16207342783625708
481,0.1658812815503632,0.15682252842841793
482,0.16531566008151197,0.16382034772149953
483,0.16582174514301962,0.15953215282195746
484,0.16717249609762244,0.15219998105643015
485,0.16761164500011053,0.17425399682328
486,0.16924655451465379,0.15668229243608564
487,0.16833969651402045,0.1654195619751453
488,0.16631556589671556,0.14759627647327456
489,0.16710732748015797,0.1582465784796223
490,0.1643519294675258,0.1638191166174346
491,0.16654801140610073,0.1629728886703854
492,0.16776068987463305,0.14901806975714127
493,0.16712974599725622,0.15891984374436602
494,0.1689170427340493,0.17084955476406719
495,0.1666019898113444,0.17243860577304437
496,0.16883184744728555,0.15593807041739138
497,0.16763558183356728,0.17386927590326898
498,0.16843725142361735,0.15196746017345783
499,0.1667090641627971,0.1596126091778984
500,0.1652893864130564,0.1628002951475891
501,0.1679143421619916,0.16226681093108306
502,0.16615622024610938,0.15473773546852082
503,0.16767382677153145,0.16349721118372637
504,0.16759967366806705,0.16687213882933288
505,0.16780753640367163,0.1648913551924637
506,0.1676454079284561,0.15793855604734022
507,0.16462809030267356,0.1643596757041627
508,0.16819224536692878,0.16870586067179383
509,0.16652054699669352,0.16007499320942675
510,0.16805163636613044,0.16248247519006104
511,0.16624806572993597,0.15414977695825255
512,0.166885879760285,0.15858796963375577
513,0.1650191486882363,0.1568633100663289
514,0.1647172051368,0.1680007821100381
515,0.16666133130351893,0.1608576626173605
516,0.16579714611315613,0.15715504015465845
517,0.16583990067731944,0.1548397527521016
518,0.16802319745532424,0.15656094921674893
519,0.1664552895797433,0.15289096054404197
520,0.1685073729023802,0.16392028935094846
521,0.1666864010242583,0.15668178257409662
522,0.16676180408322078,0.15774914839884946
523,0.16641566962849416,0.15456180533228095
524,0.16291331537931467,0.1619869120295535
525,0.16476416349899378,0.1499949448698604
526,0.16371661560426798,0.15756697309421758
527,0.16366804328015286,0.1661550428280232
528,0.1641330535796811,0.15758941867686485
529,0.16384262822086004,0.1549325822937084
530,0.1644147611636338,0.17357822965710015
531,0.1681853476301324,0.16675644459080866
532,0.16835230219063999,0.1569552600689544
533,0.1653819101975023,0.16449518824009418
534,0.1648478147765096,0.1538729645964567
535,0.1650753399367622,0.15012140346260266
536,0.16411985130571158,0.15315478475030803
