epoch,loss,val_loss
0,0.3226756041379665,0.313944375140985
1,0.3151583327687711,0.3153465814188699
2,0.31485737671407105,0.3122221011059813
3,0.31098445444155653,0.3107976673292944
4,0.3172611278667153,0.32001513474412857
5,0.31610652556022006,0.31468532793664894
6,0.3126755756535214,0.31165885770048035
7,0.3114401421053328,0.31637239145686896
8,0.31492879694338133,0.31542823384291746
9,0.31252965650303094,0.3125871496117764
10,0.3140795546338903,0.3164771373641707
11,0.3136021389509086,0.31125064347683207
12,0.31111135713750127,0.3110354750548749
13,0.31102265565872766,0.31370454410351256
14,0.30943583692911625,0.31138924603962764
15,0.3098553276355032,0.3101182458032843
16,0.3080387958567396,0.31222575774744166
17,0.3072356544881702,0.30565227001858397
18,0.30539860859286966,0.3052503866714667
19,0.30582424787451606,0.30975662496443707
20,0.3060104050736824,0.30686501378888864
21,0.3059619448239283,0.30711403576144103
22,0.3053089452268694,0.3060234569736419
23,0.30543964228136455,0.3049543564984812
24,0.30495780263301564,0.30482962434698296
25,0.3051495444949725,0.31227967561749653
26,0.31040661943425757,0.3095311598342144
27,0.3095505385697603,0.31192197553642925
28,0.3096390674285275,0.3095548320517544
29,0.30898421732999154,0.30876525741396876
30,0.3084016164465488,0.3092332535850409
31,0.309061351850879,0.30941999144411125
32,0.3104078337002239,0.31031323155504376
33,0.3098451468399722,0.3101243236893825
34,0.3091043887152184,0.3104354326261153
35,0.3086740349610742,0.3090743762400551
36,0.30836136799326525,0.30894270387567113
37,0.30799207438548787,0.30771233941168885
38,0.3080647449067933,0.3092861376297032
39,0.30880087945791934,0.30881729558545395
40,0.3087854479237807,0.3091871560843045
41,0.3095989914523135,0.30908368684310283
42,0.3098151750987668,0.30933525880773705
43,0.30848958784584807,0.30936173885331536
44,0.3085399725847393,0.30915032163109474
45,0.30843949451042024,0.30679168724458616
46,0.30648249271307154,0.3069150460312097
47,0.3059788649078372,0.3060976236988074
48,0.30577902479185093,0.3056583345442093
49,0.30721114634824315,0.3072638558466414
50,0.30738817239932115,0.30867944419054694
51,0.3076331199948593,0.3081525575013827
