epoch,loss,val_loss
0,0.7259952584087875,0.6669560234584903
1,0.6670906598403561,0.6668085400757571
2,0.6669159334089118,0.6668000258310117
3,0.6668919796333984,0.6667766879480264
4,0.6673423230588487,0.6668002879087633
5,0.6667999696202124,0.6668099214231019
6,0.6668658202414997,0.6671786569396105
7,0.667516229479275,0.6667527898126165
8,0.6672523562291661,0.6678529960003206
9,0.6667808834081406,0.6667576452058441
10,0.6668108891755958,0.6667810290062713
11,0.6667962744808867,0.6667680346920355
12,0.6667884190081903,0.6667600230875708
13,0.6667915699774247,0.6667710204474298
14,0.6667859890095642,0.6667705504775369
15,0.6667771893900971,0.6667482303081287
16,0.6667799924049369,0.6667513242123031
17,0.666762623258776,0.666755466152983
18,0.6667766814686159,0.6667769060345781
19,0.6667692063779669,0.6667502475282739
20,0.6667713370908914,0.6667617943403511
21,0.6667693768862099,0.6667502213086668
22,0.6667604571633461,0.6667511724840749
23,0.666762207026858,0.6667626023302007
24,0.6667544159914021,0.6667486139710259
25,0.6667549643863172,0.6667570556338408
26,0.6670197083512462,0.6667730715826843
27,0.6667469055064156,0.6669792316490759
28,0.6667761373647841,0.6667559089567124
29,0.6667521019387914,0.6667586670369406
30,0.6667618314754344,0.6667520362213526
31,0.6667600993382768,0.6667525532918827
32,0.6667623022175191,0.6667662646319159
33,0.6667489436009626,0.6667646722072682
34,0.6667528239533792,0.6667755550148943
35,0.6667450206536288,0.666759656812911
