epoch,loss,val_loss
0,0.5825497593744468,0.5447183537832495
1,0.5946358275313177,0.5557777514405832
2,0.555727780743596,0.5557008710090406
3,0.555753639511196,0.5556907670042033
4,0.5557093133640971,0.555704937234689
5,0.5557662824271309,0.5556834263850416
6,0.5557390520285806,0.555702670819422
7,0.5557303868994711,0.5556854649074346
8,0.5557161881775586,0.5556902832003914
9,0.5557304769810611,0.5556803064079763
10,0.5557108845923384,0.5556858189478552
11,0.5556943435716021,0.5556731434952783
12,0.5561950254293748,0.5559138716242135
13,0.5556746153913927,0.5556895861800595
14,0.5556697590309124,0.5574793744573749
15,0.5556921021309822,0.5564212696181605
16,0.555686156223058,0.5557360358847424
17,0.5556741390693223,0.5556722268644393
18,0.5556826011595973,0.555663654964955
19,0.5556829547026545,0.5556940362342524
20,0.5556768678405343,0.5557004933473098
