epoch,loss,val_loss
0,0.672006192330358,0.6668953917386968
1,0.6674691521002198,0.6669231954455016
2,0.6691787393972608,0.6668671692801559
3,0.6669543426736361,0.6667834001769144
4,0.6668280212965965,0.6667796831121895
5,0.6689237427588276,0.6668540774706301
6,0.6668122349578967,0.6667904436673477
7,0.6668490280815678,0.6667715790055186
8,0.6305125124700115,0.44471024693819156
9,0.44474415503857345,0.44474992333981317
10,0.444667591539284,0.4446215301998195
11,0.4446575460059705,0.44460256264969644
12,0.37672457429764744,0.33352224568071603
13,0.3335666002078312,0.3335159347135717
14,0.33356758783297724,0.3335273107716408
15,0.333565205761373,0.33352072508785297
16,0.333501823353411,0.3344007538522409
17,0.3335464592293592,0.3335167388083425
18,0.3335089041027797,0.3334951897320226
19,0.3335280274378487,0.33352345337049155
20,0.3335037486094283,0.33353186260665696
21,0.3335369572723662,0.33350687973912374
22,0.33351099430598546,0.3335058180248811
23,0.33350266885397595,0.3335237283427052
24,0.3334813715200748,0.3335241334072385
25,0.33352574006745384,0.33349879617982203
26,0.33347235204806275,0.33351380969723843
27,0.33349833411528546,0.33351279106313547
28,0.3335102401642784,0.3334947129611233
29,0.33351605902734777,0.33382663060005113
30,0.33347512215408043,0.3335103953175267
31,0.33350552280215945,0.3335212630394131
32,0.33347021134101607,0.3334974952353283
33,0.3334859071652706,0.3343581458027446
34,0.3335031628394938,0.3335021452802845
35,0.3335067570999094,0.3335251630048288
36,0.3334689622074769,0.3335155937947866
37,0.3334960545496926,0.3335206704478955
38,0.3334881542752081,0.3334919640979862
39,0.33346536932490134,0.3335132765399855
40,0.33349576540956316,0.3335230020217258
41,0.33347160301345463,0.33350462511794726
42,0.3334619356732628,0.3334874455273218
43,0.33347369830167284,0.33349736858847334
44,0.3334965181917699,0.3335016985365147
45,0.33348397435036037,0.33351826355185454
46,0.333496998047082,0.33359907616012074
47,0.3334674554137155,0.3335406153054773
48,0.3334736784039436,0.33348704064736695
49,0.33345874110062795,0.3342060709242899
50,0.3334709156412787,0.33355298667450417
51,0.33346002639206496,0.33372930771342457
52,0.33348775522931506,0.3335273156535044
53,0.33347974634782956,0.33367362282418894
54,0.33347074939631366,0.3335025886377494
55,0.3334720720030183,0.3335675769132793
56,0.3334920189758198,0.3334841671085782
57,0.3334422942689714,0.3336021788578024
58,0.33346069751669316,0.33368958437208035
59,0.3334586195765988,0.3335091546355343
60,0.33344942024036245,0.333492814874543
61,0.333448787246426,0.33348865403350203
62,0.3334503821302495,0.3335099139558298
63,0.3334553054300506,0.3335576191868728
64,0.33344003635284,0.33355081752025456
65,0.33344564705932705,0.3338338867603682
66,0.3334487453012846,0.33359307580066516
67,0.33345347923771257,0.3334939150757613
68,0.3334507242841881,0.333491937265484
69,0.33344784505588443,0.33352127124842185
70,0.33343839573604755,0.3334970570933881
71,0.3334321190847982,0.3335892321222147
72,0.3334481198792564,0.33350527445077705
73,0.3334474090930688,0.3335018059848433
74,0.3334381347472778,0.333489137825482
75,0.33343937502611937,0.3336306859694607
76,0.333434689814981,0.33349973927400633
