epoch,loss,val_loss
0,0.5099765736362153,0.5012020958860223
1,0.5011405191288228,0.5007330791530183
2,0.5009612503230475,0.5008597555882286
3,0.5008374545357134,0.500771279843806
4,0.5007800063120631,0.5010905779325046
5,0.5007408018213847,0.5005713265823667
6,0.5006624959083155,0.5006480494740583
7,0.5006369987457805,0.5005450996512515
8,0.5006218133453461,0.5005273830210305
9,0.5005722421956488,0.5004757556666807
10,0.5005939691752802,0.5014815227269535
11,0.5006179394970118,0.5010488658921595
12,0.500496734345209,0.5005729887680735
13,0.5005362675019301,0.5003884768071897
14,0.5005065437689146,0.5005023216195497
15,0.5004995090553696,0.5004208916470075
16,0.500477385310949,0.5004347317272025
17,0.5005931647866935,0.5055086307135173
18,0.5004912227413101,0.5007573218854426
19,0.5004658789971755,0.5004497975628666
20,0.5004826912192275,0.5004636349808194
21,0.5004472356162476,0.5004910655412129
22,0.5004418268905287,0.5010191860033324
23,0.5004454103104766,0.500353867569869
24,0.5004176765014148,0.500369673183479
25,0.500427508773528,0.5003979944413708
26,0.5004006678327525,0.5004412657569715
27,0.5004089982920025,0.5004179723209542
28,0.5004046778888344,0.5003580650679823
29,0.5004015378778737,0.5003799571588673
30,0.5003877076503026,0.5005274148791955
31,0.5003916221217095,0.5003775036364572
32,0.5003923690260215,0.5003867472963357
33,0.5003903410000899,0.5006581298470792
34,0.500377055251692,0.5003790786781027
35,0.5003760142130789,0.5004003282516233
36,0.5003746397975414,0.5007007225275631
37,0.500368236757868,0.5003571381935706
38,0.5003632535315817,0.5003153143094727
39,0.5003654887834604,0.5006623241800824
40,0.5003585919034378,0.5003035672840942
41,0.5003475657328014,0.5009611071191414
42,0.5003633716317789,0.5003226484909247
43,0.5003638208291872,0.500303781269206
44,0.5004207819987769,0.5003658589299205
45,0.5003244673541113,0.500296770224796
46,0.5003458712194727,0.5003511343641257
47,0.5003390917044594,0.5002888554379011
48,0.5003415213362186,0.5003249545842778
49,0.500341231087685,0.5006894999343171
50,0.5003317496894937,0.500608920459416
51,0.5003316858504193,0.5002934421262434
52,0.5003302871626393,0.5002960137930461
53,0.5003215903589695,0.5003200860236477
54,0.500323846512428,0.5002687758015049
55,0.5003217759481489,0.5009867371459753
56,0.5003227527871932,0.5003413806482225
57,0.5003364696988098,0.5003449871581482
58,0.5003138347961067,0.5006275293549001
59,0.5003134185977469,0.5003838167297041
60,0.5003296191308887,0.5005587355078893
61,0.5003332256500916,0.5004671511519931
62,0.5003045340379868,0.5003432109988949
63,0.5003154198650496,0.5003898328350437
64,0.500314093310872,0.5004200744273941
65,0.5003176095266046,0.5004670738286475
66,0.5003143030871006,0.5003847967897987
67,0.5003168049005806,0.500457182060696
68,0.5003238003880677,0.5003204517861454
69,0.5003180621735583,0.5003190990417234
70,0.5003124832731513,0.5003646893181812
71,0.5003160612959369,0.5003959614053257
72,0.500308318205236,0.5003011268658318
73,0.5003151605362136,0.5003225482427157
74,0.5003130327771598,0.5002779431733541
