epoch,loss,val_loss
0,0.5555735485537113,0.5545136184905363
1,0.5512269471575831,0.5512502280417506
2,0.5509518379884971,0.5513966419560737
3,0.5507905584058089,0.5505916572977828
4,0.5506839670924301,0.5507937234329526
5,0.550637993728819,0.5506621175605073
6,0.5506219469193542,0.5504648503239634
7,0.5505338589280966,0.5505226290551368
8,0.5505204525812827,0.5504002029783377
9,0.5505000320178346,0.5505202840930475
10,0.5505168142131426,0.5503826858979597
11,0.5504500282511082,0.5503505379035514
12,0.5504675483099687,0.5508161315551171
13,0.5503883125238952,0.5503370590600423
14,0.5503821548366005,0.5506455721393708
15,0.5504038426020064,0.5503182225428503
16,0.5503991109708848,0.5503260408974168
17,0.5503467503875493,0.5503675677640266
18,0.5503719268267524,0.5503005509045225
19,0.5503525259333514,0.5503383472598812
20,0.5503582403078959,0.550353171452695
21,0.5503467052105716,0.5507245099278301
22,0.5503450804320189,0.5503047470715147
23,0.5503513702977271,0.5503018870543014
24,0.5503302557343054,0.5504483282418168
25,0.5503426249787587,0.5503409369707699
26,0.5503326631502969,0.5502848990501896
27,0.5503306131034383,0.5504477897885419
28,0.5503334234015814,0.550286658999346
29,0.5503311923123491,0.5502773805232557
30,0.5503250802161668,0.5503724311480747
31,0.5503263142968078,0.5503437718150042
32,0.5503299439988816,0.5505005503410737
33,0.5503181024560151,0.5503265177049944
34,0.5503243989967871,0.5502573827655972
35,0.5503391965430353,0.5504296285047129
36,0.5503444365171118,0.5503011357399725
37,0.5503208490436627,0.5502652477094021
38,0.5503114748464298,0.5505386213510859
39,0.5503085415092365,0.5503038170024124
40,0.550316601651274,0.5502801870589812
41,0.5503110503827287,0.5502905225043853
42,0.5503027542280379,0.5502715644410467
43,0.5503122078997081,0.5504221991037317
44,0.5503164582691343,0.550626686104474
45,0.5502964967042845,0.5502681311543467
46,0.550313650892022,0.5503412171273906
47,0.5503115219497259,0.5502673276600708
48,0.5503140270510418,0.5504706539823755
49,0.5503070514436021,0.5503675252864734
50,0.5503081537986171,0.5504502764114967
51,0.5503060424053812,0.5503150482331552
52,0.550304729928631,0.550250890355548
53,0.5503123810435456,0.5503632241383971
54,0.5503001996182889,0.5505729338075623
55,0.5503027357063526,0.5502544111412749
56,0.5502989634937941,0.5502581865260974
57,0.5502929252098407,0.5503264615316841
58,0.5503052066301107,0.5510251991210445
59,0.5503022500003993,0.5503353238697384
60,0.5502962014127725,0.5502693310860665
61,0.550298318077747,0.5503645252353204
62,0.5503072583571732,0.5503880441632519
63,0.5503012299485596,0.5502426314294782
64,0.5502975778413995,0.5503377291759841
65,0.5502958018926066,0.5502702962671853
66,0.5503078785157315,0.5502491901293581
67,0.5502979588067494,0.550289371498761
68,0.5503025423653588,0.5502633824833569
69,0.5503140027527679,0.5502861072940212
70,0.5502874382244799,0.550287577443324
71,0.5503175224354002,0.5503024018136207
72,0.5502958254012635,0.5502742601091749
73,0.5502889986969719,0.5503409498974348
74,0.5502893427467415,0.5502558221592205
75,0.5502903433366128,0.5502932547043926
76,0.5502971388490612,0.5503320851929431
77,0.5502933642676517,0.5503183430536805
78,0.550287149157611,0.5502384279856907
79,0.5503015161661812,0.5503209858319303
80,0.5502860204297041,0.5502824086705154
81,0.550290900287948,0.550336525250901
82,0.5502981337199284,0.5503099318769374
83,0.5502911016876103,0.5502747064192892
84,0.5502891278383969,0.5502646894667935
85,0.5502873491444821,0.5502932930406802
86,0.550291312399389,0.5502719273342388
87,0.5502961263952143,0.5502754271474133
88,0.5502867310652749,0.5505697453584032
89,0.5502844948526036,0.5503091066114364
90,0.5502962579725406,0.5503459894627555
91,0.5502822324453154,0.5502964721128307
92,0.5502974328705598,0.5502560522656879
93,0.5502938400919546,0.5502823799774605
94,0.5502845886048306,0.5502330855459493
95,0.5502836035856383,0.5502774425830794
96,0.5502896623665028,0.550626007084811
97,0.550284661459422,0.5502744067395591
98,0.5502853415712871,0.5502420978569807
99,0.5502884352172949,0.550284662998048
100,0.5502864957767659,0.5502558851951996
101,0.5502990379497068,0.5502419642420028
102,0.5502873789117015,0.550360971733595
103,0.5502981296566746,0.550421231349112
104,0.5502927864107926,0.5502611545416025
105,0.5502915008212503,0.5503057912029049
106,0.5502940989956122,0.550425120825803
107,0.5502937727465391,0.550260920707996
108,0.5502866023119534,0.5502520759407403
109,0.5502804921681209,0.5504989343896397
110,0.5502853148970628,0.5502498881396821
111,0.5502979734158469,0.5502622899583196
112,0.5502771894219103,0.5502533032343938
113,0.5502899835710198,0.5506178211929189
114,0.5502781016551391,0.5502711306138902
