epoch,loss,val_loss
0,0.4074883051880697,0.40131038805982905
1,0.40150640964400774,0.40121862030502586
2,0.40124299893658644,0.40232795385214
3,0.401129558287436,0.4018055925150367
4,0.40094170756331887,0.4007642112210134
5,0.40084781185705787,0.4008416487620427
6,0.4007795374918444,0.4006456765880064
7,0.4007366520260504,0.4006055899204746
8,0.40069383188193336,0.40046446216905085
9,0.40067087434575077,0.40058564060083396
10,0.40066907366719506,0.40107721162788923
11,0.4006089148453931,0.40116988799116454
12,0.4005844104372993,0.40049569498812293
13,0.40056339452630535,0.40048256207340704
14,0.4005421160246708,0.40066650679921983
15,0.4005848794469157,0.40079312908738185
16,0.40050613858346373,0.40044893015998767
17,0.40052726515087794,0.4005149439457924
18,0.4004848963229615,0.40042993407095634
19,0.40048399294787845,0.40123351140886027
20,0.40049004861681575,0.4004028174776593
21,0.4004573982027389,0.4004078203040376
22,0.4004563184283245,0.40035355221249036
23,0.40045596220062585,0.40053568204342577
24,0.4004533438610552,0.40039610395360525
25,0.40042907696596575,0.4006374112873456
26,0.34451960274535215,0.30053896890680487
27,0.3004877986387774,0.30056662566904396
28,0.3004938694950233,0.3004889327154562
29,0.3004784030504968,0.30057192222947815
30,0.3004741883905327,0.30047846186545585
31,0.3004754662531087,0.30046336035574633
32,0.3004599406993215,0.30035997919054247
33,0.3004660466312061,0.3004964553688655
34,0.30046251649107875,0.30047191693528413
35,0.3004495840454046,0.3009039102801614
36,0.3004537572603371,0.30065617540634004
37,0.300460652738612,0.3004269337239987
38,0.30045633082720447,0.3004042196954155
39,0.30045147507081627,0.3007596244439298
40,0.3004664940036603,0.30038096545351944
41,0.30045246660099617,0.30045437440091266
42,0.30043953541350293,0.3009719163401251
43,0.30044427977078925,0.3003567172634986
44,0.3004392296905274,0.30061752945554465
45,0.3004312418138266,0.30042248217402856
46,0.3004290175570293,0.3003526969819743
47,0.3004314623934512,0.3003451556632891
48,0.3004195394892704,0.30050776393774425
49,0.30044173887639547,0.3005615539201732
50,0.300431312074751,0.3004796454539666
51,0.3004298603363049,0.3004872672315271
52,0.3004117766388186,0.30037094872287723
53,0.30044375151307845,0.30037674443893336
54,0.3004107745083658,0.30074984691574913
55,0.30042842923991425,0.30112367281251157
56,0.3004261250077737,0.30058967858626884
57,0.3004218154296945,0.30035601108896526
58,0.3004234725888544,0.30035721394915144
59,0.3004229767874783,0.300729592281299
60,0.3004168522680414,0.3006845735438704
61,0.30042545238780416,0.3003928294548622
62,0.3004268781773534,0.30035640405070396
63,0.30042491104264535,0.30039954756388887
64,0.3004051426657566,0.30050187709905374
65,0.3004213631408687,0.3004094346137556
66,0.30042994355925373,0.30055300466180146
67,0.30042269466900223,0.3003602880697984
