epoch,loss,val_loss
0,0.7042914766317527,0.7007534036861164
1,0.7013356243965652,0.7007313150921767
2,0.7006749738933622,0.7005240687365567
3,0.7005720462592525,0.700512835494342
4,0.7005404893534828,0.7004257568354643
5,0.7004439053784289,0.7003760054152893
6,0.7004120541230081,0.7003135626724281
7,0.7003747125226072,0.7002876022021765
8,0.7003508418653697,0.7003735499109879
9,0.7003312419648222,0.7003750315966736
10,0.7003065726309027,0.7002690837046053
11,0.7003017888132764,0.7003903234567004
12,0.7002815179425934,0.7002331950232645
13,0.7002766358227792,0.7002887540360538
14,0.7002686098188581,0.7002381233660222
15,0.7002526994837648,0.700234371527253
16,0.7002580918862624,0.7002551965027234
17,0.7002500187419702,0.7002720993742457
18,0.7002442490524284,0.7002354848473599
19,0.7002410268439956,0.7002983706169034
20,0.7002423020825347,0.7003124465717572
21,0.7002360011834872,0.700475312610418
22,0.7002275739484318,0.7002178115525257
23,0.7002356980163148,0.7001915225911672
24,0.7002259338894888,0.7002777188646586
25,0.7002271431070549,0.7002230194898752
26,0.7002242368929291,0.7002667290401222
27,0.7002174614096166,0.7005805739693843
28,0.7002231698158873,0.7002630068114023
29,0.7002179533173368,0.700175441642553
30,0.7002176582324978,0.7001947392009328
31,0.7002212721311882,0.7001840351828866
32,0.7002104033238818,0.7002255249851691
33,0.7002112135624182,0.7001938711916542
34,0.7002088727180018,0.7005846426741361
35,0.7002074041029716,0.7001873902292465
36,0.7002168088538857,0.700234788227318
37,0.700207380225932,0.7001878238493396
38,0.7002068292420818,0.7002133579762935
39,0.7002059341240575,0.7002194887355303
40,0.700207681204895,0.700198610337733
41,0.7002048199776393,0.7002096845553472
42,0.7001981866356397,0.7001711401099306
43,0.70019765794644,0.7001969152289643
44,0.7001996151789881,0.7001818805119536
45,0.7001958348919846,0.7001605770723991
46,0.7001932399731164,0.7001968469868227
47,0.7001981693768684,0.700182444167788
48,0.7001911833703071,0.7001746567248115
49,0.7001968131217329,0.7001795157605306
50,0.7001951430896862,0.7001931654608279
51,0.7001975532555328,0.70017384278863
52,0.7001921102118447,0.7002259682484951
53,0.7001930513256502,0.7003451709120209
54,0.700197877429199,0.700165961427665
55,0.7001952124197934,0.7001918138404638
56,0.7001905936952244,0.7005168623723108
57,0.7001968721702537,0.7001806465035337
58,0.700191543953126,0.7003170812987808
59,0.7001932568871699,0.7001735934844384
60,0.7001893535193082,0.7006526928681593
61,0.7001951387621749,0.7002052618611243
62,0.7001914531511162,0.7001696683928629
63,0.7001945631787185,0.700163065913889
64,0.70019381767221,0.7002415163345431
65,0.7001867704991241,0.7002223658206741
