epoch,loss,val_loss
0,0.560229109259388,0.5510951613374147
1,0.5510468524400447,0.5508824843922561
2,0.550947411939151,0.5507711228898382
3,0.5508024521690997,0.5505634042228718
4,0.5507559774752161,0.5507902343574884
5,0.5506842283460067,0.550647538944746
6,0.5506279852908675,0.5506427929951594
7,0.5505720299079491,0.5504235795354725
8,0.5505283217354009,0.5505509198451456
9,0.5504877838048639,0.5504339379944814
10,0.5505236016180152,0.5503761834305511
11,0.5504585359064059,0.5505162774185389
12,0.5504038366992052,0.5504399748948904
13,0.5504433171535279,0.5503386678234223
14,0.5479808041471387,0.5004643939860701
15,0.5004484022102728,0.5003938156972748
16,0.5004112038271465,0.500389961746727
17,0.5004057358998741,0.500343212270855
18,0.5003944727408041,0.5006000518798828
19,0.5003947237774784,0.5003921299063538
20,0.5004283433624009,0.5003235467610229
21,0.5003970232170935,0.5003635492573305
22,0.5003754482312389,0.5003512937732725
23,0.5003982620843437,0.5003133879997594
24,0.5003620738327543,0.500304217344478
25,0.5003519668819978,0.5003418300051251
26,0.5003616908708804,0.500411101192162
27,0.5003543340835297,0.5004937450879856
28,0.5003738260463533,0.5003514825558248
29,0.5003450487091367,0.5004426259260911
30,0.5003596163025096,0.5002966426146533
31,0.5003382783603066,0.5003667409603413
32,0.5003552397276769,0.5005467166971628
33,0.500340534729904,0.5005454765360053
34,0.500332674420916,0.5006208635145618
35,0.500344351101063,0.5003076696514196
36,0.5003393610238042,0.5004442699789705
37,0.5003398291317899,0.5004142244755482
38,0.5003279288188588,0.5003282357386265
39,0.5003310907647642,0.5003854207602092
40,0.5003301609666987,0.5004678488960929
41,0.5003266352242883,0.5004767448967207
42,0.5003330189534483,0.5003119338830706
43,0.5003319291108257,0.5003491430069613
44,0.5003184294156646,0.5005703017670227
45,0.5003229656090872,0.50027250971451
46,0.5003193871224706,0.5002942788985467
47,0.5003248131101161,0.5002877691543428
48,0.5003179237902227,0.5003410948417323
49,0.5003219768090416,0.5003170374309455
50,0.5003186987657736,0.5003693900096505
51,0.5003114208446737,0.5003622290810048
52,0.5003218057374557,0.500351107948767
53,0.5003080714960729,0.5003011673319133
54,0.5003174956908125,0.5003295582813897
55,0.5003103839663404,0.5002585141297902
56,0.5003126872396604,0.50031246946704
57,0.5003319767229158,0.5003095271273819
58,0.5003333580422775,0.5003160042739092
59,0.5003195878429518,0.5002850738115997
60,0.5003095712855921,0.5007357936047443
61,0.50034629762448,0.5003091881647891
62,0.5003135949647363,0.5004646807687159
63,0.5003126300409415,0.5004908668196231
64,0.500296993224914,0.5005349631345006
65,0.5003050033954763,0.5002594467132322
66,0.5003022474862463,0.500422905721972
67,0.5003397211901218,0.5003582367530236
68,0.5002864876674546,0.5002488863971039
69,0.5003007823365382,0.5003946196944187
70,0.5003020517046182,0.5002440704305474
71,0.5003098757290884,0.500377515734869
72,0.5003190321048344,0.5002898484542411
73,0.5002878544211042,0.5003057966752916
74,0.500302408826848,0.5002859112642539
75,0.5002817562745592,0.5002621989096364
76,0.5002985410761555,0.5009488498010943
77,0.5002918359192401,0.5003216966505973
78,0.5003054410286637,0.5002924107440352
79,0.5002790532467914,0.5002357825156181
80,0.5002839579042151,0.5003861502145716
81,0.5002871783598718,0.5002691539877994
82,0.5002822591911653,0.5002480091882995
83,0.5002959401006647,0.5005264279860125
84,0.5002876456017242,0.5002446310987544
85,0.500274240036639,0.5004406242157626
86,0.5002864882645975,0.5003202600455462
87,0.5002969582167202,0.5005012109321045
88,0.5002811464662154,0.500245415454467
89,0.5002863455671607,0.5002518024397251
90,0.5002917716494656,0.5002648985119671
91,0.500288538605689,0.5004891638128692
92,0.5002992132902729,0.5003526373773296
93,0.5002779157281836,0.5003870637481916
94,0.5002803784126315,0.5002987584760112
95,0.5002816737678664,0.5002605463080015
96,0.5002960595379257,0.5002688288392855
97,0.5002786679192219,0.5005589385778082
98,0.5002826824156175,0.5004264495508842
99,0.5002810660096869,0.5002670292227203
