epoch,loss,val_loss
0,0.5557544860828674,0.5520530626436617
1,0.5524191066467532,0.5545012389459918
2,0.5519855346283822,0.5517822096720523
3,0.5517476022474627,0.5513503174036372
4,0.5514772905506184,0.5519713052744901
5,0.551449039660752,0.5516249829722989
6,0.5513100954737573,0.552222739644441
7,0.5513162813237951,0.5509291157533158
8,0.5511784382091808,0.550790945028253
9,0.5510742076044891,0.5516083054152079
10,0.5510647497283647,0.5515790303350974
11,0.5510269978142622,0.5512729192194217
12,0.5509896790535921,0.5515098135761233
13,0.5509870260217532,0.5528346994970336
14,0.5509441540267778,0.5510277329544275
15,0.5509034300416527,0.5506410462684727
16,0.550857121112908,0.5515115075608341
17,0.550839215529271,0.5506053115238918
18,0.5508024075498236,0.5506008724125089
19,0.550833846691437,0.5506512859914794
20,0.5507596345835467,0.5506420438106243
21,0.5507441748152674,0.5505605132940685
22,0.5507560382552148,0.5505551272527159
23,0.5506799370624302,0.5507083424859248
24,0.5507492890422466,0.5506383616930202
25,0.5506822409896888,0.5505266629436767
26,0.550687115621946,0.5519384704215946
27,0.550692923191805,0.5505452774890304
28,0.5506435828366626,0.5505906927082734
29,0.5507144349491383,0.5506780963086017
30,0.5506168386582825,0.5504755581874705
31,0.5506774673668776,0.5506654716602922
32,0.550647064766768,0.5512084097779418
33,0.5506541796055335,0.5509296000447522
34,0.5506233670908692,0.5504813298693958
35,0.5506638934642849,0.5506156906596484
36,0.5506077770712837,0.5506497746365834
37,0.5506619190873455,0.5508077516153492
38,0.550637153682833,0.5507494742166316
39,0.5506343322882441,0.5507025142757236
40,0.5506024845312761,0.5509882432947087
41,0.5506129874043533,0.5504413244446217
42,0.5505723078318314,0.5507455190712998
43,0.5506506481038889,0.5507691466778739
44,0.5505728100873994,0.5510467911476533
45,0.5506059049580273,0.551081453067789
46,0.5505881478752359,0.5505953634347277
47,0.5506283920579977,0.5510234959959688
48,0.5506030826121117,0.5504301531439088
49,0.5505765738555525,0.5504459860307112
50,0.5505867659918623,0.5507375844063297
51,0.5505802905890375,0.5509392544294409
52,0.5523772855917619,0.5540131483125331
53,0.5510148063685213,0.55088730651155
54,0.5506997918515001,0.5527400495692459
55,0.5506689834048226,0.550661481728329
56,0.5506222696376325,0.5506077957804091
57,0.5506624943836684,0.5508451978266978
58,0.5505792768943638,0.5506962754294535
59,0.5506014959844443,0.5504658943370317
60,0.5505895609599188,0.5506845141167085
61,0.5505934705618895,0.5505928769892557
62,0.5505919041810745,0.5505220594832086
63,0.5505581954656691,0.551306434097716
64,0.5505598670769497,0.5504134703510748
65,0.5505814909109883,0.5505232234450783
66,0.5507002782311126,0.5505536098042434
67,0.5505503514759581,0.5510067225981586
68,0.5505719403167906,0.5504819212125489
69,0.5505635608697341,0.5503967051766351
70,0.5505841707724506,0.5504556376348358
71,0.5505919389928502,0.5507444912091674
72,0.5505832362540373,0.5503849327712141
73,0.5505285634891455,0.5508244337574129
74,0.5505354702405636,0.5504416070268409
75,0.5505395604628851,0.5515485986290736
76,0.550537063056588,0.5504079837361281
77,0.5505560723323036,0.5506976174657457
78,0.5505031413796659,0.5504509236025751
79,0.5505295481533651,0.5505378860989516
80,0.5505384777449585,0.5519422870415908
81,0.5505452460649225,0.5506122636440078
82,0.5505343207144134,0.5503749149904653
83,0.5505322817916096,0.5525080502476941
84,0.5505148102267493,0.5506628274917602
85,0.5505549367116163,0.55045869391846
86,0.5505050432372659,0.5504029385505184
87,0.5505567354338782,0.5508121795157345
88,0.5505674628350593,0.550423458758418
89,0.5505117807968757,0.5504128412632433
90,0.550550121898565,0.5505711801590458
91,0.550518826008146,0.5505162317167145
92,0.5505436469508941,0.5504823575244648
93,0.5505296790672869,0.551073204849849
94,0.5505611235642547,0.550981595587198
95,0.5505645551529244,0.5505011812924747
96,0.5505498041546371,0.550463357308958
97,0.5505271564768618,0.5509724023915994
98,0.5505169709809075,0.5504587818020331
99,0.5505696625052661,0.5514998853058732
100,0.5505123687278594,0.5505134962036947
101,0.5505811240980045,0.5505373811899285
102,0.5505327337783142,0.5505488719892857
