epoch,loss,val_loss
0,0.4049861617328658,0.40217028777889224
1,0.4016435988583337,0.4013142862035974
2,0.4012351897196041,0.4012761054204652
3,0.4010674327344116,0.40086597585796424
4,0.400973258384857,0.4009235942186256
5,0.40092772655518866,0.4010758125012921
6,0.4008216032401484,0.4020450730625512
7,0.40075517405680916,0.40068851348484125
8,0.4007599212586098,0.4007390803498015
9,0.400714276714863,0.40069376805579987
10,0.40064759506115416,0.4005688546313246
11,0.4006351346790446,0.40046019103036035
12,0.4005921710944145,0.40044048061737647
13,0.4005587929725533,0.40055428267116877
14,0.40055444437785,0.4004387026093438
15,0.400529288108983,0.4004607246028578
16,0.4005270606018192,0.4006183344140538
17,0.4005299682890816,0.4008067568093908
18,0.40052583402175085,0.4006037698785957
19,0.40053807913778233,0.4005628649117633
20,0.4005227163902395,0.4004319754782741
21,0.40050882095261076,0.40056858695766173
22,0.40050880719426435,0.40081661232647764
23,0.40047188703753606,0.4006402293890345
24,0.40047786697660326,0.400393729277935
25,0.40047330548506715,0.40047488089826505
26,0.4004752289100179,0.4005065870492098
27,0.40045631938280657,0.40044201449779954
28,0.4004614705888668,0.40040122897690045
29,0.4004389144384287,0.4003928898285991
30,0.40042662379754634,0.40042718001098254
31,0.40043712174439167,0.40040164052996385
32,0.40043590830975023,0.40057899543724346
33,0.40042946870552504,0.4004121328997553
34,0.4004265392694814,0.40048134272210945
35,0.4004232614522128,0.4004032954684558
36,0.40044260044114055,0.4005248698791854
37,0.4004241743476629,0.40038434338037193
38,0.40040885849398233,0.4004080166148193
39,0.4004077580175617,0.4003583782807769
40,0.4004114931350814,0.40035346021723217
41,0.40039429514687136,0.40040645398218044
42,0.40040069541499695,0.4003478422797939
43,0.40038985151296774,0.40049456869698047
44,0.40039553742698664,0.40064657259519876
45,0.4003940248241372,0.40037426201640525
46,0.4003981883920957,0.4003733994203525
47,0.400409659067796,0.4003369829938666
48,0.40038994015319396,0.40040744180714816
49,0.4003938758152862,0.40044193112524806
50,0.4003925894601862,0.40047798402256174
51,0.40039351678212015,0.40047934216541925
52,0.40038809632337125,0.4003557540790615
53,0.400393721211277,0.4005747601205007
54,0.400379293914148,0.40044710514858994
55,0.40038894033597977,0.4003595375985129
56,0.4003955087128527,0.40032217897493255
57,0.4003853835764517,0.40032856480655243
58,0.4003789240160573,0.40039788592542075
59,0.4003901208425672,0.40037686736057176
60,0.4003865446932485,0.4003347945716186
61,0.40037602731638233,0.4003216479315651
62,0.40039416415525,0.40033373242572284
63,0.4003788452129127,0.4003185036904167
64,0.4003734699832041,0.4003307722786224
65,0.4003922712611044,0.4003518291649688
66,0.4003819798886341,0.40033547191998503
67,0.40037282477659086,0.4003329981349538
68,0.400390678711704,0.4004440613627138
69,0.40037136040663945,0.4004037017857762
70,0.40038212989890254,0.4004127278960964
71,0.4003765746814833,0.4006091732688932
72,0.4003756357018523,0.4004553041742102
73,0.4003750874781119,0.4004148036907092
74,0.40037918251149635,0.4003012986100341
75,0.4003774905050636,0.4003299724375344
76,0.4003848437983,0.4003089954628246
77,0.4003835793718341,0.40035316737059035
78,0.40037497269651484,0.400835994455418
79,0.40038415000815464,0.40032527352089325
80,0.4003736688471783,0.40040222635635964
81,0.4003746768445405,0.4003118232225366
82,0.40037034110221437,0.40037467950035266
83,0.40038107145203516,0.40034858532638173
84,0.40038727235291427,0.4004533786187988
85,0.4003766333060091,0.4003504856348629
86,0.4003779128566774,0.40033490188955967
87,0.40038056980347037,0.40034639977343917
88,0.40037400819355984,0.4003377329918646
89,0.4003795780942265,0.4003175101120478
90,0.4003730439595952,0.4005953765092949
91,0.40038243471038715,0.4003523704283882
92,0.4003679902795161,0.4003335423712103
93,0.4003814348856791,0.4003679185735972
94,0.4003681503528653,0.40035307154466143
