epoch,loss,val_loss
0,0.43419932765807273,0.4434442214591351
1,0.38559196616629426,0.34865089368895463
2,0.3430532721294869,0.35862540560109274
3,0.33882938707165483,0.33614125339742146
4,0.3381612716878442,0.33438126357079684
5,0.3360438686129239,0.3476265213601497
6,0.3389753074371081,0.3420497288408483
7,0.33489786741806926,0.3286655479137975
8,0.3340356086584018,0.3310065307575789
9,0.33441592411969684,0.32027611359895075
10,0.33413490623259523,0.3354464203072234
11,0.3370162099480724,0.32777646152212947
12,0.338776835303703,0.34231501622470983
13,0.33746625072092745,0.3280717837958705
14,0.33525556386660615,0.33327727350270364
15,0.3358378378595475,0.3253205893965528
16,0.3342192790193333,0.32858333051581035
17,0.3340852636394264,0.3179956606832563
18,0.3332792568079335,0.3335188950317152
19,0.33243299898007317,0.3283115926462548
20,0.3319557438568055,0.33167338481830066
21,0.33235332115495997,0.3305192030525245
22,0.33120560564761825,0.31860351089708616
23,0.3316727945808884,0.32823213549138247
24,0.33634154112052195,0.369043412317699
25,0.35995610330483135,0.3482763730077736
26,0.33615457994057885,0.3213661367157452
27,0.32458664505161067,0.3232974995283414
28,0.3243071409188014,0.31642399551883493
29,0.32285036355090274,0.32389139492820357
30,0.3213549241971531,0.3168943640676745
31,0.3208966284490032,0.3151282980544132
32,0.31674023974630283,0.31008609481914456
33,0.31019804536176626,0.30921793322136953
34,0.308231490696196,0.2997649587696711
35,0.3073030057296955,0.31016341909095824
36,0.30712747399648316,0.2972325098472217
37,0.30716042484430006,0.2990043541238641
38,0.30649559176582797,0.3038922570875148
39,0.30628104633588393,0.2975484142939971
40,0.3069615084067475,0.30279807274795084
41,0.31322166661349987,0.31412727917943684
42,0.31188996219568305,0.3014933161361065
43,0.312812277551392,0.2993574470116947
44,0.30687219559324447,0.30200377023751657
45,0.3069201267535071,0.3157271898183281
46,0.30660808548259794,0.2989119116537385
47,0.3034358352994461,0.29565623434938215
48,0.3033065332544984,0.2954974239008485
49,0.2986926328745201,0.28362671087107133
50,0.3034287985030124,0.30445526871939016
51,0.30397089007947087,0.2938876082825209
52,0.3010448412143355,0.29623544975327243
53,0.29948835295262477,0.29869885328089807
54,0.30128942048854584,0.29560649427919755
55,0.29920997512902764,0.28855941028884763
56,0.2976767212081013,0.2897390368517309
57,0.296959819839441,0.2826864235132533
58,0.2979862834159419,0.2879349081861568
59,0.2946176738571301,0.2971136374979764
60,0.3021731324208011,0.3023069664871213
61,0.3152637686089074,0.3174716709997584
62,0.3066051975339294,0.2988878070143799
63,0.28609569378191235,0.26841551674663694
64,0.2786576668415472,0.269296302303566
65,0.2719901012663218,0.274598301468445
66,0.27784937428091644,0.27016361893375934
67,0.28414948486822017,0.2772178318125108
68,0.2914373823564401,0.27988835189553257
69,0.28549211746532854,0.27897918009696837
70,0.28195078176953237,0.28142947052041656
71,0.28709137225322584,0.27248971801083577
72,0.2887567117494597,0.2845745776039743
73,0.2872270271271396,0.277137501287291
74,0.28585089279188336,0.27921191489451874
75,0.2868161582671624,0.27660527283762415
76,0.2875226441172244,0.28070338886016544
77,0.28754150295714964,0.29073164012832914
78,0.28687086417008456,0.2889663655760727
79,0.2879325782360552,0.2835409865371336
80,0.2874789535999298,0.2821201249698343
81,0.28712285684345723,0.2909301912269445
82,0.28630009245017257,0.2818852630579857
83,0.2866309053755159,0.2812462287713151
84,0.285962585693331,0.28090522658806105
85,0.2849267188736575,0.2815216834279808
86,0.28593302077407556,0.28795194318304873
87,0.2854449925132745,0.28366394559746194
88,0.28998136170190586,0.28141997145355074
89,0.2878795766430221,0.2794220231020648
90,0.28950124885216894,0.28396835391598607
91,0.28754246398079975,0.28539432790468505
92,0.28630530194555825,0.28115770610633006
93,0.2871917604024319,0.2849626008776952
94,0.29335572040207286,0.2910906830604093
95,0.29761396294577325,0.28700832823833894
96,0.2989148535221505,0.28071536615949594
97,0.2936497453918798,0.28512338914665164
98,0.29299234622697845,0.2815160370875082
99,0.28751823275411825,0.2826013058341669
100,0.2913156987445579,0.2779808024851563
101,0.2918019550833866,0.2793134460968113
102,0.27588293841071454,0.26722120333701116
103,0.27616907258352025,0.279327141087217
104,0.27985194682491293,0.27218464076307314
105,0.28337954501394363,0.2785768389890019
106,0.2869614858290465,0.2757987573672301
107,0.2914369591295147,0.28608615201292964
108,0.2896908292298218,0.2824521034650193
109,0.2902302260039379,0.2887497397335195
110,0.2869380064886346,0.27318995471252827
111,0.2869912020439248,0.2781438021534714
112,0.2903767039062832,0.29580984631554763
113,0.2949582599103451,0.2906709815292445
114,0.29625405225572254,0.29002765026281646
115,0.2979557325424765,0.29781729207560126
116,0.2986398969890831,0.29511033688931365
117,0.29882017447710707,0.29296443579040743
118,0.3144239312548527,0.31191118110938626
119,0.2987904764092464,0.3030005373478218
120,0.2890581603167202,0.2833440804467393
121,0.2718951140376304,0.2449242960317641
122,0.255024678609092,0.2529843953197738
123,0.2555593827323948,0.23969773187845264
124,0.2535015064165842,0.2565887313874199
125,0.25414130524348777,0.24435272887525544
126,0.2570199273038301,0.250604426028132
127,0.25773775233603496,0.2494823024288443
128,0.2594493997903417,0.2534519962043205
129,0.26366807188954855,0.2676574667149768
130,0.2583534185090463,0.2461090303410577
131,0.2583751784359141,0.25146932928178284
132,0.261214554765456,0.24570489510740928
133,0.2621493886361162,0.25029060266318054
134,0.2624163743641546,0.25793757591317185
135,0.2634673602670598,0.249303333261348
136,0.2629445132901438,0.26520539462660464
137,0.2700532720052748,0.25871850568992283
138,0.2598692005564221,0.2545567782391407
139,0.2650334058548335,0.26728838117647663
140,0.2670261320515836,0.26193484197640476
141,0.2695311587020981,0.26770700475505327
142,0.2722841664332804,0.2660406630048153
143,0.27226527904172976,0.2815565787896737
144,0.2717096707243904,0.25630828918743626
145,0.27155175151751576,0.2578151765990276
146,0.2717218727862044,0.27080880958166476
147,0.2731565712816376,0.2699057972962779
148,0.27276832039812676,0.262676077829446
149,0.2756153032463565,0.2529461312842068
150,0.27369219467615624,0.26453936195858085
151,0.2725905622724149,0.28143434350591245
152,0.2714044390846309,0.2642451319505402
153,0.2705527515464025,0.26205132084280464
154,0.2670938372463107,0.2399724800648328
155,0.2563147124031084,0.2407953838370123
156,0.25430885967102457,0.24659575833023864
157,0.25725215758910946,0.2500741659665823
158,0.2634141725524486,0.25908992303081074
159,0.26449109012369726,0.2693399657990016
160,0.26697952353911436,0.2619848989050221
161,0.2683184129341567,0.264578228791398
162,0.27089589750237886,0.27051763595232553
163,0.26792435530278325,0.24259400109583312
164,0.2636601060307283,0.24200357892495397
165,0.2514343856514501,0.24777429600870318
166,0.2620158477468218,0.25357663403276204
167,0.2675093446793459,0.2630958377303528
168,0.249795842844305,0.2464578681593818
169,0.25230111233252794,0.25220666522926105
170,0.2622387562093022,0.24623372695675588
171,0.25048886751718846,0.2395128245688181
172,0.25695044796863237,0.24523065651413392
173,0.2600327308038823,0.2527553275427483
174,0.26962173814110335,0.26011182460125354
175,0.26886880784321554,0.2601418033089333
176,0.2669392341463495,0.2527055678082058
177,0.2633766498562577,0.24675239624945122
178,0.26090196666302534,0.25435095382729384
179,0.2630668110210451,0.2576596295224369
180,0.26076660177809635,0.24046153756301047
181,0.25837888410515925,0.2541388955728784
182,0.25658855965430977,0.23824695780602795
183,0.2566412386241005,0.25463347327502206
184,0.25689360698600183,0.2612064033570305
185,0.25992264913068974,0.2507245775897294
186,0.2625677739616207,0.2505150993590573
187,0.2567044580362731,0.25584700428413987
188,0.26263782083035275,0.25415423308405805
189,0.2652084581006012,0.25806581927573674
190,0.2648330848458574,0.2694228143499607
191,0.2616025196651904,0.2557740581957675
192,0.26497471452855187,0.25933357571040727
193,0.26534208449885716,0.2680207274871825
194,0.26269675684954336,0.25839904083002246
195,0.27073613672162133,0.2652608846573728
196,0.26419590534173326,0.2547376228006882
197,0.2569734199251012,0.252922677820888
198,0.2558261913468512,0.2542276942562944
199,0.255374750001825,0.2480315598640841
200,0.2567710222350322,0.24485979523236298
201,0.2561544422462261,0.24507358347983837
202,0.2560305502876151,0.2523583330643299
203,0.25560319862908404,0.2515087849809696
204,0.2550071245915503,0.24273236795683592
205,0.2521346973405658,0.245553092973714
206,0.2529155004838054,0.24815699497521534
207,0.25352211072624065,0.25168415374801023
208,0.2551082448362351,0.23746020668542753
209,0.2573272119120633,0.23710097096736918
210,0.2557393325705656,0.2476222622483945
211,0.2562782116960898,0.24952343469684107
212,0.2575307577181396,0.2532919893818948
213,0.2605885615874585,0.258957449385004
214,0.25740311995779963,0.24661117827412454
215,0.2585571920223754,0.24811335467831205
216,0.2660934014452828,0.2597756991376064
217,0.2688293480586043,0.2609730059694096
218,0.26804376385218615,0.27217375107797565
219,0.26305508918220477,0.26133724300877353
220,0.24161837027846672,0.21846785966156973
221,0.2546810235509531,0.2516310360479656
222,0.26414978837700104,0.25708804415993175
223,0.260611027970517,0.24786720962955336
224,0.2546605722253605,0.24878578618368768
225,0.25330974018985897,0.24771520517172546
226,0.25586075570693406,0.25996123777662755
227,0.2612402449182564,0.2558255339689676
228,0.26198992331763155,0.25558106073170267
229,0.2609779913273218,0.26092883868653094
230,0.25564635454786483,0.24250940807404817
231,0.26192004460510876,0.2395674898432481
232,0.24936683026315878,0.23545246168488862
233,0.24977994116423705,0.2346219667296007
234,0.256455712261603,0.25943633457667825
235,0.268661607655404,0.2691663588384709
236,0.25858374426273895,0.23735946507414402
237,0.25156360491216895,0.2534060907250986
238,0.25788619462177337,0.2589981144657263
239,0.26305299175145336,0.26490363537465483
240,0.26704013048947384,0.2626269277782071
241,0.26841947164455,0.26682768087031433
242,0.2681730041573707,0.260943588736778
243,0.26572154133880643,0.25704992581349995
244,0.2623883110078738,0.2520732195855316
245,0.26185889614166785,0.22171799852656113
246,0.2608928055845672,0.25019200924775126
247,0.2667944818127641,0.2733583125008686
248,0.2557283808424366,0.24507189339178231
249,0.2556009976406225,0.2553450355707611
250,0.25986086782648693,0.2642457526538818
251,0.26322296601560097,0.25006975574623247
252,0.2592696168457718,0.24331207311732053
253,0.2630306880572717,0.25999570548557915
254,0.2694860776866988,0.25343700157862153
255,0.26356244865033646,0.25056607998913444
256,0.2675708262242383,0.26331096862890446
257,0.2708169929534316,0.26447387174912673
258,0.2732203998487535,0.2718744233085964
259,0.27669723651451555,0.2724179717070396
260,0.27505518971003595,0.2750502107069543
261,0.27309231640849946,0.2689251581702349
262,0.27034537297346706,0.26882543378372126
263,0.2673296255739235,0.2580056485456092
264,0.2612922135963857,0.23364282361780836
265,0.25940857504268916,0.24345512600540645
266,0.2540567093145409,0.25420223120026636
267,0.259630881640003,0.2572808444805755
268,0.2631706726476014,0.25249574301674693
269,0.26009445703870576,0.2618557559216032
270,0.2667759217196803,0.26263974694610115
271,0.27129884828016054,0.26055566854216305
272,0.2864105412684423,0.2644304172815821
273,0.27344737277268694,0.26124909457816037
274,0.2686505812547094,0.2581098139838807
275,0.26595749038693717,0.25968673942285725
276,0.26689293922232593,0.2599712082823619
277,0.26783500751443234,0.2584318851709554
278,0.2662727212150701,0.2505794377628517
279,0.2667169895389383,0.2706748727641429
280,0.2675964296680036,0.2665443305975824
281,0.26591912593296485,0.25561804978298974
282,0.26613661871372846,0.25396515684821236
283,0.267102149134274,0.26589400969275173
284,0.2686446156325958,0.2715906003679736
285,0.2665749428113349,0.2570156709135943
286,0.266666542601695,0.25368896499570187
287,0.2681501813048272,0.2500108418884763
288,0.266657884360003,0.2595935125071511
289,0.26695206605618615,0.24770050892207973
290,0.26576661533243556,0.26459417678562785
291,0.26600251527284263,0.2463055024160206
292,0.2661294324977173,0.2600648979984971
293,0.2676570617722617,0.2520375732500062
294,0.269658568344242,0.2670918676969849
295,0.27597331560308414,0.2673910418562091
296,0.27925730814381566,0.2679347391368935
297,0.27828933699406405,0.2812445682621228
298,0.2764042954978278,0.27113197128793437
299,0.2715201096104489,0.2666842468853249
300,0.2720030341669619,0.2651640517018212
301,0.27642046876674553,0.3236872594930002
302,0.2970907799542236,0.285392291926218
303,0.28055714519558955,0.25798635569348893
304,0.2710444793539892,0.2717124852157053
305,0.26512968889195665,0.2601704630756717
306,0.26231726118140847,0.25501512353850236
307,0.261708491524275,0.277671706398924
308,0.2625081113113059,0.2585886686205299
309,0.25945051634709515,0.27632195554855965
310,0.26150485190401357,0.24738822973847108
311,0.2589487362620261,0.2554532112031822
312,0.2613084965127168,0.26023228632340584
313,0.26147141373105093,0.2634981181163814
314,0.260864203431004,0.2386829614309975
315,0.2678453069713285,0.25492175421497437
316,0.26684323041666325,0.24784699110600925
317,0.26337060935312895,0.25363952877042606
318,0.26667409699014144,0.25729789943584985
319,0.27045346128878645,0.2964054002899209
320,0.28124197143063745,0.265557760385989
