epoch,loss,val_loss
0,0.5544228784172902,0.5518819796536164
1,0.5512040797351577,0.5508271344246403
2,0.5509355135320287,0.5506026984444328
3,0.5507974098193539,0.5508630904015477
4,0.5507304886742596,0.550814989896921
5,0.5506461006089253,0.5504921175114275
6,0.5506198486372312,0.5504983655276429
7,0.5505732035028242,0.5506329653872449
8,0.5505356133513465,0.5508119695535665
9,0.5505086710358974,0.5505300397021007
10,0.5504783071672504,0.5504479451451645
11,0.5504706864798045,0.5505717747560506
12,0.5504485775953288,0.5506398329663809
13,0.5504302050845817,0.5503897980484123
14,0.55043052698169,0.5504578902467013
15,0.5504168870320929,0.5504007034502905
16,0.5504049534456011,0.550563713309191
17,0.5504145165561354,0.5503472693800631
18,0.5503848835612345,0.5503911337840646
19,0.550391486054531,0.5503713296601553
20,0.5503789614756135,0.5503843635542517
21,0.5503851447619598,0.5503556290276294
22,0.5503590589939931,0.5503127714540468
23,0.5503500546475212,0.5503441965609567
24,0.5503576062825275,0.5502891643467376
25,0.5503504760119164,0.5503643986309137
26,0.5503364950897686,0.5503572679335071
27,0.5503295578880056,0.5504152835746556
28,0.5503318970845601,0.5502748253623546
29,0.550326092870376,0.5504579115446389
30,0.5503354601558966,0.5502665804870075
31,0.5503188507486646,0.5503338744563441
32,0.550320450795088,0.5503201700617598
33,0.5503177001757394,0.5502831485076223
34,0.5503147090821258,0.5503305182859265
35,0.5503219249555801,0.5503814893088329
36,0.5503139410869151,0.5503333389906966
37,0.5503182681959115,0.5505209904746441
38,0.5503147340209281,0.5503607771236902
39,0.5503147289684837,0.5503161570274504
40,0.5503233712309966,0.5506115643321432
41,0.5503137290278179,0.5503355620516737
42,0.5503122837352812,0.5502773095892913
43,0.5503130901953306,0.5502630213354125
44,0.5503140992690488,0.5502684270773572
45,0.550304387625327,0.5505165591725049
46,0.5503056491627097,0.5502686966737506
47,0.5503123736553811,0.5504942363604127
48,0.550307434960811,0.5505173692336449
49,0.5502887729091094,0.5503702412172228
50,0.5503106891152069,0.5503182168929808
51,0.5502809154880213,0.5502880249662375
52,0.5502930369402504,0.5504137477567119
53,0.5502879464443777,0.5504059466179784
54,0.5502867609374086,0.5502671786336686
55,0.5502925899420952,0.5502438797252646
56,0.5502792613398184,0.5502459407148527
57,0.5503044401234188,0.5503095052674154
58,0.5502737141463593,0.5503727037320953
59,0.5502857691051074,0.5505233683006343
60,0.5502771151829254,0.5502525621549071
61,0.5502821975806883,0.5502448500829654
62,0.5502733990505275,0.5502381443385747
63,0.550275252213765,0.5502384089358687
64,0.550279563023205,0.550500505437922
65,0.5502784126585305,0.5503628466916144
66,0.5502667062955685,0.5502382936016206
67,0.5502679279497994,0.5502226040913508
68,0.5502728238449198,0.5502550718802081
69,0.5502829221051565,0.5502975237872405
70,0.5502754149513814,0.550397578066691
71,0.5502744262736041,0.5502501369705863
72,0.5502597759928967,0.5502328134056357
73,0.5502734305594796,0.55023720086952
74,0.5502660753284868,0.5502566748162357
75,0.5502715317917196,0.5508121619745164
76,0.5502771345494456,0.5502491729431057
77,0.5502753401515398,0.5503833592677531
78,0.550265920024787,0.5502776967976288
79,0.5502606150788789,0.5502562109649033
80,0.5502641066366319,0.5502981208985852
81,0.5502612720473145,0.550223957989411
82,0.550266121398418,0.5503353183086102
83,0.5502594144279866,0.5502435117738123
84,0.5502751177406505,0.5502362545903208
85,0.5502662819312597,0.5502465736481451
86,0.5502679427142961,0.5502752200841312
87,0.5502656583767962,0.550255767553675
