epoch,loss,val_loss
0,0.763233687029791,0.7605781160276521
1,0.7607883974126673,0.7600920870641324
2,0.7603960758023178,0.7605768794753119
3,0.7603062072728651,0.7605262295779756
4,0.7601400873711558,0.7599018226782086
5,0.760053459251557,0.7600613584589426
6,0.7600146944978705,0.7612508242834295
7,0.7599298768177871,0.7597579186666692
8,0.759881144589207,0.7596736319603459
9,0.7598293969221983,0.7601702939487864
10,0.7597741918529072,0.7604585920019126
11,0.7597608720484309,0.7597831851199602
12,0.7597693854495529,0.7597543289584499
13,0.7597067402666258,0.7597714453417965
14,0.7597215524771895,0.7599196185249253
15,0.7596301763653842,0.7596182902456808
16,0.7596411088729311,0.7597723512436557
17,0.7596268975971833,0.7597740178072718
18,0.7595761764141192,0.7596366690346976
19,0.7596016173505604,0.7596137785142468
20,0.759586749996964,0.7598588341518904
21,0.7595496994197259,0.7594802406230576
22,0.759563211688019,0.7609768710420386
23,0.7595495258617536,0.7595158657720013
24,0.759556335177906,0.7593977023590883
25,0.7595271184578812,0.7594760436278123
26,0.759551350949808,0.7594127018161803
27,0.7595330648630745,0.7601524140639577
28,0.7595400530728328,0.7597471302259649
29,0.75956150530046,0.7594982232112742
30,0.7594897631066279,0.7594836577292412
31,0.759527753248413,0.7594275656764028
32,0.7595029849512676,0.7599701508398979
33,0.7594688402836677,0.7596411446483792
34,0.7595216653266587,0.7594570729336135
35,0.7595243589050539,0.759445588612379
36,0.7594997255140896,0.7597478884029625
37,0.7594937203538196,0.7594073113081768
38,0.7595118173087464,0.7594553436002424
39,0.7594792819854873,0.7596362439041989
40,0.759443854271527,0.7602032506140527
41,0.759472298645954,0.7594609154069394
42,0.7594670182594219,0.7593740571817157
43,0.7594651480298871,0.7596190254386542
44,0.7594895440790226,0.7600127567724317
45,0.7594605252815055,0.7594040815055222
46,0.7594599056964254,0.7594353904499309
47,0.7594630634970388,0.7601907702888507
48,0.7594706601544126,0.7594211990720877
49,0.759466783792083,0.7594534098066704
50,0.7594622662205269,0.7594452442069799
51,0.7594473468137376,0.759535959636603
52,0.7594598786506631,0.7594839247521337
53,0.7594336345136103,0.7595511528161856
54,0.7594344367423855,0.7602163124616921
55,0.7594813938772625,0.7599515488662436
56,0.7594870521030186,0.7594657540617155
57,0.7594152585233422,0.7595566972609489
58,0.759432135455335,0.7596642198101167
59,0.7594502024639782,0.7593744290082094
60,0.7594794433150454,0.7593971820682214
61,0.7594763749525578,0.759800348832057
62,0.7594587445642464,0.7598197191583903
