epoch,loss,val_loss
0,0.5535387452440601,0.551215252953191
1,0.5511617445180261,0.5508157021354505
2,0.550934137290354,0.5514790929280795
3,0.5508462302215683,0.5535899681725513
4,0.5507320154211923,0.5507135582029375
5,0.5308701760166762,0.5010264839191295
6,0.5006533082933966,0.5007336658224575
7,0.5006164392460283,0.5009302708114644
8,0.5005893473214298,0.5006467612742195
9,0.5005454663410849,0.500432262024276
10,0.5005163172591308,0.5003676786907849
11,0.5004819289564312,0.5004065337902854
12,0.5004768452571019,0.5003648270448443
13,0.5004786921475778,0.5004152126998522
14,0.5004361433410223,0.5013299317868708
15,0.5004467896435689,0.5005267796386265
16,0.5004469403681212,0.5004360913047128
17,0.5004437030520513,0.5005916047037091
18,0.5004233626690419,0.5004486594543268
19,0.5004251126764317,0.5004480549182845
20,0.5004120878384704,0.5003385623986313
21,0.5004016457619573,0.5003483578229956
22,0.500417621408867,0.5003424550700128
23,0.5004120568793314,0.5003250922813605
24,0.5003936030601216,0.50068317042391
25,0.5004132982400674,0.5003650892165399
26,0.5003925647145678,0.5004694605879393
27,0.5003960155411787,0.5007215416165203
28,0.5004430226719847,0.5003402561762789
29,0.5003864531327016,0.5003887269692149
30,0.5003923851173272,0.5003421435285147
31,0.5003736183983831,0.5004297227480867
32,0.5003958936759048,0.5007442882871509
33,0.5003935145583347,0.5003954549876987
34,0.500380893569628,0.5004095924403472
35,0.500383458195917,0.5003115723209997
36,0.5003677330437567,0.5003342932862028
37,0.5003668704301857,0.5003092679433137
38,0.5003659451663044,0.5003083465117083
39,0.5003630218693159,0.5006819852824247
40,0.5003689581593656,0.5003885117713038
41,0.500356343638261,0.5004336566842223
42,0.5003677382168917,0.5003610293563483
43,0.5003594795536259,0.5004086072628314
44,0.5003807211089157,0.500320092975058
45,0.5003545574741435,0.5003270874839858
46,0.500358361664218,0.5004157980085898
47,0.5003609534041086,0.5003574199475367
48,0.5003631314927656,0.5003422929986239
49,0.5003508418694715,0.500298023223877
50,0.5003529111171964,0.5003530665899328
51,0.5003472303104455,0.5003384355575807
52,0.5003603296303509,0.5003871493244881
53,0.5003457073893293,0.5003047381086326
54,0.5003483684167304,0.5003758459469817
55,0.5003439304568678,0.5003203246197097
56,0.5003546138027849,0.5003618609816501
57,0.5003510367581462,0.5005649932264986
58,0.5003417204159372,0.5003219279402834
59,0.5003453812317602,0.5003009981612118
60,0.5003361945800006,0.500487604123487
61,0.5003581646827823,0.500361609754728
62,0.5003438900578222,0.5003063462212423
63,0.50035210958259,0.5003823915131335
64,0.5003469720559934,0.5003739572932052
65,0.5003339704222012,0.5002968476368831
66,0.500351133421938,0.5002977191662374
67,0.5003416317453411,0.5003308615968481
68,0.5003398316820713,0.5003234383486045
69,0.5003385433529288,0.5003491634766458
70,0.500342425675644,0.5003790693898355
71,0.500335011594915,0.500416520452381
72,0.5003395195490781,0.5003301014379591
73,0.5003393150863961,0.5003059976154166
74,0.5003505244860381,0.5003373637684522
75,0.5003337033454949,0.5005351465334076
76,0.5003413186760088,0.5004317041662135
77,0.5003495541548262,0.5003738178212944
78,0.5003306351533943,0.5005608527003683
79,0.5003418085083222,0.5005439278209771
80,0.5003363540558124,0.5003489710852762
81,0.5003356164470515,0.5003303093294944
82,0.5003331058128949,0.5005376896846383
83,0.500343210543889,0.50032642405323
84,0.5003298640344241,0.500317277269387
85,0.5003434825981009,0.5003191532331424
