epoch,loss,val_loss
0,0.5557446700353718,0.55153861146411
1,0.5511894958927135,0.5507296539122059
2,0.550856065282978,0.5527336357545024
3,0.5507733778451794,0.5505878359449117
4,0.5506739635089271,0.5504770538055571
5,0.5505749922763853,0.5506884012861228
6,0.5505276862672657,0.550423001296467
7,0.5504883807174449,0.5504118977350277
8,0.5504598247522309,0.5504345917524238
9,0.5504679416378334,0.5503760982092202
10,0.5504383245875162,0.5504097430936752
11,0.5503866700479827,0.5503211094782903
12,0.5504031479970015,0.5506061474087812
13,0.5503760236208013,0.5502872655172798
14,0.5503776970140447,0.5504207384497593
15,0.5503693504784769,0.550347975968723
16,0.5503560793620524,0.5510284559602477
17,0.5503567668518273,0.550317371394439
18,0.5503629271761745,0.5503674937536935
19,0.5503512998987576,0.5503072200874537
20,0.5503426721735589,0.5503122456612125
21,0.5503370440037336,0.5504506911592507
22,0.5503462403186382,0.5507074578524227
23,0.550336679687391,0.5502848638790121
24,0.5503331299141195,0.5503927471028368
25,0.5503385293466537,0.5503088992227692
26,0.5503238485824709,0.5503205785088741
27,0.5503308229411955,0.5503443262713127
28,0.5503510251057343,0.5506439598263345
29,0.5503319229360366,0.5505031957224048
30,0.5503354971527263,0.5502921816728843
31,0.550321230737101,0.5503556260991629
32,0.5503216755281152,0.5502787577603059
33,0.5503377124314759,0.5505353869634586
34,0.550328237237418,0.5507539781684023
35,0.5503073309135876,0.5506088686344346
36,0.5503176771435347,0.550339429224691
37,0.5503079935584306,0.5503425614413789
38,0.5503008739677642,0.550373573575363
39,0.5503126809623236,0.5503338207086321
40,0.550302756371284,0.5502689465399712
41,0.5503051221276827,0.5502589819449053
42,0.5503012552636329,0.5503864404581321
43,0.5503051166161402,0.5502851821352767
44,0.5502934988796,0.5502581231943136
45,0.5503003525783802,0.5503295435207357
46,0.550313530890749,0.5503059508782758
47,0.5503022002939704,0.5502716906609074
48,0.5503000084686598,0.5502777501312143
49,0.5502933849759687,0.550331139239129
50,0.550313246281548,0.5503386585351551
51,0.5502920329442191,0.5502514090786501
52,0.5502952099330776,0.5504563438093691
53,0.5502948948325128,0.550245373065655
54,0.5502981772758642,0.5502822197104802
55,0.5502891355420927,0.550247426600965
56,0.5502914464086726,0.5508530026334095
57,0.5502920602668602,0.5502593838547358
58,0.5502841767142616,0.5503365451289761
59,0.5502902899345239,0.5509704627410945
60,0.5502886808000114,0.5502580349261944
61,0.550287436594761,0.5502805574064515
62,0.5502906220240807,0.5502899268129031
63,0.5502863506331729,0.5502610602094873
64,0.5502822013260443,0.5502430653157956
65,0.5502893074940108,0.5502782094567349
66,0.5502818428075887,0.5502534111735247
67,0.5502892815202659,0.5502872578559383
68,0.550280889070955,0.5502918367646172
69,0.5502839540146612,0.5502390800575465
70,0.550287255856086,0.5502676172232805
71,0.5502760702751103,0.5504169229242405
72,0.5502869281926438,0.5503079221503019
73,0.5502879535028121,0.5503353160604946
74,0.5502834113687247,0.5502955677787364
75,0.5502866674439171,0.5503536987837135
76,0.5502802313444555,0.5503665974654868
77,0.5502861098394322,0.5502518187977244
78,0.5502806463382746,0.550249315284322
79,0.5502885262535866,0.5502552062642782
80,0.5502777019724747,0.5502483162039858
81,0.5502931273809769,0.550295168146602
82,0.5502905931600695,0.5503349541138775
83,0.5502769985302279,0.5503813061169892
84,0.5502856961582231,0.5502478732956254
85,0.5502827670625589,0.5502670609921438
86,0.5502769878913025,0.5502514648378339
87,0.5502753665749167,0.5502478805724208
88,0.5502875030543225,0.5502732738371818
89,0.550280907813512,0.550245636716374
