epoch,loss,val_loss
0,0.5303473038873826,0.5267424739619935
1,0.5257889050767253,0.5240414699904676
2,0.5249938401462676,0.5257146053811161
3,0.5247104578578509,0.5264597934469691
4,0.5246138064040695,0.5236989983553922
5,0.5243873443292844,0.5239326329740046
6,0.5241276977611596,0.5247409665554984
7,0.5241568288176014,0.5243961073624585
8,0.5241315021657954,0.52374757525347
9,0.523932119771418,0.5235662213330233
10,0.5239377351188415,0.5242455212117425
11,0.5238264239239365,0.5237009789156855
12,0.5237803635454799,0.5242668449730791
13,0.523671901516648,0.5256069882040284
14,0.5237818600487408,0.5268728239068914
15,0.5236759236891304,0.5236736194075781
16,0.5236960760935999,0.5263722901308803
17,0.5235453886959022,0.5232613538985809
18,0.5235941132255195,0.5233617760703226
19,0.523556051009294,0.5232571765743473
20,0.5235093033043499,0.5231033308334445
21,0.5234362175925905,0.5235220558294291
22,0.5235296132291263,0.5254996366595512
23,0.5233794659191953,0.52316196517968
24,0.523537759741537,0.5243710255800347
25,0.5234682249010979,0.5245452801287914
26,0.5235101202865782,0.5231592158525813
27,0.5234333214723099,0.5298026212095919
28,0.5233736712585092,0.5242538523437368
29,0.5234502570694529,0.5237657199426561
30,0.5234621607830222,0.5253935485560605
31,0.5233558755113055,0.5230094862635023
32,0.5233735871197309,0.5240639634227042
33,0.5233575971413911,0.5230245231694678
34,0.5234422488977812,0.5235601008677897
35,0.523261812729662,0.5233423506947368
36,0.5233597293817777,0.5231422162825061
37,0.5232421494515046,0.5231630696848072
38,0.5234059756586344,0.5235082305394686
39,0.5232839401153133,0.5236666460486854
40,0.5233156576911808,0.5231877329627574
41,0.5232277083206962,0.5231506562706258
42,0.5232917088058545,0.5234055867266123
43,0.5232331377365889,0.5233501602343235
44,0.5231988868548545,0.5238785331657447
45,0.5232235453589522,0.5242218255700899
46,0.5232243630030073,0.524202913859346
47,0.5232405822605631,0.5241964784508604
48,0.523154892022941,0.5232575767980912
49,0.5231804228747491,0.5248659126220211
50,0.523187073654584,0.5271793360449836
51,0.5231320897222245,0.5251841628521903
