epoch,loss,val_loss
0,0.7900865442931649,0.7889120627869447
1,0.7878474670467697,0.7874266778564927
2,0.7875866402071283,0.7875846450441233
3,0.7874687205372429,0.7885530677090212
4,0.7873652313497745,0.7883285013676873
5,0.7872436694094163,0.7880472916527362
6,0.787162289751685,0.7870909177339994
7,0.787146245619503,0.7874927024095881
8,0.7870517361678566,0.7870490961275977
9,0.787081199246016,0.7871226222284379
10,0.7870044825006409,0.7869450506146434
11,0.7869500766570562,0.7869244414286933
12,0.7869530414132753,0.7869099800994911
13,0.786993030577358,0.7878327868416647
14,0.7869057683527191,0.7867994362603937
15,0.786897072776466,0.7890477798712756
16,0.7869021270722255,0.7867998526054931
17,0.7868478782693401,0.7867828398129485
18,0.7868469547345701,0.7868266812329257
19,0.7868625476822858,0.7889223123602477
20,0.786806036849961,0.7867639764366907
21,0.7868143045500423,0.7868955030334794
22,0.7868031847849444,0.7886751342648016
23,0.7868112836324134,0.7867585535972349
24,0.7868029979281181,0.7870192120743744
25,0.7868347898037102,0.7868885581014174
26,0.786800029449419,0.7867982646371827
27,0.7867667887820484,0.7867537568284028
28,0.7867580533794389,0.78711138247852
29,0.786775082646771,0.7872770707009744
30,0.7867776581454786,0.7866927824304358
31,0.7867648816432439,0.7873972810231722
32,0.7867936985149503,0.7868551893802198
33,0.7867584089224348,0.786807201991306
34,0.7867661760029776,0.7868126838437972
35,0.7867561103481643,0.7868127951551016
36,0.7867357456692474,0.7867809669847228
37,0.7867911824907309,0.7867996129149538
38,0.7867544162379267,0.7872325140252598
39,0.7871703661546263,0.7878924125477339
40,0.7868171889877779,0.787930533519158
41,0.7867508856308132,0.7868658131168734
42,0.7866997734445609,0.786738766718739
43,0.7867605630094173,0.7872865714151274
44,0.7867138855685529,0.7866505594170715
45,0.7867306512828741,0.7867182447655917
46,0.7867466742074111,0.7867237638303127
47,0.7867147264988155,0.786692062915111
48,0.7866879932954015,0.7866568746992731
49,0.786713652749865,0.786679275722125
50,0.7867186153238411,0.7868071118891978
51,0.7867229929935673,0.786706637093802
52,0.7866933740689944,0.7866548273167007
53,0.786776626772377,0.7866696606498794
54,0.7866579652435245,0.786691416700188
55,0.7866893027880147,0.7866783886630245
56,0.7866685339269576,0.7875049395241749
57,0.786672616556808,0.7875298952642209
58,0.7866597250702474,0.787375276053218
59,0.7867092299007946,0.786662534626187
60,0.7866729653379688,0.7866911651183003
61,0.7866703007221885,0.7867250922891698
62,0.7866717371624955,0.786763290169813
63,0.7866784476597776,0.7866404026376994
64,0.7866878244293791,0.787288397180827
65,0.7866820733427718,0.7867508272083462
66,0.7866677077596141,0.7866683349715865
67,0.7867077825549382,0.7866921522481269
68,0.7866275104151021,0.7886262804343742
69,0.7866303356504953,0.7867144350082643
70,0.7867034696046186,0.7867151471580525
71,0.7866777571779775,0.7867490524689553
72,0.7866471347716892,0.7879273085972808
73,0.7866931469574782,0.7871938575881883
74,0.7866788416833888,0.7870572398081607
75,0.7866618601488377,0.7867378738027057
76,0.7866621204652866,0.7876843744412841
77,0.78664791783194,0.7867787127459316
78,0.7866407220081311,0.7879083382284671
79,0.7866932620159539,0.7868402502081234
80,0.7866663889430521,0.7886637705135582
81,0.7866428859247014,0.7872796043864551
82,0.7866762005518116,0.7868550867655733
83,0.7866561114231931,0.7876122855371045
