epoch,loss,val_loss
0,0.32729761701677373,0.3285839209781391
1,0.3198299082800072,0.31978523595161534
2,0.31902885745128,0.31829754174790964
3,0.31839250938815783,0.31769909991815726
4,0.3183427094924923,0.3176237702665495
5,0.3179935483578879,0.3196506842933873
6,0.31778429537722447,0.31749058510766137
7,0.31776763427571647,0.31727189423132773
8,0.31743815271764253,0.3177665066334509
9,0.3174080528011535,0.31823059790779284
10,0.31731417021192154,0.31702087116300615
11,0.31707887987525335,0.31694003634949774
12,0.317024591825406,0.31992016980429144
13,0.31717280382353463,0.31706277438192154
14,0.31688034180704355,0.31803129075774483
15,0.3168854142647827,0.3170823173250809
16,0.3167961924837079,0.3212000447082756
17,0.3167379780858568,0.3171678022770373
18,0.31670469735390383,0.3180777114171248
19,0.3167680892388086,0.31696347579470935
20,0.31669170066014796,0.3165028729302712
21,0.3166074513378549,0.3169348703720434
22,0.3166592904387247,0.31698048268595047
23,0.3167004454060325,0.3179766916755411
24,0.31662497271642487,0.3175163102800734
25,0.3167000616265382,0.3182338980971732
26,0.3166141189587766,0.3171710918470293
27,0.316547712644749,0.31726973697210364
28,0.3165898822178269,0.3172961683486295
29,0.3165380618658249,0.3169190825510853
30,0.31666770246320103,0.3166589073596462
31,0.3164280503150136,0.3180961381708718
32,0.3165500711648325,0.3169816180139262
33,0.3165953693084963,0.3173652611802293
34,0.3165163302321073,0.31742244101043965
35,0.31652962375401245,0.3181177596004666
36,0.3164360733840996,0.31659029174975073
37,0.3164749311027626,0.3165217660349001
38,0.31640254520148514,0.3164618920007947
39,0.3164445987738321,0.31666450506404376
40,0.31638861868560436,0.3174281114827906
41,0.31659006816237345,0.31687277579130074
42,0.3164625118986663,0.3166947418199875
43,0.3164484716317925,0.3174285482384135
44,0.3164777971899886,0.31675752635037635
45,0.3163917163037564,0.3177713914041779
46,0.3163175152879734,0.31672544217582965
47,0.3164057814486928,0.31667837136732435
48,0.31644852546221514,0.31763932145854673
49,0.31643623675080645,0.3188554600657659
50,0.3162468690986951,0.3167198440573056
51,0.3163404898991304,0.3164319031735508
52,0.3164854874623333,0.31780460617382533
53,0.3162842561943658,0.3172911921594634
54,0.3163078993693379,0.3166026832448046
55,0.3164057742005452,0.31641771680959696
56,0.3163464744623083,0.3164355211015375
57,0.31638648760400634,0.3168209501294877
58,0.3162886582191615,0.3172570040444878
59,0.3163894849321235,0.3170642956314844
60,0.31633086059053117,0.316388572105403
61,0.31627920543216204,0.3182465886359771
62,0.3163551891621226,0.3164192470516224
63,0.3163041349279201,0.31671067322454144
64,0.31620841463924354,0.3163879784549732
65,0.3163966532940632,0.31874435620923197
66,0.3161803478957898,0.3164051489705779
67,0.3163416704719794,0.3177275790765918
68,0.31638324811234847,0.3166434509434712
69,0.3162520377934701,0.31695952647672987
70,0.31616261697685094,0.3166805011167124
71,0.3163246443086862,0.3166775234579744
72,0.31633056778658886,0.31640333978473106
73,0.3163538770277238,0.31750651631994226
74,0.316265813933855,0.3171839350654233
75,0.31629102541438275,0.31649872875095303
76,0.31627467651962343,0.31660367070001644
77,0.3162759524681079,0.3164328422351156
78,0.31629122111515595,0.3171449754137555
79,0.3163186992744763,0.31780573227269476
80,0.31632154872571083,0.31691281694928114
81,0.3162615542830767,0.3165129378770776
82,0.31622338988915044,0.31676619032180636
83,0.31629942751776724,0.3163977672976832
84,0.31628906918325195,0.3164796309051088
