epoch,loss,val_loss
0,0.06074697273974541,0.04193656287957954
1,0.03956496218110615,0.0372138757230922
2,0.03609486657208265,0.03537124340831494
3,0.03412955795812352,0.033096216397161225
4,0.032115558326531096,0.03393280356937543
5,0.031247608393751763,0.031136338984034492
6,0.030178214306057227,0.029640879849937952
7,0.029366067440799518,0.030137620226621035
8,0.02857345470771383,0.029476317332562976
9,0.027943618834097392,0.027060460427743627
10,0.02733040623484368,0.027112242043314146
11,0.026888193697590407,0.026981904130271885
12,0.026559106430047413,0.027184917542057357
13,0.026402234325496488,0.026700465407028386
14,0.02599065285391734,0.025924143432720422
15,0.02584235403181468,0.02656179098296846
16,0.02555880184923665,0.02554928236282789
17,0.025341563601463845,0.02563904235255038
18,0.025154256926115455,0.025574727621733698
19,0.024930280625764547,0.02507441534704665
20,0.024651151625610726,0.024423956337659886
21,0.0243825991618962,0.024459744432465017
22,0.024103350893956287,0.024528087580359306
23,0.023839799760306906,0.024692321939407742
24,0.023555287513608542,0.023966513966064595
25,0.023354931027847862,0.023357462417103222
26,0.023186432453319635,0.023356967361149363
27,0.022999340087052903,0.03462172412029271
28,0.022926056389359118,0.024061901210148635
29,0.022745111644027642,0.023111205748640572
30,0.022662628748952484,0.023904441080747112
31,0.0225829354178447,0.023272236561398058
32,0.02247751614636014,0.022978307216176323
33,0.02241137381688168,0.02287696069175789
34,0.02233817171761903,0.02323042515748488
35,0.022260247296689,0.022886825675519168
36,0.02226768678377362,0.02305945266250789
37,0.02215344176230607,0.022753855809754236
38,0.022059666720771864,0.02264405248811464
39,0.022052582325115918,0.022573249699275193
40,0.021964931217671187,0.022703791022411646
41,0.02187104290726581,0.02248246250743458
42,0.021842025193154913,0.022466182812271876
43,0.021783928422376638,0.022403730751562947
44,0.021767917399974877,0.022694864577934997
45,0.021686432976767468,0.022276297557368763
46,0.021665756523503065,0.02260620222974652
47,0.021627559598377387,0.02209379689643164
48,0.021581982168771555,0.02297718592783062
49,0.021498702846850962,0.022285690263061608
50,0.021537394113453626,0.022241224845866707
51,0.02149961762138839,0.022047109323237137
52,0.021463014133107125,0.021864120034089603
53,0.021413253362270804,0.0220716690630756
54,0.02141388449638684,0.021956385661924153
55,0.021341513150862447,0.022316834564429358
56,0.021374422894366946,0.0220039597728634
57,0.0212552698303183,0.021859782667040233
58,0.021317847089594246,0.022065834080795793
59,0.021284597048899075,0.02184271471801378
60,0.021272395273478007,0.022186708387458887
61,0.02125419978878626,0.022395925770141645
62,0.021167778718856042,0.022045209628550645
63,0.021172691876913816,0.021765565310163475
64,0.02114942258391049,0.0217887620762841
65,0.021139614109263804,0.022449322689611178
66,0.021093334605559726,0.022055744510097775
67,0.021045882144994622,0.02259642710960089
68,0.02105617421902893,0.022242308387685355
69,0.02104580614645461,0.021916710226692573
70,0.0209478927887319,0.02224758636881193
71,0.020994783385250935,0.022122611622175863
72,0.020927681203538783,0.02168779081339132
73,0.020942817722116144,0.02174679789387115
74,0.020882721185471024,0.021819145162185426
75,0.020855855202384102,0.022170122173931404
76,0.020850071901390516,0.021822854695337877
77,0.020858379756991296,0.02193096432160059
78,0.02081194846396481,0.0216416472481291
79,0.02083443713922511,0.02180233143510357
80,0.020796381083008016,0.0216306186870443
81,0.020775765637910896,0.021915658477407236
82,0.020742145927022393,0.021261182936745008
83,0.02069823662340787,0.021562653635778736
84,0.02068333624738153,0.022131667545911102
85,0.02071334285985811,0.022075867309020114
86,0.02067442905275192,0.021791714778350246
87,0.020632680218701155,0.02174663803639542
88,0.020650575465854422,0.021641638664246787
89,0.020636373376010472,0.02195796640335626
90,0.020614758031315933,0.021802785896485852
91,0.020579752333865428,0.02197578755986158
92,0.02059381586855705,0.021871146292566663
93,0.020573024462544512,0.02210558630415139
94,0.020553026484055527,0.021573024674806346
95,0.02056695705549906,0.021413374907584402
96,0.020511524697969546,0.02137343730435478
97,0.020519945463426077,0.021583210438415962
98,0.02048071313793525,0.02146797816155862
99,0.020433759934700986,0.02134378615018008
100,0.020423694159073618,0.021306309445065542
101,0.020415010016391674,0.021796833132174117
102,0.02041410754168202,0.021382718203270406
