epoch,loss,val_loss
0,0.37919939811713954,0.37334181283307133
1,0.37364670742141964,0.3725408517988976
2,0.3730080247081542,0.3736235615337457
3,0.3727351904473107,0.3723509516668675
4,0.3726095810576547,0.3730598845345802
5,0.3723930255961209,0.37229745006442955
6,0.37227836301507206,0.3720048150856501
7,0.37214194444208076,0.3719016546794853
8,0.3720544754931895,0.37230590040571343
9,0.37193703771132897,0.37561298798094905
10,0.3719913490580329,0.3727437267824083
11,0.37186658180515203,0.37172956281796876
12,0.37180299714997067,0.37268404388250254
13,0.37180134272055065,0.3715482174019068
14,0.3718126559820415,0.37163514395801367
15,0.3717062355560572,0.37172585011415976
16,0.37177998780947064,0.3724228039716668
17,0.3717218981884583,0.3714186912434864
18,0.3717037196044099,0.371773994560573
19,0.3716779143106069,0.3714148385057378
20,0.37161834358189283,0.371609325562754
21,0.3716057692078032,0.37360118930748026
22,0.3716671903238685,0.37259236445497934
23,0.3716924221478801,0.37168383172368885
24,0.37162006214107035,0.37196281061278974
25,0.3715415185233116,0.3715755687901755
26,0.3715533223554589,0.3718508184547756
27,0.3715069674419765,0.3742238164243864
28,0.37152432143949304,0.37191586834621193
29,0.37153524280365896,0.3714403324624149
30,0.3714747493846154,0.3714756412482439
31,0.37155063777286007,0.3714538263328022
32,0.37150221727970373,0.37177563000553593
33,0.37147272632396267,0.37232119263549596
34,0.3714695131913922,0.3716948383055609
35,0.37142680967275804,0.3715764671342249
36,0.3714938586482448,0.37138971665656895
37,0.37143424094875777,0.37186702528307514
38,0.37148160560646243,0.3714642714034239
39,0.3714196808871161,0.3714330187358572
40,0.37149604530870306,0.3714485531705189
41,0.3714481879102756,0.3717226757009331
42,0.37146025886251477,0.37184917310035553
43,0.371447766218911,0.37158134161094875
44,0.37134123455829543,0.3713514608721579
45,0.37142109958864983,0.37167511830850514
46,0.3714045027537611,0.3716122784478493
47,0.371470414313582,0.3713036454049293
48,0.3714513134691156,0.37133312907171606
49,0.37140683695703325,0.3713477174046613
50,0.3713469373563923,0.372458301717531
51,0.37134409426429604,0.3719013877749147
52,0.37138787994749395,0.3713185852277959
53,0.37137340417293024,0.37153460804936905
54,0.3713937673723999,0.37130882595076453
55,0.37136277666342576,0.3713182103693042
56,0.3713244130335929,0.3715566105049834
57,0.37141177291910255,0.3713144606455384
58,0.37138420516704596,0.3719862514630737
59,0.37134450226909765,0.37190525800951063
60,0.3713332268110132,0.37131321171377196
61,0.3713758807652075,0.371304825650847
62,0.37134096148294543,0.37206605162573214
63,0.37135578088722765,0.3712993015278658
64,0.3713956271665269,0.37365324427708796
65,0.3713284077781257,0.3713016547429059
66,0.3713665738968247,0.37164497548534026
67,0.37139134320051487,0.37129788067441427
68,0.3713496485867897,0.37181742902724974
69,0.37133349615047306,0.37224186774223084
70,0.3713067183885227,0.37134738497935216
71,0.3713690555068379,0.3716978900633734
72,0.37146493058055974,0.37245432318883853
73,0.3713330229170763,0.37127839869660123
74,0.3713893726012735,0.3713890139281602
75,0.3712867171345727,0.3713291658065455
76,0.37132361421413307,0.37324269350350053
77,0.37131851507822544,0.37207650333716913
78,0.3713122987348519,0.37288076637992196
79,0.3713071976809086,0.37124383805999095
80,0.3713751915901013,0.37173110765795553
81,0.371364926590523,0.3714547100788902
82,0.37135749331681595,0.37136044006785446
83,0.3713023898651575,0.3737957694986026
84,0.3713679809110804,0.3723834346748759
85,0.37136414652071975,0.3712944474468752
86,0.3713436274515661,0.37150838037874206
87,0.3713510727884278,0.37328378250522
88,0.37128209954591623,0.37168768128153706
89,0.37131272119492953,0.371399804794463
90,0.3713492914176246,0.37163912963038936
91,0.3713294649534021,0.3716426317656306
92,0.3713198009525347,0.3713220712860524
93,0.37131330353548797,0.37215930893462584
94,0.3713399321611915,0.37122348706716346
95,0.3712793073348141,0.37185082377925993
96,0.3713008145520469,0.3712807346218573
97,0.3713021393905232,0.3713077861085423
98,0.37130811364490024,0.37272645869562704
99,0.3713839886573802,0.3722241068744186
100,0.3712829283727938,0.3712965622433362
101,0.3713166634307213,0.37128592590540277
102,0.3713326501472567,0.37210035443897577
103,0.3713338936543941,0.37122835942888377
104,0.3713105700419933,0.37130378974282713
105,0.37132195530535234,0.372190941489364
106,0.3712868386003052,0.3714642570421063
107,0.3713149300979755,0.3736971950412684
108,0.3713060099182853,0.3737963867542466
109,0.3713406968405629,0.37185535698611444
110,0.3713290037109822,0.37163670524474113
111,0.3712609986229112,0.3717441619625754
112,0.37127583094464894,0.37144334863492334
113,0.37133272065390105,0.3715072623553406
114,0.3713161999500015,0.37153289568039677
