epoch,loss,val_loss
0,0.068213276779932,0.041591603989266875
1,0.03780070855405809,0.032673719066839954
2,0.032883970828198154,0.03371817601045071
3,0.030356100404059498,0.029213531995677475
4,0.02904142659524862,0.027736262828296526
5,0.02893237757529728,0.027165448293089867
6,0.027176603245322374,0.02694794633622205
7,0.026343403440860447,0.0262372630109858
8,0.025743661721515893,0.025303164411974013
9,0.02531931169911454,0.025658516770704805
10,0.024752666856067355,0.023932216347890813
11,0.024512153192061913,0.02462149423734278
12,0.025810809285042216,0.024229850229938923
13,0.023944211269623296,0.024136567666719923
14,0.023706007396605815,0.024782730358890802
15,0.02341147548172989,0.023210465913596875
16,0.02320553429700951,0.024876309299920095
17,0.023044868867703194,0.023419269979480774
18,0.02290511172241593,0.022645658657657303
19,0.02272090499009337,0.02290462695210063
20,0.022546944212399632,0.022606889011509364
21,0.022389629737624973,0.02305676848546743
22,0.022182908163034306,0.022204792272142383
23,0.022039979310117766,0.021917257164940054
24,0.02188022359048045,0.02279469004413922
25,0.02162502800190119,0.021884080780572985
26,0.021494131011423494,0.022057942837180926
27,0.02127244935588193,0.021041066024831447
28,0.021000175730620192,0.02119739565989072
29,0.020841706039138264,0.02149650172489896
30,0.02060721164275642,0.02129746261642086
31,0.02051619485302545,0.021173934658836786
32,0.020454559234590896,0.02024831336185743
33,0.020340915628384876,0.02049088891937626
34,0.02030296233707709,0.02043126554554213
35,0.020194476650968216,0.021577752791992193
36,0.020134702016977757,0.02008089182376122
37,0.020116390735097325,0.021409998860940447
38,0.020107133003683553,0.020279144755479123
39,0.020038604876887443,0.020287839654213737
40,0.019962106359122548,0.020327277780133796
41,0.02004082681417252,0.020239035465359392
42,0.01985541257334171,0.020177249578070405
43,0.01976690529279979,0.020108116016013748
44,0.01979844886754616,0.020380816286055384
45,0.01969334480785113,0.020218429647885245
46,0.019620976358238177,0.020030058221544876
47,0.019573122143126783,0.02025906024200301
48,0.01959981257545195,0.02001822276997655
49,0.019520746736033844,0.021138295997165272
50,0.019499068620436887,0.019993233453325245
51,0.01945476334009725,0.020467330603201692
52,0.019455027960713054,0.019637363437313596
53,0.019367058834939114,0.020878255488374096
54,0.019328153863250663,0.0196240332855776
55,0.019288118746710412,0.02003273080304154
56,0.01924498887471252,0.019312045236046498
57,0.019187212605716365,0.01989249592790237
58,0.01921682998571444,0.019488573495862502
59,0.01916981517403931,0.019481032394408883
60,0.01909572831517546,0.01992926136879412
61,0.01906989238474107,0.019387402305975743
62,0.01899800889571269,0.019473985307121987
63,0.01899173166557739,0.0197582515183069
64,0.01898898143238498,0.02061764478738935
65,0.01892706935334437,0.01928865441280618
66,0.018897926092942177,0.019579082950210158
67,0.018861771447084136,0.0190738040916899
68,0.018812196679882473,0.01962248204326807
69,0.01889432565169719,0.01934489775772574
70,0.018688819664225833,0.018917588077984732
71,0.018749566814950554,0.01986383696227674
72,0.01871458229203906,0.019330165877235735
73,0.018578139048545626,0.019339263866246487
74,0.01860972316717375,0.019306327676673236
75,0.018566986129160266,0.01919601979404318
76,0.01852607169588384,0.01941915248282642
77,0.01854977983965545,0.018855631678704885
78,0.018516465738397773,0.019559389602383667
79,0.01849126332271351,0.01902161413161246
80,0.018455265346830275,0.019278830646655105
81,0.018449173272142152,0.018794325275101675
82,0.01840111659466905,0.0237259764030169
83,0.01847172966852205,0.019049838385902917
84,0.018368508061623965,0.021227068623190484
85,0.018333102406947487,0.018930033817147793
86,0.01831983786853648,0.018946343473627905
87,0.0183053345846506,0.018975406134542697
88,0.01826920435176699,0.01862442838051183
89,0.018244345990437286,0.01902697877242015
90,0.01825001932651716,0.018550702960926015
91,0.018166401212933746,0.01868090668217124
92,0.018149523448505542,0.01845411350742611
93,0.018119192056407062,0.018663128481128673
94,0.018082930121537645,0.019047938846513887
95,0.018034910248358484,0.01894958106611414
96,0.01803780212062692,0.01888368801299307
97,0.017963097146282147,0.021628273725879398
98,0.017918941608231185,0.01824720657197181
99,0.0178962077812997,0.018363310076832475
100,0.017932434224078496,0.01814426063067712
101,0.017865724609541958,0.01852877243484368
102,0.017828611758511102,0.018636009495511245
103,0.017847440177646612,0.018678920805713085
104,0.017806244952986584,0.01814870951100999
105,0.01774811389301901,0.01831459992336428
106,0.017768880494983232,0.018242579025606956
107,0.01775064088842077,0.018336756679948153
108,0.017747342595108167,0.01909362651389231
109,0.01766636366628634,0.017937581355755145
110,0.017695717573253354,0.018420640906092547
111,0.017695044639515083,0.017819128365304422
112,0.0176181164706164,0.0181842238672318
113,0.017671999499256796,0.018682811819664007
114,0.01763738406125279,0.01811599895062281
115,0.017625736783023902,0.018077249499615606
116,0.01762627570575308,0.01836586902403358
117,0.01758616932327203,0.01813143792171632
118,0.017582878134281436,0.018807792169950144
119,0.017546088870176623,0.020831931867722246
120,0.017572425154314394,0.017860939337065437
121,0.01753257102425216,0.01821614151760455
122,0.017574972773394273,0.018251817513525337
123,0.01748334109997438,0.017930811376451854
124,0.017513905807118632,0.01790320596775553
125,0.017468228540203638,0.01815583989319967
126,0.017500286996477002,0.01797616162404381
127,0.017434355177022142,0.01824365208114939
128,0.01746130382758724,0.018705802421009273
129,0.017492386368805322,0.018323958639249613
130,0.017454126714363263,0.018180712101699106
131,0.017396984212184812,0.018681955651816896
