epoch,loss,val_loss
0,0.32602016979428416,0.31945449202587234
1,0.3183788407338928,0.31880846325280354
2,0.3176781564851945,0.3169879215822622
3,0.317238384058962,0.3174073196374453
4,0.3167389590950411,0.3165451979370922
5,0.3167008170939743,0.31598712180743443
6,0.31630698328347223,0.3160180916709285
7,0.31627249871257807,0.31582457443916473
8,0.31613866862398354,0.3166082024722182
9,0.3159245375023551,0.3166316273786294
10,0.31595209021224746,0.3157272861849877
11,0.3159241299377197,0.3175623062378715
12,0.3157013319661989,0.31652215041830284
13,0.3157383561397807,0.31691011974296857
14,0.3156608354613672,0.3155053976747593
15,0.3157201570438336,0.3156486016497127
16,0.31554991180945574,0.31534726880028585
17,0.315603703036789,0.3157366385382991
18,0.315614829668636,0.31561222531955235
19,0.3154806391348731,0.31534154678396786
20,0.31545242985450905,0.3158203278226829
21,0.3154035437078057,0.3161638322598289
22,0.3154255981000319,0.3168705855054832
23,0.31542811231546836,0.3156044464549119
24,0.3153204720684898,0.31524764882127937
25,0.3154889368964069,0.31738273285458757
26,0.31546920234723064,0.31732683246839727
27,0.3153174456696884,0.3154891574501104
28,0.31533224930884535,0.315452836509378
29,0.31526312716515775,0.31568574744181954
30,0.3152994498279386,0.31657352176848474
31,0.3152471635080416,0.31526149993498925
32,0.3152450623723327,0.315167923615529
33,0.31522705982081056,0.3158811384927546
34,0.3152420919649487,0.3152957394016588
35,0.315259768674433,0.3154496971194265
36,0.31517582903266644,0.31614094733008674
37,0.3151975525225221,0.31511768377744237
38,0.3151266673534134,0.31581781153051786
39,0.3151422608596194,0.31666872173030086
40,0.31523232772808113,0.3152729266482606
41,0.3151234057686507,0.31523540931067456
42,0.3150903847126182,0.31600506141522977
43,0.31517926553376346,0.3154292938135398
44,0.31509770665979553,0.3168685365699361
45,0.3151415786301452,0.3153030963748619
46,0.3150794940737036,0.3151829146569775
47,0.31521928594924603,0.31780667912871313
48,0.315159659107635,0.3155277894980854
49,0.3150834743507335,0.3156710125524412
50,0.3151342961614509,0.3155857228907403
51,0.31507997713826574,0.31510425351985333
52,0.31504174420503256,0.3151885870816394
53,0.31514312374888587,0.3153738500018865
54,0.3151069178705368,0.31521241488882684
55,0.3150250733354655,0.3151818921341198
56,0.31514864960020467,0.3186510203494032
57,0.31502077217970453,0.3151748833230352
58,0.31504870230403675,0.31528317446152565
59,0.315013429525788,0.3157191642164888
60,0.31504640285416696,0.31541892983777353
61,0.3150238972628811,0.3166228805523061
62,0.3150331831295029,0.31736248080842844
63,0.31494406135290715,0.31513870973740854
64,0.3151262704284922,0.3150377845054229
65,0.3150356408624765,0.31636267826515746
66,0.3150240893496381,0.31582941296082867
67,0.3150359887388514,0.31653668893773856
68,0.31505092685625025,0.3163757839066811
69,0.3150378987367636,0.3150623224509265
70,0.31494587452452893,0.3150946220896084
71,0.3150297068765939,0.3150136123372071
72,0.3149523590324028,0.3151021145709395
73,0.3149657430396032,0.31562669076043975
74,0.3150350190379132,0.3150100848958747
75,0.3150586494184869,0.315163892374441
76,0.3149849282200549,0.31534071752510356
77,0.31497960022932087,0.31685497112960437
78,0.31498704738837563,0.3177885432988775
79,0.3149801218147286,0.3161844709522967
80,0.314990092693416,0.3183088523874212
81,0.3150059545704008,0.3157835989229141
82,0.31490941444354364,0.3149860962744682
83,0.31498659918331323,0.3149711260576698
84,0.3149557949967023,0.3155911030455795
85,0.31503790768010287,0.31622906572765513
86,0.31501298807861644,0.31512797569518647
87,0.31501530771223246,0.31546468745094375
88,0.31490365044026963,0.3169862655345027
89,0.3149409902918385,0.31503688012695785
90,0.315048059546735,0.31503536273764615
91,0.3149158693048887,0.3149170055135012
92,0.31490281634441436,0.31529802277721186
93,0.3150253496734088,0.31515266726685515
94,0.3149290551481999,0.315261530831789
95,0.31493291727494205,0.3157539395925129
96,0.31502077077282953,0.31519558493316024
97,0.31489898069271743,0.31539904849405026
98,0.3149326790113677,0.31653603506147415
99,0.3149443096180338,0.3150993692224138
100,0.315018673216034,0.31554388647931386
101,0.31488538557261925,0.31542244552086957
102,0.3149137358047435,0.3151027799244258
103,0.31496441113677626,0.3165952881275868
104,0.3148770311866335,0.31939686019130736
105,0.3150098040214632,0.31616195920974977
106,0.31494414409703725,0.31587642157639817
107,0.31480607473033495,0.3152560900517788
108,0.3149401585845549,0.3149773577898371
109,0.3149030468360593,0.31558124699604423
110,0.31504634963548056,0.31588882820186187
111,0.31485908129964596,0.31502054142892805
