epoch,loss,val_loss
0,0.4205359104779725,0.4140508985253185
1,0.4143129617953537,0.4148763190132217
2,0.41347484596290457,0.4127562564005035
3,0.4129619321991172,0.4128515295148192
4,0.4128518666723445,0.4179890620797207
5,0.3768827688375945,0.31524099575970366
6,0.3146975153545861,0.3145701723566126
7,0.3143292928528151,0.31387099852928746
8,0.31429725769394057,0.31402695912581224
9,0.3141509851300302,0.3139186468077061
10,0.31402600885425175,0.31383411669849465
11,0.31403610608546206,0.31370961524120927
12,0.3139173138990569,0.3136877012459871
13,0.31387677063249175,0.3135712379113616
14,0.31394468749841553,0.3142018268037375
15,0.31381574315114535,0.3205602123778748
16,0.3139510231074799,0.31553205159994274
17,0.31361863860142314,0.314872787578526
18,0.31363370347956354,0.31368261479562326
19,0.3136013841863626,0.31979141330009064
20,0.31362309178448605,0.31329105175458466
21,0.3136228692631609,0.313498243622981
22,0.3135457756642028,0.31917507086439106
23,0.31361952554718764,0.3176230265544011
24,0.3135163180948249,0.3134896902085534
25,0.31351692552524624,0.31351185412915705
26,0.31356180140288414,0.3146528197725121
27,0.31345368237823007,0.3136251644668153
28,0.3133852547776243,0.3133877030525255
29,0.313517276243769,0.3132926442339166
30,0.3133794763660095,0.31330522887464196
31,0.31346399527348234,0.3132951137149896
32,0.3134411907293386,0.31843145912693394
33,0.3133353346207669,0.31370209866658627
34,0.3133899070210796,0.3135597176350672
35,0.3132851638721342,0.3135287026317776
36,0.3133961999947706,0.3146716687430815
37,0.3133533998774229,0.3133090986803211
38,0.31335549437395954,0.3132337459559476
39,0.3133810810377267,0.3132872835430259
40,0.3133023914130025,0.3137701512418373
41,0.3133364894052456,0.31394252299375036
42,0.31333828697463517,0.3134574627610058
43,0.3132675781141426,0.31410268795105717
44,0.3133208228231819,0.313410857268066
45,0.31334662969700766,0.3132409549232748
46,0.31326390802091153,0.3132004808699227
47,0.31324720629593644,0.31353700841331006
48,0.31330142527480664,0.3166409171248784
49,0.313278400494573,0.31655958413190344
50,0.3133274488275018,0.31330823759287224
51,0.313286562166289,0.3135468713846751
52,0.3133323112352891,0.313389386920716
53,0.31321651203410755,0.31423966970396394
54,0.3132685794589225,0.31322932839393614
55,0.31325886660079966,0.31376738727240644
56,0.3132491763824395,0.3155607420072958
57,0.31321798380563365,0.31399119937094505
58,0.31322816569348794,0.3133258902701196
59,0.3132365443379117,0.3134384792732542
60,0.31323015200894716,0.31447345030219026
61,0.31325057344247265,0.31370842110726144
62,0.31318004569613733,0.3140530794193372
63,0.3131680300644172,0.3132268778591535
64,0.3131947629317903,0.31317392583224674
65,0.313342679826937,0.31441563240647613
66,0.3132377277943221,0.3132004477841683
67,0.31318750813439916,0.31329020955426523
68,0.3132144726273577,0.31452605007008344
69,0.31325231748671606,0.3131288689212231
70,0.3131996460052978,0.3138737775847575
71,0.3132130742973112,0.31538145774351456
72,0.3131777399033002,0.31318058665869547
73,0.313223242434313,0.313391037259445
74,0.313264821552946,0.3134173888426561
75,0.31319648954017043,0.31394247381622087
76,0.3131385250261214,0.3131470994529298
77,0.31319860316579007,0.3133084281798332
78,0.3131385442940381,0.3132860888322589
79,0.31322599898052184,0.3131619707674306
80,0.31323015884493205,0.31487337830048934
81,0.3131330248460319,0.3181529944351234
82,0.31327138995900555,0.31321893077038654
83,0.31314438641772585,0.3140129151326551
84,0.31321468274081027,0.3131682682126095
85,0.31321562053088836,0.31326364420779584
86,0.3131499263799973,0.3167961788236651
87,0.3131617598204153,0.31306873281895375
88,0.3132090113526676,0.31379547080686016
89,0.31315137312831637,0.313916975585166
90,0.3131521918096805,0.31326195621312997
91,0.31312537364552934,0.3133223013605728
92,0.3131991147693663,0.31391329923575334
93,0.31313657147148455,0.3134011839962479
94,0.3132005769463754,0.31520177581470005
95,0.31313983781012017,0.3133989100272839
96,0.31319692255279685,0.31341726240094187
97,0.3131985010085989,0.31344389877011697
98,0.313194653072481,0.31605940203808675
99,0.3131168931992815,0.315869096653633
100,0.31312430914401146,0.313602562858804
101,0.3132502536333926,0.3151318742826618
102,0.31315308361304883,0.3133245410309832
103,0.313117104628105,0.31362515182116485
104,0.3131647365254089,0.3131856528316479
105,0.3132417718268105,0.3138027902276581
106,0.31313660805851795,0.31660647935074554
107,0.31309281041155773,0.31397515661071607
