epoch,loss,val_loss
0,0.684072980626924,0.6804500390518984
1,0.6798799375417702,0.6791272620705162
2,0.6792119092186912,0.6797174732679173
3,0.678880162405265,0.6786526483282558
4,0.6786672578088814,0.6791537036375136
5,0.6786492712417788,0.6786003508875447
6,0.6785132542414842,0.6801929284561953
7,0.6785244742469209,0.6782210889584374
8,0.6783518185867775,0.6782876339503021
9,0.6782981031555759,0.6791642843641655
10,0.6782806428607036,0.6780278747194163
11,0.678251871128111,0.678523082650329
12,0.6782303442434201,0.6782077601174858
13,0.6781079585637314,0.6782197261566559
14,0.678189915636578,0.6781203295693504
15,0.6780965509434046,0.6780397299501499
16,0.6781126844916253,0.67818948610249
17,0.678034036785624,0.6795640884498805
18,0.6780551069048893,0.6780425694976787
19,0.6780090759852204,0.678142934164989
20,0.6779596586846237,0.6781194568863578
21,0.6780124991160745,0.6790571773910049
22,0.677920717660185,0.6778929897336747
23,0.6779946620224426,0.678040622215413
24,0.6779202174689802,0.6784951400815997
25,0.6779156352616333,0.6779469928729623
26,0.6779333155425371,0.678403045817581
27,0.6779097225827883,0.6781102643415294
28,0.6778960175643337,0.6780435875390954
29,0.677919947137569,0.6785256280200949
30,0.677835627543308,0.6778760683743593
31,0.6778800441103662,0.6786303211974151
32,0.6778945567855225,0.677995693032854
33,0.6778359874240698,0.6784653297133244
34,0.6778446773949101,0.6787049965290515
35,0.6778852813196,0.6789160056977946
36,0.6778785680693077,0.6779307731032076
37,0.6778183845508736,0.6780266806150489
38,0.67784921204854,0.6780074069872684
39,0.677802138281475,0.6783148167446884
40,0.6778171229093655,0.6780755173479653
41,0.6778495552495304,0.6778929875447199
42,0.6777926873139076,0.6787547375073208
43,0.6778078234819988,0.6779033734248234
44,0.6778046456672372,0.6777820057963615
45,0.6777698312963598,0.6782529361194771
46,0.6778139734726971,0.6778318427040915
47,0.6778116230258754,0.6799852738901049
48,0.6778015848285927,0.6778135722683322
49,0.6778504524745147,0.6782729635167655
50,0.6778122708391713,0.6783058750126557
51,0.6777984813529971,0.6778281454708677
52,0.677824625410632,0.6778800263889966
53,0.6777474238364807,0.6779211037803821
54,0.6777687181012684,0.6777666380920127
55,0.6777886749512922,0.6778507776946643
56,0.6777538324192495,0.6777830284523313
57,0.6777277773934939,0.6779908415401544
58,0.6777721136144597,0.6780223518388148
59,0.6777284075046971,0.6778802482425131
60,0.6777409407417925,0.6783256833961525
61,0.6777258120865007,0.6778466738778959
62,0.6777306439753152,0.6778450197380766
63,0.6777587135790598,0.677854083400802
64,0.6777573222187045,0.6779581763608284
65,0.6776767231711238,0.6778082625445894
66,0.6776984941602673,0.677823671809497
67,0.6777576482871361,0.6778643876979724
68,0.677671060180057,0.6778411863755351
69,0.6777651404303001,0.6780319589243338
70,0.6777468401265165,0.6778683856166622
71,0.6777755792631517,0.6777486944612735
72,0.6776987297398539,0.6778799832310926
73,0.6777156319979635,0.6811654090881347
74,0.677682745665104,0.6778610515831126
75,0.6777178637939859,0.6795864969270106
76,0.6776707901799536,0.6781988874262674
77,0.6777228994260711,0.6789424115611661
78,0.6777118246360109,0.6781438997602345
79,0.6776935003076768,0.6779650110169025
80,0.6777026956649441,0.6778941151817738
81,0.6776929439842488,0.6781272401584881
82,0.6777047962054822,0.6779205083847046
83,0.6777083428684042,0.6777934579932069
84,0.6776741945548405,0.6793956977853705
85,0.6776687085649807,0.6778938910801416
86,0.6777746180744583,0.6788920848600326
87,0.6776714065371489,0.6777364481471608
88,0.6776809288889319,0.6777078480637695
89,0.6776548013548805,0.6777083104656588
90,0.6776334818483805,0.6777780618916078
91,0.6776661135885282,0.6787649192230282
92,0.6776354863285802,0.6781652379272594
93,0.677699737106548,0.6777654416507882
94,0.6777494457986901,0.6782749051195812
95,0.67764983625271,0.6777477150815296
96,0.6776515097027491,0.6782778954979208
97,0.6776925884704397,0.6779320455958174
98,0.6777157949761724,0.6778495016523981
99,0.6776274797440307,0.6779448164899651
100,0.6777410451668646,0.6782611585136679
101,0.6776572835186511,0.6777553508654421
102,0.6776287540257213,0.6777992797548659
103,0.6776490068393388,0.6783931668579727
104,0.6776319638298314,0.6777570038516232
105,0.67769775647499,0.6777246265790007
106,0.6776793446545691,0.6778420069377417
107,0.677578574270643,0.6779446181529213
108,0.677640495833099,0.6780597164080693
