epoch,loss,val_loss
0,0.7070330721914774,0.7006201883699403
1,0.7006513688195791,0.7009784403864858
2,0.7005422291463368,0.7004371462625546
3,0.7004946911523205,0.7011180890405149
4,0.6297200280177637,0.6005418516566084
5,0.6006121363953911,0.6004643581049613
6,0.6005388759968464,0.6004285796996086
7,0.6004864526503981,0.6005635207107581
8,0.6004651847332599,0.6003686795163687
9,0.6004548842876882,0.6003569567765551
10,0.6005564217036657,0.6003518221396075
11,0.6004102174885603,0.6003571826530154
12,0.6004253059712003,0.6003382182594564
13,0.6004083910445104,0.6003162453547305
14,0.6003983693913206,0.6004380285296191
15,0.6003777833940416,0.600333112848012
16,0.6003834383232847,0.6006324729907602
17,0.6003726186931037,0.6003158688841032
18,0.60036897780308,0.6003066489477608
19,0.6003670528052059,0.6003008595471346
20,0.6003652584333313,0.6003692730780571
21,0.6003521237368493,0.6005044100302325
22,0.6003489703662949,0.6003354951110726
23,0.6003327046120518,0.6003793076900927
24,0.6003553061473237,0.600292007591825
25,0.6003308433404495,0.6004768370990422
26,0.6003392101922868,0.6003477283210376
27,0.6003196817098746,0.600281257280345
28,0.6003229967752146,0.6003688157640084
29,0.6003196191218817,0.6003105500199954
30,0.6003161653955384,0.6007062798989914
31,0.6003155715862074,0.6007756779862397
32,0.6003111811272102,0.600300406403932
33,0.6003228012980741,0.6006893378037673
34,0.6003235263936539,0.6002607720957205
35,0.6003235331744209,0.600347518003904
36,0.6003120713395121,0.6002715474322771
37,0.6003070980437836,0.6002827561522832
38,0.6003026154914649,0.6003344801460248
39,0.6003045303962827,0.6002904642900225
40,0.6003171712374278,0.6002606957189498
41,0.6003067576273566,0.6003960322209683
42,0.6003015355951766,0.6004726580591415
43,0.6003015013411025,0.60036519268902
44,0.6003006028547819,0.6003392735426835
45,0.6002999434701658,0.6002787825783192
46,0.6002968669953693,0.6002653200336485
47,0.6003049433399374,0.6002877288065832
48,0.6002890323509056,0.6004227139813728
49,0.6003021415469396,0.6002770865229756
50,0.6002932397355075,0.600255591283661
51,0.6002927765742632,0.6002619585979073
52,0.6002883435067128,0.6002672646240916
53,0.6002935802260844,0.6002542559325547
54,0.6002895046720226,0.6002988764725016
55,0.600290649845419,0.6003628601803082
56,0.6003024544813822,0.600414019926606
57,0.6002947304014402,0.6004432958349697
58,0.6002877879200503,0.6002688078667331
59,0.6002961230483741,0.6002608900330498
60,0.600286730880058,0.600310449239338
61,0.6002902322689765,0.6002683770567844
62,0.6002936824984445,0.6002642951591435
63,0.6002890992261796,0.600272835129248
64,0.6002901129011324,0.6002590377336696
65,0.6002875267067038,0.6002671888389304
66,0.6002850356607281,0.6004687359847738
67,0.6002943270877996,0.6002482178193463
68,0.6002874118698888,0.6002864307860287
69,0.6002915885280562,0.6003005947131969
70,0.6002869197807381,0.6003399417654752
71,0.6002856894438756,0.6003623744098483
72,0.6002959633225037,0.6002961585006998
73,0.6002883604097227,0.6002511430023326
74,0.6002920149078209,0.6002482673666317
75,0.6002900614458714,0.6003152957033578
76,0.6002891255872391,0.6004820424628908
77,0.6002876679195661,0.6002629973160718
78,0.6002882594239414,0.6004618114632353
79,0.600288285421351,0.6003104661297858
80,0.6002854807948825,0.6002476709947988
81,0.6003048037086756,0.6002734416471818
82,0.6002908394063482,0.6002750485765727
83,0.600291280268998,0.6004326943428285
84,0.6002924943157701,0.6005004329361927
85,0.6002907388591553,0.600265924451369
86,0.6002870465414796,0.6002534434753967
87,0.6002813991676327,0.6003183355106609
88,0.6002915731261863,0.6002898645755966
89,0.6002971257720257,0.6002841948279671
90,0.6002900601056523,0.6002651919797988
91,0.60028883349127,0.6004721774356833
92,0.6002868613703791,0.6002775770558909
93,0.6002893735656267,0.6003643913245379
94,0.6002865816810994,0.6002608898851475
95,0.6002869516131097,0.6002724089338525
96,0.6002953210144395,0.6002744416740928
97,0.600284024529746,0.6005201033859632
98,0.6002869356030534,0.6005202388349301
99,0.6002866132192382,0.6003492218389109
100,0.6002904805486964,0.6002695441837642
