epoch,loss,val_loss
0,0.5570919480287632,0.5523587179243121
1,0.5510177800526975,0.5515061388832168
2,0.550793599346263,0.550932164967208
3,0.5507545451052623,0.5514418588678535
4,0.5506932091877659,0.5507636729304312
5,0.5506045716609466,0.5504398016716647
6,0.5505565327697244,0.5504381974340964
7,0.550528464743636,0.5503961494779468
8,0.5505077509569836,0.5503729004126329
9,0.5504567280755452,0.550363534526257
10,0.5504527991070544,0.5503591328341672
11,0.550434002142072,0.5516064560442941
12,0.5504182892538231,0.5506277527761815
13,0.5504092031342686,0.5508438152060023
14,0.5504030199331158,0.5503673185189959
15,0.5503825824863786,0.5503089540649585
16,0.5503780832164248,0.5503232392424685
17,0.5503621438879523,0.5503198959987158
18,0.5503978941782018,0.5503449582284496
19,0.5503606031661399,0.5504064672933915
20,0.550358966357169,0.5502979822253471
21,0.5503432424963203,0.5503439579353143
22,0.5503619961806678,0.5503020771975553
23,0.5503465956699488,0.5503174296088017
24,0.550345134912436,0.5503531841131357
25,0.5503480399764503,0.5504501361704938
26,0.5503327661925533,0.5502742466796421
27,0.5503300994895336,0.5502664078553912
28,0.5503228962838708,0.5504037672177734
29,0.5503160322506528,0.5502625586081379
30,0.5503334046148499,0.5503085762632101
31,0.5503223279702547,0.5502654730534139
32,0.5503247059613782,0.5503392400280122
33,0.5503233757636032,0.5502921612327802
34,0.5503123479435271,0.5502578350805467
35,0.5503159586742836,0.5502882084834665
36,0.5502981323434233,0.5504132908863701
37,0.5503007293716179,0.5503592253914542
38,0.5502999032460824,0.5502767895054876
39,0.5502931544298947,0.5503297777388882
40,0.5502933790092724,0.5502713614598693
41,0.5503067360787799,0.550339104371982
42,0.5502944715993836,0.5502661061050282
43,0.5502938838924272,0.550282570031973
44,0.550287978118195,0.550251713284192
45,0.5502941543721381,0.5506113254106961
46,0.5502950126077127,0.5506089686459998
47,0.5502846595757004,0.5502450656062616
48,0.5502963041134663,0.550284401684186
49,0.5502771996900865,0.5504514949197509
50,0.5502908727144595,0.550258618282621
51,0.5502876763653916,0.5504519079222573
52,0.5502831458822961,0.5505272637229995
53,0.5502810136411207,0.5502598072991478
54,0.5502844550002159,0.5502339488519332
55,0.5502810754955033,0.5502237298352547
56,0.550286660751499,0.5504022908861524
57,0.5502779569722218,0.5502454870983625
58,0.5502718505879443,0.5503655542806716
59,0.5502695801417083,0.5504220701920484
60,0.5502872874967724,0.5502538786928352
61,0.550261568300408,0.5504829856953017
62,0.5502781439734036,0.5503355510773197
63,0.5502707593451517,0.5502309133633786
64,0.5502706189195399,0.5502324284749942
65,0.550263345340939,0.5502812997283179
66,0.5502674284764283,0.550267009137582
67,0.5502751947657765,0.5502707089443065
68,0.550259228064178,0.550224442251267
69,0.5502743924249877,0.5502329485883783
70,0.550274337662959,0.550274662492293
71,0.5502701183733624,0.5502508992001082
72,0.5502603032235532,0.5502217520851059
73,0.5502699469389155,0.5502332263194006
74,0.5502639897575409,0.5502651650911525
75,0.5502697403463975,0.5502467309570785
76,0.5502647888988426,0.5503289144329042
77,0.5502593363537193,0.5502431483777522
78,0.5502600143475808,0.5502966625518894
79,0.5502703086600136,0.5503863827762178
80,0.5502604913653806,0.5502226451194612
81,0.5502672340255532,0.5502618460146428
82,0.5502671513319082,0.5503135991451462
83,0.5502626418482073,0.5503088451792525
84,0.5502648385121899,0.5504588092231277
85,0.5502615310621969,0.5505441627786414
86,0.5502630293253336,0.5502724765252239
87,0.5502705069674694,0.550222557916239
88,0.5502591916274163,0.5506378206070837
89,0.5502575456648834,0.5504286170005799
90,0.5502649383210395,0.5503260933731685
91,0.5502734233945534,0.5502190961435475
92,0.5502550210905556,0.5502339124087956
93,0.5502616594920988,0.5502548551736931
94,0.5502655413083863,0.5507134110992659
95,0.5502684305603401,0.5504673815838457
96,0.5502624836108555,0.5502589186131215
97,0.5502677159672185,0.5503564266945529
98,0.5502652613966571,0.5502280026156613
99,0.5502645736000281,0.5503422888573583
100,0.550277804574565,0.5502197727080315
101,0.5502583662449569,0.5502479904934431
102,0.5502749148295936,0.5502451281689532
103,0.5502669035657154,0.5502419343361488
104,0.5502634055427267,0.5502435537780781
105,0.5502669411652097,0.5502399919938213
106,0.5502660055503252,0.550220841213728
107,0.5502688456780053,0.5503973465107806
108,0.5502687848412109,0.5502304733834846
109,0.5502654727536972,0.550290122753929
110,0.5502637492690766,0.5502371617937206
111,0.5502659134932899,0.5503879387680414
