epoch,loss,val_loss
0,0.45596258311284854,0.4535802393781932
1,0.45153069957422054,0.4512869304522095
2,0.451352806839733,0.4514723246505775
3,0.42342230761023253,0.40124558806419375
4,0.40104459556630717,0.4012093221579237
5,0.4009380570495916,0.4008667075012813
6,0.4008878350768245,0.4006980825890383
7,0.4007920711123103,0.4007443972320178
8,0.4007035529616177,0.4005739491571564
9,0.40070215586884816,0.4008155453145948
10,0.4006053553817621,0.4007965491516123
11,0.4005788383657776,0.400495781170819
12,0.400576759460824,0.40055421092374155
13,0.400578447463165,0.4007605109557916
14,0.40054531210948147,0.4004301907406847
15,0.4005427814958852,0.4004439560562446
16,0.4005154718906056,0.4006241195846728
17,0.4005239610963958,0.4004466839227132
18,0.4004938701906909,0.40081748364876874
19,0.40049779749869846,0.400546258939407
20,0.40049217532633363,0.4006159131639353
21,0.40048346516859196,0.40050301704158264
22,0.4004767658525547,0.4004704497736086
23,0.40045094906513096,0.40039106179999356
24,0.40046037700680426,0.4003881900097537
25,0.40043731059695314,0.40039807587640164
26,0.4004498071566943,0.400389868819684
27,0.40042524797040085,0.40043366152062904
28,0.40043547752240805,0.4005539347752744
29,0.4004165978645695,0.40037887730906085
30,0.40043850416337967,0.40039668535772094
31,0.4004216614203828,0.4003878980209455
32,0.4004188214047164,0.40055363411938877
33,0.4004139335674757,0.4005112921481689
34,0.40042487898735085,0.4003704615473451
35,0.4004380281947213,0.40037809135600294
36,0.4004016999659689,0.40037750297089664
37,0.4004138219033275,0.400389043302749
38,0.4004021360924945,0.40037426553648103
39,0.40039387113950725,0.400362875059284
40,0.40040207425704366,0.400332714754062
41,0.4003911105623865,0.400405022405809
42,0.4003917660004954,0.4004576328966221
43,0.4003935849068979,0.4003665856776699
44,0.40039996816236656,0.4004118474630209
45,0.40038513698087985,0.4006825560079911
46,0.4003926121192751,0.40054721765719337
47,0.40039514219962363,0.4008047344371048
48,0.4003713396229895,0.4006510321318955
49,0.4003784617698536,0.4003116198272326
50,0.4003721631974547,0.4003530593870887
51,0.4003761829947755,0.4011945956398181
52,0.4003719128928129,0.40036562537732845
53,0.40036179134124145,0.4003860489606266
54,0.40037276778375613,0.40030850584690386
55,0.400349705675385,0.4002950670997203
56,0.4003618137873468,0.40030078423526094
57,0.400360461120985,0.4003489272766019
58,0.4003487000172927,0.40049772691490043
59,0.4003463231754919,0.40066552747863693
60,0.40035036243320343,0.40035417872682105
61,0.4003584805978909,0.4004430874257762
62,0.4003458143517461,0.4003227789851631
63,0.4003436058233935,0.40057255859410495
64,0.4003421146758813,0.4005757923901229
65,0.40034333170639597,0.4004588080990699
66,0.40033565117055725,0.40028941458271394
67,0.40033190864318025,0.40033232392211704
68,0.4003490224705248,0.4003517022203867
69,0.4003431453303604,0.40029178002927795
70,0.40033562010374335,0.40029312443200765
71,0.4003374386957978,0.40028738191642477
72,0.40033591942143426,0.400322729008961
73,0.40034185193930766,0.40034658545004226
74,0.4003502330681457,0.40034435429880694
75,0.4003476768700912,0.40073507451833623
76,0.40033266109374305,0.40030208583505217
77,0.40033855932756685,0.4003294064596332
78,0.40033360561213094,0.4003071649346695
79,0.4003364636055856,0.4004303490405639
80,0.4003412849911531,0.4003194948431872
81,0.4003389429047267,0.4004031041715636
82,0.4003367876774931,0.4004396651578009
83,0.400339009884126,0.4003189230527239
84,0.40035327956786637,0.4005439923063993
85,0.4003576844087786,0.4004009995507839
86,0.40033920342587653,0.4006464071368461
87,0.4003783127444372,0.40035481106850407
88,0.40035599717554504,0.40038148503445514
89,0.40033941977619897,0.4004122356770944
90,0.400343854844612,0.40035105396441134
91,0.4003490042008701,0.4003030018830122
