epoch,loss,val_loss
0,0.3790209483342909,0.3748359849671868
1,0.3742080042685822,0.3731221270620379
2,0.37347443373711503,0.3728276215031484
3,0.3730021288112338,0.3750985361062563
4,0.3728877687422355,0.37321976446927924
5,0.37263346662453334,0.3724043502996932
6,0.372626073767226,0.3720343584754035
7,0.3723761267717803,0.3722635167851933
8,0.372346821442688,0.37256157389349737
9,0.372278426132763,0.37181522896508723
10,0.3723210127340479,0.3719243601297326
11,0.3721835352724455,0.3718288216934015
12,0.3721283628764169,0.37207115348752023
13,0.37202804566164877,0.37287542107087507
14,0.371987342148981,0.37557485252988543
15,0.37201709576438496,0.37206001064321836
16,0.37189820103268517,0.3724890718536992
17,0.37188800731871907,0.3717549559939884
18,0.37190976850470053,0.3715485610825844
19,0.37184820235626687,0.3716673589226034
20,0.3717381822368097,0.37153279864166866
21,0.3717999018947534,0.37348534055146626
22,0.3718525096814529,0.37192846783633265
23,0.3717647325472589,0.37267947192523376
24,0.3717723670553687,0.3732579241023762
25,0.3717621786450887,0.3714987906569583
26,0.3717204726221474,0.37159649024234515
27,0.3717378509092608,0.3719817704509565
28,0.37168487780637904,0.3722382680949739
29,0.37169334745948557,0.3724719399406064
30,0.37172995995824276,0.37235556895620475
31,0.3717400083400859,0.37194326546588546
32,0.37170187709784647,0.37176013106743694
33,0.3716513474675027,0.3724778744925932
34,0.37165447474559365,0.37153298316463346
35,0.3716396654071532,0.3714220163987825
36,0.371617426941481,0.37150458755623317
37,0.3715584710759216,0.37142120531711625
38,0.3716991224361481,0.37339856948509403
39,0.37155530258155917,0.37279376411260506
40,0.37352490091948287,0.37200734677444913
41,0.37183765578999783,0.371479542719815
42,0.3716725875054816,0.3718048027963851
43,0.3715857228005403,0.37214932123721384
44,0.371587360140787,0.3715268531892791
45,0.37156973102761637,0.37620704653245346
46,0.37156287371324237,0.37417285928951005
47,0.3716612919843417,0.37165794428761484
48,0.37154562117322637,0.371326907766664
49,0.37157101253300084,0.3717821161001551
50,0.3715970979534888,0.3713142539224317
51,0.3715751207477039,0.3713828033460281
52,0.37152152645171577,0.37163989422634874
53,0.37159733253717975,0.3729665753563344
54,0.37152182397995,0.37185606750897676
55,0.37156449864995506,0.37153748716077495
56,0.3715328263417804,0.3724634866116952
57,0.37154725550527684,0.37274632986366896
58,0.3715553855721981,0.37126231079657673
59,0.3715621095032237,0.3713233801922195
60,0.3715161411131743,0.3715206756929014
61,0.3715217159613712,0.3715369366830395
62,0.37146737822363224,0.372986570599653
63,0.3714689489264367,0.3720014250160151
64,0.3714949281990518,0.37207660136684295
65,0.37155918742773564,0.3724842915316078
66,0.3714939964876835,0.3714406879013289
67,0.37150580593155436,0.3720051693117648
68,0.37155822259189514,0.3713129392776537
69,0.3714848512237654,0.37143705948706596
70,0.37148768876408905,0.3713321314556131
71,0.3715093409675437,0.3719476009716763
72,0.3715146653328235,0.37180308597555234
73,0.37155062363824265,0.37130014430500435
74,0.3715212282068312,0.37130129003051493
75,0.3715026506800392,0.37134167905480925
76,0.37147785458025073,0.3715873727727469
77,0.37150111100776256,0.37154818270401685
78,0.37148508237092653,0.3712742204849537
