epoch,loss,val_loss
0,0.5917253630648224,0.5270152608051767
1,0.5298556506062011,0.5256363278594465
2,0.5286994365265043,0.5275739236148964
3,0.5287722826456661,0.5317014451796555
4,0.5300766899050188,0.5291845789789307
5,0.5341404548508943,0.5319126719739744
6,0.5362474564596903,0.5323006454281856
7,0.5342239718690669,0.529833456852724
8,0.5330046747895263,0.5326880805588371
9,0.532150956557142,0.5330619258775237
10,0.5311287184603971,0.5270332732629663
11,0.5323441162955561,0.5319489223710552
12,0.530509436397339,0.5256216489807677
13,0.5296235131821949,0.5253222383846894
14,0.528198288034478,0.5230896550082934
15,0.5285121814714824,0.5267567392541559
16,0.5279147083477246,0.5267224540932497
17,0.5269468381441087,0.5316517641437082
18,0.5256119010736235,0.5213551976451182
19,0.5262585008244435,0.5243678713465828
20,0.5255069896090422,0.5258118697481072
21,0.5252957344293404,0.5241033683259748
22,0.5238787847266589,0.5200067897339741
23,0.5239074819570155,0.521517839809055
24,0.5232128510943992,0.5210779209304439
25,0.5244289237580044,0.5204984401988532
26,0.523726552093534,0.5197973714254932
27,0.5233262163534058,0.5226552707055656
28,0.5234179128702882,0.520618557694773
29,0.5242366439266075,0.5250559057790459
30,0.5273414030730676,0.5288309172889616
31,0.5351430070962456,0.5360679964240179
32,0.5326031454437548,0.5272519405940055
33,0.5322484795352538,0.5283691749011991
34,0.5337406376854693,0.5360730074010878
35,0.5328424912300422,0.5289287941373044
36,0.5324259914821096,0.5268693247834998
37,0.5301660867594034,0.526293913774257
38,0.5298892365847465,0.5345790534858734
39,0.5301749085088809,0.5263387746903119
40,0.5302295858363548,0.5279649417044708
41,0.5312517793129959,0.529531727156116
42,0.5295533139309246,0.5273433568774948
43,0.5304265476340394,0.5244406406909533
44,0.53012248366285,0.5236292052381888
45,0.5300569319181877,0.5258143151380362
46,0.5294820152098041,0.5248286227777236
47,0.5284933261186194,0.5224310811476719
48,0.5286461848625653,0.5230503719250047
49,0.528327713660199,0.5217093298448383
50,0.528929449016337,0.5250341887773259
51,0.5287496546666018,0.527788138709486
52,0.5280605580904882,0.5217464548118865
53,0.5283977571103594,0.5252706543281498
54,0.5281249176588753,0.5307239693690212
55,0.5275313003981809,0.5243389448878703
56,0.527324755105088,0.5219823598108991
57,0.527828273501137,0.525733286739807
58,0.5275563888674636,0.5216521972403718
59,0.5263931358055912,0.5235244164150723
60,0.5262899309468212,0.5282956728713194
61,0.5264673781790417,0.5253942265883147
62,0.5264604504969861,0.5285861335030294
63,0.5259031788717738,0.5195224060020582
64,0.5247844887627877,0.5212549737051141
65,0.5255836020413635,0.5209488559399614
66,0.5250820093851486,0.5203559543546392
67,0.5245338883355176,0.521872271772624
68,0.5241284390076173,0.5235016654585889
69,0.5243467370168768,0.5271822804998204
70,0.5240836465935246,0.5226513124773046
71,0.5235268971402582,0.5189995666658587
72,0.5236555408302257,0.518870983358058
73,0.5231068780858644,0.5187822995735325
74,0.523210734784079,0.5190096290072025
75,0.522490570978295,0.5186195595817671
76,0.5229180117996095,0.527346419413069
77,0.5232061350183617,0.5198353002554992
78,0.5232477453615454,0.5228462125620883
79,0.5223794015382024,0.5193053210637846
80,0.5222722389143434,0.5200528291942759
81,0.5216056173510975,0.516762975171126
82,0.5219598580583584,0.5184464951434659
83,0.5212726530482729,0.5205421935834561
84,0.5220298190101635,0.5173927452635746
85,0.5216783512172272,0.518897244143693
86,0.5216417007928462,0.5175811645075761
87,0.5219116227732574,0.5163387207412871
88,0.5216308027672634,0.5158981578314313
89,0.521373594228884,0.5236393806025468
90,0.5214288340245696,0.5188656963507962
91,0.521302049513534,0.5197619146828399
92,0.5209437832772303,0.5187511734587994
93,0.5209934232498912,0.5189457296995826
94,0.5205652539630969,0.51836989477759
95,0.5210505921325143,0.5176849609392312
96,0.5209572325698096,0.5197429336848556
97,0.5204511820126495,0.5193502682113421
98,0.5207150572900482,0.5193805671528559
99,0.5203089898796105,0.5149528538747952
100,0.5199325311002876,0.5169141126506989
101,0.5207259775780374,0.5157321277291359
102,0.5201403466727046,0.5223531116626351
103,0.5202380933230825,0.516438938353884
104,0.5203996090818461,0.5189916086225126
105,0.5204074945714738,0.5171113878417974
106,0.5205682201160611,0.5169498572550897
107,0.5199665037943401,0.5162522762943274
108,0.5204341546189394,0.5199324563674882
109,0.5202857970262317,0.5143512792256091
110,0.5201656505477419,0.5143902511839427
111,0.5200788797043877,0.5162901791560904
112,0.5201944355532039,0.5185724466968542
113,0.5203020500360157,0.5192616101127961
114,0.5200998063782136,0.5206658136167203
115,0.5197664477246747,0.5152173265991196
116,0.5202347323191252,0.5165516348833538
117,0.5208201109886551,0.5181000168011145
118,0.5206003370140192,0.5196410872236236
119,0.5204757828649571,0.518090266078687
120,0.5210920611826731,0.52118921061153
121,0.5211414949094458,0.5194175780619236
122,0.5209447127594936,0.516946110136413
123,0.5213418428203185,0.5192012457557804
124,0.5211465999090986,0.5205103269268795
125,0.5215183003581495,0.5227388338066031
126,0.5218895638017631,0.5184808755212632
127,0.5215635622243324,0.5185765658388386
128,0.5214865541905999,0.5168199780519872
129,0.5219410918861461,0.5237878688979356
130,0.5214831609901288,0.5222973376394918
131,0.5212210182734817,0.516877672925368
132,0.5211626105695415,0.5175392254422571
133,0.5205612617859737,0.5163015815434535
134,0.5203825110178009,0.5209680797786532
135,0.5203609031548413,0.5161883058563028
136,0.5203673457213157,0.5178944482846625
137,0.5198045951380528,0.5151710930356098
138,0.5189421315082638,0.5165112007529884
139,0.5189763065293539,0.5164845089509719
140,0.5190101856355377,0.5150656551240275
141,0.5184426704923407,0.5186768933930732
142,0.5190098066028835,0.5142618999437921
143,0.5182387225514503,0.5194356135241893
144,0.5182518086178031,0.5139016795083116
145,0.518128538243681,0.517304654585252
146,0.5185378723078781,0.5180710097091257
147,0.5192938469511141,0.5169711591412726
148,0.5197360969895272,0.5168007786761332
149,0.5198310827322715,0.5162983571297556
150,0.5194509016285888,0.5184318979330296
151,0.5198492876512351,0.5172437164806059
152,0.5194569197680643,0.5157349682174147
153,0.5194888550290864,0.5216180931985519
154,0.5203771347002827,0.5237170309181183
155,0.5201287039940496,0.5150087475071013
156,0.520124253085096,0.5212290437793581
157,0.5202804734404806,0.5177734892906499
158,0.5197932276008226,0.517435555511699
159,0.5199370252118884,0.5167737346798205
160,0.5190866410756092,0.5147650502710335
161,0.5196459410930995,0.5164640522087853
162,0.5193969825331828,0.5149423277980244
163,0.519580692195778,0.517201609915415
164,0.5194912374996358,0.515089480634176
165,0.5197395434935125,0.5171543348230709
166,0.5197517850058828,0.5166763063717189
167,0.5198622471589646,0.5171020418382011
168,0.5198795127568485,0.5185307455561532
169,0.5196932854174043,0.5175699023816561
170,0.5202594164202062,0.5177321316881639
171,0.5202371228060467,0.5205089385432339
172,0.5196519458918072,0.5151968711506407
173,0.5201693017253106,0.5168952144264892
174,0.5196728983538137,0.5179823154573282
175,0.5198819327483074,0.5195989822108819
176,0.5202141005477364,0.519109187416891
177,0.5200360722059636,0.5169527247700996
178,0.5200300063970659,0.5156735884409395
179,0.5205069456716998,0.5211491087994052
180,0.520340539247012,0.5197013875303441
181,0.5207367163124702,0.5183069840273522
182,0.5202592115203063,0.5172109555661819
183,0.5201312217185442,0.5159112064736795
184,0.5201613467922218,0.5170134695007186
185,0.5200814000017446,0.5183279082214353
186,0.5205718267092602,0.5204087737609574
187,0.520987073044411,0.5175342186520959
188,0.5205566067632725,0.5172089965633266
189,0.520878062080994,0.5174691384950771
190,0.5210143278042475,0.5184512137425821
191,0.5203931216570399,0.5163126619622381
192,0.520088345312672,0.5183357379760155
193,0.5204842246050457,0.5174510040524068
194,0.5200412836339738,0.5162901346525435
195,0.5202149533682304,0.520487988263298
196,0.5202293309400217,0.5176315940593111
197,0.5200870182517049,0.517182706116501
198,0.51966021416618,0.5164843563875441
199,0.5197963842885386,0.5155996178536314
200,0.5199130987830395,0.5188170369676275
201,0.5201109186541453,0.5142096138508563
202,0.520230000467895,0.5166415102903356
203,0.5196194885541304,0.5200400771874562
204,0.5201829372883605,0.517043929097214
205,0.5197717827691926,0.5165698081607788
206,0.5195943593597717,0.5161987481008107
207,0.5200310594124569,0.5147647534474296
208,0.5196229536994565,0.5156043872131356
209,0.5200395240939016,0.5176915627299281
210,0.520154140645461,0.5166006283724317
211,0.5198899043692673,0.5180638673367609
212,0.519864479128977,0.5154108317611532
213,0.5197621388591641,0.5170134258910061
214,0.5198700577735329,0.5168883476138774
215,0.5203539091858456,0.5189104866304074
216,0.5195539419194587,0.5186868838277876
217,0.5199808443335893,0.5157794734814455
218,0.5199050038910027,0.5150332419347273
219,0.5200828935840814,0.5183964653239066
220,0.5203735263799306,0.5214771665074078
221,0.519841954231167,0.5164396416839879
222,0.5202589068505213,0.5176817199190301
223,0.5198334681806709,0.5157036377203775
224,0.5199705471428369,0.5177644582460881
225,0.5199355903527529,0.5224515607296809
226,0.519906105564462,0.5162937772631551
227,0.5199488797705236,0.5182218353816065
228,0.5202583462404881,0.5150761885866935
229,0.5198064427510154,0.5207649450558043
230,0.5198539103940427,0.5196554580352019
231,0.5196801123025415,0.5174576987548428
232,0.519863095048139,0.522140852583612
233,0.5202442410109426,0.5204991177253678
234,0.5199723628570707,0.5160922096437983
235,0.5202425382048678,0.5163011699326884
236,0.5206966959744048,0.5167906295858036
237,0.5201716139662466,0.5145419766184093
238,0.5199898321041577,0.5181435950882527
239,0.5201039375613729,0.5169135277536598
240,0.5201947913348055,0.5158761377492662
241,0.5197374327696389,0.5155969349624796
242,0.5199110846606185,0.5137679096084932
243,0.5202958612776488,0.5155415622710052
244,0.519899455727719,0.516028484422199
245,0.5199735449443904,0.5162317134445825
246,0.5198924477390058,0.5164069571218438
247,0.5197237288232425,0.5188522846471069
248,0.5196863661090628,0.5152118421955756
249,0.5200675223037589,0.5149153957897599
250,0.520317463315934,0.5194234298784712
251,0.5196378922505345,0.5178529545605982
252,0.520414224726786,0.5153015599113425
253,0.5198342366565427,0.5155533577573516
254,0.520556913469907,0.5208689561959036
255,0.5205443299216904,0.515509320603832
256,0.5200569487327962,0.5155354828795017
257,0.5198405744979898,0.5257764625662222
258,0.5198622448124188,0.515583010056683
259,0.5199975205196751,0.5203117599333
260,0.5197729341489233,0.5171116506291263
261,0.5197610541475381,0.518498799560008
262,0.5204016895626756,0.5173778425969754
263,0.5205454510821999,0.5176064993983286
264,0.5200134025489112,0.5171100951219603
265,0.5203061807546303,0.5178538582742732
266,0.5201216711819792,0.5203231714001394
267,0.5202745015291478,0.5155721362077447
268,0.5196488399943002,0.516512171621857
269,0.5199032820505108,0.5184404599497238
270,0.5198789468700651,0.5195602751333317
271,0.5198627298446201,0.5164696617726745
272,0.5200958697082136,0.5206474351572444
273,0.5202899354634335,0.5189696166726107
274,0.5199875454727313,0.5165078631751445
275,0.5201073869479169,0.5193819809872613
276,0.5199765076311372,0.5172534472799338
277,0.5197424101386424,0.5195950465401797
278,0.5197571225756173,0.5213185697676351
279,0.519778210946696,0.5167841496623776
280,0.5197304924495881,0.5184014974472179
281,0.5199713144394801,0.5210797252999391
282,0.5198888389302863,0.5165520336276072
283,0.5197209776472226,0.5170750053689154
284,0.5200311421252174,0.516813068711673
285,0.5197586454719091,0.517505981880751
286,0.5196495071875391,0.5171466320400269
287,0.5197520597184971,0.5158742635901179
288,0.5197781356070921,0.5195916660818041
289,0.5199452252339402,0.5221957343012307
290,0.5198052404381388,0.5171277390847361
291,0.5198820436434399,0.5174603532079457
292,0.5195686373946001,0.5165073875140843
293,0.5201124076386817,0.5196168642158855
294,0.5196061976712575,0.5186112369715744
295,0.520041001965102,0.5212313454030721
296,0.5198944846360232,0.5157308590252191
297,0.5197678858475339,0.5183301212379287
298,0.5195914046536628,0.5154930433374554
299,0.5194008390037276,0.522888114862585
300,0.5199324990228879,0.5189190291709193
301,0.5194455313977959,0.5189385056119316
302,0.5197677514035639,0.5200522861663244
303,0.5197132630742711,0.5147128884446085
304,0.5199098869336309,0.5209687101906835
305,0.5198623533967397,0.5160457434951553
306,0.5194108327873034,0.5189029737871843
307,0.5203632548344221,0.5183333721373528
308,0.5201562714400433,0.5153086783148307
309,0.5197764829241877,0.5156243079839584
310,0.5198400323268035,0.5188481237066008
311,0.519862924048083,0.5192491425099859
312,0.5202790758163809,0.5174983853463968
313,0.5204338632184539,0.5187455445833816
314,0.5193904392796455,0.5252015825652098
315,0.5202370976015247,0.5152246799869808
316,0.5199984727884464,0.5157368318152032
317,0.5199322259064011,0.516218891389368
318,0.51996916911299,0.5147831192285692
319,0.5198013364172859,0.5151361112483581
320,0.5197409451793995,0.5174772347299339
321,0.5201290779286246,0.5172099024410217
322,0.5195915294255761,0.5199460827796216
323,0.5201371544294601,0.515145518714834
324,0.5194504855038355,0.5200688051208324
325,0.5199444729456608,0.5163608855305456
326,0.5200159755065668,0.5163672786814638
327,0.5202261443546922,0.5175071098763075
328,0.5197240232968693,0.5148493815286947
329,0.5201078016433022,0.5152167892634821
330,0.5195732381608751,0.5189028412644658
331,0.5196099163269062,0.5187383407246153
332,0.5199516272897439,0.5170271884011959
333,0.5198637899711168,0.5187302616843108
334,0.5200917319499617,0.5147594401661392
335,0.5197978025670056,0.5160649625353674
336,0.5197927764684652,0.5166554707848565
337,0.5196072112480037,0.5208198164002389
338,0.5199841659346358,0.5193962025284862
339,0.5195305132084518,0.516293898589421
340,0.5201073748697576,0.5155949817225043
341,0.5195364557700953,0.5152450903909076
342,0.519700387053543,0.5191494872603909
343,0.5199795129011384,0.5177488010656015
344,0.520345017456894,0.5217832292782197
345,0.5200902300892021,0.5150324338378168
346,0.520116174511677,0.5164082384100088
347,0.5195859213717741,0.5167175174323988
348,0.5198795234413741,0.5156965753461963
349,0.5197480454576388,0.5153255278234323
350,0.5198696410293869,0.5192353239234452
351,0.520482204800887,0.5163420875569263
352,0.5196361563307681,0.5167474509602752
353,0.5200020397643296,0.5157652797902205
354,0.519699868812359,0.5192028072610462
355,0.5198918913098739,0.5160212429753419
356,0.5198070106984709,0.514353244861657
357,0.5196390160077291,0.5185984112704562
358,0.519768002186176,0.5184215127527949
359,0.5196650691574617,0.5154436830704666
360,0.5200573194870274,0.5216394500790756
361,0.5200451633913054,0.5175031677605886
362,0.51984530396694,0.5160264201820979
363,0.5196839216158544,0.517714049487765
364,0.5202184780348215,0.5198658943035138
365,0.519611436483576,0.5165935696206322
366,0.5201270925245888,0.5171098205266078
367,0.5200131784716575,0.521036198972809
368,0.5197514049250255,0.5179713538714817
369,0.5199375655606305,0.5166324486907486
370,0.5199732649669373,0.5168796395258162
371,0.5196108617466226,0.5169341232989281
372,0.5197759728423126,0.5161615926257813
373,0.519951322893921,0.5161384208379247
374,0.5199359840959858,0.5170389509803212
375,0.5199501915491647,0.5177545283333749
376,0.5198760956621093,0.5153049207994481
377,0.5198896366367333,0.5184959876038657
378,0.5196954229061933,0.5175193865513745
379,0.5200247819141613,0.5145153893244577
380,0.5199690471402556,0.5160414541247518
381,0.5201332300639362,0.518511222306442
382,0.5193572369315546,0.5150667125537063
383,0.5194315609338281,0.5231586208988949
384,0.5198271306608316,0.5150759922488994
385,0.520268223280434,0.5150712779072578
386,0.5194575885455195,0.517172394371823
387,0.5199139978078534,0.5155322252527973
388,0.519947650704643,0.5200495346616174
389,0.5197395405156626,0.5177691452081691
390,0.5197595112877403,0.5153190248484864
391,0.5196401461970797,0.5178114928734425
392,0.52036757431299,0.5183054748819678
393,0.5201542965895075,0.5152332457201445
394,0.5196955824355713,0.5157699349976564
395,0.5198662390263914,0.5164529158783034
396,0.5195275166814181,0.5160907747572392
397,0.5198736407345147,0.5157770583172341
398,0.519846136204535,0.517062666572354
399,0.5199878545616456,0.5176336881487785
400,0.5200040801990328,0.5157911807839666
401,0.5198816599772512,0.5233545071888648
402,0.5199015516218998,0.5176706838391386
403,0.5195360024103063,0.5192514929888092
404,0.5193139636973969,0.5150439490600186
405,0.5198569230133776,0.5164024777880972
406,0.5196297715226714,0.5180423943283243
407,0.5200589991135182,0.5166484448226681
408,0.5200091091801318,0.5136967753225551
409,0.5193607342495716,0.5156188156535142
410,0.5195079755773552,0.5151282682038708
411,0.5191107561810315,0.5159062094216095
412,0.5198594712310558,0.5162585408036504
413,0.5192286566221457,0.5156420834109646
414,0.5196442696854746,0.5165880276823759
415,0.5194153486252975,0.516386039772651
416,0.5195400740245549,0.5172212986656315
417,0.5201071846208793,0.5158010764016631
418,0.5201802761506119,0.51660895008879
419,0.5196501973936026,0.5160832022388054
420,0.519751335707881,0.518871517471187
421,0.519828292748911,0.517506732537037
422,0.519883566730314,0.5204061999646528
423,0.5196281489160517,0.5200216178830063
424,0.520083188081531,0.5148437429387078
425,0.5200180909830889,0.5173773478360842
426,0.5194666354800109,0.5177125076233353
427,0.5194444298672733,0.5175521847481039
428,0.5194799714832664,0.5175396990333849
429,0.519622993662203,0.5184295012335562
430,0.5199574481526152,0.5193938529434972
431,0.5199449524986182,0.5148734884555639
432,0.5196639593485162,0.5174660177426538
433,0.5200583978975228,0.5185346696775733
434,0.5199528055892383,0.5168804906679122
435,0.5200369825823415,0.5164387601750425
436,0.5192737701199324,0.5156742734944811
437,0.5193908231125938,0.5160363581393211
438,0.5199179180282102,0.5153139277810456
439,0.5193879780509203,0.5140553823868497
440,0.5194341031719836,0.5147760300863984
441,0.5194878605820483,0.5152977196692291
442,0.5199423713101853,0.5179538015267373
443,0.5196105499299977,0.5163765676678309
444,0.5196437623074872,0.5163618731000053
445,0.5194547754421318,0.5189757139643253
446,0.5199962113734534,0.5139984416510048
447,0.5195020456060613,0.5161149570955097
448,0.5197032546992306,0.5162039057137746
449,0.5195168637209754,0.5172190300432264
450,0.5194852668628228,0.5145781797598739
451,0.5198926532225643,0.516356202967071
452,0.5192362103316424,0.5156309556895198
453,0.5198534146773157,0.5156439923355687
454,0.519884564631658,0.5152532452660089
455,0.5196980452485126,0.5212660765873699
456,0.5199931944302804,0.5138417535770946
457,0.5196670052363909,0.517472559293613
458,0.5197660785427483,0.5173519265491754
459,0.5195873809351529,0.5187021353250427
460,0.5199346445042262,0.5177139538004347
461,0.5194724961269579,0.5200464148030285
462,0.5197583417669475,0.5170795420727207
463,0.5197168911913698,0.5168912542694275
464,0.5193533321126378,0.5179737595328215
465,0.5194061667584687,0.5192217491890562
466,0.5193089474734071,0.5154796742085124
467,0.5196372019015342,0.5183441182150085
468,0.5197287873446131,0.5182574273049596
469,0.5197746439827241,0.5163954251520071
470,0.5194237591098729,0.5165831250474504
471,0.519412868469358,0.5172884880837815
472,0.5198361528910798,0.5170623174359127
473,0.5196620152413035,0.5157207548618317
474,0.5194642114982331,0.5158380476997514
475,0.5197798638201827,0.5165666325551465
476,0.5197447098011403,0.5173355278859669
477,0.5196386987237717,0.516422721350767
478,0.5201403618954735,0.5157004849075236
479,0.5193864843852037,0.5171654501484432
480,0.5201367766117687,0.5163624218908369
481,0.5200473057161228,0.5160615948023717
482,0.5197965963829241,0.5176675917599836
483,0.520049685649544,0.5151434888873593
484,0.5194920934528279,0.5161715661952508
485,0.5194970132897703,0.5172878740430349
486,0.5195586788568566,0.5162726951896816
487,0.519690151897361,0.5195877553914228
488,0.5202069833553095,0.5182288754804922
489,0.5195132874899345,0.5192002075200205
490,0.5193682771554287,0.5189058818540521
491,0.5194113097078413,0.5213099022549537
492,0.5192946534124401,0.5175634798047669
493,0.5188446749719403,0.5160531836790463
494,0.5194171621954794,0.5263846208941965
495,0.5191522768671087,0.5143426736462464
496,0.5187690946862376,0.5172844903856728
497,0.5190387858237199,0.5182776989058048
498,0.5188824461637546,0.5172834633228435
499,0.5188321930875214,0.5174096502369562
500,0.5192837055138261,0.5173802775901984
501,0.5192275832382609,0.5219566402655468
502,0.519024555607856,0.5173817293420022
503,0.5189417878405558,0.5178816943019982
504,0.5185920807550088,0.5159750817418569
505,0.5190470158386764,0.515265200772244
506,0.5190373205547806,0.5232963413823375
507,0.5190101577985964,0.5213521704865707
508,0.5193909945176374,0.515474708534736
