epoch,loss,val_loss
0,0.6560146009946402,0.6518809804324595
1,0.6485358602417227,0.604788261807228
2,0.8088144890401172,0.7517764306842704
3,0.7644297027708262,0.8009000776664821
4,0.9339866856807973,0.9502396044304054
5,0.9502327002621072,0.9502471848359199
6,0.9502114172157777,0.9501827932244655
7,0.9502006089690423,0.9501620918034334
8,0.9502779689531309,0.9501759246812844
9,0.9501731549316973,0.9501663747904545
10,0.9501489108178641,0.9501938277650527
11,0.9501631780472359,0.9501371763425345
12,0.9501471542534787,0.9502925864331057
13,0.9501663989082771,0.9503322200669511
14,0.9501317064201136,0.9501144603233177
15,0.9501247029147786,0.9501673126241528
16,0.9501228757368323,0.9501246430532353
17,0.950115387870745,0.9500987634822379
18,0.9501123617097172,0.9501053497008299
19,0.9501101156987782,0.9501297829055362
20,0.9501094395431704,0.9501120754702045
21,0.9501054897899762,0.950102351744326
