epoch,loss,val_loss
0,0.5471730066006623,0.45630183913451405
1,0.6643987545384051,0.6531440607371625
2,0.6524060861251281,0.6522591517750415
3,0.6517201443005377,0.6514422510689509
4,0.6514372874725487,0.6513296362188329
5,0.6210353029447346,0.601591360825517
6,0.6134352918768491,0.6020700553115899
7,0.6026279937852055,0.6018689676269721
8,0.6014572618803198,0.601341753081138
9,0.6014432893473992,0.6012342922721985
10,0.6013103907214338,0.6011332268040578
11,0.6012258895304394,0.601264519839698
12,0.6012642380254583,0.6011212249824087
13,0.6011241376839751,0.6021859747219677
14,0.6010818873057929,0.6011657474418471
15,0.6010708976168347,0.6010636630485374
16,1.5076032427824488,0.6512758316256535
17,0.6511153361916552,0.6513520640306139
18,0.6510311820080986,0.6511730086014008
19,0.6509825117410862,0.6509214580503933
20,0.6509561989918677,0.6509452845078338
