epoch,loss,val_loss
0,0.36904084673314497,0.353592250807921
1,0.35334156139538064,0.3526128860282504
2,0.522405356647747,0.5056905096601793
3,0.505369881117882,0.503388270458873
4,0.5030462323356816,0.5029002813255861
5,0.5024711254361998,0.5021914462021311
6,0.5048592963360957,0.5022932417017516
7,0.5022373932066752,0.5030972919275557
8,0.5020537364133992,0.5016683788834932
9,0.5019194193371371,0.5029876294477943
10,0.5033680060221287,0.5016518482494415
11,0.5017475913864857,0.5015512379517872
12,0.5017133088281059,0.502310891856234
13,0.5016052581317274,0.5014971288467411
14,0.5015371372568528,0.5013651812864104
15,0.5014557715887709,0.5013748556162528
16,0.5017548141003088,0.502486081881165
17,0.5701774661700655,0.6013376948917519
18,0.6012238420582192,0.6011013702843063
19,0.6011652627622598,0.6011481939591509
20,0.6011101799292612,0.6011239703551198
21,0.6010660690726705,0.6019259890251847
