epoch,loss,val_loss
0,0.6751064692398988,0.652931376598327
1,0.6516978772749055,0.6513106775308424
2,0.6514394066232125,0.6513243033495217
3,0.6512972111181419,0.6520562967374549
4,1.0092264810001568,0.9009247412516121
5,0.900580558705816,0.9006368296949451
6,0.9004745408990739,0.9004195742244018
7,0.9004976966328901,0.9003860283763102
8,0.9003792517244861,0.9005074368803695
9,0.9003702998326965,0.9002976247256042
10,0.9003050909511885,0.9003549872721417
11,0.9002904308766967,0.9002584726238356
12,0.9009049114362224,0.9003312662799945
13,0.9002790565816561,0.9002611957004151
14,0.9002666889544865,0.900255615803596
15,0.9002627862833098,0.9002740052847402
16,0.9002599964923422,0.9002549942853206
17,0.914796233655988,1.0000024645957413
18,1.0000002555718688,1.0
19,1.0,1.0
20,1.0,1.0
21,1.0,1.0
