epoch,loss,val_loss
0,0.08822447957509381,0.06118071553271754
1,0.05946848719106829,0.0574750490711429
2,0.05482824516286566,0.05283088353976468
3,0.05253299491658669,0.051085484309817984
4,0.05080314565407087,0.050261572893719
5,0.04948866648649089,0.048121463817411024
6,0.04908258023826972,0.049155046814028866
7,0.04784403165065853,0.047993512355632414
8,0.047361502296552574,0.04747199392774729
9,0.046450944537536745,0.0464803141075748
10,0.0460064371210752,0.046372418905205624
11,0.04546336990365953,0.04633186851421509
12,0.045111913198844444,0.045260351242481886
13,0.04449416052305327,0.04489649733303983
14,0.044188825284036296,0.043791479802024455
15,0.0437932883635234,0.04487496757430535
16,0.04337570906926605,0.044056946527238294
17,0.04316919921410408,0.043331724305663656
18,0.04306088810226691,0.04392618953924918
19,0.04283207706779764,0.044094775527554766
20,0.04276859779269904,0.0438506137950907
21,0.04231959564832464,0.042807097407435026
22,0.04227730504949496,0.042997375703763586
23,0.042279635789336564,0.04274388464611117
24,0.041761421126599384,0.04304718089993816
25,0.041691280332730396,0.042668601342861295
26,0.041400018345392524,0.04280180524225952
27,0.04124677561589462,0.04253187994562162
28,0.04137826814568279,0.04165511182690539
29,0.04094357441467682,0.04193490888933464
30,0.040937609866817486,0.04158447535801132
31,0.04074335909653055,0.041000184966276394
32,0.0406815220179977,0.043148000359450024
33,0.04047154164601512,0.04235474470108321
34,0.04053910315317094,0.040980925662089565
35,0.0401645417808457,0.041018630823865
36,0.04002484044295605,0.041412616105552316
37,0.039576494953646665,0.04080445040106106
38,0.03932590686950814,0.039726581203956696
39,0.03910650324641369,0.04008816467097885
40,0.03889241713903039,0.03963678749241213
41,0.03868597161319106,0.041214245089032646
42,0.038498693036593284,0.03931325226661297
43,0.038427861052869626,0.039113459344293666
44,0.0383635371217666,0.03902565777181694
45,0.03813496655493769,0.040284760712089994
46,0.03810016035436261,0.0395052221031173
47,0.03802530529813261,0.03871434958992126
48,0.03783285873252337,0.038373822404158354
49,0.037740487574693296,0.038515248364738304
50,0.03759140010038185,0.037991749870518246
51,0.03748616795157589,0.03939862210615317
52,0.037518535031324796,0.03831048871258743
53,0.03739228619698476,0.040243415923057635
54,0.03723998974100347,0.038343837495514024
55,0.04771890968950637,0.04228013239807438
56,0.037671201454541,0.03819444694118366
57,0.03708088269405,0.038213971108955413
58,0.03719775504530325,0.03820161926486894
59,0.037014939312400796,0.038168723149822927
60,0.036992307929309,0.03856085885667542
61,0.03692497089813814,0.038013291640607384
62,0.036937493334701144,0.038200565782263676
63,0.036786239952287955,0.037998626177383026
64,0.03665636536507827,0.03901632213783142
65,0.03670315180546141,0.03779159923425284
66,0.03657602360823285,0.037491369156715026
67,0.0365658134803994,0.03788457014514389
68,0.03643775884512975,0.037648605341758776
69,0.036461254297285674,0.03913458187369121
70,0.03629967909075637,0.037687224176680835
71,0.03619405948152606,0.03797737125361157
72,0.03617702821710239,0.03721822489955789
73,0.036013663746619934,0.03838778103244613
74,0.036048719242183704,0.037639387217994404
75,0.03660423512426277,0.037340139231130026
76,0.03584105929591344,0.03739641708207543
77,0.035874163794445205,0.03786373365468116
78,0.035960522217644085,0.036607203134586264
79,0.035711034195952195,0.03760129421427597
80,0.03566907757231757,0.03825013680028309
81,0.03563206336955137,0.03737742691428742
82,0.035642839194833374,0.038252331975067166
83,0.03549540330062774,0.03748818198362404
84,0.03537295900425108,0.03776849218660027
85,0.03540332335880762,0.037118772339097696
86,0.03535027957707432,0.037077857426203384
87,0.03522650081468676,0.036434834727469334
88,0.035340140470156295,0.03694727806954492
89,0.03521387302660748,0.03663931164712457
90,0.03518345127090008,0.03701768394048482
91,0.03502562008166834,0.03839304805013733
92,0.03507770164590286,0.03732272179902892
93,0.035049987374807225,0.03847119922245213
94,0.03500476151206265,0.037395718942145065
95,0.034973338619720046,0.03666851191805273
96,0.035085067625469424,0.03615040181325067
97,0.03484321093752936,0.0360933041230509
98,0.03497900414652089,0.03627353309665088
99,0.03484958906981581,0.03683530889781023
100,0.034874639748303154,0.03603279018990266
101,0.0348005908644092,0.03694918564890081
102,0.034677730630140506,0.036614294722794594
103,0.03476219286989167,0.03715775938364737
104,0.03472678089073989,0.0365333815936602
105,0.034563717396460435,0.03665865380293309
106,0.0346338545524729,0.03653306916932303
107,0.03478778797782586,0.037154968953085774
108,0.03447908559436321,0.03626183374496927
109,0.03454712806581288,0.037101551884161456
110,0.034601462981245674,0.036115222408650546
111,0.03461173516747759,0.036832651364776335
112,0.034480300675243325,0.03691066439845211
113,0.03445768558744642,0.036966232619901604
114,0.03447467751703498,0.036049706022491315
115,0.03451621672997318,0.036473522940376965
116,0.03436044666519044,0.036227805652812875
117,0.034384066319296955,0.03656081079431582
118,0.0343632952351859,0.03665597352208278
119,0.03431081317858023,0.03637190779447153
120,0.034238159880445845,0.03640060012011523
