epoch,loss,val_loss
0,0.511588913397363,0.5044725397680296
1,0.5044928353508441,0.5077910670867333
2,0.5040477741496808,0.5067944528742996
3,0.5038783871394396,0.5046503806232518
4,0.5036660151763965,0.504463219317254
5,0.5035330677612733,0.503173137746437
6,0.503495661468286,0.5034548298892549
7,0.5033211227759268,0.5030445150938578
8,0.5032596653465514,0.5032026917407886
9,0.503287102102648,0.5033966082201407
10,0.5031242899585746,0.5032572693919426
11,0.5031041587136317,0.5032150729122588
12,0.5031350707302915,0.5028709284425078
13,0.5030298276267898,0.5027888460135638
14,0.5030510410043488,0.5035534354060814
15,0.5029459369554756,0.5038004161702196
16,0.5029316900499372,0.5032764006785069
17,0.502884545598347,0.5027450859398759
18,0.5028340523724231,0.5030496472756265
19,0.5028255690311758,0.5027270126579417
20,0.5028231087463432,0.5026929684667374
21,0.5028436458859723,0.5026807270334022
22,0.47434199564405916,0.45313945885923307
23,0.45304175594572377,0.4532923630242312
24,0.45304193412031285,0.4529169465560771
25,0.45302089670034135,0.4529811573827237
26,0.45300492091104805,0.45288919788732124
27,0.4529712647146385,0.4541429159659014
28,0.4529989058265309,0.45326827569280015
29,0.45295373238358394,0.4529391236843601
30,0.45295826854387566,0.4532593637039289
31,0.45293764418785515,0.4530537144126135
32,0.45289586191047304,0.4530371153177162
33,0.4529183074648363,0.4529226862763057
34,0.45288758902384657,0.4532687247982688
35,0.45287467939976,0.4527593878895118
36,0.45290879204645834,0.45292709610302456
37,0.45287715827727243,0.4527432406362765
38,0.45288754344772186,0.4527931774964108
39,0.45285164251338056,0.45281377668416234
40,0.4528410525024004,0.4535398656765817
41,0.45288057562877704,0.4527154153393161
42,0.45282616028336264,0.45305471748631293
43,0.4528458744748561,0.45347391173206547
44,0.4528323041219901,0.4527565083935598
45,0.452818104284645,0.45291420406206667
46,0.4528115468744556,0.4527643474248739
47,0.4528234261473675,0.45286557905135616
48,0.45277969583320155,0.4527789541125002
49,0.4528030668171,0.4527877814272793
50,0.452810067705299,0.45275798757969593
51,0.4528214127100239,0.4527815353190041
52,0.45281481920739636,0.4527272427348286
53,0.4527795423205361,0.4527423003175418
54,0.45282075350604933,0.4528301217567832
55,0.45278104195426166,0.45318567504362195
56,0.4527963030640566,0.4534187342629539
57,0.45276292747472835,0.45275607370856974
58,0.45280071685343554,0.45276594913331214
59,0.4527735881457799,0.45280197668016403
60,0.45275509368180455,0.45291658588142014
61,0.4527543958796792,0.45294548197656354
