epoch,loss,val_loss
0,0.561575676220428,0.5547960227831422
1,0.5540292079028949,0.5538952718301683
2,0.5537608370112523,0.5540272642306003
3,0.5535306158523758,0.5531466985458772
4,0.5533723226610966,0.5540318276095331
5,0.5532813011953894,0.5528617467537116
6,0.5531888986027949,0.5528013458914556
7,0.5530721799868928,0.5533101214072841
8,0.5530630152771774,0.5532722975420893
9,0.5529250910142323,0.552777635607471
10,0.5528827546414674,0.5526615226239188
11,0.552805833214116,0.5528728182203421
12,0.5527794893321086,0.552799184624078
13,0.5527357890099783,0.5527293226263363
14,0.5526676377204957,0.5525242705203167
15,0.5526436681946916,0.5524974039707231
16,0.5526291962317456,0.5524614051317163
17,0.5525539430047818,0.55350719950631
18,0.5526021135679897,0.5525496475749808
19,0.5525723056646428,0.552483823045016
20,0.5525344997686626,0.5528316429767656
21,0.5525109576591436,0.5530663415161019
22,0.5524722394873378,0.5531105112497031
23,0.5524969422943916,0.5523704336535546
24,0.552427888898656,0.5525442141752976
25,0.5524545556267318,0.5524185679686572
26,0.5524284329913033,0.5525710044072816
27,0.5524053289377835,0.5525983204912607
28,0.5523871046920226,0.5523097893440398
29,0.5524014633879215,0.5523166061926716
30,0.552368763656308,0.5522706104863074
31,0.5523642202427413,0.5528810917887439
32,0.5523772972048901,0.5524030352348726
33,0.5523548832127249,0.5529216983478064
34,0.5523660167128988,0.552275310881972
35,0.5523393848778478,0.5529960186842358
36,0.5523608671227531,0.5523260605246494
37,0.5523572244973075,0.5524153476317526
38,0.5522844462983748,0.5526361652698469
39,0.552302604498709,0.5522930450829915
40,0.5523180658454335,0.5522759845475701
41,0.5523206664209884,0.5522561868130421
42,0.5523015177143732,0.5522324828888583
43,0.5523183182941104,0.5521973984117248
44,0.5522845156292708,0.5522251955332886
45,0.5522678293120818,0.552212515924468
46,0.5522715668225118,0.5537139510694272
47,0.5522780318711781,0.5522037132502193
48,0.5522972586465389,0.5534455838333584
49,0.5522847963077411,0.5523904740662492
50,0.552248273059763,0.552247212690396
51,0.5522735459481968,0.552182039108229
52,0.5522293505172814,0.5525815245235528
53,0.5522936767979367,0.5521801534420799
54,0.5522344303000789,0.5522612007025158
55,0.5522322104382377,0.5523507788222718
56,0.5522578329400459,0.5521990860070544
57,0.5522338010786739,0.5521359215303331
58,0.5522354227776415,0.552183451220652
59,0.5522460119887498,0.5525382531487912
60,0.5522387550946534,0.5523055550774038
61,0.5522373748709741,0.5524215230870779
62,0.5522161703085697,0.5521769206517979
63,0.5521967654300088,0.5535973793519637
64,0.5522167262431055,0.5521414120499017
65,0.55221481584013,0.5521205671076147
66,0.5522045432701679,0.5523495415008394
67,0.5521757470381503,0.5521659708792164
68,0.5522103189824127,0.5521377666120789
69,0.5522220712180987,0.5523263237612419
70,0.5521591016445775,0.5521905863847094
71,0.5522247905604105,0.5524047856886984
72,0.5521849355263019,0.552232561099618
73,0.5521866637730781,0.5522340272555576
74,0.5522078751675231,0.552219381107586
75,0.5521790677081144,0.5521747094821693
76,0.5521592404617687,0.5521345282310883
77,0.5521647879037087,0.5531471274330954
78,0.5521810197304525,0.5523057555146608
79,0.5521639233046572,0.5520929456348751
80,0.5521880693591604,0.552144530541252
81,0.5521750593117271,0.5521102409800583
82,0.5521604030532797,0.5522768039265579
83,0.552175731816922,0.5525252404934715
84,0.552153034307294,0.5533163331874251
85,0.5521975376683261,0.5522924020331788
86,0.5521784409344432,0.5521173486638602
87,0.5521770113892831,0.5523187642061976
88,0.5521543176612973,0.5521482119785053
89,0.5521332126253422,0.5521706843198677
90,0.5521508964472956,0.5521798089479394
91,0.5521584138069294,0.5523440537026739
92,0.5521512721274968,0.5521727819596568
93,0.5521674705126595,0.5537078754481843
94,0.5521440140659347,0.5526011886135225
95,0.5521539791767105,0.5520709675239865
96,0.5521535777933325,0.5522599681139584
97,0.5521697600958666,0.553187503737788
98,0.5521561423786024,0.5523943638091643
99,0.5521450411131026,0.5521823266599669
100,0.5521343325664922,0.552156546038966
101,0.5521516305449824,0.5521191390808995
102,0.5521696885996373,0.5521445743795068
103,0.5521349677001642,0.5523154172944668
104,0.5521275167267309,0.5523233055772616
105,0.552146312462719,0.5520840863436091
106,0.5521589037512564,0.5521384351306754
107,0.55212019227108,0.5524011994413939
108,0.552148436511125,0.5520855270899259
109,0.552144304852449,0.5520771135763258
110,0.5521059938540199,0.5521133319319922
111,0.5521467223023347,0.5520473357169858
112,0.5521352407908964,0.5523456456939281
113,0.55213340172954,0.5522925629805099
114,0.5521344776753768,0.5520836448255307
115,0.552130963127227,0.5530138501458369
116,0.5521309391263413,0.5521109399369574
117,0.5521239872649958,0.5521104059799138
118,0.5521274157598814,0.5520868656653033
119,0.5521326788276912,0.5523893640591548
120,0.5520989564679251,0.5521899605803099
121,0.5521300247806306,0.5521146710102375
122,0.5521447016503689,0.5527371203633159
123,0.5520976255531055,0.552599195363208
124,0.5521294155607525,0.5521002109825759
125,0.5521547954939566,0.5523222330782017
126,0.5520982777309876,0.5524485190808034
127,0.5521016312240915,0.5522881131314167
128,0.5521196456234183,0.552235041747318
129,0.5521361709952085,0.5520310551297871
130,0.5521167512488143,0.5521353226441603
131,0.5521026691626099,0.5521380712613279
132,0.5521087530613407,0.5526941331385383
133,0.552141612181995,0.5524438461949749
134,0.5520997028981514,0.5520892534007505
135,0.552109152455294,0.5520456890610252
136,0.5521135962832493,0.5521265030203031
137,0.5521096892015847,0.5520509568396632
138,0.5521064818530966,0.5525425625498183
139,0.5520881344026315,0.5521397225318416
140,0.5521119034091055,0.5520633354967937
141,0.5520942843089253,0.552049457139472
142,0.5521053010680529,0.552567174564816
143,0.5520898695051133,0.5521857630526161
144,0.5521231976014644,0.552060456784724
145,0.5521013353370143,0.5523592745991558
146,0.5521128959718615,0.5521979776860466
147,0.5521183733942585,0.5521831720697673
148,0.5520890200042329,0.5520523201443126
149,0.5521037545294215,0.552457495067019
