epoch,loss,val_loss
0,1.9761361352545466,1.7296495623915988
1,1.6533511164281771,1.578429035907104
2,1.5571589039669906,1.570873456765275
3,1.5705870037360918,1.5873351472517403
4,1.5939413281939299,1.586526364252712
5,1.5951414501829018,1.5806993820014297
6,1.592549186625736,1.5812911352211787
7,1.5711217079517081,1.5789928583056323
8,1.617218109867651,1.6057314496390351
9,1.6248195774073033,1.6915738559089124
10,1.6347704624100554,1.5783797470527836
11,1.6298556341637047,1.5917636210653099
12,1.635808037387,1.6261981541280588
13,1.6257262441465894,1.6358485048741174
14,1.6185491995559893,1.574833020509089
15,1.6203192500092334,1.6006478901067491
16,1.6099928671316943,1.6012956146753579
17,1.6177964116171968,1.586360653272838
18,1.6267686349024875,1.598037790480616
19,1.6087558061765919,1.553147682545217
20,1.5955649174565225,1.5778473878151427
21,1.6024530954498182,1.6428035168357975
22,1.6240748098428301,1.6106665821271142
23,1.621237033991505,1.598639657860585
24,1.6120308908246024,1.590513489993426
25,1.590524703573933,1.605418759250415
26,1.5768834827043456,1.4988301547380913
27,1.568398606291206,1.5353056605443676
28,1.5533633908207753,1.507642217480299
29,1.531010732281027,1.4835970005654122
30,1.5097805773325674,1.4234581675789162
31,1.483587280642405,1.4593743292854449
32,1.462242750288676,1.4840818415877381
33,1.418327197611189,1.3025797952698646
34,1.365440023054989,1.2680926100419276
35,1.3405496193874749,1.3320028732965195
36,1.3447422063131507,1.2304080287678183
37,1.3030703834397235,1.2204179211968782
38,1.2808569270691617,1.2428338251061202
39,1.2654583021033583,1.1935188721368515
40,1.255034947566849,1.1992593539824332
41,1.2522589456167914,1.188559843643312
42,1.2490883208960175,1.2093069639465615
43,1.2751929642532847,1.024765542810511
44,1.2796899451912165,1.3527185329322093
45,1.3704215163807216,1.4006626064982486
46,1.3943390057956,1.2875178532988045
47,1.4689837504538605,1.5413303803343799
48,1.5644299867246554,1.426479724324775
49,1.518470068153241,1.5225511566333725
50,1.4899823597485689,1.709934849859507
51,1.4997698991037578,1.4480056990387877
52,1.4243642727343393,1.8066855335009784
53,1.7476476003511918,1.7495368341808726
54,1.6907861704449,1.4494508123811813
55,1.4113255721106708,1.294746890440642
56,1.3755990435703576,1.3156849440854652
57,1.3014050217078839,1.2737764825760707
58,1.2752832080677545,1.0821976975465066
59,1.4673340185035428,1.4817194768360682
60,1.3988023783615549,1.2955412077640303
61,1.3205366931754432,1.1466359354514444
62,1.2462652764684385,1.2879603430334752
63,1.2625311321015362,1.1856736475873766
64,1.6531163304448604,2.204457651185726
65,2.0373424115322,1.9972365995797003
66,1.9336429169233278,1.904440631147624
67,1.8935880821099955,1.8497153902580725
68,1.7439261339932417,1.4179063828422407
69,1.2541992579051535,1.182273230641116
70,1.2944243084326637,1.5967846545254798
71,2.1235958545995084,1.9135171149599335
72,1.7725844600027223,1.7359555926770796
73,1.7286866530716467,1.6897854216943695
74,1.7022142353580056,1.6636356098405376
75,1.6402325909867657,1.578004251339347
76,1.6539186032937108,1.646134107999192
77,1.64001166691883,1.6093622910854095
78,1.6393425120152443,1.6261642930445561
79,1.644611094304793,1.6906172231886456
80,1.6546554706937118,1.7332060692718674
81,1.6601812962910159,1.6021090497534014
82,1.6572071398667199,1.695821366445606
83,1.73540308468824,1.6904712361243173
84,1.6917218275302701,1.6716358276832357
85,1.6883936163713986,1.6993397736794005
86,1.6848743615581168,1.7252399588346292
87,1.680587614849984,1.6271531054045896
88,1.6909901644590852,1.6360827354154157
89,1.7032812777087747,1.7281422588706674
90,1.7064342163354278,1.6644963912354178
91,1.6883613186583912,1.6763671113453047
92,1.7128675714861765,1.6681902834817754
93,1.768177596975764,1.7648790150810247
94,1.7436542019283743,1.9938910544718356
95,1.9271507027337877,1.8921993131607464
96,1.8315395187321517,1.7980224215899665
97,1.8281938854834254,1.7945842701521273
98,1.822972179602662,1.8089947899966703
99,1.836544541718005,1.810539702778269
100,1.9053665596327718,1.888652686538335
101,2.021904089896799,2.2213735517405486
102,1.9648421277626336,1.7538154339733891
103,1.7420413673734017,1.7124870660837561
104,1.7658347028622525,1.7354937424881776
105,1.6993855186980025,1.7211068830061071
106,1.7406238915441896,1.665747519356111
107,1.746421694183807,1.764219448146805
108,1.786494276935248,1.7017545253156017
109,1.8564298098131145,1.995873426581897
110,1.8854844237593629,2.0529558287893774
111,1.8469084414075032,2.0071360946360213
112,1.88178415893079,1.9078592491036996
113,1.8639223296865284,1.9151619322768514
114,1.9874145977026363,2.046234608543324
115,2.059240138740372,2.072721894462935
116,1.992254665620226,1.9326766678547427
117,2.000949838178621,1.9725136341028733
118,2.0602298564762234,2.043634179359171
119,2.0680290013670826,1.8321519042905523
120,1.8821623228150877,1.9305395795871823
121,1.9336518932113067,1.977272007817251
122,2.1010434026245495,2.2669031776211446
123,1.5374273031735592,1.2960015160885023
124,1.3287573439850033,1.2199034433997138
125,1.3253495825661554,1.2654678668670984
126,1.2745567492062715,1.2996596490762886
127,1.2216945540228432,1.0967992112781462
128,1.1902451705065467,1.1771810794779891
129,0.980701083616673,0.8121249260352932
130,0.858813727335583,0.842088559808558
131,0.9297720502844626,0.9567336688478254
132,1.1728892136487268,1.1502759402063576
133,1.2195579406740569,1.0040766749216425
134,1.2201656845214366,1.1756738766780874
135,1.2324445488975106,1.264699537545184
136,1.2143835139979753,1.0967683321204633
137,1.198681759915287,1.0627123581770375
138,1.1522316104597705,1.086589407243405
139,1.176217691432372,1.0723533204153193
140,1.1996951209460136,1.2215391760655248
141,1.258400166039463,1.1707720511431947
142,1.3356530861460048,1.3089325713565618
143,1.5530070562442715,1.8007763669353445
144,1.8073587339463757,1.8477406023803806
145,1.8058782280873147,1.7557241002122719
146,1.7382688662893386,1.572398128242312
147,1.7450923423687046,1.7178755584624967
148,1.678331770437608,1.5920529684497318
149,1.6068920221069543,1.511359510312611
150,1.552984264352434,1.5101278163169252
151,1.5097144829759972,1.4169337186835935
152,1.45441238094958,1.3653645837222297
153,1.421915099155798,1.4516942437088387
154,1.4108322300404001,1.4564150728008929
155,1.3502776535342542,1.3369936545062648
156,1.347689954234923,1.2463803330367254
157,1.4142829448723202,1.6279516731930608
158,1.9275774435936024,1.9778242092388487
159,2.154685962209694,2.164004422871259
160,2.1336983222660306,1.9851700043998182
161,2.075749869826886,1.9027855877059598
162,1.8247680393911951,1.772160284144726
163,1.7744710910425103,1.7214622594469067
164,1.7455175907777654,1.7577914871751745
165,1.7246763685243212,1.7361352744776146
166,1.6960003424129135,1.6469790647607576
167,1.7248185270314784,1.7851402946786799
168,1.8067553268252707,1.803522861558994
169,1.7790544305583365,1.7358399797069246
170,1.6986177686592943,1.647564189962825
171,1.6206695712346444,1.5963423330198618
172,1.5413389294553432,1.4757274193564267
173,1.4975421485855138,1.3439612900448674
174,1.3994525131180608,1.3276366495013519
175,1.4024068409685704,1.4011314807205382
176,1.408051948657901,1.3940310583588826
177,1.4324546248125707,1.2815534680870073
178,1.6088328993053649,2.05249994790921
179,2.130012891799521,2.1564331979570937
180,2.0138316810083428,2.117327848192078
181,2.059833745542857,2.0173660597654433
182,1.9276795808455165,1.904319407343394
183,1.9789106557123382,1.9873315217274798
184,2.0075998653134377,2.03320954950569
185,2.0069618594827507,2.0010313426968427
186,2.036185897035088,1.9955564334624003
187,2.041044170574414,2.0372490072777256
188,2.0475937474450525,2.095740046290403
189,2.076171115910311,2.0229455368106724
190,2.037792599744362,2.045443190207327
191,2.0501205206965563,2.057575750934297
192,2.055523879808202,2.0554530623397587
193,2.0564995850685786,2.0616597568508954
194,2.05437517985642,2.048032270516574
195,2.0566793565365145,2.053279152326727
196,2.059681714343415,2.045582493365799
197,2.0557126257059384,2.039934403235835
198,2.057212960710533,2.0485565333076603
199,2.0545063861173025,2.071758318812996
200,2.0524352739373746,2.026441148349217
201,2.0436728889231297,2.0490553340482824
202,2.0562243436833176,2.047960452988285
203,2.0594821361710225,2.0091049720098773
204,2.0570913272605336,2.0536257081268903
205,2.06475552118463,2.05466348022199
206,2.070621812848641,2.0715383548104302
207,2.074186783042743,2.059177813044475
208,2.0783602816881324,2.065497113572582
209,2.0819815411079796,2.0680012943806756
210,2.083033025598259,2.042506984866503
211,2.0796276453397065,2.0832739915072493
212,2.088142970292498,2.0586775593994733
213,2.089089035654335,2.0682225448462375
214,2.085413028105653,2.0736786165666468
215,2.0906902183350518,2.0659409290989648
216,2.088626188578175,2.082678027010002
217,2.0909426379546843,2.0929521836910836
218,2.0920442023056207,2.085944783151291
219,2.093769788313255,2.0711003025404184
220,2.089527298268273,2.068117149062484
221,2.095702360478713,2.075351215951915
222,2.090358827039778,2.063661453473634
223,2.08511881948375,2.049413997635845
224,2.0858924131122807,2.073966779102937
225,2.0906058092483226,2.084791071789417
226,2.081664069665136,2.089718222524015
227,2.0841593444109154,2.067964003983688
228,2.0855219518061547,2.1047543174371817
229,2.0841764890128,2.0600427403258075
230,2.083346934865514,2.0675762091081915
231,2.0833565126791846,2.042206212019676
232,2.0797610831775253,2.0742626629575747
233,2.078901588869133,2.061360942160133
234,2.080205236502784,2.0690008455500797
235,2.0837437472850393,2.045022221936329
236,2.082317083287868,2.066383478579412
237,2.079924199411528,2.0657354704300626
238,2.085707911484533,2.0450208720581307
239,2.084495388394256,2.062886877613173
240,2.0847808662459526,2.0907438047871216
241,2.0868288952288485,2.0494240926021465
242,2.0894143811518626,2.0825789897763642
243,2.088157023171441,2.0719887216729074
244,2.0931388369376522,2.076378888376322
245,2.0914598882055397,2.070545036019353
246,2.092897881754487,2.0749296155047396
247,2.091934806627812,2.077417727427494
248,2.0904716005999977,2.070649569864431
249,2.09415182545126,2.080976123215179
250,2.0902852823884843,2.074539989774022
251,2.08946038607499,2.097684058977472
252,2.093950563578678,2.0884800677047344
253,2.0948898905663373,2.0671419288195674
254,2.09586777370706,2.0938893396645524
255,2.100948141252013,2.0412284992958676
256,2.102361548528206,2.0725270925588086
257,2.099827572596159,2.099619774904981
258,2.0972663930756488,2.069696956670651
259,2.103290564055256,2.0896443931155066
260,2.1127577296359172,2.0773469413841625
261,2.114304768476936,2.0843347692075636
262,2.1179556415902434,2.1248540401270564
263,2.1264958306372783,2.1260279319186615
264,2.130950511407128,2.103923438003709
265,2.1290712600989306,2.0936976161262795
266,2.1290993417481436,2.1051428847738203
267,2.1330565901683105,2.1513439446993483
268,2.1344710797142925,2.0906527771569654
269,2.1297333133306435,2.13242715648901
270,2.131247129991091,2.1248178927091135
271,2.134442848743771,2.1138800094705354
272,2.131757191569209,2.0875339168399547
273,2.1388380347872427,2.1247438127446947
274,2.1306292347961384,2.080917230062628
275,2.1403293339468594,2.104304178079095
276,2.136836885881843,2.131080475677725
277,2.1272908347687847,2.080189900503633
278,2.0020665554977435,1.5040288944364817
279,1.4342362035950311,1.5390476172800223
280,1.4809873776374867,1.2647405079997422
281,1.4726191197844336,1.490579368377541
282,1.503459097384263,1.4499972694580632
283,1.5307791953940662,1.4409809254621462
284,1.551470031460031,1.559547768113363
285,1.5814134134567803,1.583298083168367
286,1.636931115488926,1.7197294124205844
287,1.7200127821936786,1.7919497779719737
288,1.7094872499064957,1.7246515474266768
289,1.6591794374082491,1.6241255212037133
290,1.6941591627973256,1.7368146091723122
291,1.6742651376792852,1.738082445975637
292,1.6539069363158003,1.4679920099434556
293,1.666858302317649,1.5531299404958712
294,1.6885103088774556,1.7129275074321262
295,1.6843504271537757,1.6408884784040625
296,1.68257596052522,1.747582508525984
297,1.6673715976978853,1.6147888946834283
298,1.6916591567958859,1.4497851563327973
299,1.6693566002243523,1.4219209479834023
300,1.6632969776312891,1.630083654749177
301,1.6646017819095096,1.5112843603813093
302,1.673913036890739,1.6971989604743711
303,1.6610331117963906,1.6777995471984455
304,1.6375401002897634,1.8721863736105229
305,1.6864963667951136,1.685607956917905
306,1.6521168875274994,1.5066826609804955
307,1.6521514256318792,1.5820543941965983
308,1.6318068502427672,1.7110098327532846
309,1.6532266019440764,1.5838157833328186
310,1.6377189062196287,1.695968558963303
311,1.6409736119871803,1.571302792079447
312,1.6325207947731781,1.664568272649348
313,1.5744794564757891,1.4791349535771214
314,1.6447747978660987,1.6848933125633656
315,1.7007890585229266,1.5998529084761874
316,1.6540090120096,1.6569541545956739
317,1.632042840135088,1.6551198551009374
318,1.6257735578466852,1.5601579115535673
319,1.6261973704079644,1.7529404585814985
320,1.5624414958732782,1.5039822761713282
321,1.6554157062114285,1.7868309909185276
322,1.5987082786506694,1.6365736467968128
323,1.669381182637813,1.6612078858438024
324,1.6754487926820867,1.6695772074486388
325,1.6553251867671666,1.4766812828834732
326,1.5903735944597746,1.7558083933173152
327,1.6759941070485744,1.578094403858531
328,1.6844620076205423,1.6802599216504839
329,1.5778978425059482,1.2952356513504353
330,1.6640905042965826,1.530767274824954
331,1.6646749162845473,1.6400522923224916
332,1.677070231365262,1.7623215792399274
333,1.6979454257886568,1.7409775998522752
334,1.5828052883287318,1.4204044780490337
335,1.5271725803732776,1.4289638000674951
336,1.5828261742774816,1.6205392313831513
337,1.5675516699572547,1.5606415560608693
338,1.570889248074197,1.5697696585305205
339,1.6560704106335447,1.6040324284132768
340,1.6541541284508556,1.6263939787669734
341,1.6410746894580284,1.694238572395403
342,1.632966179070141,1.4974433897796726
343,1.604327967984499,1.6947574764137299
344,1.6567855362507173,1.667811151837964
345,1.6449755290619952,1.6937836205385384
346,1.5727652203407791,1.5636951404005501
347,1.643079458809585,1.4439785989514466
348,1.6734671195348103,1.6735638164589512
349,1.6681071694711034,1.7135322272730513
350,1.6941174761854487,1.5645134946729784
351,1.6595996126091832,1.7024143688680624
352,1.6929247136786878,1.733367829879815
353,1.6804620980930558,1.686651842840657
354,1.660871348983283,1.7280909173960939
355,1.708144077103582,1.662691840338914
356,1.6756277675156017,1.7451182876690787
357,1.679753041667618,1.6198389981803503
358,1.6678745712784173,1.6004994708718328
359,1.663775704413962,1.655357406378357
360,1.644024923646288,1.6848794502259805
361,1.6912956113437954,1.6546182197760482
362,1.6898030677764155,1.6668635956772502
363,1.6652838877922624,1.7475927585490407
364,1.6628078956493466,1.5757260376200868
365,1.668088979334187,1.776371916072427
366,1.6816583345357559,1.642399413715504
367,1.660962874226147,1.6788863969206715
368,1.6997214090242851,1.7229960706164353
369,1.6859362501796964,1.7493407687711828
370,1.6925973082236725,1.4549664878995756
371,1.6595813776854036,1.694505310002141
372,1.6791745179848705,1.6962728579399995
373,1.662839084125156,1.687709238553668
374,1.6720236911476374,1.673924331695147
375,1.6632922275556172,1.6534778701101784
376,1.6588573497262218,1.7228758173282446
377,1.7149027833263937,1.532118697380963
378,1.6491390248949676,1.6404462271820586
379,1.6765810153086027,1.6840283231840607
380,1.6705161184429838,1.5516260040963645
381,1.6674277825321224,1.6081927513267078
382,1.6701393442378818,1.5219963969634853
383,1.668058917343283,1.5758193543132308
384,1.643909355433439,1.6747434384820963
385,1.6611439457995523,1.7056988972608933
386,1.6126880644799042,1.6895327944405547
387,1.633945277268938,1.5027725311744466
388,1.6231892733074589,1.4697794157779396
389,1.6114289162637327,1.7382961196417683
390,1.6526919645752363,1.5890377043925032
391,1.66672636574502,1.6711069957045184
392,1.6392437728474751,1.8998763412589996
393,1.6546639007725399,1.8295803222490656
394,1.6816745203652446,1.7075463283127843
395,1.6957380428588649,1.5894464154646166
396,1.680270756796586,1.579738687038798
397,1.6880346068756567,1.5998999266146485
398,1.693631933604499,1.7435398767948527
399,1.679319336307611,1.701191038622476
400,1.671098822836491,1.7169308481765904
401,1.6766090166273353,1.6242970494463769
402,1.6740142987024107,1.5467642689654464
403,1.6698950673464676,1.7102933213197065
404,1.688314970734594,1.7808396490709746
405,1.6717619103588741,1.7497185812094311
406,1.6889571142520645,1.749716236352356
407,1.6554293560086013,1.6556434030126377
408,1.6716240863148257,1.708144912685855
409,1.6687105696359508,1.6342633781982578
410,1.6865162686478319,1.7118467008775864
411,1.6668854384875889,1.6742612665435321
412,1.6744576333333359,1.732769887185793
413,1.6981422602415657,1.7209710403982823
414,1.6633576445823475,1.70810051950396
415,1.6911817025795257,1.7739523020708947
416,1.6634425410835578,1.7325247535577606
417,1.6775945046251055,1.7599083587891866
418,1.6816040664839802,1.677504594907482
419,1.6763000531638745,1.7772643932133279
420,1.6613005004245505,1.7422171084073554
421,1.6813021959732477,1.677437637110065
422,1.6866948096205194,1.56039394585279
423,1.6826025013157504,1.6767185603716097
424,1.676743476939716,1.6399491718649017
425,1.6542171312274216,1.5956534031534533
426,1.6432592286575707,1.6672450561832046
427,1.654427821497075,1.630137892435551
428,1.6748784113463928,1.551347875369282
429,1.657236596806158,1.7415288786485426
430,1.653441493650325,1.6403522456642579
431,1.673123968400353,1.7425390992845808
432,1.6683351842047784,1.680837739144335
433,1.696955291392039,1.474073044314757
434,1.6795425645643762,1.6999056017483514
435,1.663982689809456,1.7516012990578198
436,1.6459267522505434,1.6974986580853964
437,1.649335498575398,1.7032893412491423
438,1.7036705026618963,1.558895592343271
439,1.6759173440323363,1.7553810964161332
440,1.6496612279535197,1.6394212303334743
441,1.669985346180453,1.658458893846694
442,1.5964391731339203,1.778779473564431
443,1.6953236161947822,1.689197921433031
444,1.7025631146369984,1.726801574277238
445,1.6491715185743252,1.7389884670606823
446,1.6787369621933983,1.6725080644604533
447,1.6833774376449158,1.6510192251807607
448,1.670218405677832,1.8801860688893741
449,1.6865379460614554,1.7000718008559241
450,1.705637148911242,1.5767300875053316
451,1.6842246441055926,1.7018951690375759
452,1.6586209956785853,1.600564414436834
453,1.69855117793087,1.6741992726322226
454,1.683505774783097,1.6996279334871431
455,1.701359347854968,1.8074542643427378
456,1.7168596739010464,1.654389726334702
457,1.7010439990235746,1.6599649821291218
458,1.7150386992594797,1.7369708090950018
459,1.6946759024302926,1.6385863368306088
460,1.7030279459617883,1.784215719472167
461,1.723074751458675,1.7337669318552176
462,1.7228277206039733,1.6545892862607479
463,1.7036195222041208,1.7723947063429486
464,1.7038323351805158,1.6310877919479345
465,1.6972457019926357,1.7769364288875036
466,1.7221179288640012,1.7285723828290895
467,1.7019994331301926,1.6157554850958422
468,1.7206163687481106,1.5922599858718307
469,1.7155658864288879,1.765084675850601
470,1.7044698636022975,1.7227535897949688
471,1.7045015053306933,1.650485504209854
472,1.7014090837143976,1.5568934413703672
473,1.6712485718117247,1.6827359032047575
474,1.6430112599945372,1.623228684691058
475,1.694195760001572,1.6238029312692295
476,1.6997033144644411,1.755228430056252
477,1.7118743219249826,1.6928217209693288
478,1.6846633383410154,1.7385844984859957
479,1.707415842466789,1.5974940082268538
480,1.7227490401858812,1.6603447737991104
481,1.6693863071602502,1.5831918561185734
482,1.6843967929446726,1.6647345412878325
483,1.6872267108455266,1.7601721326290574
484,1.7143300239035457,1.7975198889493753
485,1.6915479651172098,1.7754874347981826
486,1.6700143449121623,1.7504110617626343
487,1.6938667541785206,1.7245164863124267
488,1.6846195374080222,1.7734448696180132
489,1.6909283009840907,1.8415587151624504
490,1.6737261278737936,1.6815929003559706
491,1.7001536185030552,1.8431142831093321
492,1.6783416612828663,1.7459024704622301
493,1.7024477774576603,1.7350130081176758
494,1.7030626520169057,1.8207150960213194
495,1.6886783307976574,1.6614192009160345
496,1.6615885856816714,1.6475055462371295
497,1.6942426539439377,1.4622306214041285
498,1.6888585883459981,1.735472663801866
499,1.7070925715539476,1.6541652375539646
500,1.6845260282024015,1.6877449685979662
