epoch,loss,val_loss
0,0.5129536329817066,0.42087676371874505
1,0.3710048164459493,0.3324339995273998
2,0.3395764502264959,0.3377642538715743
3,0.3512340168341147,0.35679290911963774
4,0.3619470690206302,0.3642864634327451
5,0.36808668054324134,0.35574782689895845
6,0.3686753002474841,0.3569366926839462
7,0.36800818530629403,0.36129856638954794
8,0.3695179950699413,0.36144078140421215
9,0.36979134624199067,0.3604634031472125
10,0.36858487929746186,0.36960038554832786
11,0.36692560130687024,0.36093312656599047
12,0.36888812190060427,0.35967756180577615
13,0.3706502644800014,0.3791551734989287
14,0.36990900346047406,0.3597863444640012
15,0.3726279592160896,0.36680236739157085
16,0.3719848056165002,0.3612620354858918
17,0.37214866893782056,0.367017819740283
18,0.3726494339129942,0.3654028679042547
19,0.3754293035515983,0.37206281215218345
20,0.3737843374164702,0.3657233517100341
21,0.37305545083898084,0.36338016605918616
22,0.37205447022727817,0.37376729806844333
23,0.3702946681800702,0.3645491872439032
24,0.3679812358822032,0.36618014287871264
25,0.36626921795767914,0.36407500464357406
26,0.3677538003656175,0.35916465818156873
27,0.36812027440584594,0.371862981223712
28,0.36937831400679627,0.36554950816497894
29,0.3670198304043282,0.3639339840421808
30,0.36726324785175657,0.359096863433199
31,0.3682056627481627,0.3647968142813816
32,0.3676193786488236,0.364374397734946
33,0.3656068468828789,0.3630678911858812
34,0.3673585879626133,0.3582910229206472
35,0.36926078252357136,0.35609449706035035
36,0.36834919060154664,0.3663726616998272
37,0.3678672605270954,0.3592436109629474
38,0.367849352397472,0.36775161624438185
39,0.3681034035115742,0.3587155752518461
40,0.3661104972549588,0.3751567197300415
41,0.3688333047877511,0.3574925191936122
42,0.36887117826623667,0.36388190118452446
43,0.3695276304781198,0.36256244365316237
44,0.3709858016933414,0.3763068089713339
45,0.3705075855036561,0.37028525060304085
46,0.372148056713651,0.36295464112810844
47,0.3726489845875075,0.36517936890432723
48,0.3727796045635298,0.361379212392411
49,0.37050052070684486,0.3648128976255341
50,0.36951960461009875,0.3540475186011894
51,0.3651401214450717,0.35726142606402644
52,0.3652329428063287,0.3588825375542637
53,0.3642975410477842,0.3573256243271066
54,0.3625608876860552,0.35032320201445283
55,0.35975853604875246,0.3512476000085848
56,0.3655538810335034,0.3496288394454235
57,0.36216925821894164,0.3527349004490242
58,0.3601025978238989,0.344747182347382
59,0.35661622039597923,0.34974798661658946
60,0.3321219025384053,0.27034896158969024
61,0.2532043744853919,0.22927183886900823
62,0.24817752304246085,0.2570644658291524
63,0.2662146563788621,0.24940426366075885
64,0.266718775743814,0.26940993063109536
65,0.28192231267261164,0.262817938457827
66,0.2730632808217533,0.2771330787607643
67,0.2738713254932884,0.26411218242682005
68,0.278912292392231,0.2667003921856265
69,0.2749927298212834,0.25337243564759243
70,0.259938210093851,0.2497003870167968
71,0.22803289715865788,0.17249818588550364
72,0.1924102207462343,0.17991011629042739
73,0.16479055718887892,0.15183532541951608
74,0.15524628379339692,0.14744120719030632
75,0.14063202897854762,0.11689974232867589
76,0.1355464214397918,0.14803017732073212
77,0.1675613285650054,0.18306108744813482
78,0.21144997775316046,0.2203372578406276
79,0.15487036631227113,0.08715074106337864
80,0.11788235153194615,0.10475543277928816
81,0.11511791912947682,0.1152077799380454
82,0.11814181303219189,0.10559195621484484
83,0.12431455000614623,0.12046983580060443
84,0.1225450059728588,0.11822464874215176
85,0.13164595509465452,0.11451985547432354
86,0.12474209582321256,0.11893854522888775
87,0.12649642555915516,0.13175014682591493
88,0.12888808184869296,0.11682540083429432
89,0.12931770405428614,0.11277242312441971
90,0.14074016243422194,0.1253898603130141
91,0.14886121237404448,0.13368365828428244
92,0.1600713902402869,0.13233158928972866
93,0.15723360276775802,0.14852519335779638
94,0.1622754996172708,0.162457889624224
95,0.1705669857579484,0.16272372661184123
96,0.16808387301892067,0.15254044854848828
97,0.16738995507633905,0.15968151518656584
98,0.16535184950567036,0.16070185206522328
99,0.1613364393701307,0.15329077444058167
100,0.1578186756377224,0.1415937735796555
101,0.15618335494131827,0.14780134945165213
102,0.16236826896464662,0.1472501500063279
103,0.15462845118583632,0.13992701423115006
104,0.15607028184913463,0.13729014117739013
105,0.1547526722673992,0.14377767401116703
106,0.14709950727317408,0.12177020976046479
107,0.14582449794292832,0.15084337210471516
108,0.15026119443848193,0.1323534849689728
109,0.14198152729876048,0.12178163314411916
110,0.14007713040225117,0.11276033714667434
111,0.13100249304759015,0.14213472412595493
112,0.13532505988824167,0.1103544133350507
113,0.13197258834520562,0.11723669971862849
114,0.12586685661092292,0.10877793145102403
115,0.12063741120245096,0.10479532858992822
116,0.12121851626243756,0.09967520966557884
117,0.12314374106313535,0.11191291206751233
118,0.12240466368410757,0.10629799065919592
119,0.12103646687918705,0.10843063183340326
120,0.12324789898086777,0.09019173052394573
121,0.12409483148657484,0.09737795561141148
122,0.1284561693053946,0.11877603270566667
123,0.1245128156198226,0.14923070760297272
124,0.1292073773540813,0.11327926114817896
125,0.1303864579626901,0.12574507699129742
126,0.13335787363535315,0.11517869130030746
127,0.13364849921414335,0.13964120826146897
128,0.13225072625878337,0.10932828331878296
129,0.13406587247733023,0.11864453166215669
130,0.1438749378429259,0.12739198329191526
131,0.14405671915440582,0.13646118664949383
132,0.14190412565672084,0.1267058637117044
133,0.13969680356134692,0.11207041062795332
134,0.1492395461577955,0.13168697803004042
135,0.1452734767645001,0.1471673059552932
136,0.147979860816649,0.12838358830264787
137,0.14869481877530452,0.13245807603207044
138,0.14305449564388698,0.14966094244909015
139,0.14221611320733832,0.12739269720618548
140,0.14275319549479515,0.14818390850989874
141,0.14323172241365842,0.13840116196691943
142,0.14143585248755589,0.1437659284457963
143,0.13891791654012506,0.1029191375298415
144,0.13378941214339937,0.1331094161751593
145,0.13648333971062787,0.12415111819032915
146,0.14398172017547778,0.1285941580194143
147,0.14126377354105346,0.13183990467131282
148,0.14240677891563092,0.12213845540137186
149,0.1476229955378869,0.15110473941470778
150,0.14914405895016783,0.12813660159211573
151,0.1460806591938838,0.14718948203741006
152,0.15114800305403261,0.12500416860890795
153,0.14890361141511876,0.14048832065190905
154,0.15032673170797534,0.13172278237217147
155,0.15021546341305833,0.131212594741404
156,0.15016170429159775,0.14666886741275817
157,0.15266701108735023,0.1466180942016023
158,0.15516953334940062,0.12870741599909388
159,0.15291884819491564,0.15340952633216143
160,0.152018057195853,0.12634442949672106
161,0.14725751452165856,0.12453887541532903
162,0.1453385107917152,0.13306821975781485
163,0.14707229305521025,0.13885778546429994
164,0.1496206936333254,0.1508620474955848
165,0.15252866097886245,0.14709895651029167
166,0.1573192048653829,0.1417795001723277
167,0.15630982604155166,0.13140681104406726
168,0.15998938297919982,0.1572007135837811
169,0.16083192944025593,0.15962150511660425
170,0.15907733314174763,0.14523499641516105
171,0.15865906044912395,0.14553238824916293
172,0.16028104374428287,0.14958108311997906
173,0.15984666048347043,0.15370148953899365
174,0.1586429701895834,0.13622015543034283
175,0.1563704182909096,0.16793542166164224
176,0.15586655590238813,0.14799375670742235
177,0.157947016150666,0.14564823577390487
178,0.15890638586327588,0.14028181096981526
179,0.15542395830190212,0.13361408538506075
180,0.15335274155171896,0.14786163402082275
181,0.1569055163199373,0.13710459473407666
182,0.15628759279322205,0.17703160955378028
183,0.1599573783689828,0.1447391623490628
184,0.16233193416228955,0.15490699399924338
185,0.16436920025414997,0.1476016576490263
186,0.16348667904507933,0.14546346385258538
187,0.1635789450457852,0.1355077900228129
188,0.16339384039656651,0.16027377253369596
189,0.16143345160244274,0.1591540804708381
190,0.1588223378499858,0.14773114428637188
191,0.15441860524330547,0.154213719625881
192,0.1599166390178106,0.13594888389376442
193,0.15422802421154738,0.1349452003679523
194,0.14941675153622827,0.13797859533932377
195,0.15029639346574286,0.13385612898886157
196,0.14743623499563926,0.13130546100769985
197,0.1446622163176632,0.13552044219029985
198,0.14107077434253368,0.11342493971599762
199,0.1470118825308221,0.12229478367077849
200,0.1486600477478092,0.11190918885588357
201,0.14264693780779075,0.12118040040945098
202,0.14284894078540458,0.11205341717090823
203,0.13444375034997327,0.11257155646252033
204,0.1315096025172475,0.10155198993183981
205,0.1277464723454608,0.10548431401511855
206,0.1210946881855794,0.10513799554771847
207,0.12306211438713024,0.10550814546759497
208,0.11888643559679878,0.09057649909628182
209,0.11561953481003416,0.09185419634093334
210,0.11599555611908674,0.10746737922460976
211,0.11749959573913231,0.11331551275476633
212,0.1131374093221487,0.0882280837421193
213,0.11543116640087793,0.11987769420032857
214,0.1192147741563994,0.11724609324507664
215,0.12418482570742682,0.10363672290598583
216,0.1281150234423226,0.12274879158534176
217,0.13574443364424932,0.13696307630942106
218,0.14230283011821768,0.14151007550355388
219,0.15029492280524287,0.13565233715984362
220,0.15020272022991585,0.14217517073572117
221,0.16000679962700898,0.14116894492436885
222,0.16844408581550832,0.16213138448640957
223,0.16882384679406237,0.16897624728646785
224,0.16466261685980235,0.152117207900161
225,0.16893752228865344,0.14637706338126583
226,0.1690442987275515,0.15803588407124722
227,0.1689426545754636,0.150285688285555
228,0.17128814368533363,0.1528865380782184
229,0.167770876323251,0.13217722235394028
230,0.1581784809072367,0.13464187964833277
231,0.1520744752350619,0.13744560887150328
232,0.15116586429987838,0.12695503212505496
233,0.1374665847938475,0.11767534436680685
234,0.13326612133696805,0.1187314750975646
235,0.13296191242513797,0.11120823583439512
236,0.13243730463463368,0.13348871320244363
237,0.1359064344606035,0.11296621239944289
238,0.1371341026078662,0.11431983507269297
239,0.13870069519090977,0.12836023838850705
240,0.14204692743641076,0.1237606888354453
241,0.14209577783918362,0.12153911806902842
242,0.1375607739600112,0.12413792520616466
243,0.14131823764014856,0.12560103289837385
244,0.14316252060383677,0.13128967206722725
245,0.1464305387778555,0.13278189265839183
246,0.14700237011687578,0.1226814571172845
247,0.14904119291777512,0.12409678435093585
248,0.14933065826698147,0.12580278419133423
249,0.15069092215419866,0.13433340220845819
250,0.14953729134795662,0.1399761768479417
251,0.15290870184333827,0.1412305981525056
252,0.1533460102533941,0.1313400151025253
253,0.16253912292593856,0.146512492977548
254,0.16638455329070673,0.1484320523143298
255,0.16943021678776624,0.14203956943165452
256,0.17172726180801112,0.15611947014843267
257,0.16959058989086945,0.14717835448349964
258,0.17211863698901608,0.15970911689265802
259,0.17573761920615422,0.1525477737683836
260,0.17821710048507367,0.16463892887567758
261,0.1797743790012727,0.17519361169862244
262,0.17896862839869826,0.16285487891621253
263,0.17784181530710408,0.16696539211229686
264,0.17736204534029368,0.15940975739838917
265,0.18049533635950546,0.15038321305607164
266,0.18191075459826556,0.18189812647986972
267,0.1857731000030394,0.16035493097093564
268,0.18992589402189247,0.18280342047231912
269,0.19324045309169088,0.18066465215332994
270,0.19482618468322213,0.18310744317198613
271,0.19152910383440572,0.1746397409029154
272,0.19184677664628977,0.1770229008341841
273,0.19048108993242796,0.17196128965149252
274,0.19501292146593213,0.18318620683067907
275,0.19291122282763498,0.18028009080442103
276,0.19215457351375714,0.17460209690789721
277,0.19467623690493685,0.1802184432503274
278,0.19385486863273158,0.17133248468675172
279,0.193472152607168,0.19557078940444908
280,0.1900244506122209,0.16874961252267634
281,0.1929727976051591,0.17071540414416878
282,0.19122513192739365,0.1740214921963089
283,0.19357053365251176,0.17920983729571321
284,0.1940223300714699,0.1863751411679694
285,0.19159520682308367,0.16931447430248678
286,0.19027588875581017,0.18835219743284673
287,0.18851592560545552,0.18349112657299876
288,0.18811190095219352,0.1679435265760352
289,0.18469773104386009,0.1891993485082965
290,0.18784543951217225,0.17117180109072389
291,0.18728221102272444,0.1719240292435435
292,0.18585973407467715,0.17631109247387472
293,0.1832585868875297,0.18030717164060495
294,0.18391640830316766,0.16688394341663143
295,0.18039742956240717,0.1717599975028274
296,0.17951761825298004,0.1704687854548537
297,0.17619325638151437,0.15999319415240393
298,0.17436398370109432,0.14821017183671611
299,0.17172068527775158,0.15228670665092423
300,0.17079277750286606,0.15206013548596545
301,0.16999937797351491,0.15686310657329514
302,0.1665722111029755,0.1498957100201214
303,0.16810243837445904,0.1697339905971255
304,0.1640568560808062,0.13834180688335948
305,0.16696953872819725,0.15004742219258593
306,0.16567306814669036,0.16212220649504602
307,0.16298296405457324,0.13974341328972642
308,0.15918205081641054,0.13202944190059362
309,0.16119486309164424,0.14165326913052811
310,0.16030824554858922,0.15875564763943353
311,0.15883487080924028,0.1463352005508791
312,0.1573393146475379,0.14864780461991212
313,0.1549854455702156,0.13912558182771864
314,0.1524553642488175,0.1408172875328559
315,0.15442348911081724,0.15283606391753593
316,0.1533054135608568,0.1256783754419043
317,0.15134385259474537,0.13885333586638282
318,0.1491633029080468,0.1330629683976626
319,0.14699743860203615,0.13030167110113236
320,0.14803170004756666,0.12938504890876384
321,0.1499014221925178,0.1228507954116672
322,0.1497796336390239,0.14535492772216826
323,0.14574057780641667,0.13084707197046627
324,0.1457572061362698,0.12793749494104972
325,0.1433167011619473,0.13434744090301085
326,0.14594916260843757,0.1319584064820097
327,0.14835772989951582,0.13610321169134473
328,0.14890057638621598,0.12590048473029242
329,0.14852696045445765,0.1285864861571779
330,0.1510467938601589,0.13235303722714759
331,0.15022818637106589,0.12602674070404296
332,0.14669916255055093,0.12212951690417813
333,0.1448487717810395,0.12385448290145407
334,0.1448555585262392,0.1296766685429184
335,0.14565929516947107,0.14426226396074357
336,0.1471379855998141,0.13518922331245178
337,0.148707414041456,0.13422907711235565
338,0.1468338065917154,0.13449874644780294
339,0.14730734203019746,0.12207970712620943
340,0.14797866532058598,0.1386100265158934
341,0.1493646487015023,0.12954729539247808
342,0.14948216715963294,0.13509714430604441
343,0.15181798301786303,0.14821674026373627
344,0.14918361059885868,0.13707812155226046
345,0.1471676649190217,0.13095249560120042
346,0.1478084289163852,0.1282578410591329
347,0.14787412834487218,0.13903332404967544
348,0.1504049242896925,0.14366511682113398
349,0.15124202383051308,0.12923515255699675
350,0.1492412390382744,0.14860326359282638
351,0.14972892186467984,0.120043615113403
352,0.14550677153041022,0.13219167687307018
353,0.14510378445550096,0.1345493918328583
354,0.14574650800030073,0.12659384116276629
355,0.14686646062531789,0.1307606655388273
356,0.14904932231546117,0.13226598717532115
357,0.14921686921516258,0.13033599920105568
358,0.1432773280169985,0.12669278302404421
359,0.14193050426134976,0.13776781147123834
360,0.14296416193246841,0.13236336037818727
361,0.14301223800576526,0.12730175212617822
362,0.14255407483602545,0.12279737407201108
363,0.14102783908335279,0.12462920435709578
364,0.14292772173034468,0.122640265425288
365,0.14350008434229033,0.12630585661431395
366,0.14291722777547886,0.11305771690142996
367,0.13730041676456686,0.14378162343523315
368,0.13588708728921708,0.11866637393650928
369,0.1338878848386393,0.0988133967841242
370,0.13235084779315992,0.11966058590720556
371,0.13281846133241948,0.11678370565103498
372,0.133956154359518,0.11328010047753459
373,0.13950851303730324,0.13676687945148758
374,0.13368033193904844,0.11222500021101882
375,0.13602859721041088,0.11565235529067742
376,0.1352547428535642,0.12428168198947295
377,0.13673772911926668,0.11988557369387062
378,0.13919811863735546,0.13043678764009128
379,0.1402758681286183,0.1132740830369626
380,0.13842261840012954,0.10989072022163472
381,0.13865005504116237,0.12289729868481049
382,0.13816212244433246,0.12181982069313284
383,0.13831612911579416,0.132876889083749
384,0.14040724190177203,0.11617703248186993
385,0.14195984051383143,0.11300756807672427
386,0.1378719388776488,0.11943212350934672
387,0.14101637202837736,0.12806477809788633
388,0.13980201091333996,0.12826371134922743
389,0.1426400481026062,0.14257556153499104
390,0.1417470990454225,0.12905351542667556
391,0.1433188708408104,0.13416675781560736
392,0.14467195255027188,0.12343627639833932
393,0.14177677687630355,0.14211674128860743
394,0.14257657399969256,0.14192819122197856
395,0.13977478975482327,0.12241103584724815
396,0.1358658726318919,0.1086749303889584
397,0.13780379961069533,0.11256001520500082
398,0.13858035536075802,0.11851541562019473
399,0.13684681321295192,0.12782835385732697
400,0.13407740235817825,0.1268659740662246
401,0.1343732899706587,0.10664343891328462
402,0.1357891995778935,0.12306707492589176
403,0.13461480102389214,0.133100832199915
404,0.13638802503852296,0.11655464087403701
405,0.13463746109683578,0.11156088910809592
406,0.13096174939846497,0.12455508227113389
407,0.13410898578689517,0.12381602476282227
408,0.136209583239521,0.12741413572916438
409,0.13845348433912802,0.12204627381503244
410,0.13808957553857132,0.12085861425064293
411,0.13614778594375612,0.13213624755058073
412,0.1350693471216745,0.12917996320604602
413,0.13608752006442668,0.11082383525608423
414,0.13558936632388205,0.11685233581916936
415,0.13739464270044938,0.11850912844201751
416,0.13682857165344245,0.11598023106944531
417,0.1348514028871842,0.11155752401379
418,0.13564974490442783,0.11350547394806644
419,0.13588214448218444,0.1167554976259995
420,0.14046648537234557,0.13774382087967788
421,0.13974661522621723,0.12036568478100299
422,0.14171879162327397,0.13139758071131757
423,0.13938520709761054,0.123280173253694
424,0.1426413418103257,0.13286434063825392
425,0.13833653200880064,0.13255624561921814
426,0.13765474098374406,0.1301173860296329
427,0.13605339583263004,0.12614386835092464
428,0.13907700740069365,0.12317266715849114
429,0.1394313505445842,0.11391972475485017
430,0.14206992467944388,0.11611410563347886
431,0.13856555416798286,0.12999154462358958
432,0.13952065379417736,0.10930825464747732
433,0.1403261503492526,0.12668146617221135
434,0.13906749446180652,0.12089011915457124
435,0.14149671841004163,0.11959366939677905
436,0.14271188153325318,0.1338388168427486
437,0.1405941599590765,0.12795377281001208
438,0.14337561609711144,0.13614078809938485
439,0.1448762876192649,0.1358173992439488
440,0.14076117598254076,0.12475750291990441
441,0.14059666148703798,0.11990868273611874
442,0.13787173012419163,0.12205612142203981
443,0.13927482054222098,0.12084679680801656
444,0.1402075612683407,0.11675971437061307
445,0.14341698858359034,0.12673745750897508
446,0.1424245567048331,0.1183418130799705
447,0.14068371693106344,0.1373813338910093
448,0.1434695509443577,0.12430018771497196
449,0.14348572139159216,0.12692366923535633
450,0.14421519178381148,0.12408190271956884
451,0.14307571127354574,0.13538666887681655
452,0.14311170218299157,0.13457633735610525
453,0.1441595418105801,0.14397756320885885
454,0.14441656799699135,0.13573755347453184
455,0.1490446042546852,0.12321803623935795
456,0.14536789486153398,0.11423231862539793
457,0.142129419107524,0.12452497894045597
458,0.13843409370204465,0.11670135887942465
459,0.1427755073082743,0.11626988477152919
460,0.13780408147409307,0.12612412880807028
461,0.14193580544787088,0.12475024690037323
462,0.14160364072581974,0.12434893036193222
463,0.14059025235026718,0.11753630576487585
464,0.1393823104114939,0.13125067846570088
465,0.14001599557584435,0.11097382795781695
466,0.1400211516848271,0.12990175834754958
467,0.14038378538323748,0.11379197766794388
468,0.1403281538962745,0.12537070845963022
469,0.14033483391145976,0.12126603741908788
470,0.14201313419471845,0.1336904915241526
471,0.13955919166580977,0.11446720233605533
472,0.13786935526206553,0.12508732780802084
473,0.14055913437405426,0.11575872323567173
474,0.14107691408325138,0.11242675717802234
475,0.13889804426386798,0.1187115999517263
476,0.13885690075896376,0.11296398057288884
477,0.13945681165703971,0.11731128038087707
478,0.13720910913878387,0.12387454653550045
479,0.1362410630968163,0.12563177246512772
480,0.1335298977762437,0.11376634344688201
481,0.1330030540927493,0.11788983682936416
482,0.13354246868335123,0.11687762529528054
483,0.13335128290783033,0.12016301590644143
484,0.13400027191071057,0.11928631114529481
485,0.1349907084267506,0.11518977860416325
486,0.13295086501859682,0.10885865339784243
487,0.13288216382336673,0.10945748274923821
488,0.13173346460951244,0.11952924604519344
489,0.13243972815519528,0.1142794756401581
490,0.13326931832502897,0.12576311786220215
491,0.13271432498796545,0.12171910117649974
492,0.1349751648722027,0.12049311943902104
493,0.13302748823006025,0.1378558941445308
494,0.13469065905953523,0.12064115665037267
495,0.1327566892397795,0.12756403831694055
496,0.13081161413279124,0.10909015423673396
497,0.1329286663567094,0.1209393244989017
498,0.13384157392062884,0.13324148596444946
499,0.13622695339427557,0.1315893704329964
500,0.13192676686889845,0.10090245062369016
