epoch,loss,val_loss
0,0.0481913252553265,0.030405322247861927
1,0.020598254383939595,0.019242333337923433
2,0.01810519962046165,0.01640901146664587
3,0.017209296146147978,0.01563677233978921
4,0.016576330227786065,0.01596093000312597
5,0.01613146026079208,0.018585660293809238
6,0.0157141992388927,0.01606514681472672
7,0.015475031681119899,0.016760766291274473
8,0.015088533437776143,0.01648823305335885
9,0.014904651386052887,0.015289403462121563
10,0.014788326265580052,0.015659656637248862
11,0.014417811835366395,0.014899823139826062
12,0.014366029383426893,0.014720109528018435
13,0.014202595753530278,0.014645405817619772
14,0.014040378783633227,0.014171579815724648
15,0.013971356647715627,0.013940367300904566
16,0.01387173971777395,0.013259696776495678
17,0.013695741794284398,0.01365892455333072
18,0.013695871368356937,0.012901712473361722
19,0.013645243271046456,0.012982028963566566
20,0.013571048134966748,0.013464312559044539
21,0.0135083944835317,0.013145285322060508
22,0.013453763564414679,0.013282324581709748
23,0.013363914178786088,0.0128207914614426
24,0.013296776381346827,0.012706568358331992
25,0.01327237528631164,0.013492558451910172
26,0.013165752820740515,0.012975743333011791
27,0.013179348841908514,0.014070138992931204
28,0.013106262088495423,0.012937823353940737
29,0.013121678317798776,0.012550250771305253
30,0.012985708907186836,0.013515098688305903
31,0.013058673960283481,0.012936295804662386
32,0.012945697210597289,0.012904196227473153
33,0.012898712621381822,0.012696486395360813
34,0.012928381801284881,0.012612376642175406
35,0.012862900114603563,0.012857693285397058
36,0.012858008073475691,0.012378331353291683
37,0.01280502835005775,0.01355759593942399
38,0.012814360587376096,0.012598374803035195
39,0.01272221469765786,0.013588397479419673
40,0.01273830538255854,0.012969191851690596
41,0.012731661619991133,0.012883684646439908
42,0.012704397682291086,0.013100998077735711
43,0.012730921282636603,0.012323426879554173
44,0.012671064350277915,0.012924222334775677
45,0.012640890577854046,0.012616122784393448
46,0.012652510636975568,0.012887776705896293
47,0.012666999584834006,0.012906486788769218
48,0.01257767940125445,0.012090063243919508
49,0.012643461414846015,0.012348500525500284
50,0.012567861221815115,0.013056232587482883
51,0.012555781051601234,0.012707761687136465
52,0.01252998412212536,0.013178374150550691
53,0.01253232743933323,0.013152643152635092
54,0.012454009406424686,0.012151904454542596
55,0.012427415087905574,0.012463237026766423
56,0.012445792266851404,0.01195354951735096
57,0.012461943838698667,0.012022795532795396
58,0.012440651933899994,0.012003127235466286
59,0.012405491269499224,0.012350877988667554
60,0.012350107287540825,0.01227581478775509
61,0.012314927355167898,0.011936228734350974
62,0.012316803355066987,0.011984967487048422
63,0.012300087310075212,0.012011170554582593
64,0.012277601936529136,0.012345082903045135
65,0.01228781192229467,0.012337784580054413
66,0.012266705284550036,0.011822144340529632
67,0.012279610511930297,0.012339272451755723
68,0.012280983036548088,0.012052857525942491
69,0.012279759279794333,0.01259900630444806
70,0.012249464087907655,0.012831677796859895
71,0.01225409761973033,0.011935833040116443
72,0.012203470335874239,0.011931905895009379
73,0.012181999376573301,0.012111786175195692
74,0.01219828453459639,0.011608290464314575
75,0.012188697219486283,0.01200933827193588
76,0.01218772183958928,0.012056951466069624
77,0.012218181182549148,0.011989008721250754
78,0.012165923034725563,0.012243940800465366
79,0.012178016322954576,0.011760573964519773
80,0.012153234711067665,0.011841550918189675
81,0.012121151957543427,0.01222425226639799
82,0.012131248119805317,0.011962767710294529
83,0.012125674682698788,0.01271110133362689
84,0.012080073607414147,0.011838333132600519
85,0.012054448347455933,0.011767712642182192
86,0.01208711501224338,0.011732324387036985
87,0.012082201652368849,0.012254108813020491
88,0.012080611891204837,0.01210498607927753
89,0.012050257541470585,0.011714562923455652
90,0.012094963041075053,0.01189130131275423
91,0.012033690627277752,0.012427256963500019
92,0.012057072273298103,0.011918338356775327
93,0.012045585263148103,0.011917007994137833
94,0.012069300958075901,0.01220152785830551
