epoch,loss,val_loss
0,0.7802284691736736,0.7779861809893814
1,0.777985354875919,0.7782876437710178
2,0.7779610842386289,0.7778865403040467
3,0.7779607095136986,0.77827964805196
4,0.7779151452616151,0.7778796772803029
5,0.7779119010480318,0.7779200526680011
6,0.7693432074900638,0.6667869978152197
7,0.6667797537354258,0.6667867253199404
8,0.6668073536393294,0.6667655482185686
9,0.6668094003612772,0.6668223233140136
10,0.6668034238315254,0.6667663819440837
11,0.6667928467234076,0.6668327612261619
12,0.6667860312717496,0.6669312460546754
13,0.666786682475429,0.6667486746317104
14,0.6667819245463542,0.666773332378113
15,0.6667835669970241,0.6667448468007166
16,0.6667738234743897,0.6667865448199194
17,0.6667704310991568,0.6668296760424195
18,0.6667631928750454,0.6668776291771503
19,0.6667697488890089,0.6667317645721341
20,0.6667678071979533,0.6667442694195447
21,0.6667599860795259,0.6667369264526936
22,0.6667679253052499,0.6667362297439102
23,0.6667630223146201,0.6667794740821232
24,0.6667608633361142,0.666760383675767
25,0.6667565520557437,0.6667285365147271
26,0.6667576256682269,0.66677034430705
27,0.6667578569605324,0.6668177873857559
28,0.666755405460879,0.6667456478989745
29,0.6667552090813191,0.6667401367026582
30,0.6667522086180044,0.6667455797455742
31,0.6667528402027386,0.666759288843453
32,0.6667543174814685,0.6667348372729186
33,0.6667509126151416,0.6667397406793409
34,0.6667511888162232,0.6667448513856893
35,0.6667500937775895,0.6667288343604681
36,0.6667501131496315,0.666880213208589
37,0.6667496159614955,0.666757443051776
38,0.6667475467058824,0.6667466006858769
39,0.6667468105178009,0.6667223792513902
40,0.6667439611087688,0.6667302858149148
41,0.6667444453885207,0.6667322174491125
42,0.6667461032213399,0.6667633048949703
43,0.6667446154275306,0.6668763863537507
44,0.6667420999949323,0.6667269202970689
45,0.6667437242402371,0.6667232812486275
46,0.6667439073532848,0.6667339455992649
47,0.6667445947476115,0.6667366311212923
48,0.6667410239489142,0.6667367215783662
49,0.6667406084486674,0.6667378279470628
50,0.66673997579586,0.6667623493275039
51,0.6667415942069916,0.6667251887155822
52,0.6667400794321039,0.666780854129318
53,0.6667407467539092,0.6667995537481001
54,0.6667391942683022,0.6667184280994216
55,0.6667392032956517,0.6668207717888408
56,0.6667379983164594,0.6667186444213905
57,0.6667400042804449,0.6667227903311661
58,0.6667387561239543,0.6667421198956133
59,0.6667367550862006,0.6667235551637692
60,0.6667397451014863,0.6667751471102977
61,0.6667370557425328,0.6667199925512594
62,0.6667408078360291,0.6667535331645615
63,0.666735986021339,0.666733142992403
64,0.6667371006639302,0.6667333949292564
65,0.6667358258647683,0.666722725342876
66,0.666738441484854,0.6667233355583683
67,0.6667359945422608,0.6667505530210641
68,0.666736269873265,0.6667434211404388
69,0.666739134303163,0.6667223683953581
70,0.6667356424290899,0.6668233276892537
71,0.6667356936169381,0.6667559311348511
72,0.666735063730551,0.6667305079642359
73,0.6667370358474978,0.6668796762343376
74,0.6667361576482599,0.6667173234168117
75,0.6667340108555714,0.6667210311511018
76,0.6667360878551106,0.6667395749695544
77,0.6667350785131908,0.6667255177391375
78,0.6667361490192687,0.6667174768802842
79,0.6667355143084085,0.666725409888748
80,0.6667352252912357,0.6667817335862379
81,0.6667339927125236,0.6667307141105235
82,0.6667353240951185,0.6667358330698226
83,0.6667346998220326,0.6667418450634769
84,0.6667336825074265,0.6667267546464433
85,0.6667351132208411,0.6667250478238089
86,0.6667328164285333,0.6667415068995568
87,0.6667337582869928,0.6667756476118311
88,0.6667312810147455,0.6667598570546797
89,0.666735180776085,0.666726745417337
90,0.6667309487311369,0.6667297526861243
91,0.666735488732233,0.6667219250432906
92,0.6667305500305636,0.6667422672655091
93,0.66673396895933,0.6667287426314342
94,0.6667312218321239,0.6667179459081986
