epoch,loss,val_loss
0,0.051626732215968425,0.024979426370697933
1,0.021049441621937098,0.021851283275792676
2,0.01818347059222714,0.018312431730459405
3,0.017211658175851238,0.016852778902568533
4,0.016593846740272283,0.014922632111546123
5,0.01597837194661543,0.016829581720472567
6,0.0157304461054589,0.015248750412730366
7,0.015330526738355808,0.014552416726854391
8,0.015048025361414617,0.015212365330448813
9,0.014883993745317145,0.017139717178516294
10,0.014660435827960889,0.01406563507443844
11,0.014587518450553737,0.016573088428481635
12,0.014421088391816434,0.014494985289335547
13,0.014257582036030645,0.015272608332835119
14,0.014160035763227892,0.01563233853856254
15,0.01407659499179801,0.013527418523287359
16,0.013857208115302154,0.013345992527717248
17,0.01387396106574276,0.012786990817331203
18,0.013775923352501844,0.014672617423382793
19,0.013615206820898122,0.013633044511911739
20,0.013622875918543557,0.012900726171788151
21,0.013468685010571229,0.012960184538834
22,0.013502397210292246,0.013042625535750951
23,0.013338891594230066,0.012910598425874047
24,0.0133907872845969,0.013775164833657498
25,0.013448722264722353,0.012804173544585408
26,0.0132467036032491,0.013361939859967078
27,0.01329981385105566,0.013349454990465647
28,0.013204555013468657,0.01446153542336548
29,0.013211258503639429,0.013157626175813876
30,0.013191664804797311,0.012977067628417802
31,0.013118562075081053,0.01272060002059336
32,0.013078940152451247,0.01424322415457544
33,0.013034838721800198,0.013058402404540377
34,0.012932605082844979,0.012169116589867003
35,0.013006537669438848,0.01222111492304515
36,0.012942037218914812,0.01413621592055775
37,0.012915576914399877,0.012592796481702079
38,0.01285677002205867,0.013888646537904852
39,0.012858246459133544,0.013139070579250605
40,0.012824181430096514,0.0135803849947068
41,0.012781206299819957,0.012628114767483534
42,0.012735130347220684,0.01287186431788629
43,0.01286576444020374,0.012238317600014635
44,0.01275530955753789,0.012301437957928731
45,0.012775534098851484,0.012853539011281714
46,0.012687459171512596,0.013304740145673084
47,0.012712771852666428,0.012541758077260726
48,0.01265544980881037,0.012488050074790312
49,0.012660207371486832,0.01203736810535932
50,0.012651467187420176,0.012752214689778335
51,0.012555526653076798,0.012461944124095197
52,0.012542941770957895,0.012606629999654909
53,0.012571642984186138,0.013111956406930097
54,0.01255485086113061,0.013025891881149549
55,0.012520572349445007,0.012513244902211295
56,0.012511683138285658,0.012281501836261293
57,0.012477938617255099,0.012643802428973963
58,0.012464905383117578,0.011947449779244274
59,0.012488014404307413,0.012490157519118217
60,0.012457291167821774,0.0129937582073858
61,0.012406298558674847,0.013079757215663162
62,0.012427770148224836,0.01218916405889
63,0.012404864681085589,0.012580757414825058
64,0.012389232352159253,0.012830602630935887
65,0.01240862965237407,0.012777087408078664
66,0.01234705625936726,0.012968153892450091
67,0.01235052479208904,0.012045350696235229
68,0.012333464125723163,0.011842804106770468
69,0.012324963727940388,0.012094401699437693
70,0.012352479622975891,0.012304555149587153
71,0.012308981183751318,0.012559230536888018
72,0.012333383250930936,0.012453493196286131
73,0.012296387778633767,0.012130450480906455
74,0.012344905455795665,0.0125244162690181
75,0.012303999307322592,0.012325052915617047
76,0.01225321056076899,0.011840251092764343
77,0.012243020303386264,0.011935327310697465
78,0.012239131483413997,0.011970488886549958
79,0.012216790434509428,0.012204839827645357
80,0.01225610517124486,0.012157088856931508
81,0.01223155524595426,0.012777320180023574
82,0.012225265027917336,0.012261403509168411
83,0.01222392873062115,0.012005257806174513
84,0.01218190353407483,0.013786964799755856
85,0.012166140362443064,0.012771590280048456
86,0.012184754863965218,0.011968415108493185
87,0.012166470765657906,0.01275801069932821
88,0.012152947046685916,0.012013994306141034
89,0.012078219570105728,0.012141047495766255
90,0.012114988727177891,0.011898362484504064
91,0.012131345328344633,0.01232260320307895
92,0.012166591607415013,0.012042975501520167
93,0.012118484463039427,0.012232532067959273
94,0.012116290481781287,0.011925018960078509
95,0.012106067597726238,0.012315009975755038
96,0.012074179038301096,0.011799523617526881
97,0.012058367096813549,0.01218445127501751
98,0.012044303531678088,0.011859621415400031
99,0.012055705640080417,0.012339174986883961
100,0.012087320769170563,0.011972939960714014
101,0.012019682179538067,0.01189557750970495
102,0.012066679121802556,0.012449360559821572
103,0.01207216559281044,0.011986834367288845
104,0.011983854578335713,0.01179154974919173
105,0.012039238622198634,0.01191174303211512
106,0.01199567138208429,0.01219538855262415
107,0.011985788655634304,0.011930635920899086
108,0.012015114322380551,0.011574904855904598
109,0.011921722800471074,0.012143493223722756
110,0.01197102299457224,0.011688027563262222
111,0.011958919041189264,0.011941327778137204
112,0.011973608263089162,0.011974635708235926
113,0.01193662930973498,0.011867272285351681
114,0.011944374658000328,0.012063518901431827
115,0.011918893752412582,0.011618245547873062
116,0.011979230327014742,0.011472732267312465
117,0.011912246467961612,0.011829877112791053
118,0.011956278547416644,0.012241856763532233
119,0.011898413964892416,0.011491171698139116
120,0.011924861386882075,0.011481186337121958
121,0.011923571485789942,0.011565733314595802
122,0.011927784295224795,0.011775112497821339
123,0.01191801093701397,0.011759626301509275
124,0.011919618758349458,0.012195657750143307
125,0.011895954358267088,0.011614689416721204
126,0.011910185725345029,0.012279601628538545
127,0.011849301994706025,0.011539992314784166
128,0.011902603162333885,0.011754865610680863
129,0.011913404735227619,0.011606302908240418
130,0.01186082951405399,0.011922382705246396
131,0.011883743727880133,0.011584849303897941
132,0.011822063643374625,0.011853696643917938
133,0.011832175561197212,0.01165620862060312
134,0.011835946241185804,0.01187299380065046
135,0.011847767086396867,0.011798160665994395
136,0.011823662722990371,0.011699665555032547
