epoch,loss,val_loss
0,0.051614603301227545,0.025093273377559025
1,0.020241175659269667,0.01997872200279171
2,0.01813464746337877,0.017027442395761056
3,0.01729310647835826,0.017684955811751984
4,0.016501487017801346,0.01737719614234367
5,0.0161780600175016,0.014936488159185751
6,0.015855514281764294,0.017975567341331513
7,0.015720901848102646,0.01523614039103831
8,0.015298618954325568,0.01436147923597479
9,0.015008664914934352,0.01490684989054061
10,0.014831424936909737,0.013649523847969827
11,0.01453312143765373,0.015444346017229646
12,0.014425034506559735,0.014433055863283556
13,0.014306685840945797,0.014291421319392716
14,0.014192341635947396,0.013823514935507372
15,0.01396525608390533,0.013879072332925744
16,0.014041226800851167,0.013518805375724809
17,0.013730555500117987,0.013827505480803123
18,0.013524707556981725,0.014049917471042785
19,0.0136034928673016,0.014246485865774285
20,0.013503158451174014,0.013692442046723353
21,0.01348074001587256,0.014448039174523601
22,0.013394927804968499,0.013797151203505307
23,0.013362303681782449,0.012758268349371832
24,0.013300739196186271,0.013050550345340674
25,0.01328032801668739,0.013756027226116758
26,0.013245094638001848,0.012984733440665986
27,0.013115588377457804,0.013995056397861642
28,0.013161649868581307,0.014262995629042164
29,0.013081984300835344,0.013629773518916396
30,0.013029256547645267,0.012673427581454328
31,0.01288400892093542,0.013160932281287965
32,0.01297382243762306,0.01308471380776862
33,0.01289329006331465,0.012174451389065748
34,0.01286492690404699,0.012998567679642744
35,0.012882905667728697,0.013506774539151056
36,0.012803022554154248,0.01255885567469869
37,0.012766502190982425,0.01217553332059762
38,0.012732764840054747,0.012802855261409696
39,0.01273747807490239,0.012094709250345715
40,0.012729732742142445,0.013249981979245583
41,0.01271045369176795,0.01262648340462529
42,0.012669972925537162,0.012718190747329378
43,0.012661359433275869,0.01231569497760561
44,0.012648387251523148,0.012380532075468423
45,0.012533507779268415,0.012935199343573959
46,0.012574538089861212,0.012241144762570894
47,0.012526852876524585,0.012727698022800106
48,0.012514551470898718,0.013057661193328223
49,0.01251810148589669,0.012844041381817006
50,0.012462643553941877,0.011646799868892499
51,0.012474351327156026,0.013346743084970981
52,0.012416918158870483,0.012660781128179494
53,0.012437039799855155,0.01218484181670412
54,0.012362488857495905,0.013547805484116226
55,0.01243037313186254,0.012489226588484816
56,0.012374180962154637,0.012085123367089935
57,0.012420568437120178,0.01272843453349088
58,0.012324658321716302,0.012106254229104845
59,0.01239095792032153,0.012942339975396101
60,0.012320476772136423,0.012534054643740281
61,0.012335445564042764,0.012056598515150417
62,0.012303048639914375,0.012005739817603793
63,0.012243515924441131,0.012342637234711766
64,0.012277800652277536,0.012331326371497907
65,0.012247222141059508,0.01260344357167373
66,0.012303335052370367,0.012224776179948013
67,0.01219095103345298,0.012323154214649431
68,0.012231204833348903,0.012125565176344392
69,0.012234267660579938,0.012913012298900938
70,0.012206762136465493,0.012284713227847226
