epoch,loss,val_loss
0,0.04286104196508562,0.020187152918455915
1,0.019415359730751782,0.01834332250964553
2,0.018256056487105314,0.01567883202089713
3,0.01712280974037895,0.017560968548983855
4,0.016576057462864596,0.01711156918406117
5,0.01598771313348509,0.015124491482011733
6,0.015394810066873939,0.013484504456093383
7,0.01511689216301605,0.014769231581658347
8,0.014807803727720621,0.015566540353240505
9,0.014636159803824772,0.015418145626265712
10,0.014402050640673583,0.013349393067451623
11,0.014101876642559583,0.012994104634425036
12,0.013922130688162145,0.012988622166290325
13,0.013951763722405799,0.014165833953389015
14,0.013878404679297067,0.015451669243739793
15,0.013715023384180233,0.013699835108560753
16,0.013552014212376734,0.013309788910519545
17,0.013492308505858312,0.013965493271002551
18,0.013458220274661106,0.013434378945132342
19,0.013367299629660722,0.014017168573443558
20,0.013278824916160642,0.012536605605139183
21,0.013208349690595983,0.013416907616957985
22,0.013086377032261582,0.012327231084997246
23,0.01305837143754679,0.012829000669677116
24,0.012924118597907989,0.012541827004375145
25,0.012829567555420134,0.01297189369936365
26,0.012680354996631402,0.012178088028085586
27,0.012730371290700888,0.012358827829804669
28,0.012677545459399376,0.012000503549560277
29,0.01255033169297399,0.012096435571130984
30,0.012613212093871623,0.012128168279790404
31,0.012483958582091864,0.011938821548415768
32,0.012529469250631272,0.011806181006170532
33,0.012431969516779655,0.011851876086691769
34,0.012416601902857344,0.011924685825762471
35,0.012394886192979692,0.011983457215074865
36,0.012390355044174895,0.011949849849284879
37,0.012314415875782815,0.011721544660091695
38,0.012303000806391459,0.012267348389360805
39,0.012283341463500574,0.012131886265561834
40,0.01225922321701423,0.012165438754035729
41,0.012252733179479587,0.012147892851188372
42,0.012188972767455135,0.011904368844927836
43,0.012213411168848741,0.012353103314399275
44,0.012182028383079002,0.012154069314560582
45,0.012165361250511373,0.012125072894021684
46,0.012163684468412832,0.011898879374079314
47,0.012084666735556948,0.011944398875567813
48,0.012079554460187936,0.011661798415922794
49,0.01209946406564162,0.012709132691489407
50,0.012085071628770382,0.012904935975376489
51,0.012038584548121506,0.011661352304090046
52,0.012017750162979098,0.011669502900474273
53,0.012073056850445253,0.01270183060808158
54,0.012042531663665888,0.011861196185274987
55,0.011989942074221464,0.011904101592324507
56,0.011994496467388744,0.012225904214951596
57,0.012057432109367942,0.01350297607370553
58,0.011981608157402134,0.01255278576941925
59,0.011963575494558823,0.01179032410603599
60,0.011957328687985064,0.011490846839883636
61,0.011942649693920194,0.012428657254828118
62,0.011902030917752918,0.012303781132248436
63,0.011906700939262679,0.012168664455635672
64,0.011891381139321299,0.011711666833784976
65,0.011859604942034004,0.01169966467408921
66,0.011879142695950303,0.011711571880017705
67,0.011883218554499779,0.011539171801570332
68,0.011861300294293753,0.01134426676559611
69,0.011854976866572704,0.011937401251909011
70,0.011830720522651574,0.011807251532582877
71,0.011822552638112696,0.011870287119806108
72,0.011826233273095397,0.011878876320592523
73,0.011790822476898584,0.012321350893130521
74,0.011800093677343698,0.011599047280034563
75,0.0118102487527562,0.012378113166366706
76,0.01176004902594164,0.011521822969352932
77,0.011809250114038973,0.011835181372004466
78,0.01174173942883177,0.011679485128272703
79,0.011751078340172525,0.011430200088131368
80,0.01178777882547623,0.011753538564753443
81,0.011734269342246115,0.011290943818559718
82,0.011689481768288294,0.011737448423546243
83,0.011732407070754925,0.011789802295010232
84,0.011727140908520119,0.011837819186281922
85,0.011749798117952645,0.011613913385137434
86,0.011720092024083877,0.011604875095059202
87,0.011734482438430519,0.011738394252567669
88,0.011657548636398998,0.01198498549924299
89,0.011741519078035103,0.011451245551332647
90,0.011695696049628102,0.011114158066770723
91,0.011682911710237673,0.011614360496235397
92,0.011655017881775004,0.012125076224135407
93,0.011659473202642368,0.011442691212053187
94,0.011635617062363572,0.012381517093989157
95,0.011631424909417161,0.01120110336533995
96,0.011660227974005427,0.011563817423216018
97,0.011658556920537232,0.011343723424842059
98,0.011670754249703713,0.012154639561755338
99,0.011626272812375554,0.011891281848805713
100,0.01164647768779632,0.01157561332061332
101,0.011654004275203626,0.011743882377504858
102,0.011675104814332858,0.011237741721142315
103,0.011609465842970065,0.012079599227007506
104,0.011588207828361547,0.012565014975390422
105,0.011636806588837466,0.011328939304550735
106,0.011584404695088762,0.011412415671030582
107,0.01162179912409431,0.01149014486069271
108,0.01161285882865119,0.011940773940707555
109,0.011556684107896191,0.01106786589385484
110,0.011579499726096485,0.011664981160211208
111,0.011580834249299643,0.011962043213896064
112,0.011584111628583735,0.011563537589669524
113,0.011613329614098451,0.011725105832864718
114,0.011566323845537048,0.0114923964173674
115,0.011550611857353385,0.011448820731221299
116,0.011562670344369667,0.01142946105709221
117,0.011531708471317195,0.011735266786780458
118,0.011543091897261232,0.011560357480816007
119,0.01152720350249889,0.01171923402151458
120,0.011503590819112458,0.011376807540100502
121,0.011536846351690921,0.011671245151266418
122,0.011545476375497965,0.01159394766220236
123,0.011546269162209567,0.01132011402573982
124,0.011518572557303574,0.011193971033612493
125,0.011500457763151051,0.011204721311352242
126,0.011485352905153371,0.011185096541220881
127,0.011524209794178628,0.011957841413211143
128,0.011492085597582484,0.011470294874577458
129,0.011512232077545769,0.011454943497723
