epoch,loss,val_loss
0,0.04576508555476456,0.0218245157274064
1,0.019652285597429316,0.021555926995559898
2,0.01794149670484413,0.018244280010720638
3,0.01685264591763183,0.016714195248950504
4,0.016505515444852945,0.015639787603160437
5,0.015683035290706866,0.015917304746122574
6,0.015554189412683645,0.015212186484623044
7,0.015264941130182862,0.016603944698353263
8,0.014896492469331625,0.015246464125812053
9,0.01478060856643202,0.014888039683326894
10,0.014638111029705293,0.013618283513609884
11,0.014554830274631834,0.014842735141256903
12,0.014306549256212267,0.013868678741101592
13,0.014228332536424103,0.015721449058586107
14,0.014089111875179106,0.014492224634303792
15,0.014007636898447773,0.015581118479075267
16,0.014004980434146455,0.01356117128216599
17,0.013801792886054568,0.013402623934185978
18,0.013752369676136578,0.014941841883413845
19,0.013661490020619579,0.013378609638319121
20,0.013587560579995675,0.01413005415867857
21,0.01354796725740321,0.012918336325262675
22,0.013463018109418717,0.014225794651335286
23,0.013399700325305972,0.01351359889290247
24,0.013277979700564525,0.012634733540673853
25,0.013262822452310261,0.013353740647157872
26,0.013248891750401942,0.013352608580891016
27,0.013125803872497828,0.012991128248109416
28,0.013111870125527923,0.013415402457783596
29,0.013062688236657606,0.012909098025457586
30,0.013093039834848297,0.014521077065901928
31,0.013067491221760567,0.013014739363572142
32,0.013012823221674285,0.013335976070694385
33,0.012930436699116171,0.012439346048638927
34,0.01290708224858764,0.012945690762630616
35,0.01288361537435569,0.013759239458897274
36,0.012857524816747627,0.012991612979555249
37,0.012764349190080682,0.013114516568779206
38,0.012798370208693623,0.012891185216642639
39,0.012769305322510707,0.012757241963951966
40,0.012748483886253744,0.011995058378699252
41,0.01270908994774434,0.012476693046170636
42,0.012636190416699253,0.012170156617891552
43,0.012569985753588015,0.013735558676346212
44,0.012644169817429126,0.012417807928737134
45,0.012512874354632848,0.012633135036632381
46,0.012543798020534442,0.01246114695356886
47,0.012562792899729449,0.012240415744520446
48,0.01249852533405635,0.012226754463931762
49,0.012541187954772846,0.01204110113372356
50,0.01256134630812833,0.013781772273830682
51,0.012440514736530467,0.013035178635611428
52,0.012428773158405883,0.012129600513865132
53,0.012417061259263007,0.011961532542690006
54,0.012367939360749787,0.011986665130955705
55,0.012413286150780786,0.012333439969949924
56,0.012314281771260607,0.012787386862371606
57,0.012336279770937928,0.013044891584082218
58,0.012368270753814555,0.012406752680060881
59,0.012309705580133556,0.01271427603757411
60,0.012238855686446606,0.011652739747212483
61,0.012323221294015729,0.012155925526882223
62,0.012217912869114417,0.01246256021593256
63,0.012211650270934214,0.011991441938979898
64,0.01222113362961007,0.012251582745434924
65,0.012174358941381233,0.011899037379078178
66,0.012156391255151784,0.012036569156769487
67,0.012170285723594262,0.012090650013192712
68,0.01214441135299655,0.012262699944856889
69,0.012106481785005521,0.012631109329610693
70,0.012029408161604567,0.012109009209770719
71,0.012076739376433939,0.012774353413368869
72,0.012080401583330779,0.01153590005797059
73,0.011999376126786292,0.011603686214879932
74,0.012035667592966324,0.012081240643065413
75,0.01200258831681803,0.012659459209841475
76,0.012000543422880842,0.012163354311295537
77,0.011975904853000848,0.012199713973786044
78,0.011951932377805232,0.012097271357572848
79,0.011954305114716856,0.011625820323455126
80,0.011928219485546919,0.012018783109045354
81,0.011912760204073138,0.012245598552799402
82,0.011914142640896085,0.012133052910472413
83,0.01187255761280619,0.012006080452879665
84,0.011885009934558665,0.011636588049049561
85,0.011879383558713466,0.011625184977967893
86,0.011916487192965142,0.011819303615328396
87,0.01185676696012681,0.01177930532083396
88,0.011840826453687475,0.011753412376322018
89,0.0118601794394589,0.011511911630223762
90,0.011818981372996116,0.011657500327114136
91,0.011834119026721853,0.01150350404149915
92,0.01179453895523462,0.011629529084742218
93,0.011807304618206222,0.011807331029630773
94,0.011765011573196234,0.011765803922679525
95,0.011788058260691662,0.01130326367618872
96,0.011802420723713524,0.01192960558694882
97,0.011721722936021984,0.011528419863164573
98,0.011753544775985229,0.01153584535813731
99,0.011744175459213652,0.011478137865514673
100,0.01170256740487226,0.01133100463692145
101,0.01169122816958722,0.011699635111183741
102,0.011682755716991155,0.01146904975406955
103,0.011686650443338938,0.011444350482697227
104,0.011642713803377466,0.01196424787859467
105,0.011669633050717923,0.011359811879731438
106,0.011697015310744206,0.011191208461396599
107,0.011653321097841443,0.011299234030135068
108,0.011689083950265694,0.01195954976755913
109,0.011617623430990404,0.011307771291777898
110,0.011611430755740242,0.011542999861350574
111,0.011593325068590364,0.01140540094038578
112,0.011564136270130558,0.01161957515066226
113,0.01156761751573642,0.011387073638717235
114,0.011521337098581653,0.011582582764253575
115,0.011550861147365012,0.01135182353037019
116,0.011516553049471285,0.01115255063450514
117,0.011490132855685163,0.01116410443286594
118,0.01146506614537591,0.011129281762756278
119,0.011495345915647364,0.011519566410805836
120,0.011445542741020387,0.011308193623224648
121,0.011396241672601806,0.010997946287456798
122,0.011372304081359601,0.011487832705192175
123,0.011298084593951152,0.011033308094658568
124,0.011253996882334506,0.011611739500765468
125,0.011253568269988802,0.011041166225249506
126,0.011202042366857679,0.01123562327888852
127,0.011158907573582736,0.01103601908916723
128,0.01115342380490293,0.010969713932508719
129,0.01111890111028875,0.011014230531772076
130,0.011133054693560645,0.011022961826038272
131,0.011099346628987783,0.010879786379598359
132,0.011096841503612643,0.010803071650729582
133,0.011064355936355423,0.011164867323788609
134,0.011060292534813894,0.010933497946053078
135,0.01099820819168256,0.01078428486061673
136,0.011023661363723725,0.010958174643367898
137,0.011024821521823163,0.010852473520814782
138,0.011022654755722082,0.01121996777367873
139,0.01097622616313788,0.01071847305949731
140,0.011013885627356222,0.01057626578365233
141,0.011002705891215166,0.01063564533723643
142,0.010971533663525917,0.010878451458333296
143,0.01094555494660331,0.010832603914529159
144,0.010950640988339354,0.010860463718955334
145,0.010971082486910859,0.010835325481975567
146,0.010918588776928901,0.010747572273089928
147,0.010970081870995843,0.010818486395419089
148,0.010979117552877664,0.010904768171717896
149,0.010932184929640161,0.010990669576002853
150,0.010933305489157469,0.010491449388654593
151,0.01092349977238962,0.010778842253088212
152,0.010930684437817449,0.010849677581598903
153,0.010934766509183692,0.010703902172095723
154,0.010921166299905121,0.01064744649302427
155,0.010945884522805774,0.010584983567501564
156,0.010922691617062186,0.01069095879978045
157,0.010927488210857518,0.010803454827803831
158,0.010895131659336565,0.010578299778289446
159,0.010906128763497898,0.010605924452190512
160,0.010859192547912292,0.01080297163454238
161,0.010897472686681047,0.010970285198843065
162,0.010901902095510825,0.010844858536131624
163,0.010888405007673406,0.010906502753773487
164,0.010860087412229694,0.01075661671267032
165,0.010873586174206981,0.011175814329671949
166,0.010858668832292546,0.011157181931118811
167,0.010854352747767604,0.011045491550737072
168,0.010836620861109153,0.010816313190473516
169,0.010816881350881649,0.010355577302666811
170,0.010848990059551701,0.010928127797731838
171,0.010815008471537468,0.010883779190573147
172,0.010839241125814941,0.011160780350786284
173,0.010822912100540075,0.010696447411408792
174,0.010805857300103782,0.010572928497128688
175,0.010830027244730115,0.010480173249675826
176,0.01085076853846157,0.010888598482621368
177,0.01080972464610896,0.010543304906866835
178,0.010844262363154335,0.010953388064545082
179,0.010812470854527526,0.010543953399948092
180,0.010827446580227251,0.010879170838697228
181,0.010846498012799587,0.010719444607812033
182,0.010801952052630966,0.010815233691010818
183,0.010803559450316429,0.01047809784330668
184,0.010807029619191073,0.010386686826647068
185,0.010813525925666376,0.010596648395227884
186,0.01080945501789489,0.010635820281675673
187,0.01078279944487225,0.01087491283419706
188,0.01082256737962572,0.01087168958823823
189,0.010771600661507667,0.010810833557904062
