epoch,loss,val_loss
0,0.33135218261409816,0.3167167646191491
1,0.31244154989147643,0.31125183749264773
2,0.30425567733202813,0.3010349714012718
3,0.30451747619336267,0.31453424256997686
4,0.30846112770594947,0.3131988904635174
5,0.3067079510310476,0.30332062669221865
6,0.30343766166842717,0.3055558874673889
7,0.3028802959669789,0.298075342481778
8,0.29420111528474935,0.2900426501162709
9,0.29014117905585696,0.289874794127768
10,0.2875200552370051,0.2871933646188445
11,0.28381483334240964,0.28275063131136885
12,0.2789707251851984,0.27613113289544594
13,0.28586793419637746,0.28242734394491237
14,0.2799904334167544,0.2810745728632175
15,0.2770446701009544,0.27694147730565205
16,0.2763426601588964,0.2754124519257162
17,0.27973183670299323,0.28574040655602406
18,0.2850217246126643,0.2878181308084524
19,0.2791087937702854,0.27258403900931366
20,0.2831942840969915,0.2756224733725155
21,0.277019911976479,0.2756802334546478
22,0.27443508110303194,0.2741598672547393
23,0.27211056699415,0.2693798857334569
24,0.2698624585059097,0.2673657530626163
25,0.26616849626401823,0.2649562230955548
26,0.2650508316878459,0.2614373556487468
27,0.26502031374940105,0.26124348358531213
28,0.26249433692982443,0.26441459005497153
29,0.2609180868994132,0.26001093715970314
30,0.26030340793130874,0.2584073331027682
31,0.26290606403593825,0.33486952986083074
32,0.3102172001553096,0.2970882131355714
33,0.2872770439467127,0.28229802132429055
34,0.28201591753237826,0.2822788480754527
35,0.2800685980354996,0.2785661546212063
36,0.2784503216979553,0.29754658015158203
37,0.28109535974838273,0.28166968939383386
38,0.28519583698347223,0.2953741486995072
39,0.29066931871737506,0.28796857035033047
40,0.28750632231910644,0.2872124840141566
41,0.2862773413995473,0.2864354231998313
42,0.2856865588673871,0.2846022674721249
43,0.2852336487872042,0.28371200501189614
44,0.28441648541701786,0.2834904571582035
45,0.28431340921327747,0.28399296708834293
46,0.28393263923083184,0.2830742226991488
47,0.2838146350980043,0.2832546041133184
48,0.28343778845372436,0.28464801249630167
49,0.2834575292375162,0.28520847458301235
50,0.2839491713128025,0.2855786860353757
51,0.2834137233553363,0.2882635630049758
52,0.28307252274238043,0.283927909524166
53,0.2825120794717118,0.2830803088708571
54,0.28208057200320236,0.280938402653305
55,0.28169570798032,0.27958710776272966
56,0.2814077815319375,0.2795324802704467
57,0.280850441794363,0.2827951831959229
58,0.2811961599665104,0.28209533491822425
59,0.28131021798062,0.27947807753048454
60,0.280366595131721,0.27995961901585514
61,0.28004308728922567,0.2794543699123959
62,0.2797510269269955,0.2816503116156797
63,0.28408789993833294,0.2900529520875747
