epoch,loss,val_loss
0,0.29162332940277913,0.2507774236640689
1,0.255023346327954,0.2485891561528878
2,0.24623173532440223,0.24710528317312602
3,0.2444092700307032,0.2452592452680773
4,0.2434990909829033,0.2425220395367072
5,0.2437830870981506,0.24738059676860202
6,0.24332695948682148,0.2421938031323801
7,0.24266633628417167,0.2433150521911028
8,0.24199931714222203,0.24144855904927287
9,0.2416067700401294,0.24102078319395634
10,0.24131819947088937,0.23977413975825532
11,0.2411097640054022,0.24342960900176483
12,0.2410555158039744,0.24119044940304174
13,0.2409342698556342,0.24009980308369755
14,0.24107499380144093,0.2403603352094694
15,0.2408252534010618,0.23940508946153058
16,0.2402576875927256,0.23897756370344592
17,0.23999621668498483,0.24134689776466509
18,0.23949424633019262,0.23983098619456544
19,0.23925290845757385,0.23950897698197293
20,0.23943048337404485,0.23770161053046712
21,0.23907528157166535,0.23892924306001265
22,0.23913737161339615,0.23907321485695918
23,0.23914745700159232,0.23892089596346033
24,0.23920601723100737,0.23882693031122107
25,0.23940313790889858,0.2405067165018351
26,0.23943313713863695,0.24141822389570294
27,0.239365418424471,0.24171505940176882
28,0.2393223546344123,0.2388957697124865
29,0.23923852554947542,0.23848833500068772
30,0.23935273096120233,0.2397472834789386
31,0.23931955400226024,0.23894693920625507
32,0.23918621249788766,0.2380707653823008
33,0.23932510294574055,0.2394724014055663
34,0.2390985889293307,0.23837848899161243
35,0.2391013564477912,0.23673842238128515
36,0.2390031326982043,0.23862579529597802
37,0.23914437668977215,0.23904711783120458
38,0.2392385000173899,0.24106098391591985
39,0.23919008528705027,0.23913737027167145
40,0.2393256271604916,0.24132769900038192
41,0.2392792934589058,0.2391368498012788
42,0.23943818813795856,0.23825637391682394
43,0.2393784951463306,0.24253856750012573
44,0.23945617221361346,0.2398010987226852
45,0.23950091066906493,0.23987668279878907
46,0.23981945692516154,0.23858041752015124
47,0.23955351114868642,0.24014833344891962
48,0.23975456923508434,0.2412225207359469
49,0.23989137991083612,0.24145272462360484
50,0.2398171050966882,0.24060761814476847
51,0.23993052038357413,0.24157735830042054
52,0.2398088417595906,0.2386556233161062
53,0.23991062612437325,0.24064579744835773
54,0.2403802333963956,0.24032265219569865
55,0.2401417177393854,0.23873429341446065
56,0.24030843291946832,0.23955282053800672
57,0.24033010140549746,0.24123002831025112
58,0.2400781962809136,0.23845535896618533
59,0.23993050264154406,0.24064510031629005
60,0.23987177616472152,0.24137296866928393
61,0.23988119819514947,0.23830714360785088
62,0.23960288958869677,0.2395609415885305
63,0.2394957009026949,0.23802062478607436
64,0.2393731899636922,0.24014848805875785
65,0.23907600565970563,0.2380918426690557
66,0.23914742243471002,0.24049212847672397
67,0.23937046013290075,0.24154767208242378
68,0.2392268606560598,0.23866783211855974
69,0.23909974364425352,0.23913292725582996
70,0.23917736531757147,0.24064503518398483
71,0.23913188536556887,0.23862974470350434
72,0.23925409953204466,0.2378447023709176
73,0.23902646706496877,0.23783125258517623
74,0.23916699547323583,0.2440335957220246
75,0.23913589807794533,0.23891470628925074
76,0.23924328741743314,0.23818785053308122
77,0.23896070685889795,0.2382821409059681
78,0.23909839664360316,0.23896253714668722
79,0.23902873625810578,0.24151997070615464
80,0.2390788563256927,0.2421730437213827
81,0.23917575933926588,0.24011793862013903
82,0.23900315774192246,0.23901570577177364
83,0.23927436924452405,0.23836462120889393
84,0.23908922324577966,0.24004706045305438
85,0.23908426053970933,0.23919091316641272
86,0.2391585124303683,0.23941400935307391
87,0.2389543144632396,0.2380185235694533
88,0.23898805998307432,0.23778605228253208
89,0.23908813365643544,0.23720874131055167
90,0.23883654214709782,0.2382404757068208
91,0.23890814163106427,0.23833950088545386
92,0.23903061678226617,0.2387939173119597
93,0.2387969555805246,0.24028509238995052
94,0.23896325168778285,0.23977873409086076
95,0.2388081220354584,0.24408483288847
96,0.23892609819734126,0.2401797137654665
97,0.2389840651199305,0.24281883439682747
98,0.23895413794820544,0.23865624604821675
99,0.23905006951565366,0.2385191768878261
100,0.23912377539369986,0.23929884766346843
