epoch,loss,val_loss
0,0.1798353667834775,0.06475985635016128
1,0.055874106798061936,0.04901377383351985
2,0.04831358757790187,0.04754801689931607
3,0.04809593450840857,0.04862294944727995
4,0.04806281723897996,0.048472486700989074
5,0.04806293326792576,0.04819536675723312
6,0.047830331933607965,0.04790480074714561
7,0.047830430588288175,0.04771650788663124
8,0.04790311919258748,0.04780112870549158
9,0.04780811806180351,0.04868405160877116
10,0.04790828015050776,0.04843824373259729
11,0.04786999987737595,0.0489304481278561
12,0.04781388754782964,0.04787019765461724
13,0.04778040475774107,0.047831837737663765
14,0.0478025532821171,0.04865483129316178
15,0.04787456771011928,0.04840644945014906
16,0.047804933096424376,0.04746861741440731
17,0.04769657634877615,0.047663152156119847
18,0.04773210301149568,0.04759683128925601
19,0.04775658253875139,0.04876739245669618
20,0.04770342749859884,0.047755987213626096
21,0.04777808704649468,0.04747890544601002
22,0.04768466001017679,0.047812388852626765
23,0.0477429799955907,0.04778921586809049
24,0.047764654498365665,0.048217576155887405
25,0.047664513583663554,0.0477386669806354
26,0.0477189772816704,0.047302412158782406
27,0.04768673151278858,0.04864554033095007
28,0.047674730777454606,0.04770958742631074
29,0.047678210305795964,0.0474872088564035
30,0.04756676538182582,0.04792476027921701
31,0.047710136295282105,0.047713099381259415
32,0.04761518237533138,0.04753320964660434
33,0.04761614509040027,0.04742267118339098
34,0.047602989089241224,0.04751581639851184
35,0.04756290424945686,0.048742772098380745
36,0.0476360290298621,0.04855613069110436
37,0.04759226012513411,0.04789610325572711
38,0.04755905418426728,0.047957615895989195
39,0.04757163912165079,0.048228099215966845
40,0.04754181797478458,0.04807881547260115
41,0.0475541879188457,0.04753920036326174
42,0.04754959164167956,0.04752920180465071
43,0.04756695265583188,0.0477207618153227
44,0.04756139753182396,0.047197816941972406
45,0.0475410145151315,0.0487245602890461
46,0.047465584400913224,0.04727109443122887
47,0.04756399077459348,0.04790527804886251
48,0.04750304877591267,0.04757696918219963
49,0.04754657242789591,0.047388754629227904
50,0.04747674491950314,0.04767913309873421
51,0.04747885293204435,0.04769305453504176
52,0.04751523324012232,0.0475197204615812
53,0.04749412706001199,0.04717991474924731
54,0.04749560439668828,0.04726827496864143
55,0.0475731168231137,0.047337521743779115
56,0.04743949776525787,0.047738653405524654
57,0.04742935892465494,0.04766510469925714
58,0.04748157337367487,0.04764170600976075
59,0.04745069254401157,0.047596567566929225
60,0.04748402939265152,0.04729209969668475
61,0.04747737298230473,0.04942641503103342
62,0.04743582486278481,0.04711007104558839
63,0.047462284955070266,0.04736227769442873
64,0.04745568805705491,0.04737872154626116
65,0.0474052750851682,0.04821774433789615
66,0.04746435562835084,0.04734033526119136
67,0.04743708094372023,0.047755297499796304
68,0.04743527531695309,0.04753826617688858
69,0.047450342124028745,0.047353631557327795
70,0.04751845744463037,0.04731470844822318
71,0.04736616276353479,0.04804325219605415
72,0.04748276168172308,0.04731414335079332
73,0.04748435908977648,0.04780801363589261
74,0.0473450845290574,0.04807611864762882
75,0.0474594578810995,0.04749160152349118
76,0.047380434133285146,0.04772397406816765
77,0.04746113166504865,0.047379389581665245
78,0.04738965053126204,0.04783854492731986
79,0.04746418674703506,0.04745730416350884
80,0.04735242561262241,0.047292530689544345
81,0.04736035494215721,0.04725631596939528
82,0.04742780006635818,0.04747938739331388
83,0.047374574093819614,0.047948150215604314
84,0.04745254241865125,0.047529399497897584
85,0.047357294721890694,0.04730698119058041
86,0.04741779914487609,0.0473667241856397
87,0.047353406102477694,0.04760525390305854
88,0.0474570458181661,0.04809164743938123
89,0.0473743641003073,0.04734034409074682
90,0.04740855164325637,0.04742613601503451
91,0.04736429962406246,0.04711731505633906
92,0.04733962898732995,0.04855691924420698
93,0.04738589203942546,0.04737867608125415
94,0.04730447907176473,0.047803486023324626
95,0.04737453650590851,0.04739840536568705
96,0.04744842404024683,0.04726096074484236
97,0.04734976320779867,0.0472077931782441
98,0.04736920533557352,0.04714643981692917
99,0.0474403449725047,0.04730586285078817
100,0.047320645141730205,0.04959658855585574
101,0.04736418517486607,0.04734638687620129
102,0.047369118194750176,0.04810365534372093
103,0.04732395568155318,0.04720489312648397
104,0.04730969034343791,0.04744515116690366
105,0.04733785220848428,0.04721519351005554
106,0.047320233909584446,0.047631594436956186
107,0.04740978082378419,0.04744088628579993
108,0.047327001417557496,0.047136964527823934
109,0.0473648551851511,0.047638421562142326
110,0.0473162925718047,0.047229318129047224
111,0.04737490564465618,0.047726360106312954
112,0.04735524289988928,0.04727746260476658
113,0.047321901472805024,0.04717180653877304
114,0.047362322980861106,0.04755340489516977
115,0.04736339659850708,0.047282159031495956
116,0.047310132539267545,0.047448841303634005
117,0.0472735177954848,0.047728978926587874
118,0.04730320060930902,0.047384035630238366
119,0.047351785367436644,0.048645459227234525
120,0.047295784601550116,0.04737157036492273
121,0.04731100851254497,0.0472832512677939
122,0.04732548369825792,0.0472355525008599
123,0.04733449810718318,0.047605404026083056
124,0.047317381727871755,0.04715611058821712
125,0.04732011484174277,0.04722318804772143
126,0.04733945182163557,0.0473953352148785
127,0.04734049928482536,0.047235579945105875
128,0.0473192918205933,0.04735391466468925
129,0.04730626220236436,0.047444775556497155
130,0.04732853064624716,0.04772318444775613
131,0.04729552244801792,0.0471205381116438
132,0.04731857731527419,0.04780033815008218
133,0.04732646499213269,0.04731140867604829
134,0.047268452419103574,0.04718285500297607
135,0.04736986776425255,0.047305311075608
136,0.04733340526751573,0.04761858659060621
137,0.04725612151465542,0.047777775583910775
138,0.047289282467653994,0.04745054203537664
139,0.04728085071080737,0.0472281397847369
140,0.047330388193317266,0.04731210361763353
141,0.047301113347915244,0.04713691093597999
142,0.04730611675077205,0.04735933263045931
143,0.047331769920164926,0.0473248329757468
144,0.04727278739886938,0.04726107985710383
145,0.04724453694576459,0.04711009208010047
146,0.04730806465325453,0.04730791185748041
147,0.047351818498995286,0.04728732767625879
148,0.04727032478991077,0.047139016733502626
149,0.04727886493305127,0.0471001042239809
150,0.0472724061060271,0.047167938496644045
151,0.04727727129346699,0.047240108657325454
152,0.047304859923885216,0.04715708765512201
153,0.047289374026117756,0.04736581880484591
154,0.04729972710664705,0.047335496167898554
155,0.047291834380843945,0.04737218433804369
156,0.047305939285803754,0.04778780309805366
157,0.047259589605075085,0.047557768089242496
158,0.04730365300576369,0.04770791964295255
159,0.047261405124259796,0.04725360648372837
160,0.047297573625314816,0.04724977369807608
161,0.04727838781001947,0.04731267461319467
162,0.047312644853008734,0.04743872149226321
163,0.04725156784307757,0.0473980222429548
164,0.047266700868602754,0.04717634158428014
165,0.04733733987386564,0.04714959041871889
166,0.04723089278268395,0.047563993569754576
167,0.047221325348309286,0.047273033625654284
168,0.04728426912026726,0.04718653423727829
169,0.04726539366542817,0.047251613779785887
170,0.04729983713969195,0.047315004104549904
171,0.047314215438078636,0.047220836157580486
172,0.04723015533749768,0.047104354877239525
173,0.04725673963739384,0.047354716542981797
174,0.04724402208146241,0.04806765372370206
175,0.047257689245456126,0.04732088121602454
176,0.04729490944271465,0.04735785396071335
177,0.04729210175156927,0.048034014146489806
178,0.04725143012049482,0.04712055295694034
179,0.04724483137323464,0.047264597519067864
180,0.04728018209117827,0.047169273070867546
181,0.0472604149117244,0.0477952694001401
182,0.0472480453026714,0.04937303746920358
183,0.04733261204422187,0.04710581285648207
184,0.047209744104187934,0.047154149142018244
185,0.04723884633256139,0.04737428884773905
186,0.04722555112585032,0.048512151392783906
187,0.04727228313422413,0.04716231748344114
188,0.04721528526059062,0.047154792641078566
189,0.04728999885795214,0.04752224848121287
190,0.04721969259764365,0.048003654256639466
191,0.04727526253564276,0.04708009221735862
192,0.047214674630122695,0.04722345970282897
193,0.047271690900913245,0.04720260502789655
194,0.047212903783154146,0.0472699360394205
195,0.047233142115050655,0.047356670006415746
196,0.04726915343774023,0.04716231930639298
197,0.047260697907228456,0.04716810681978454
198,0.047294430436192754,0.04717145485313934
199,0.04720348397271334,0.04716980630486333
200,0.0472567280654689,0.0470452106071911
201,0.047223424211406496,0.04822297742400662
202,0.04725094603524982,0.04705819941839555
203,0.047240004244206144,0.04733636790641011
204,0.04725174938621138,0.04738969645435733
205,0.04726211922161347,0.047121591110373444
206,0.047244884212204304,0.04708022161753703
207,0.047231637438733896,0.047347784083521825
208,0.047210920639306334,0.04711504692201456
209,0.04721873154570397,0.0472244737638953
210,0.04726361144009492,0.04716575885781079
211,0.04724803288950385,0.04723672956910393
212,0.04720492541587515,0.047771160403338585
213,0.04724106858584949,0.04735056132125215
214,0.04723619503065122,0.04733012643684622
215,0.04724083820895421,0.0476237845055071
216,0.047232327135585006,0.047717565930821146
217,0.04722837428692624,0.047184329750435315
218,0.047268004554936544,0.047607243846111064
219,0.04728522640820459,0.04725489092383595
220,0.047200740561437166,0.04827195101056686
221,0.047253717716744574,0.047312517004306616
222,0.047217603643342175,0.04740438086657705
223,0.04724579800566514,0.04769809353852611
224,0.04726125942997271,0.04718209209174929
225,0.04722701176423297,0.047061268419568335
226,0.04721958312741239,0.04718193140736507
227,0.047236098966700474,0.047546892564364465
228,0.047216279460467116,0.047237462525115584
229,0.0472608699331538,0.04723791568448154
230,0.047241618885077254,0.04832759640093572
231,0.04724090843856763,0.04744409551607311
232,0.04718935684852606,0.04735105500013318
233,0.04727112899551527,0.047226867584868874
234,0.04722953301599081,0.04720288864686062
235,0.047273985261349176,0.047576336764922365
236,0.047211818318132114,0.047237280091739775
237,0.047253257933733084,0.04730793306252668
238,0.04721306120421437,0.04721481526518959
239,0.047335831512459556,0.047167497768633555
240,0.04721713947842447,0.04997266229203863
241,0.047207390966949515,0.04745292735316194
242,0.04724810043905231,0.04734362569514841
243,0.04724320046585813,0.04724685217958788
244,0.047286990200646584,0.04708489033245815
245,0.0471982189568041,0.04727177998755236
246,0.047269214288615205,0.04725252238602834
247,0.04723810450397998,0.04712821026027626
248,0.047203705678109546,0.04759722189785179
249,0.04726734522024362,0.04721022187052228
250,0.04719761526174873,0.04759320526456588
251,0.047312252327716416,0.04773397185937476
252,0.04729333337393406,0.047572175112877105
253,0.047157303063120014,0.0472101617483944
254,0.04723513838526109,0.04745345718529437
255,0.04717638673518392,0.04720816962956065
256,0.04723449449369804,0.047587406692913226
257,0.04720870787344819,0.047193962933632365
258,0.047223505156813006,0.047089776149182784
259,0.04722417876731863,0.047218289643808344
260,0.04727114178389192,0.04705974033900669
261,0.04720389768243027,0.04729620789801783
262,0.0472197234347689,0.047204527207124675
263,0.047259640618622735,0.04729652507693728
264,0.04719587827740099,0.04733088863065324
265,0.04723083165784677,0.04749490304511179
266,0.04719738760214153,0.04715596515782348
267,0.04727946170311657,0.04744919651756159
268,0.04718929843353234,0.047152919575701384
269,0.04719344275645453,0.04728300627776743
270,0.047222266652636964,0.047293097851026124
271,0.047184857479531134,0.04778598817895977
272,0.047278423862848924,0.04715912526836523
273,0.04717817309377291,0.04764720357678119
274,0.04719896954175332,0.04713921340942477
275,0.04719006140782631,0.04744652749848535
276,0.04725263092806823,0.04709697244563908
277,0.04722594784395538,0.04746634494910206
278,0.047181308528573676,0.04726068210665316
279,0.04722927254047706,0.047185373358022725
280,0.0472222979781296,0.04769791700328158
281,0.04720400664642704,0.04714058745937641
282,0.047252521538238924,0.047285050774123975
283,0.04726333924971944,0.047413688335323674
284,0.04721114192929247,0.047205901195331176
285,0.04724017015362767,0.04718659851103198
286,0.047200554140585126,0.04721026809411248
287,0.047191143716327384,0.04702807509508675
288,0.04723283633154979,0.047401542024835416
289,0.04721040317980792,0.04723229922865824
290,0.047229814702729814,0.04720528750741397
291,0.04721121689666518,0.047513471441468384
292,0.04718884456750872,0.04716193416959297
293,0.047215361037938525,0.04730699900258406
294,0.04720018965323909,0.04728128093029442
295,0.047210412577902386,0.04708286655894771
296,0.047222482037546636,0.04710112320995745
297,0.047236366295735896,0.04718656019670058
298,0.04718049064123754,0.04710503705228137
299,0.047205446591730316,0.04745060729999286
300,0.04722197334037172,0.04746908586010654
301,0.04720672796801221,0.0475533394570791
302,0.04726173352304218,0.04726339470015893
303,0.04715659198679512,0.04711930823954147
304,0.04723072228737348,0.04722391925428736
305,0.0472841269562213,0.04718479775803806
306,0.04717994015738308,0.04709171280029635
307,0.0471937467517565,0.047166299939320235
308,0.047187633295770554,0.047797101066868984
309,0.04726961127621569,0.0472175101113771
310,0.04717529844864905,0.0474428163772271
311,0.04723564661342463,0.04732599705104858
312,0.04718908964158248,0.04708470056611154
313,0.047207197216119795,0.04713099791823453
314,0.04718406646580195,0.047063957082420796
315,0.04722954505097142,0.04727505524984569
316,0.047185148884483476,0.0471242171283679
317,0.04720922298491192,0.047238049627338324
318,0.04719375137337964,0.04711615118685442
319,0.04721713671051293,0.04725380209234162
320,0.047195424307152616,0.04721514977685278
321,0.047244359245546146,0.0473489243134374
322,0.047172510177552175,0.04737260550460481
323,0.047225744976438014,0.04723568629964469
324,0.04719833531182447,0.047146234343794266
325,0.04720368747302382,0.0473520833596105
326,0.04719404763520526,0.0474630452504333
327,0.047194955139446985,0.048749332663903765
328,0.04720826444925545,0.04732432252276857
329,0.04716130578778773,0.04723273316176275
330,0.04721193027040131,0.04718759415146396
331,0.04716893805147742,0.04724076560800623
332,0.047211743227178624,0.04722776763205841
333,0.04725479797648488,0.04725308754520333
334,0.0471542879409022,0.047116414215283405
335,0.04718696361453794,0.04733599825588003
336,0.047208121834065225,0.047439411259017406
337,0.04719887725967202,0.047521321057403004
338,0.047243978801391105,0.047412475037381885
339,0.047202118353056106,0.04713993320490021
340,0.0471583755789615,0.04707114775712883
341,0.047239441698570424,0.04726110193540284
342,0.04716452572057001,0.04732288990019811
343,0.04723463670390068,0.04712558211648474
344,0.04714285528702702,0.04742299332544384
345,0.04722083360998989,0.04762153021385562
346,0.04717729622714049,0.04729871927586332
347,0.04725238816480604,0.04712727682072531
348,0.04719790379456479,0.04748222829616719
349,0.04718653114734413,0.047133817507252505
350,0.04722106596566648,0.04708167942624536
351,0.04720426445825399,0.04712963485891836
352,0.0471947387644022,0.04715487865794336
353,0.04718604727948217,0.047271274385978224
354,0.04718920276563564,0.047097337818112824
355,0.047222654526527644,0.04720328424799226
356,0.047213787704313115,0.04737362583427328
357,0.04720758746484582,0.04746164951323522
358,0.047156758587077845,0.047141026749607136
359,0.047202790517815583,0.04710393063812248
360,0.047214412548058894,0.047193484255880845
361,0.047225189869471496,0.04744493513828953
362,0.04717343045825914,0.04764980146545261
363,0.04719491521690151,0.047039459555776646
364,0.04715930262236572,0.04756177860975924
365,0.047203946781220384,0.047530263297747885
366,0.04722989676036328,0.04856595717776264
367,0.047148481953880196,0.04730102655072803
368,0.04716144500971793,0.04758778342943353
369,0.047225456235172464,0.04768459142818635
370,0.04720644499037525,0.047103086170382454
371,0.04716567043438375,0.04722076648847739
372,0.04719365887093744,0.04727686101889742
373,0.04725672122981432,0.047733047728639184
374,0.0471884392865961,0.047145691312902444
375,0.04719089420674612,0.04712792659426827
376,0.0472591714151829,0.04704503130517612
377,0.04714787629344385,0.04745274125624098
378,0.047227113579900906,0.04713035815328524
379,0.04719143619032787,0.047248551755814265
380,0.047178711422043836,0.04757633959343797
381,0.04719232455741683,0.047069398749505054
382,0.04724298322574793,0.047386676134819485
383,0.047152635829745056,0.04751998528061933
384,0.04719828257856847,0.04760990020155248
385,0.047203541141476846,0.04711941396486787
386,0.04719886715136034,0.04712880964096174
387,0.04716247067206817,0.047417218678564
388,0.04723635068584642,0.04794118312005933
389,0.047157084067567266,0.047053604747661945
390,0.0471779585054381,0.04716433665840854
391,0.047213625825411505,0.047172389648143194
392,0.04723864782014958,0.04718026818726697
393,0.04718827575945454,0.04735142495350849
394,0.04718107956020142,0.0471445823025073
395,0.04714414546136662,0.047085472921404956
396,0.047233111858606146,0.04834669130400776
397,0.047192945656516286,0.04713108356462846
398,0.04717702687912279,0.047191362022389174
399,0.047202304331697434,0.04714725678161833
400,0.04723794371943823,0.04703932169063315
401,0.04718075775288992,0.04725413807118701
402,0.04719850038149231,0.04716620922982458
403,0.04719146974176335,0.047229261864520665
404,0.04719069941664676,0.04729823033371683
405,0.04722203331426989,0.04728698808973289
406,0.047162065566848696,0.04710701086515033
407,0.047182279827295066,0.04764845110799444
408,0.04720552651424536,0.047205992316461116
409,0.04714731776046095,0.047637879763213126
410,0.04721259133969184,0.04736344057893132
411,0.04725473855200003,0.04726769357343405
412,0.04720945050604909,0.04746070172822937
413,0.04718143011865427,0.047098240102828724
414,0.04717978480890644,0.047161959199897865
415,0.047178764728535945,0.047282543741960455
416,0.04720847176419173,0.04735201362288177
417,0.0471924077779007,0.047093998896576984
418,0.04724040658598085,0.04728873819112778
419,0.047191237060012194,0.04736968023142386
420,0.047162129328572014,0.047235765942058514
421,0.04721981048030104,0.04720359862779856
422,0.04718270337285041,0.04708356462895353
423,0.04721674183420807,0.0471462926694325
424,0.04716944036116417,0.04704952568121566
425,0.047210277401381354,0.04868507887153712
426,0.04720852394505656,0.04727583794892069
427,0.04718631141030674,0.04772550011702005
428,0.04714751626542813,0.047237268604202916
429,0.047266415901762025,0.047259173708090935
430,0.047160489023101035,0.04726412627719572
431,0.04719702270534113,0.04706367722108972
432,0.047171887241119294,0.04712871679390804
433,0.047184863167224554,0.047411009431144055
434,0.04715295846489884,0.04711745547361513
435,0.04718276525257255,0.04748488518967343
436,0.0472056265476701,0.04712926889839564
437,0.04722460025964643,0.047435309561506066
438,0.04717427695379983,0.04727796116151392
439,0.04719845551720483,0.04721367777852252
440,0.047192083431972114,0.04730463243180029
441,0.04723122154029725,0.04732432169949999
442,0.04718356236047167,0.047236767386533936
443,0.047236742393718924,0.047184940580434466
444,0.04714356323512052,0.0475277982552219
445,0.04718544898177985,0.047284517234342724
446,0.04719845817195807,0.047409296476803336
447,0.04720267987431144,0.04720724545178116
448,0.04721298789848193,0.047090149183934754
449,0.04718869455087242,0.04719400947476901
450,0.047187808984451345,0.04725027331331158
451,0.04718148561833288,0.047068057345092625
452,0.047182706681241714,0.0470146874837642
453,0.047250121633866896,0.04725211421240948
454,0.047199112421972195,0.04708951056862122
455,0.04716589583975853,0.047127334249588856
456,0.047212322871628805,0.047283075473491094
457,0.04720124455509807,0.047128144322343954
458,0.04719228590194651,0.04770138577779354
459,0.04720765585117012,0.04715181259995572
460,0.047162828212090245,0.04708932230768
461,0.047180903476955506,0.047185772907903274
462,0.04722064599353108,0.04711157820924775
463,0.04724597295137237,0.047328633354019725
464,0.04716589066276638,0.047094311371104584
465,0.04716953751947477,0.04710927012581569
466,0.047192547004297675,0.04770835914488091
467,0.04723713195158376,0.0478258552331104
468,0.04710855142330285,0.04712859086615887
469,0.047222946366246084,0.047375201176331566
470,0.047212125367219214,0.04719688539005869
471,0.047254355006414256,0.04705113710007897
472,0.04718725481550756,0.0472167506225954
473,0.04716621578889166,0.047038910244521705
474,0.047204327616962694,0.04712570187854033
475,0.04724339990438127,0.047108293932163536
476,0.0471150929883992,0.047232519502986015
477,0.04722675933933658,0.047488513895866905
478,0.04720389350897355,0.047180547751633314
479,0.0472080495899363,0.04740670847617554
480,0.04719878740900522,0.047120552454158464
481,0.04722311765366464,0.04723262025635828
482,0.047140090211892395,0.04714103189797597
483,0.047247407173248025,0.04729788065627041
484,0.0471580754206192,0.04724922561290326
485,0.04723053292291675,0.04752980260253423
486,0.04718699197111417,0.04745338167392464
487,0.04717402564708611,0.047178074608732606
488,0.04718390771810957,0.047185625895657876
489,0.04717300271393536,0.0472063465483469
490,0.04720218445983627,0.047355588428505596
491,0.047194979863046264,0.0472034124985349
492,0.047216702103733924,0.04707683021851007
493,0.04717449393483708,0.04710362734009924
494,0.04717333959363443,0.04728643140434372
495,0.04716921172333326,0.047163493643149486
496,0.047211007311118304,0.04707666916071475
497,0.04716827752415558,0.04835787276430872
498,0.047222242054107376,0.04724102283239177
499,0.04720033602052027,0.04759310526095607
500,0.047199056198676044,0.04725725775924177
501,0.047165138518912714,0.04721534981053461
502,0.047221881229516795,0.047069826284636636
503,0.04719537344547532,0.04734903219690357
504,0.047218275581785055,0.04713011913783643
505,0.047169152651723625,0.04718866330683937
506,0.04725263575962979,0.047450403420470695
507,0.04713950061695658,0.04727246729626181
508,0.047268602639722594,0.04729549230415236
509,0.04714760996496601,0.047474223826354
510,0.04721417449426642,0.04714971525857744
511,0.04716100844798042,0.04722899742183388
512,0.04716140063230892,0.04830091397241993
513,0.04720565174474752,0.04727757501326966
514,0.04717687882488961,0.04707254439110161
515,0.047191199329164296,0.04713413228693212
516,0.0471978035735355,0.04712326167520332
517,0.047160513934304864,0.04722374000813703
518,0.04722139689562132,0.04713965398454252
519,0.047244290492946296,0.04749062117821322
520,0.04715953057975792,0.04720925570016502
521,0.04721871511541682,0.0477357909594969
522,0.04722026422869959,0.047065022303748524
523,0.047163485512911656,0.04714942212792109
524,0.04722004451697393,0.04715427590479696
525,0.047165152385271046,0.04724458712075955
526,0.04719245824947965,0.04709872612237177
527,0.047183826446628496,0.047167828113969704
528,0.04722667422047336,0.047161669218243815
529,0.04713693977170568,0.04742897189006903
530,0.04717941005691159,0.04718577131723078
531,0.047209118443022335,0.04706836733805352
532,0.04716502414714042,0.04746306388570553
533,0.04722144910626465,0.047081682148912146
534,0.0471751108589909,0.047122518319545434
535,0.04722433673034755,0.047115682791139354
536,0.04722399069673771,0.047260876818491705
537,0.047201491663043355,0.04718935258845316
538,0.0472586292201738,0.04854074026727733
539,0.04720880507642655,0.04725759697529681
540,0.04714466843137638,0.04718845477879
541,0.047166281493662074,0.047197463333418545
542,0.04721177814693617,0.04722498655730848
543,0.047150278919570736,0.0471512782045632
544,0.047200084063146325,0.04714289231147932
545,0.04722249573416752,0.04729161268039867
546,0.047173305796526316,0.04702530304982894
547,0.04721455337207237,0.047342898540239965
548,0.04720270835297952,0.04714314114734613
549,0.04714471190798578,0.047273172678656716
550,0.04720938257384691,0.04718619324237508
551,0.04719528361565346,0.04715016313726354
552,0.04716660258182281,0.04726089989941423
