epoch,loss,val_loss
0,0.34041044965303013,0.31596328862652406
1,0.3137623571889768,0.3094385793313513
2,0.30421392424858446,0.29596434177238357
3,0.2895054286070388,0.2841840943155462
4,0.2713751283397587,0.26509104789056076
5,0.26259098254102503,0.2585227237845276
6,0.2550791309064003,0.2565524693881327
7,0.2525961445205265,0.25706457448998304
8,0.24784295058412423,0.2429854178179317
9,0.2424116806595398,0.23989445784356336
10,0.2361499246963256,0.23218266159037293
11,0.22896403299389984,0.22435817138924782
12,0.2226508271744211,0.21948912459842407
13,0.2209837763286609,0.22362052414039973
14,0.2220335926661055,0.22682064935717888
15,0.22584420822257045,0.229206948819693
16,0.23553442449378167,0.24334738859296692
17,0.24286649899957755,0.24775673247926708
18,0.24581402892188775,0.2463598353310467
19,0.24617286370419483,0.2474737220753246
20,0.24775523208171057,0.2441847963462971
21,0.25029646410799616,0.2514722047295736
22,0.25408745406092786,0.2548261612900713
23,0.2585821622650591,0.25866719686382855
24,0.2562016816727883,0.25281850569649955
25,0.25448579331346266,0.2552924210407081
26,0.2535493037344026,0.25652653907426437
27,0.2548911683172059,0.2537485983196261
28,0.25311127495315433,0.25413855389289813
29,0.25364523337815975,0.25244042534313527
30,0.253909924452444,0.25454035321957685
31,0.2551254060306995,0.254841577017646
32,0.25724881435696073,0.256215482126942
33,0.2581161877526034,0.2584882864953499
34,0.2567532395394586,0.255081768923137
35,0.2527942275918788,0.2503212042558635
36,0.2514464267545181,0.2502215373746598
37,0.2502966863955621,0.25317434449669124
38,0.2492296241944452,0.24798396137420267
39,0.24831955200083536,0.24880207120054992
40,0.24779000572211068,0.24776879642173447
41,0.2470013257458532,0.24463232533143275
42,0.2462718881529679,0.244178398514509
43,0.24566691407530333,0.24423436564117693
44,0.24482358119589723,0.24445743072004703
45,0.24422913969909069,0.2444280294882282
46,0.24350846318199004,0.24106752327345635
47,0.24301371869923685,0.24098036506440382
48,0.24284259550910678,0.24139990694027014
49,0.24239014898189348,0.2407472458415927
50,0.24198765076881498,0.24330972707238646
51,0.2418242199785656,0.24254748274608212
52,0.24141047590022846,0.24102858448108538
53,0.24091729080136254,0.24091824284080643
54,0.240935560363493,0.2398125753688737
55,0.24065098516660915,0.2394958358102176
56,0.24054785746988727,0.2398143679303453
57,0.2400949203329597,0.24047986296282664
58,0.23976275529101979,0.24003672244610896
59,0.23982876608912035,0.2381553024453447
60,0.23907828534976375,0.23752166390795357
61,0.23900625034332942,0.23822985599501076
62,0.23907500534332532,0.2413759189815905
63,0.23972080031828247,0.23768927473883603
64,0.23884686767209254,0.23755233008605622
65,0.23901467169110152,0.23770424243189164
66,0.23883832289541748,0.23960529168995703
67,0.238607619472926,0.23868004993580416
68,0.23914031704945815,0.24334215356923505
69,0.239782977354922,0.23972646411634752
70,0.23969586150084946,0.24353085783469744
71,0.23960158807470452,0.2309720859213805
72,0.2398904869280797,0.23753052366560806
73,0.24008309345939557,0.23942284609449127
74,0.24009934651086942,0.2360816874850803
75,0.23976227303417466,0.23792961033409565
76,0.23805611316474984,0.23423955526023563
77,0.24445217036657768,0.2431710393012934
78,0.25465132746634056,0.25572909235413277
79,0.2578079294380572,0.2599666122208925
80,0.25975700152470627,0.2589632225911638
81,0.2581919532099502,0.2541615891887056
82,0.25836636145695224,0.2653201400128141
83,0.25929701129655,0.2582559135772623
84,0.2566664042405421,0.26574345305856045
85,0.2568645795001734,0.25982145369993764
86,0.2578228445296331,0.25492353242217036
87,0.25792106954778415,0.25172821443524995
88,0.2579470732860523,0.2577124126167305
89,0.2586512256750195,0.24809233161555375
90,0.2577107376266393,0.25729398435862305
91,0.2567234746903348,0.25838012939235216
92,0.25617071976967093,0.26078356127971347
93,0.2568593299824843,0.2563015918211384
94,0.25688441693604136,0.25819261829591494
95,0.25750143963882294,0.265397696834478
96,0.2577873220969495,0.2576893349402329
97,0.2582562527299928,0.25613731258764166
98,0.2574110405533005,0.25771932096324196
99,0.25810310131699726,0.25787614819894367
100,0.25761381661196314,0.2537767352461344
101,0.2567724662957241,0.2614441881310592
102,0.2575546238931725,0.2564882594083554
103,0.2574763424503956,0.2567405854458402
104,0.2574355398043454,0.25682107695534934
105,0.25708052010344656,0.25510587310969784
106,0.2567461563957681,0.25504236541329733
107,0.2565510532231354,0.25904201457443066
108,0.25656268127756915,0.25715709911643186
109,0.25682583731486736,0.2521767664609599
110,0.2559533249810159,0.254647837347559
111,0.2559575741346791,0.2568074292087988
112,0.2571106855180576,0.2629898856287409
113,0.2564970923127602,0.2529546985168954
114,0.2566249401455255,0.25652518122800244
115,0.2563561006463308,0.25843505370823905
116,0.2568810145637924,0.2534249753594963
117,0.2566802196806188,0.25815317582783026
118,0.25613553903633646,0.24590936811213052
119,0.25695871336044646,0.25665595507118394
120,0.25698180134883886,0.2665269874336217
121,0.256936510663024,0.2488214264329061
122,0.25683213558664425,0.253559261595723
123,0.25670691534316986,0.2562537082862741
124,0.2567420857165643,0.24874889406639475
125,0.25596177257257974,0.25848399906550795
126,0.25619980137196663,0.2575357551932711
127,0.2567323041256431,0.2585274371735299
128,0.25582368101635805,0.26051413828261555
129,0.25569425907423743,0.2564228557479504
130,0.2551858933221141,0.2611858701684763
131,0.2562504777465936,0.25417895088208975
132,0.2560004602453644,0.25443719309808327
133,0.2554768711376152,0.25750802478502377
134,0.2557769375953743,0.25283764253334445
135,0.2561481856941272,0.25704056023375293
136,0.2562491139806479,0.25265631351940443
137,0.25599877213200123,0.25946193908788884
138,0.2564638345647487,0.25615044774953644
139,0.25585305475169046,0.2580397474890444
140,0.25618592235777116,0.25655483916084315
141,0.2562179880515992,0.25744979516930155
142,0.25742861112173226,0.2546657025578837
143,0.2561900735520821,0.25640312769253987
144,0.25698984150203774,0.25915884157170815
145,0.2557180348596127,0.2475771935922759
146,0.25604538770793056,0.259220729669484
147,0.25656369619137,0.26072134899053406
148,0.25646661715113,0.2575810739642631
149,0.25781643439194474,0.2579189632690696
150,0.25702861444555597,0.26175361073148845
151,0.2574618445645324,0.25635551239033805
152,0.2559441005875119,0.2575580717050474
153,0.256348148750649,0.25969896320291835
154,0.25726210736601857,0.2537796557208357
155,0.2564509278781218,0.2625263058760548
156,0.2568732184007299,0.259697699967857
157,0.25677798865296,0.254960649062445
158,0.25671852907414533,0.25955000547390805
159,0.25729709696605335,0.257682718166048
160,0.2566389942989885,0.2556565427813082
161,0.2572179986573428,0.2558640012225017
162,0.2573889290942229,0.2594056855754864
163,0.25666496624573054,0.25022144559785525
164,0.2562288814108911,0.2581711809173661
165,0.2572613922561959,0.2571083465216192
166,0.2564477949655599,0.2569854432553782
167,0.2570854720416115,0.256942822635409
168,0.2571071794749402,0.255406379423324
169,0.2573602362621507,0.258262596595165
170,0.2569841852815126,0.2579321637338038
171,0.25650032084408425,0.25591822734783276
172,0.25676758146936374,0.2567651552201823
173,0.25744446390848175,0.2568864259683625
174,0.25662674418063186,0.2603532203312172
175,0.25574419227280587,0.26064048212936003
176,0.25657193388024585,0.25337212339878645
177,0.25682527638918207,0.2537606144419503
178,0.25678950614875834,0.25860275922088805
179,0.2558806276292824,0.2552337153993353
180,0.25509181072850595,0.2578451041699679
181,0.25625594817310404,0.25163752212826435
182,0.25571751885181615,0.2558120740923057
183,0.25637277209465736,0.247725754729292
184,0.2551971103736965,0.2532479757209321
185,0.25640981739980995,0.2511963606080674
186,0.2560451701670575,0.25513588842342666
187,0.2562531218540183,0.2565149747205703
188,0.25606142874244303,0.25870048812198754
189,0.2550143595579431,0.2636593146383433
190,0.2561778364767083,0.25304397679541935
191,0.25624671617714906,0.2566158098551638
192,0.25534815153331875,0.2579016837143672
193,0.25527874549789775,0.24900140135821716
194,0.2550448292611743,0.2541500281810102
195,0.25463982670605895,0.2459818787267101
196,0.25530458682125134,0.24987607035894702
197,0.2564760675694016,0.2539679333626424
198,0.2568318104947642,0.26074567593004916
199,0.25599991075760076,0.2458564705776246
200,0.2555061523958171,0.25493102983498817
