epoch,loss,val_loss
0,0.11029373910612594,0.08069439298535695
1,0.07589999195114577,0.08028035781741438
2,0.070332805201372,0.0693784164990444
3,0.0678464998664589,0.06477947499482863
4,0.0661761395210113,0.06720822065994699
5,0.0643371444704944,0.06506374272016378
6,0.06321348012691913,0.062143823556213756
7,0.06204315566051155,0.06371771479880543
8,0.06063970362009834,0.06187783324762846
9,0.05886844881071695,0.05677753807445318
10,0.058177190984310345,0.05637987379178812
11,0.05737312202192606,0.056369057595360074
12,0.05700528848826514,0.05708874083186497
13,0.05643296647898294,0.0559339636294333
14,0.055948509144445165,0.05513265887206009
15,0.055630392184108625,0.056442933795839624
16,0.05534478694785629,0.055173921087761375
17,0.05482305835006261,0.05312211689338199
18,0.054503735344185934,0.05442555439161603
19,0.05430064982641945,0.05608667366705816
20,0.054120186031319475,0.05586574171893946
21,0.053709631374006736,0.05323230704990569
22,0.05335633059384116,0.05305728195396901
23,0.05305756627034283,0.05396643111634787
24,0.052952790290073486,0.05288847273137078
25,0.05276662244811236,0.05319576592140695
26,0.05258971757166172,0.052093016982965965
27,0.052499378571461,0.05334538406976695
28,0.05247441680442236,0.05261205903464748
29,0.05238164311826795,0.05216270431913158
30,0.05223718962419543,0.051365189246888786
31,0.05217519370590938,0.05367143055789228
32,0.05197741730690272,0.051492383673084584
33,0.05186695983079173,0.0520323406895692
34,0.0518282995917588,0.051241608344887384
35,0.05164637528910591,0.05179967366103499
36,0.05159817270489781,0.05251182461014161
37,0.05147923951797301,0.050771196907566436
38,0.051478283043218026,0.05059577081139863
39,0.05145533141792211,0.05133387642928743
40,0.05139819408776946,0.05134700561686426
41,0.051266187958317666,0.05098120655781282
42,0.05124856067720044,0.05190496785617052
43,0.05117541892289779,0.05101120407801704
44,0.0511602236047734,0.051388730435971884
45,0.05110558956177976,0.05140277494678722
46,0.0510339796584732,0.05121731634249462
47,0.050881760233377676,0.05226850425524096
48,0.050949028968945924,0.05103556525988259
49,0.050750826941779806,0.05037436218696552
50,0.050720550576263256,0.05043449953900969
51,0.050609288141292126,0.051368105509514844
52,0.05050024637656316,0.051376829486774744
53,0.05047676734603319,0.051015229112752906
54,0.05038686836308039,0.04991148659039668
55,0.050281025491488926,0.04963970403776275
56,0.050191713920815936,0.05051337540630371
57,0.05021922652860728,0.0510496172952297
58,0.050232204317997665,0.05105247393287441
59,0.05017838761185988,0.049883945750317564
60,0.0502004665570528,0.0511671215351255
61,0.050033172266266315,0.04959226035820343
62,0.05001047108839015,0.05022708725544714
63,0.050097092157147076,0.052000009211210105
64,0.04996325517946975,0.049747251685958345
65,0.04985677172675616,0.05057642729421408
66,0.04983315439295656,0.050143006185148255
67,0.04979798892363706,0.050989849323744216
68,0.04976903899831242,0.049815757027261015
69,0.04978897074481682,0.04928280851866116
70,0.04980070425756786,0.04999107191935367
71,0.04968600963525578,0.049725921126660286
72,0.04974923300403276,0.0498232765580821
73,0.049664105526725594,0.049680096138425854
74,0.04956393297377371,0.05128541053007022
75,0.04966011217378429,0.050681257002037156
76,0.049528141945381216,0.049732384448015955
77,0.04955970170937122,0.049589500027170254
78,0.049482471626723507,0.04973715142931595
79,0.04943214644969446,0.04901848758198783
80,0.04945071237119726,0.049585257267242035
81,0.049359621981629465,0.04949955187608527
82,0.049259136652838716,0.049472150759350866
83,0.04928474192565384,0.04922779288799236
84,0.049143095992293453,0.049028567006585026
85,0.04923433927426124,0.049954064663675225
86,0.04924761275406411,0.04962159102186376
87,0.049052163432943434,0.048975578582760124
88,0.049044747885782856,0.04875208204681465
89,0.04899626074778896,0.049403093893903655
90,0.048991241344019006,0.048627822567008566
91,0.04899017412183277,0.04904142723929498
92,0.04910508492501713,0.05022530214810194
93,0.049095394566048355,0.04868099792090894
94,0.04898785145763757,0.04909659801212789
95,0.04893713140935212,0.049984878830371365
96,0.04895553661599116,0.04893346451241384
97,0.04893800447686835,0.04945603890839049
98,0.04883763845086794,0.0497794446130988
99,0.048944959226853275,0.04924870597998202
100,0.04875679806577276,0.04842747526414341
101,0.048747881044649104,0.048860519486606566
102,0.048815917978896305,0.05095334254001861
103,0.048825808809372415,0.04893317142727949
104,0.048789933969368114,0.049664083380187414
105,0.04870833827990238,0.048351368603872014
106,0.04870539246586329,0.048442340821545415
107,0.04860187432943676,0.04853181196353572
108,0.048610218007376,0.048746923934067446
109,0.0485845877739425,0.04790306366591832
110,0.04856984645824983,0.049684288376762024
111,0.04855300862612737,0.04807910384152722
112,0.04855202425044632,0.04892632781386967
113,0.048528379789782944,0.048398066121650395
114,0.048396820122255865,0.04852098968277498
115,0.04840066647369194,0.04843301004163977
116,0.04840339444573454,0.04895623336654739
117,0.04839624469885763,0.048440006454810315
118,0.048310579216980294,0.04923428338270625
119,0.04829156426488178,0.04893890579344321
120,0.048246996707510155,0.050199056564652296
121,0.04823199820457596,0.04944634145638783
122,0.04821330373553722,0.048160022998196314
123,0.04821603726832535,0.04814555556247607
124,0.048178599538366534,0.04876603244367072
125,0.048160679592288626,0.04826113654129558
126,0.048050657362839345,0.04792183964113444
127,0.04816605669718965,0.0485875848024418
128,0.048040067701482676,0.04957830806080224
129,0.04822448076344631,0.048543479853764955
