epoch,loss,val_loss
0,0.6734652853941641,0.6690763420857507
1,0.6689949370864947,0.6684952493932643
2,0.5687578572557498,0.5583113817364052
3,0.5578212084287881,0.5573924370794083
4,0.5577230283364641,0.557637882291827
5,0.5575500120122525,0.5573759342837274
6,0.5574179303186831,0.5574468910842024
7,0.5573132069527592,0.5572378091125867
8,0.5571921569642447,0.5569641255563306
9,0.5570791031990219,0.5581982880313107
10,0.5570388786651808,0.5569529485170066
11,0.5569412599771268,0.5568215056921058
12,0.5569065002215562,0.5568092488177657
13,0.5568614893269068,0.5567726218375024
14,0.5568202879603321,0.5568195920724135
15,0.5567954267131978,0.5567580420976833
16,0.556763199928242,0.5567156218713329
17,0.5567379292146075,0.5566035778587568
18,0.5567059667217945,0.5566053666488704
19,0.4581613851877621,0.4462947956533645
20,0.4458787704181921,0.4461046125101984
21,0.4458409527852378,0.44580988741985916
22,0.44581294511160335,0.44601991688347337
23,0.44580868521313294,0.44574546788821445
24,0.4457779698540949,0.44620003667717834
25,0.4457928421587713,0.4466546155678723
26,0.4457909662871431,0.4456952194865821
27,0.44577172476266774,0.44569731399084145
28,0.445771387395456,0.4460799877903893
29,0.4457414430851823,0.4456864616415341
30,0.44576371357688355,0.4457199931884226
31,0.44572675011348917,0.4456752375396842
32,0.44573426284191286,0.4458196670630434
33,0.4457317537526762,0.4458341478709843
34,0.4457210206466898,0.44569541193711254
35,0.44571854111445,0.4456678532045473
36,0.4456919442777325,0.4456551909594619
37,0.44570519530822544,0.4458258336294378
38,0.44567726457965084,0.44601897999607304
39,0.44567356070643144,0.445789474115774
40,0.44568638846159275,0.4455941081490765
41,0.4456719121817846,0.4457173192915195
42,0.4456643899570531,0.44565866509678936
43,0.4456552405423212,0.44562737061722996
44,0.4456483146728637,0.4455519759477516
45,0.4456406987736046,0.4455714214084758
46,0.44565058015105985,0.4459495381297308
47,0.44564499675906516,0.44559731995201585
48,0.4456412499846373,0.4456120560985641
49,0.4456308160906388,0.445606124622946
50,0.44561404730777604,0.44565845673196663
51,0.445628473668566,0.4456554485905555
52,0.44561203473064964,0.44560351791807795
53,0.44563799886170813,0.4455799585092748
54,0.44560476082784034,0.4467983220706211
55,0.44560763360906214,0.4456512684709677
56,0.4456097055770609,0.44564627111697613
57,0.44560402911911967,0.44572335707934263
58,0.44562143326283693,0.44570105170493685
59,0.4455944786665165,0.445698363505877
60,0.44561389056643697,0.4457022982998462
61,0.44560193876629733,0.44559721009015446
62,0.44560051312149807,0.44559986514429895
63,0.44560200403630595,0.44561948400573165
64,0.44560917832747254,0.4457033991961562
