epoch,loss,val_loss
0,0.1305911061866658,0.13585700381630408
1,0.11000452218848056,0.08327978769913501
2,0.07816522503405676,0.077928220183027
3,0.07189204355831492,0.07035852101985042
4,0.06980056324889766,0.06963636343813416
5,0.06838363058496984,0.06925348322237691
6,0.06722788847584033,0.06926878909615074
7,0.0665771033203155,0.0668457775476109
8,0.06561753847604915,0.06534310841456832
9,0.06497857511562007,0.06795228151396546
10,0.06429776450928051,0.06454718446095588
11,0.06358008691712566,0.06273039843027409
12,0.06276974103281603,0.06370145373656495
13,0.06215573933759281,0.0615954647695752
14,0.061579951732963045,0.060780724156509265
15,0.061047466399786046,0.060516867498236315
16,0.060561533459080615,0.05999889781620012
17,0.06029367599744731,0.0614337466453796
18,0.05998355122894813,0.05967446371691103
19,0.05973761199010081,0.06114276047269109
20,0.05939481170400525,0.059857496262410145
21,0.05909543986370886,0.05983025073154689
22,0.05890590248516082,0.05917806844631437
23,0.0588159534113239,0.05883347707114208
24,0.05857012891221647,0.060050700501383975
25,0.05829577418903416,0.0583806867893813
26,0.05805091938435707,0.057860006905962755
27,0.0578489499766487,0.05871427871896966
28,0.05780484843048363,0.05822872075416314
29,0.057696165104982385,0.058284266069346564
30,0.057543454248963934,0.05715596693621084
31,0.057384336975904365,0.056983693631795736
32,0.05701042357787575,0.057905422369244675
33,0.056942823441249686,0.05809145314300031
34,0.05688661085477083,0.05712948092086144
35,0.056628894448214076,0.0571731520701135
36,0.056446650011829025,0.057022088496176244
37,0.056280129756951285,0.05679176360664533
38,0.05631207239762175,0.055934909026764755
39,0.0562139875780897,0.0563630040319031
40,0.055969475817919216,0.055951505163615155
41,0.05588264515125823,0.05699110686520193
42,0.05584622648818863,0.05554015384085717
43,0.05563272339560208,0.05571150624796416
44,0.05556637993910008,0.0565270985622264
45,0.05554918080260276,0.05631042697441489
46,0.05536618447177875,0.055980091935795534
47,0.0550974926407147,0.05593520884330456
48,0.055083067414801956,0.05623899520959511
49,0.05491033543080095,0.05458933617133952
50,0.05480231194359072,0.05537471173899641
51,0.0547642479177934,0.05511808622600719
52,0.054767193975531085,0.054939592359749316
53,0.05465222304761769,0.05394058029534799
54,0.05460229406066712,0.055031989183896235
55,0.05455647309461437,0.05507306422548318
56,0.05451149998522838,0.05505389406463644
57,0.05438825149278959,0.05522072401923814
58,0.05439770842882802,0.05456080715502462
59,0.05444077225059227,0.05479805968313596
60,0.05436581453039201,0.05478059260299425
61,0.054259264443588695,0.05556638963871795
62,0.05412499379979013,0.05435557443435967
63,0.05420422827423954,0.054728471731799413
64,0.05395270423967782,0.05442766859461889
65,0.0539768315287972,0.054525488200909446
66,0.05389017489601839,0.054716240298511375
67,0.05388911294428892,0.0540049427089561
68,0.05376338178672995,0.0546073135737302
69,0.05370151632805,0.05384012388975981
70,0.053645422820137074,0.053958728952014416
71,0.05353922532256252,0.05360412910839464
72,0.053496616690145216,0.054396535164073445
73,0.05348047089630401,0.053034475841386146
74,0.053237275342413966,0.05319729391346794
75,0.05329222919419186,0.0540150500131452
76,0.05316715661551045,0.05392694709910353
77,0.05307078132026327,0.05325727793884928
78,0.053041922416932855,0.054904561443601
79,0.05303362611512562,0.05349039577927542
80,0.052859431585584836,0.05357681270272797
81,0.05295397706178072,0.052557574754243455
82,0.05290067468176095,0.05328332842801404
83,0.05281393922557452,0.05337825257599206
84,0.05277988060216728,0.052788931965162385
85,0.05266111319379142,0.053282345084487356
86,0.05252848001965669,0.05252436823200055
87,0.0524967049962936,0.053050162260496886
88,0.052456334044261047,0.05326635810562754
89,0.05240055125546546,0.05256890796180399
90,0.05227005842899735,0.05260685627388008
91,0.05216086018413001,0.05296382352746746
92,0.052184287442585846,0.05253995979024518
93,0.0520971715287098,0.052373076165580276
94,0.05203065361013985,0.052556104597545436
95,0.051979275953925715,0.053534200467705434
96,0.05182157689007255,0.05290367528241562
97,0.051724355128418956,0.05236051002928696
98,0.05182190651715443,0.05203814299097724
99,0.05161828843667211,0.051224658322097646
100,0.05155239103653855,0.05193481373025229
101,0.05153418017761057,0.052013361076859034
102,0.051410978473059823,0.05164653027323872
103,0.05132127068460077,0.05151024980299526
104,0.051303806656944236,0.05170298122220832
105,0.051308459630755796,0.05210025741281935
106,0.05111439693031636,0.05167605340591731
107,0.05090960856456145,0.05147657529000313
108,0.05096758604941058,0.05116549869698863
109,0.05090492598272574,0.05186389295324202
110,0.05078480889759749,0.05151291904282333
111,0.0506822607579197,0.051465888896370056
112,0.05066964866753982,0.050730718700007234
113,0.05050311278232785,0.05110278517451535
114,0.05061618051464081,0.050737061161113435
115,0.050486812840025715,0.050406350546675936
116,0.050558379759592695,0.05084020160046168
117,0.050503183694479224,0.051252269253097754
118,0.05051262691131685,0.05126719404169111
119,0.05034901528408329,0.05082965464731008
120,0.05026727462461601,0.05151146833713238
121,0.0501107780046122,0.05008423136126611
122,0.05004980846865984,0.049998267030079965
123,0.050082752211397664,0.05042478956892236
124,0.05010932182166178,0.05155761264098194
125,0.05002365404148429,0.04999104922743648
126,0.049926548336519196,0.04994393952985851
127,0.04993807217420892,0.050877352644950524
128,0.04993875786358206,0.0503280297457876
129,0.04983079725662555,0.05125384920140354
130,0.04982055361471764,0.05068041182888057
131,0.04990067924885159,0.05015459978772748
132,0.049638979016992636,0.0504771113562081
133,0.04963743954054261,0.050082130275352424
134,0.049684161437543645,0.051910641745065635
135,0.04962713997860627,0.050078999032971284
136,0.04959913810399277,0.049962292173438276
137,0.04958875293477592,0.0503116085755618
138,0.049606109051873785,0.0494236848915629
139,0.04957645433407509,0.05090675889040637
140,0.0494810577560227,0.049525952553630764
141,0.04941938436442834,0.05092556355313095
142,0.04951725686563451,0.0499473286159429
143,0.04933903725663165,0.050698181604111464
144,0.049440889197575895,0.04980601361460484
145,0.04937171807973834,0.04938053901933559
146,0.049309008471736096,0.049648983759930355
147,0.04926755784665359,0.05211162409068042
148,0.04933950235173754,0.050344422459602356
149,0.04931942914004442,0.04979635539739658
150,0.04924393616202295,0.04907434297998253
151,0.049241881925698026,0.050595955101417255
152,0.049184659253311135,0.049508050263445666
153,0.049089754047906976,0.0495532524718836
154,0.04915012836651928,0.04983161673430474
155,0.04919008699767696,0.04918905007780042
156,0.04900029599026658,0.050376333532942734
157,0.04902838895353029,0.04976294993171029
158,0.04895366697773237,0.04949002878061003
159,0.04899922732896197,0.04964160246418664
160,0.04904174778217385,0.04891440415611634
161,0.048904757872012844,0.04895128963824833
162,0.04885318117446148,0.049507167547127744
163,0.048849042080093996,0.049437658904725804
164,0.048813862379821424,0.04933018491744404
165,0.04881962918476653,0.04871075377977516
166,0.04876049816923171,0.04879625053988497
167,0.04867520207541839,0.04854248516982602
168,0.04866178943903101,0.04844107952514298
169,0.04873083910715913,0.04909514471629713
170,0.048642908703702484,0.049905860030251756
171,0.04869109606150567,0.04929371776969794
172,0.04854307500687548,0.0484264696613139
173,0.04873442712873609,0.0490294316104121
174,0.04852420914781076,0.04880017204667735
175,0.04843574855712034,0.048809172298121394
176,0.048501681486098985,0.04854447116368166
177,0.04855116092451419,0.04950468744666642
178,0.04846579844016182,0.048802198837545906
179,0.04839934834700933,0.04798273944640278
180,0.048442163048976285,0.04816577306604267
181,0.048383963943421905,0.04904343840612963
182,0.04845154263600089,0.048477833069139914
183,0.04843315300201302,0.04909605773780541
184,0.04833090293076882,0.04961391141633538
185,0.048219988839109565,0.04925531466900563
186,0.04819688036351766,0.04946037329382104
187,0.04809190498380775,0.04889612108764814
188,0.04809311849947664,0.047502572235487234
189,0.047974866640913126,0.048264622351815625
190,0.048082662545676724,0.04786312444223364
191,0.047986187422894455,0.04817571274326102
192,0.047916187312919835,0.048071025957170846
193,0.047878216291294004,0.048341699347602525
194,0.04797797834250735,0.047617678244415644
195,0.047797060857179045,0.0502054954599358
196,0.04772605507703319,0.04824990765295609
197,0.0478880742389012,0.04911959995665858
198,0.0478167035864614,0.047915623751156974
199,0.04779492393874565,0.048714775017118336
200,0.047738686001523575,0.04781999291468495
201,0.04775140791413787,0.047585569288831196
202,0.04773111719510861,0.04824502946758093
203,0.04779964254991326,0.047635892244337806
204,0.04770756575666117,0.0478460038307287
205,0.04768492806283738,0.048054844893459646
206,0.047706812419899214,0.04784215147382864
207,0.04759778402573365,0.04874730715828557
208,0.04761026384439658,0.04828485374710992
