epoch,loss,val_loss
0,0.4550870460276805,0.44816824382647097
1,0.4481178584139488,0.44742126668948984
2,0.4474357653588849,0.44785728027152066
3,0.44715572823591315,0.4488562647521348
4,0.44689953234728297,0.44742432758766726
5,0.4466729164001267,0.448117946557904
6,0.44656473420493015,0.4468695754596672
7,0.4464564818399188,0.4461320106060274
8,0.4463851288365478,0.44656028559722616
9,0.4463427595534775,0.4473123802440634
10,0.4462949989277002,0.44630643222527233
11,0.4462261277181393,0.4460253902315798
12,0.44619275716192913,0.44605693999058554
13,0.4461564899778273,0.44592926950371886
14,0.4461555726747998,0.44606339379812293
15,0.44615972740788284,0.4464971447996703
16,0.4461032428009391,0.446067119694821
17,0.4460607990911429,0.4461459950980714
18,0.44603357205763444,0.4462013166684371
19,0.4460163065607215,0.4460974307125319
20,0.44596832570871453,0.44588799557969827
21,0.4459582249975888,0.4458930278238528
22,0.44592430354784923,0.4460952771064957
23,0.4459283316065674,0.44621995860530483
24,0.44589895277643904,0.44585099459877675
25,0.44588719844878066,0.4465068226712513
26,0.4458530962998075,0.44647539842217493
27,0.44586280380060384,0.44577655597005234
28,0.4458277517416023,0.4457908894228876
29,0.4458134444646782,0.44585080921797837
30,0.4458095613610232,0.44586428075511164
31,0.4458080670029803,0.4460274702709898
32,0.44577381731671506,0.4458916062604701
33,0.44578432035386845,0.4459179125559833
34,0.44574865091968885,0.4457757026031059
35,0.44576214425097865,0.44579549514626154
36,0.445719815678541,0.44571325441743836
37,0.4457544980378422,0.4464881450307576
38,0.4457362992242956,0.4457298136378636
39,0.4457350672230057,0.4462488245135797
40,0.4457152558340781,0.44569181907857325
41,0.44571753022879346,0.44589850500262995
42,0.4457381157918226,0.4456996613933194
43,0.4457081486899368,0.4460004499473288
44,0.44570218920676147,0.44580557307889385
45,0.44570197550335194,0.44579298314326454
46,0.4456944512888014,0.44586186070300216
47,0.4456889023962064,0.44574239271746086
48,0.4456816281790491,0.4457621427830632
49,0.4456832348094266,0.4455991680953402
50,0.44568277503028303,0.4457570477691537
51,0.4456714666776698,0.4457023045117447
52,0.4456782126296225,0.44579121091821355
53,0.4457561048188859,0.4456979991188712
54,0.44566164860682994,0.4456258933538243
55,0.4456578051402124,0.44560903297464544
56,0.4456354990727555,0.4459442009109421
57,0.4456347062156533,0.44567455208626927
58,0.44565315911232867,0.4455880309600688
59,0.44564608574935893,0.44577622741978457
60,0.4456370305376695,0.44558603081750514
61,0.4456367313682783,0.4456178569024609
62,0.445646060083257,0.4457536684372289
63,0.44562009699187405,0.4458725573703018
64,0.445644792538159,0.4455810766509981
65,0.4456170124651142,0.44574707959485116
66,0.445630492660443,0.4456293338285782
67,0.44561292335819574,0.4460075501916426
68,0.4456222172113083,0.4455612425620739
69,0.44561462660030243,0.4457257665268541
70,0.4456298507613863,0.44564734772772113
71,0.44560228774663724,0.4455636506193033
72,0.44562022155060177,0.4459084752771458
73,0.4455990234546163,0.445617921639317
74,0.4455998468989249,0.44598065842469925
75,0.4455992990230577,0.44565774900445865
76,0.44560725482127245,0.4457516644048336
77,0.4455965017551726,0.4459808022745194
78,0.44561175449352874,0.4471723916069154
79,0.4456887601503736,0.4457249943878751
80,0.445601595679687,0.44551985852475795
81,0.4455954459800663,0.44558187316428344
82,0.44557996213793466,0.4455682041331497
83,0.4456020354722915,0.44599487759339307
84,0.4455952508902405,0.4457171273290667
85,0.44559459795626655,0.4455493752477187
86,0.4455980038468868,0.4455497737114246
87,0.4455852997212136,0.4455550872362577
88,0.4455854402304412,0.44554634909180196
89,0.44556777128657576,0.4455504580851524
90,0.44557793136135926,0.44560453414029577
91,0.4455745190469169,0.44596644648843015
92,0.4456093985055836,0.4457676293980099
93,0.445567132290801,0.4458065325214017
94,0.44556158549727776,0.44560735573248
95,0.4455727716193895,0.4455292794751766
96,0.4455734423682587,0.44567905149743814
97,0.44556861978091145,0.4465857685055981
98,0.4455612906049129,0.44575773989296436
99,0.4455768337243256,0.4461238695137554
100,0.44556761570481407,0.4459129227006406
