epoch,loss,val_loss
0,0.11125246408573806,0.08606715863824778
1,0.08089415169796282,0.07723732758544515
2,0.07567604064343475,0.07255978973272717
3,0.07074435166362336,0.06985905069127568
4,0.06824784553900484,0.06756242981582658
5,0.06614340780823336,0.06639898369832903
6,0.06393594767117036,0.0633683556880312
7,0.06226663991164616,0.06097632523801723
8,0.06076662174642368,0.062495916656613644
9,0.05954391054278705,0.060124161253422126
10,0.058617927333906354,0.05727023131054625
11,0.05754614458936743,0.05766854868004695
12,0.056793786473514574,0.05671985783145091
13,0.056097432837885916,0.05710690098054356
14,0.055404308392312404,0.05549471925934846
15,0.0550624832992725,0.055787580682163496
16,0.0547036438443017,0.05492217025486175
17,0.054446212523373484,0.05602543818817541
18,0.05431406997802204,0.0546994943310398
19,0.05415070005740056,0.054597189475229894
20,0.05377159394221574,0.053109263819145505
21,0.053452061296331295,0.053187581214582356
22,0.05311211933125129,0.05356949931264811
23,0.05262602599466448,0.054019336792508664
24,0.052448256058733225,0.052270960953853855
25,0.052233815933392894,0.052441456603353136
26,0.05188870881798936,0.05172588898067735
27,0.05176032950167614,0.051525943968491285
28,0.0516117835280257,0.051129436862675785
29,0.05146842378164497,0.05263443414685744
30,0.05145681907935616,0.052505727256498026
31,0.05124493969187502,0.05130027087761214
32,0.05112892297961044,0.0534000746073853
33,0.0510693782047726,0.05131463490371077
34,0.050890454866044425,0.051662709090683066
35,0.05068512944255965,0.05088051123632391
36,0.050535323605296535,0.05140717551112175
37,0.050522986226197664,0.05090989503944778
38,0.05054737755779576,0.05089102587651082
39,0.05032977395351178,0.05151234841339346
40,0.05018196496581779,0.05031206490605995
41,0.05020533802679939,0.050373226051073215
42,0.05014979933782193,0.05060147815210648
43,0.04999185561201197,0.05054336029934528
44,0.049864930774435226,0.05039380957411773
45,0.04980870370445503,0.05002386746350352
46,0.04959410344058852,0.0505917760652141
47,0.04940997952930679,0.051164714489178385
48,0.04935561180096209,0.049159400375841864
49,0.0492767667337536,0.04938991945005824
50,0.049191561838484096,0.04935841746720723
51,0.04901938417990794,0.049089483291872085
52,0.048876742293999756,0.04947696186361775
53,0.04867048021802568,0.048697805522984965
54,0.04838826337953744,0.04935522447559733
55,0.048134927086422565,0.04906393313785049
56,0.04797547965448769,0.048348309626576325
57,0.047821912960537734,0.04810421846012028
58,0.04754783823780321,0.04849553904669456
59,0.047466384227545136,0.04877538641836152
60,0.04743284448090698,0.04795644198990341
61,0.04711570080525357,0.047714980260905794
62,0.047127394538139904,0.047288458971838206
63,0.047019329342380116,0.04873729034999464
64,0.04696489954484495,0.048358148857766285
65,0.046951635854843285,0.04745719224103627
66,0.046868403523490275,0.04738920537694808
67,0.046676214597678005,0.04730188653760453
68,0.04658945456466275,0.04682951762199993
69,0.04663070290334153,0.04689016084443251
70,0.046564773096101034,0.04715274884076627
71,0.04643293767399374,0.047115995755266614
72,0.046443731601959345,0.04731549891104769
73,0.046191778737606506,0.04710806162459383
74,0.04616714332176964,0.04816480166747907
75,0.04605315902462444,0.048155090072314735
76,0.045963153679336156,0.0461418642355106
77,0.04584956994696252,0.04656368811099464
78,0.045758412497978705,0.04586974617750118
79,0.045681529428875794,0.04638848410868467
80,0.045638514869824696,0.046137199373384265
81,0.04541956597275014,0.045610940136551564
82,0.045458960795979636,0.04569027274107519
83,0.04537243447682441,0.04599737860724589
84,0.04526148281505465,0.04619114103706244
85,0.04517784273970637,0.045423330227953036
86,0.04509183509143608,0.045136199477440665
87,0.045126118763352034,0.04623363054456841
88,0.04502374376571222,0.04589400680241159
89,0.044982251211060365,0.046535462044900465
90,0.04483497851134787,0.04579392331039935
91,0.04488078128238883,0.045415423388960346
92,0.04463361120552664,0.046283876038070944
93,0.04464619368231127,0.04488703003407412
94,0.0445126254848639,0.04757466011544315
95,0.044400456225264166,0.04569930813041869
96,0.044322792678139426,0.04586015885450852
97,0.04432562792435358,0.0451290624387211
98,0.0441888902803296,0.045757979864518045
99,0.044192196966539664,0.04525636031521165
100,0.0441631887347842,0.04522817085679648
101,0.04402394643493505,0.04491684358594731
102,0.04394276211496812,0.04482965678087535
103,0.043895507650444324,0.04447972623830102
104,0.043941750735579106,0.04526143436581266
105,0.04386141350861933,0.044324419059543395
106,0.04388546421026452,0.044681226316072215
107,0.04375347685682111,0.0449176183021246
108,0.043842698869392384,0.04548103830247895
109,0.04377269682333764,0.04513376781499711
110,0.043678600950254165,0.044973765827585985
111,0.04372165501598892,0.04530310432794076
112,0.043582057950188983,0.04500745196939994
113,0.043625048298033105,0.04415247291511401
114,0.04344775808543439,0.04430588241805214
115,0.04356432123720867,0.0451468592893249
116,0.04338625702000783,0.04485924446553214
117,0.04351009242130616,0.04425826357220006
118,0.04336571045733327,0.04475660609548204
119,0.043375718330730284,0.04523224035467462
120,0.04327890054217754,0.04415654146641715
121,0.04322168428518219,0.044650511989004854
122,0.043163347086802736,0.044040601101539865
123,0.04313946745299652,0.043868746149998444
124,0.04306952680047627,0.04362397416131964
125,0.04305119343091428,0.043939514942559654
126,0.043009630346002484,0.04556801226868227
127,0.04288737389455915,0.0435492288201086
128,0.0429814605322397,0.04371614666382965
129,0.04284043590754897,0.04362481497135707
130,0.04272761685178584,0.04486567956896929
131,0.04287853733918334,0.043521922860045
132,0.042797803832736334,0.04587365231354242
133,0.04274363831590599,0.04379986038722708
134,0.04272728246383019,0.04417393174272021
135,0.04265183131564061,0.043461478660553325
136,0.04255932113363899,0.04352795626256365
137,0.04262648809730933,0.04312694183095513
138,0.042503839676412594,0.04329217335407994
139,0.042561302251706686,0.043815826112520016
140,0.042429553301829986,0.043911285439584745
141,0.04243038788673407,0.04311178094584948
142,0.04231751949078007,0.04389973994594058
143,0.04246944111633381,0.042789175969643274
144,0.04240039567928274,0.04365506780428567
145,0.042291258550109824,0.04352948758797373
146,0.04224510327271636,0.044387190533852754
147,0.04232557281879673,0.042863625964662866
148,0.042157699901649213,0.04384210947762352
149,0.04212353435872264,0.043224763826792946
150,0.04210921036608608,0.04294399560126418
151,0.04212971001340289,0.0434737225435212
152,0.04210413194041815,0.043454690353376395
153,0.04204748049710689,0.04272660242564625
154,0.042100988511317106,0.04308800154340178
155,0.041947818821368395,0.04385444574039568
156,0.04202370463576541,0.042692476141245723
157,0.041851809756037736,0.04302977014323766
158,0.041919032402866194,0.04350164778549086
159,0.04195613089564684,0.04336332827066961
160,0.041818649283329276,0.04338253748697915
161,0.04186256411569249,0.04266289905564069
162,0.04177360584414431,0.042652499169185204
163,0.04179317773374888,0.042868949667026035
164,0.04174823059248739,0.04432075699934593
165,0.041770869000890894,0.04302040203925102
166,0.04164172354851182,0.042802311086255325
167,0.04175735256581024,0.042601936406666235
168,0.04173444428901299,0.04254672683072889
169,0.04169990716532662,0.042862975131489206
170,0.041748683679705884,0.042575507047158616
171,0.041611723892353354,0.04276820195852675
172,0.041678180494373517,0.044363526101443666
173,0.04172724292255228,0.04295556013733518
174,0.041671873160534174,0.04280299953561711
175,0.04151267172419335,0.04245327732736064
176,0.04166799124039254,0.04268753500493525
177,0.04165757031726807,0.043209709772475006
178,0.04156823749901552,0.04322360568765375
179,0.041555541012921235,0.04265865319900714
180,0.04156919502589471,0.04238122319687093
181,0.04151000170989488,0.042951840546823314
182,0.041521645425208815,0.04285310655277657
183,0.04150875197678323,0.04358789714298236
184,0.04146739397718539,0.042598531345279876
185,0.041555645001327676,0.042414838319676684
186,0.0413568032392302,0.04215864986920771
187,0.041493352548977416,0.04288985330066077
188,0.04152954703018928,0.04254432917935381
189,0.0414621908141448,0.042586622962141156
190,0.041387303892430706,0.042782467013922874
191,0.041391266598658376,0.042785314052705435
192,0.04141813063565691,0.04294064462776515
193,0.04124145532804548,0.04285719879433771
194,0.041439194161625295,0.04332067564166805
195,0.041385447043147096,0.04441857657975358
196,0.04128736770759773,0.04288562813001886
197,0.041408223222903544,0.04245616816187615
198,0.0413644488877876,0.04320045303987806
199,0.0412277728512924,0.04425826750085608
200,0.04126549364015835,0.044426778350811144
201,0.04130729980503206,0.043207184071872136
202,0.04130673423924961,0.0426180248983001
203,0.04117640308128921,0.04343192839241649
204,0.041218116597457125,0.04252504092403144
205,0.04127313319849396,0.043508637079012306
206,0.04126515067113274,0.04227265604672302
