epoch,loss,val_loss
0,0.33755015680115286,0.2799019923855587
1,0.31324052969090566,0.2868873695030679
2,0.3478485709376377,0.29623314604198453
3,0.30804842803403915,0.28413298457931513
4,0.333178024700315,0.3144963303229521
5,0.29776223251621403,0.2818646896468812
6,0.3220251644377133,0.3033473640797923
7,0.3033398309414335,0.2891690353521138
8,0.39683025827606044,0.3947792411462096
9,0.30829354426224265,0.2825390955031906
10,0.3386013845173861,0.2999719936450636
11,0.3131499254017425,0.3062977799300425
12,0.36857374141113364,0.3783829794121993
13,0.2967847706102353,0.29393735299829243
14,0.28928288629205584,0.28911857007052266
15,0.3263473884521914,0.30435204602360444
