epoch,loss,val_loss
0,0.8016397905285678,0.8012566830325067
1,0.7939573109944282,0.7501146055628585
2,0.750104131295959,0.750118134335312
3,0.7501247053858768,0.7500935144223291
4,0.7501403468141826,0.7500955206880499
5,0.7501392824152123,0.7501353961954046
6,0.7501331468908337,0.7502222159955992
7,0.7501321583227035,0.7501362482903909
8,0.7501241873300807,0.7501758225206702
9,0.7501262861659611,0.7501770717038706
10,0.7501190790666424,0.750092030695591
11,0.750122448531939,0.750115746747767
12,0.7501163150372152,0.7501826993584929
13,0.7501183004214628,0.7501737838643361
14,0.7501192853775488,0.750088441194435
15,0.7501195081292118,0.7501197735369945
16,0.7501144361534466,0.7501409100539631
17,0.7501113951869611,0.7500862915226011
18,0.7501145542907187,0.7501209243947164
19,0.7501115432657838,0.7501274831833378
20,0.7501106588300706,0.75037258100273
21,0.7501152750461659,0.750115180015564
22,0.7501111958784824,0.750092532054958
23,0.750109021610909,0.7500864262024759
24,0.7501074191064971,0.7501082034619807
25,0.7501108287673215,0.7500904264580227
26,0.7501075431465704,0.7500935673122074
27,0.7501085429894214,0.7501200846347856
28,0.7501058165397679,0.7501208653225201
29,0.7501063911411332,0.7501068204863196
30,0.7501042407576989,0.7501156624730112
31,0.7501035847161365,0.7500868247105525
32,0.750103194774711,0.7500945915655226
33,0.7501045144731829,0.7501006707955826
34,0.7501026237609361,0.7500859179212792
35,0.7501027907306156,0.7501204743870434
36,0.7501001036837175,0.7501455923168002
37,0.7501008000738405,0.7500839554346524
38,0.7501033463622412,0.7500990685103253
39,0.7501032473303872,0.750096053728099
40,0.7501029747626482,0.7500903588666513
41,0.7501026774470032,0.7500853014938884
42,0.7501010428159868,0.7501593500153895
43,0.7501028676910576,0.7501181447772175
44,0.7501056054690723,0.7500936339570038
45,0.7500983476993767,0.7502438201206197
46,0.7501007790933779,0.750134991948717
47,0.7501022126662946,0.7500852448177101
48,0.7500995520703825,0.750084650575671
49,0.7501002358384661,0.7501739291340187
50,0.7501018956102248,0.7500841189554844
51,0.7501005382207544,0.7501044891904068
52,0.7501012581976282,0.750111657780394
53,0.7500996925417464,0.7500877673809345
54,0.7501016355619775,0.7500854450774843
55,0.7500974877244359,0.750086437058508
56,0.7501002864765011,0.7500888283436115
57,0.7500996863746878,0.750313678302481
