epoch,loss,val_loss
0,0.5039779065018511,0.5002409325344095
1,0.5007691832725667,0.5002581259157166
2,0.5004292593015446,0.5013298449090338
3,0.5003643363086705,0.50024039757163
4,0.5003351212806821,0.5008495714469228
5,0.5003073908683143,0.5001945577543367
6,0.5002971608288114,0.5002240091340417
7,0.5002978542284867,0.5002432631499714
8,0.5002501124722679,0.5003706198472243
9,0.5002736002749122,0.5002139268087098
10,0.5002524171465467,0.5002039412115111
11,0.5002558920403047,0.5002071615779962
12,0.500242508462227,0.500190124588628
13,0.5002430437846828,0.5002360343637301
14,0.5002343942539071,0.5002359466872204
15,0.5002362091834324,0.5002610086803105
16,0.500233466266991,0.5002960124323445
17,0.5002316385521388,0.5001951055846202
18,0.5002353755143332,0.5002244599699678
19,0.500227415591336,0.5002256860508221
20,0.5002223204958062,0.50019660013781
21,0.5002262521305363,0.5002786737221938
22,0.5002233674758729,0.5002130831441571
23,0.500223984912974,0.5002721422067647
24,0.5002238611205928,0.5002257492051231
25,0.5002293203344693,0.5001898086692205
26,0.500220631677028,0.5006867330955809
27,0.5002247931778623,0.500331959328048
28,0.5002170297953459,0.5003784281740118
29,0.5002199329906263,0.5002194979054756
30,0.5002236865592311,0.5001800020042779
31,0.5002225413369273,0.500178731907686
32,0.5002263612838445,0.5002918754262901
33,0.5002174956938239,0.5001720746161032
34,0.5002112392775853,0.5002088822147095
35,0.5002122582495193,0.5001801381927566
36,0.5002181765109013,0.5001756997617244
37,0.5002136577821343,0.5001786633697396
38,0.5002139469531285,0.5001796074304037
39,0.5002116711878243,0.5002068965074147
40,0.500214017181711,0.5004565108502769
41,0.5002166764074285,0.5003896168088795
42,0.5002088886761532,0.5001831370311103
43,0.500212305818224,0.5001858977466895
44,0.5002150036854779,0.5001844782095689
45,0.5002100499992286,0.5001743217260015
46,0.5002116947903518,0.5001746074437503
47,0.5002037615620883,0.5001958515153038
48,0.5002069663303195,0.5001800599819969
49,0.500214236366293,0.5002594809969957
50,0.5002073394768045,0.5001782676126466
51,0.5002096089425271,0.5001794223454099
52,0.5002034279564037,0.5001771594691218
53,0.5002125451542102,0.5002217895339796
