epoch,loss,val_loss
0,0.3919171403935678,0.2335145792085163
1,0.22647460198087943,0.19973669861514642
2,0.18983831388844574,0.15104728249131738
3,0.17522673180206216,0.163268913921401
4,0.17932766044049336,0.1653530763281361
5,0.18086841542252916,0.1797723312992323
6,0.18627458210471723,0.1880712741552231
7,0.18592017413162404,0.17748100678094655
8,0.1865834535764371,0.1794735999702937
9,0.1899453241595452,0.1739183925533257
10,0.19480546783033512,0.18684909683847015
11,0.19630656305024569,0.19212525733691457
12,0.19583621919512462,0.18426434679255302
13,0.1951078831565847,0.20930968602529734
14,0.196019391421315,0.18238768214396633
15,0.1954203747647653,0.18542978408633956
16,0.1961068172427676,0.19675660830787908
17,0.19594552451305441,0.18854171855062035
18,0.19596026924778995,0.18968244508532153
19,0.19759964326517188,0.19449472329752032
20,0.19890824258089257,0.20305033462105912
21,0.19724263964916208,0.19720710348264384
22,0.19922445499472957,0.18978413938299915
23,0.19861193075120973,0.18445982649369605
24,0.1986274166608886,0.1822776600965479
25,0.198970900409275,0.2013740177077389
26,0.2012352947648957,0.19366798550478567
27,0.20038881382162718,0.22184362034912455
28,0.20298927953894094,0.19686924475050385
29,0.20526740239035313,0.2001740748170049
30,0.20553611675135905,0.20163026635535797
31,0.20392699841615394,0.19326309416363724
32,0.2073397887327212,0.1940427928716062
33,0.2085276814840204,0.19708982522833884
34,0.2097841344005484,0.19793538800966298
35,0.21297503420584302,0.2020187337824747
36,0.2147502602992965,0.19852187947297342
37,0.21580090012839087,0.21387895063189136
38,0.21740885153948833,0.21887654475367907
39,0.21777082375175566,0.2112007228026921
40,0.21812690077401656,0.20778934868095236
41,0.22105838737780337,0.21061835562091413
42,0.22097395764861844,0.2224904410041216
43,0.22320260723336613,0.20761268642961084
44,0.22133021520601093,0.20449904628221502
45,0.22340826638382402,0.2224048835584848
46,0.2269757593885886,0.22871867202122378
47,0.22833815588653802,0.2120388924440438
48,0.22619442258783573,0.21731769128304912
49,0.2267137058109021,0.235256358687108
50,0.22904914954631067,0.22179870429759715
51,0.22459145309589654,0.22452833012463827
52,0.22801554639586252,0.21726054403616296
53,0.2276501240942785,0.21494679423468077
54,0.22619394597103842,0.21184769177540325
55,0.22468090953705885,0.21166173730342522
56,0.22582110405254135,0.20998884334090007
57,0.22356896001181537,0.22656453948323899
58,0.22632795541906814,0.21657264002120297
59,0.22665582918863503,0.2147368161153304
60,0.22720697400667111,0.22116881481944434
61,0.2286971825942528,0.22016715966958933
62,0.22961013120927398,0.23040550694328268
63,0.22915361370804974,0.23031288991081686
64,0.22950313991303448,0.22693730736682052
65,0.22913198082519473,0.22139414242853211
66,0.22810785551603846,0.2234938901620487
67,0.22762305982154812,0.211761255196539
68,0.226316574505336,0.2146100206058046
69,0.2276897560968864,0.22052931426873618
70,0.2253338385114281,0.21511254215579195
71,0.22393579270651967,0.2088864161776292
72,0.22264161040719083,0.21039376497833204
73,0.22121614660862252,0.21950768674087975
74,0.22358739819172188,0.21587123173188297
75,0.2211757505016266,0.23555271268690678
76,0.22242875231041326,0.2163334401367025
77,0.22179199533044197,0.21089363465087096
78,0.2229032815693856,0.21266581722621195
79,0.2240660659891429,0.22596872777287755
80,0.2233179434538364,0.2215901745311275
81,0.22440543617728612,0.21493603500824984
82,0.2261212958360938,0.22805863708234153
83,0.22436838048539287,0.21506266324136233
84,0.2267763898860541,0.21564084618413365
85,0.22421038972673943,0.22938771837559288
86,0.22434990927517462,0.22021651852526059
87,0.22273574909455865,0.21650176020758116
88,0.22328292138928132,0.2078657118984349
89,0.22239682505980765,0.22900229705396183
90,0.22284208599040262,0.219650471513913
91,0.2212855387851298,0.21406015903110473
92,0.2222814888155146,0.21030819396052478
93,0.22124143904871602,0.2119358876674497
94,0.22048860394078001,0.21169722735317278
95,0.22302352156427552,0.21211608557505407
96,0.22178516438682017,0.22012926477000952
97,0.22206744982255736,0.21298274144988974
98,0.22183035764929585,0.21431905730982512
99,0.22028174033339362,0.21539134242305064
100,0.22184692870536676,0.21931072730856235
101,0.22239537388801003,0.2145339992211951
102,0.2215890014628998,0.21253252924429494
103,0.22106881022191258,0.22171534546125377
104,0.22140988275158605,0.2191661979470934
105,0.22233243528411067,0.2137918371380834
106,0.2220075657542089,0.21010947610885963
107,0.2230944690896834,0.2371565754148277
108,0.22402415430541042,0.20978238248364042
109,0.223081877263044,0.21990991985365077
110,0.22102804418852764,0.21735616022428378
111,0.220443384884168,0.2128787710615849
112,0.2220782866890577,0.21042197242955477
113,0.22460924832226276,0.21676173371034244
114,0.2267235729762976,0.21269873046884408
115,0.22587631144326367,0.21637727880016874
116,0.2253238999610134,0.2202850076727916
117,0.2254603251898222,0.2149858754289931
118,0.2250450490821275,0.21670802552679344
119,0.22565645506556373,0.21403260792487233
120,0.22455470617130982,0.21643224714916337
121,0.22456628210443577,0.21437737068136375
122,0.22419791090355026,0.21299583747712475
123,0.22550382005344097,0.21801923398860534
124,0.2244146542666818,0.2342938613190647
125,0.22287361217226437,0.21848797622918142
126,0.2254014010254523,0.21643580152890582
127,0.22734292560248828,0.21816307441540939
128,0.2293115820851829,0.21792649271315068
129,0.22930899040876246,0.22085139659933906
130,0.22985901654386026,0.22130414267271264
131,0.2294835497756942,0.21552001692548736
132,0.23078278554000442,0.21722838700099922
133,0.23201872378015975,0.22148458105706756
134,0.23371575991932056,0.2243886670449068
135,0.23510047066197406,0.22094595495790784
136,0.23579276234006805,0.2246086479009562
137,0.23764767875369314,0.2286708270270898
138,0.23566282591183219,0.2319907657537483
139,0.23609766335510235,0.2198239782591363
140,0.23601432005278497,0.2281250726922629
141,0.23743423506867686,0.24148407244456502
142,0.23669060437584952,0.2402555588882743
143,0.2356090816519529,0.23473860475145744
144,0.23577795927520756,0.23171900926656203
145,0.23626892148352546,0.22818832855668705
146,0.23554511387928498,0.23012609890387956
147,0.2351998211882955,0.23779274674974846
148,0.23535787554191265,0.2203502464971866
149,0.234457047824427,0.22315461211488674
150,0.23439461948702947,0.22207840896066758
151,0.2349328762895579,0.23478660340279034
152,0.23524421950776894,0.22260488621484792
153,0.23384944089263274,0.23071409810125687
154,0.23408620853385004,0.22324237640250266
155,0.23576606948860734,0.23844163999514215
156,0.23569637445880354,0.2218348416951856
157,0.23562000085004894,0.23399479222655203
158,0.2355254513206337,0.2223542671600664
159,0.23542721125242902,0.22935598240702193
160,0.23525291002935453,0.23321455191371002
161,0.23532977842574687,0.22474195156025906
162,0.2347315393155999,0.22487436566610644
163,0.23687396984663514,0.22767703106954706
164,0.2349155404382377,0.23155969677709085
165,0.23536922282976308,0.226830666777461
166,0.2353668069834713,0.23323777014567518
167,0.2361379436177792,0.23165328174994138
168,0.23444420577501127,0.23289365174973584
169,0.2368533130434396,0.24105475630078996
170,0.23631578858355157,0.2322038952158301
171,0.2370883597851657,0.2324619611700219
172,0.23711030268006855,0.23216461643705993
173,0.23775584373971542,0.22313614422492184
174,0.23620944105082756,0.2292790795605109
175,0.2375495204572483,0.23525777942520856
176,0.2356828971565675,0.23415497694555568
177,0.23626337351082422,0.2299324878224634
178,0.23754543870639838,0.23760228250660856
179,0.23607645499453747,0.2217236657545335
180,0.23686096448001626,0.22406592736963032
181,0.23849754153991298,0.23097114537819785
182,0.23811142548597117,0.23605131139742078
183,0.23947265415454655,0.23391580180615634
184,0.2388671907267982,0.22745168599540452
185,0.2382359422927947,0.2241323378698602
186,0.23998536696012834,0.23136846688241589
187,0.23992999632367126,0.23047320818750522
188,0.24156654875079314,0.22620642920272407
189,0.24147043452202846,0.2387325016880186
190,0.24201639938792832,0.22916438996838884
191,0.24284948658147495,0.237465742202189
192,0.24319155015152613,0.23401742030432024
193,0.24092162368918876,0.22647817174138848
194,0.2430859388386031,0.23197276068185385
195,0.24179640451042678,0.24347711676156888
196,0.2424813344490995,0.25502543363076263
197,0.24314472490815903,0.24177984028889987
198,0.24273315805206291,0.22801683149238036
199,0.24262163961391084,0.23837655165248153
200,0.24192485432449481,0.23550599125443994
201,0.24294738598364435,0.2454896087757508
202,0.24273259001527187,0.23720639179612862
203,0.24365918082203702,0.2370925133352498
204,0.24238283464091,0.2314092162893622
205,0.2437860811773917,0.2299676798019432
206,0.24456455459673818,0.24096013015193457
207,0.24362551775291194,0.2317858251207159
208,0.2431802834442956,0.23836614659619124
209,0.24364219855466526,0.23193211176071754
210,0.24344375019045852,0.23148657761414218
211,0.2449661471205745,0.23012889666451933
212,0.2447410368805023,0.24463029302239137
213,0.24460246969612953,0.2326252915159209
214,0.24533260099107412,0.23339523540864146
215,0.2450983872969183,0.232575534021845
216,0.2452315242110873,0.239216654693036
217,0.2448521790673121,0.2558299768083944
218,0.24589248971163416,0.24254223129226168
219,0.24503611821493657,0.23430483072596267
220,0.2445982440913038,0.2475462994805075
221,0.24511833987433276,0.2367268973739484
222,0.2439661216404703,0.2381338974036094
223,0.2453942952884568,0.23869851017525182
224,0.24547458417433723,0.2427163971580665
225,0.2445571431927353,0.23328873552764223
226,0.24413431578164668,0.23242646486343319
227,0.24474643766403578,0.23607213292991258
228,0.24552004821270967,0.24038152836539564
229,0.24597599281133603,0.22798229205909448
230,0.24544441248539636,0.23571691192222
231,0.2458228650722477,0.23459178766775243
232,0.24529025815040184,0.24297279734590813
233,0.24454000013337718,0.2511748477710733
234,0.24485533415294475,0.24428706680260592
235,0.24528796059622182,0.24615068325586176
236,0.24501635788155973,0.2414841561121741
237,0.2463324125603044,0.230420631880636
238,0.24466178871149258,0.2333707203875401
239,0.2457893978324916,0.2355978966535502
240,0.24733048751890707,0.2338190754638851
241,0.24529427557373695,0.24097045408098738
242,0.24577136676636435,0.23694886999894244
243,0.24563888806423886,0.23226741019815747
244,0.24520079030407418,0.2325207185655856
245,0.24394029739210837,0.2309948470334698
246,0.2451508052938943,0.2369369304523566
247,0.2459886669159698,0.2565051016369107
248,0.24477302755931205,0.23855282517992424
249,0.2455747049453733,0.2369216114941223
250,0.24574756599087225,0.24771456889684687
251,0.245373580697105,0.24491210646439276
252,0.24836007903496043,0.23198376564219322
253,0.247693848505104,0.24031389568768435
254,0.24615788247754916,0.23785224099420804
255,0.24554162520132095,0.23472964961225815
256,0.24608232069025032,0.23609531124511288
257,0.2462862884457544,0.23441081187719423
258,0.247937230403713,0.2353715804988414
259,0.2467662373261391,0.24986515669909254
260,0.24672486957648007,0.2491896935424752
261,0.2476406267864241,0.24190629975195466
262,0.2462580546998768,0.23449258118185737
263,0.24880212862238132,0.23413875399138293
264,0.2469567498393196,0.23473010282160828
265,0.24780707368604857,0.2424701342995748
266,0.24811130508982973,0.2320023563873514
267,0.24742085042950823,0.23638642481112912
268,0.24756529755729564,0.2411665054363064
269,0.24763708091158565,0.23799878127149643
270,0.24799380968395565,0.236025351892801
271,0.24632566303705616,0.24881606420241856
272,0.24764469869250208,0.23237488501732426
273,0.24695290810913204,0.23945438122081306
274,0.24791013349374708,0.23310113273084682
275,0.24713353533967794,0.23275075400073225
276,0.24725568396963185,0.24305146951419496
277,0.24765877622804292,0.23734378445402504
278,0.24745761946760875,0.23805213496735836
279,0.2476536897148827,0.2340196187489599
280,0.24869098088485922,0.23193595836552092
281,0.2479176487830236,0.23989552151244178
282,0.24938843146169024,0.23675958128923869
283,0.2477802317693746,0.24023175437147445
284,0.24738080190907089,0.2400761961748775
285,0.2463957162247859,0.24156023204420718
286,0.24787374071890025,0.2427652272400935
287,0.24742673226087974,0.2363367131731128
288,0.24587977465560779,0.2443976365118019
289,0.2474792869471246,0.23648398849986724
290,0.24789816507404086,0.23750018857084304
291,0.24679920773545233,0.23621656208783506
292,0.24728676044254852,0.23682448376137719
293,0.24762053672167705,0.2316704749614118
294,0.24716624784336197,0.23385418430499985
295,0.2479448854375324,0.2365056383699155
296,0.24804618618161464,0.2467929596800266
297,0.24789837031341572,0.23700060497237269
298,0.24798765983417642,0.2378085112844571
299,0.2478558838033943,0.23854533165999067
300,0.24779190168344525,0.23372352171480515
301,0.247065136770455,0.24262947392162604
302,0.24838590650535602,0.2328339391038845
303,0.24697191140753663,0.24059230838362025
304,0.24649024253292717,0.2395074272376868
305,0.24642164302434472,0.24379539536790013
306,0.2477516160844613,0.22875667058207808
307,0.24718421770871687,0.232193480233273
308,0.24723144907126132,0.2438698776401491
309,0.24664401888942641,0.2431670846248482
310,0.247780340621702,0.23309387573597462
311,0.24720205009269486,0.22939755023701885
312,0.2484890474535102,0.24426719614531736
313,0.24715574207208713,0.24750927703391876
314,0.24803902162350625,0.2386012908244754
315,0.24756887368113398,0.23971918121791772
316,0.24822789089952252,0.23345484301718372
317,0.24748444541705122,0.23430222412828583
318,0.246719172014464,0.23409824876589574
319,0.24693326121397155,0.24599125122779358
320,0.2480709106623412,0.24320992342863104
321,0.24806646760895573,0.23403116216222977
322,0.24735751991077579,0.24032039658093698
323,0.24759731692471187,0.24345840907699026
324,0.24754012501139722,0.2466303250901607
325,0.24711307380005992,0.23858677578800386
326,0.24895825649170186,0.23708092106687054
327,0.24784132239105794,0.23720605330337383
328,0.24707237617979996,0.2412010607233928
329,0.24800203993118447,0.23628523857601064
330,0.2482673570537548,0.23273732390287077
331,0.24819185552622774,0.23353453890818165
332,0.2476324577340119,0.24032792218482296
333,0.24903839836708552,0.2359134484414708
334,0.24809542212554878,0.23805381376487397
335,0.247358321006016,0.23821381898780647
336,0.24659479339178994,0.23020830196523254
337,0.2473334997034759,0.23994606913265132
338,0.24713250727866956,0.23894295221063783
339,0.24849830181907406,0.23717024574245912
340,0.2476875530980188,0.24447067906372924
341,0.24855854864314877,0.23655743565301587
342,0.24825389474201545,0.23549753720353886
343,0.2471202662546667,0.23475790328413085
344,0.24684160710167255,0.245477884596224
345,0.24617700861226455,0.2460685802569235
346,0.2471249375721629,0.23004473225987607
347,0.2476757995301871,0.24687818993521
348,0.24772000210367137,0.23319982975462616
349,0.24747879747197116,0.2399210348172553
350,0.24722452349156784,0.24077393315679554
351,0.2485492364953843,0.24586206605186026
352,0.24804258225061337,0.2354474044754078
353,0.2478709395924251,0.23298514431493905
354,0.248502027972949,0.24294648201284957
355,0.24768472358667784,0.23484102025592807
356,0.2472795474288656,0.2337038472659398
357,0.24733745032172505,0.23410490182270285
358,0.24728154776979694,0.23282426272260925
359,0.24857459787270433,0.23545435112154944
360,0.2485535739482545,0.23920501418111828
361,0.24729414396792007,0.24265967454134996
362,0.24828503412499034,0.24337851618958348
363,0.24732139505308975,0.23464304092321794
364,0.24826655066985306,0.23795982511991953
365,0.24700275475053574,0.2377847193401445
366,0.24790186381978477,0.23211254385294836
367,0.24693812046953434,0.23796453268723688
368,0.24870636080690234,0.24242623126826704
369,0.2480887265847646,0.2436442325198942
370,0.24942799777888375,0.2359554947551631
371,0.2479211760046099,0.24061484691328952
372,0.2470048232723197,0.23705149798903205
373,0.24749145451948035,0.24123719121728623
374,0.24869329104725596,0.23034764320575635
375,0.2467425629425106,0.23214404611909306
376,0.24739076067313112,0.23676271270887064
377,0.2465167022425589,0.24377997666479756
378,0.2485489114987955,0.24079714969517965
379,0.24803757547236366,0.23842210711318862
380,0.24952238597434392,0.24578316392113866
381,0.2496414572703276,0.24222938216569956
382,0.24865486528233086,0.23151924100652302
383,0.2483769511040166,0.24504164684543295
384,0.24885265383241084,0.236369746495347
385,0.24822792232775098,0.22926520963729416
386,0.2490780979728432,0.23968858779323507
387,0.2492217582097347,0.2356586090297142
388,0.24987806049849298,0.23633619443158418
389,0.24839203956601716,0.2315360866810453
390,0.2488669322596656,0.23772661871296644
391,0.24824620564159253,0.24284027528602867
392,0.24807314707530584,0.23365603312085534
393,0.24655732202777664,0.2463988329871207
394,0.2492741995470987,0.23803227594167864
395,0.24920139935829466,0.24436601556561174
396,0.24679920127351793,0.2331982483497829
397,0.24892178324939346,0.23862457090743244
398,0.24693641177922798,0.23946823086810093
399,0.24735414442851197,0.23390064089196633
400,0.24712267550204298,0.24197152205217326
401,0.24834915694834994,0.239153495739084
402,0.24755682520490946,0.23765588980447427
403,0.24672513268739105,0.24274759562634632
404,0.24735173298943813,0.244244215932058
405,0.2484435886144638,0.23912194096016526
406,0.24970775013037627,0.2380617122506192
407,0.2489726808872059,0.2325142538608673
408,0.24923110944475774,0.24951525113671053
409,0.24900660787721712,0.23904783382788358
410,0.24898278277269084,0.23905405718553885
411,0.2479827173893972,0.23339234907606407
412,0.24872681109024752,0.23555776713255738
413,0.24890517326686784,0.24463804149684137
414,0.249101009872034,0.23709305502244968
415,0.24918808826773192,0.23584341698259279
416,0.24858583033466033,0.23316813096251182
417,0.2481452233309178,0.23472676959532682
418,0.2484712287557306,0.24118209126292953
419,0.24684196642095999,0.23625402541826726
420,0.24760759743950445,0.24649255044740678
421,0.2481827367302611,0.23511947923131882
422,0.2469550442876671,0.23743331736951903
423,0.24560029680828016,0.23785409778238942
424,0.24756261885618802,0.24620491332112096
425,0.24840731240457578,0.22925286699489242
426,0.2472422352904896,0.2338391723436169
427,0.24779679039589983,0.23588252107553248
428,0.2466727901908229,0.23031388414875203
429,0.248290538883133,0.23930629760897243
430,0.24754511868710713,0.2400698052820674
431,0.24832753872247243,0.22861897266795528
432,0.24708509785260896,0.24023295227429392
433,0.24661589407925602,0.24206989738963774
434,0.2481341781935913,0.23785653450447647
435,0.24725885917957452,0.2437178821383072
436,0.24721634758414507,0.24529730458615234
437,0.24686789073699195,0.24312383337527066
438,0.24731320469713897,0.23053340034025716
439,0.24830216523721446,0.23560488421613998
440,0.24844488160882733,0.23323816507937123
441,0.24888600416773324,0.23191323632928643
442,0.24735037806770688,0.2378227287916659
443,0.24742157011628627,0.23699999513029582
444,0.24678006692589236,0.2390343078897991
445,0.24782158971595156,0.23894076203396683
446,0.24903180303690817,0.23760348654865937
447,0.2488821910844623,0.24226085428845345
448,0.24877044582943456,0.24090872163977695
449,0.24916648717044737,0.24595791715378826
450,0.24763718952568506,0.23414669024163376
451,0.24825330861776376,0.24290852181631087
452,0.24753784047042152,0.24354436779549107
453,0.24803749163397593,0.23556232765234636
454,0.24793560439043288,0.24018824880247333
455,0.24836924980036457,0.2340756427164424
456,0.24746375574434784,0.23531207030649343
457,0.24837061557933676,0.2366571412866475
458,0.24833914365390128,0.23571162104559584
459,0.24904289161510987,0.24341450952693244
460,0.24988813412418182,0.23660125838035473
461,0.2508386540696394,0.2357893625205205
462,0.2506172299254045,0.23900845128199014
463,0.250736394922415,0.24147046461477933
464,0.24925568543201823,0.2326291872345752
465,0.2499621238508861,0.2491768758741061
466,0.25178694041917843,0.23914531881214598
467,0.24979172698218377,0.24397110595605273
468,0.24874852974709274,0.23867740630868295
469,0.24926315797128076,0.23313789513041488
470,0.24917098509369612,0.23422363201698734
471,0.24996955864292256,0.23316038507547732
472,0.2503439758559592,0.23599008846536995
473,0.24972309191807282,0.2356027994648904
474,0.24909490198611642,0.23564423540726176
475,0.25009389182360625,0.2413738300904761
476,0.24780721892174676,0.2371655241442931
477,0.24847491812124717,0.23183412090143823
478,0.24714233700653537,0.24385499681368905
479,0.24863719086138178,0.23556377464095343
480,0.24940421207131241,0.24898174565047285
481,0.2493819798425519,0.23827466692102173
482,0.2483282988365415,0.23699929100044526
483,0.24873555855428,0.23417063084472892
484,0.2501128691253807,0.23851680185207721
485,0.24878791641655396,0.2322496655143521
486,0.24980777219759762,0.24728736411941832
487,0.24928690515738502,0.24212568918362132
488,0.249711007743383,0.22925362310827296
489,0.2514666544197561,0.23661064605310195
490,0.25092363374219906,0.24149659986371777
491,0.24957241001818106,0.23300166350466675
492,0.2501184276873164,0.23661445428182878
493,0.24996116083207653,0.23094659403919138
494,0.2495567659489352,0.24523480006015103
495,0.2478958858812837,0.2347600167439317
496,0.2498731380589098,0.23585456723807455
497,0.248533702624454,0.22902657083384897
498,0.24941581799734316,0.2490335359357903
499,0.2506301727333515,0.23596099628269343
500,0.24903787670137403,0.23211075745423007
