epoch,loss,val_loss
0,0.02813229460953866,0.01702388457158955
1,0.017291284578180334,0.015520960072207983
2,0.016246481532840418,0.016017658349875334
3,0.015656747197326404,0.015827984485322282
4,0.01538759677573488,0.015305554678215283
5,0.015174409473198208,0.015438806261895017
6,0.014838436212151498,0.015488571405096473
7,0.014569554819948705,0.013412295322560198
8,0.013914213305607739,0.013699816315256928
9,0.013029710185971162,0.012504782658024106
10,0.01258381435241385,0.011903820427194718
11,0.012326923503547272,0.011932989709522973
12,0.012229982487291062,0.011528923104126607
13,0.012125095260163633,0.012182157172846883
14,0.01203245802001992,0.012620529637350782
15,0.01195904313302933,0.01202403708562144
16,0.011770381832350655,0.011665741966635211
17,0.01176746153322964,0.011677754294617152
18,0.011717675937108266,0.01125341247138625
19,0.011592243678236852,0.012118195051849629
20,0.011696551320601685,0.011485947679645074
21,0.01157072456255426,0.012602712283322296
22,0.011495062194321786,0.011465411319885006
23,0.011509501701549343,0.0115899616288525
24,0.01143425834607988,0.012118852812861538
25,0.011348495748177978,0.011034282878337073
26,0.011355366711953835,0.010902414987182647
27,0.011234187202920833,0.011381829101546084
28,0.011182213929936107,0.010914527643795493
29,0.011188713184521089,0.011100911473388559
30,0.011151894234384414,0.011538680436704354
31,0.011071744351062644,0.011036151217264365
32,0.011109930775831656,0.010711442707822873
33,0.010973643896543508,0.01078197344000597
34,0.011062286184939138,0.010859625188462788
35,0.010992989916999235,0.011429249368164291
36,0.01091707881341226,0.011628399078477701
37,0.010922132567012684,0.01096411430214534
38,0.010932756823654799,0.011226378013807402
39,0.010901043197024658,0.01057048902035721
40,0.010833894503317109,0.01128053218218736
41,0.01087749843191556,0.011444351106198047
42,0.010826826662489668,0.011121916994637354
43,0.010835274622957329,0.010563522040215378
44,0.010797662704222532,0.012101365659136335
45,0.010766484449171249,0.011308211707983804
46,0.010830337421651346,0.010281860589907129
47,0.010791432203959435,0.011323188444040254
48,0.01073644844197458,0.010450637523112611
49,0.010729793530140738,0.011134732764667228
50,0.010754861506839653,0.011390884491446296
51,0.010702396113563982,0.01065012721931816
52,0.010716611826883198,0.011009332505297424
53,0.010747798898833247,0.010432917634418082
54,0.01070738354517946,0.011097543786462424
55,0.010711841552247062,0.010790392382084287
56,0.010691797831091995,0.010496893758994178
57,0.010686779020964533,0.01050992370132477
58,0.010636251390164607,0.010616095345143793
59,0.010669729046104408,0.011157557256427355
60,0.010647691697743255,0.010864782001518138
61,0.01063819957649301,0.010669031708730067
62,0.010682912848476826,0.01055676404007759
63,0.010651791334950714,0.010496046749537547
64,0.01065689997670605,0.010897924686336043
65,0.01062486502643961,0.010640036204723508
66,0.010617493353679565,0.010312795819756262
