epoch,loss,val_loss
0,0.026888363040668935,0.016626156145526517
1,0.01748816387248668,0.016232580294088455
2,0.01631535346373535,0.01627627436635512
3,0.015847365613905255,0.014548320199360623
4,0.01539463992950708,0.016873946954165737
5,0.014907642136908462,0.014528366780514014
6,0.013950332582210493,0.013268398517100303
7,0.013088341742580244,0.012256064173065255
8,0.01267797233679149,0.012854819872391135
9,0.012553023097297144,0.012558324785704353
10,0.012279709081210517,0.012092416608710738
11,0.012355576682267812,0.01200832319272585
12,0.012126212228553057,0.01216973801358388
13,0.012056871324032062,0.01355175090302013
14,0.011877072865392368,0.011524866695605939
15,0.011771904782123477,0.01139191181419727
16,0.011772982240143946,0.012351939598879506
17,0.011712105237395689,0.011404528206320614
18,0.011725398633938748,0.011923348972985229
19,0.011639663122608753,0.011763908761662082
20,0.011534052429312368,0.012438459258998003
21,0.011471617010177354,0.011462606974500729
22,0.011487824287762944,0.011364008912414535
23,0.011392086809892139,0.011533762193828007
24,0.011429168833727939,0.011630317665839905
25,0.011624212493051558,0.011753875886554606
26,0.01128245140581223,0.01110935165054597
27,0.01135840573069932,0.011004986344529294
28,0.011227312127254925,0.012132806574033744
29,0.011260369594892872,0.011038660807604381
30,0.011240725791103306,0.01158385431213725
31,0.011218639409048001,0.011313617331144532
32,0.011220801773648167,0.011735644646534331
33,0.011191233467192392,0.011661923328696498
34,0.011182067259073138,0.01119396620090339
35,0.011123236223635338,0.010974836097591124
36,0.011104219957238176,0.011060906840354278
37,0.011113880792612066,0.011296308176504176
38,0.011089354274503012,0.011126367341052214
39,0.011089072400144624,0.010640653937352503
40,0.011071216106965298,0.011393166447136893
41,0.011002362190046093,0.011482335496740069
42,0.011000478057568994,0.011620343383170535
43,0.011013200168481134,0.010932704607584045
44,0.01097419494412851,0.011290076052857836
45,0.010959886921225653,0.010709437316574767
46,0.010970148745641194,0.011023060674259148
47,0.010929589672426403,0.01097010407023705
48,0.010965200691859212,0.011217311208619374
49,0.010906838636210196,0.01104742676602034
50,0.010882410154897703,0.010807889234043529
51,0.01089009402058958,0.010487975493979364
52,0.01090347248727047,0.010960471619003759
53,0.010902653829336976,0.011210290230718203
54,0.010919011764251911,0.010564580687758496
55,0.010894317310937717,0.010732190605835346
56,0.010869179215907398,0.010802512959792064
57,0.010856999752342996,0.010731756778216688
58,0.010847003027811832,0.010673788035052733
59,0.010820527758154343,0.010663125909421195
60,0.010788553995760102,0.010417119999677312
61,0.010813183642415925,0.010745793267178625
62,0.01078985477029997,0.010538451666146443
63,0.010785412818369049,0.010717409031082028
64,0.010816351039875799,0.010332476122133786
65,0.010792828609943102,0.01157308637624417
66,0.010765231501757393,0.010789768169946026
67,0.010777243342739117,0.01102105644358225
68,0.010782781501613737,0.01056969480602898
69,0.010746049474621547,0.010907427150358633
70,0.010802562608414175,0.010831846475194465
71,0.010754434963017085,0.010701519524951283
72,0.010724498181738455,0.010601548242287956
73,0.010663534364667021,0.010162821132458618
74,0.010689180503218107,0.010773959530808641
75,0.01065830390145465,0.010327311404622518
76,0.01069415667143974,0.010443455368631678
77,0.010641443953881408,0.010488564125897718
78,0.010627246762795927,0.010712079567460358
79,0.010650986553675513,0.010296269719750058
80,0.010670859270134829,0.010604290538941217
81,0.010623552303303871,0.01051763426050285
82,0.010629667262698136,0.010522800035515879
83,0.01062146703304929,0.010375920310154298
84,0.010644258793135651,0.010356595218366488
85,0.010590184367888958,0.010592412321410019
86,0.010629539716148158,0.010623535812455726
87,0.010641776092185421,0.010585500806958296
88,0.010586298494756848,0.010657409739405582
89,0.010597265006294739,0.01097983095989038
90,0.010589541058592325,0.010644096245633313
91,0.010607616991039152,0.010657737302425186
92,0.010589331553954869,0.010465942358796857
93,0.010597387547458868,0.010413835805011151
