epoch,loss,val_loss
0,0.447897978673562,0.44470771883912474
1,0.4449505752632622,0.44502579590522917
2,0.44480674010619575,0.4458608568158398
3,0.444801038241677,0.4445764804596345
4,0.44472488037001134,0.4445992484725734
5,0.4447243253840415,0.4446498954858141
6,0.444698001542608,0.4450272370804628
7,0.4446737751546336,0.4448580977194954
8,0.4446456640230303,0.4445915462065571
9,0.4446447697025113,0.44533739336962735
10,0.44463379020959815,0.4445745575812555
11,0.44464115625305856,0.44457712071409294
12,0.4446309328306406,0.44468593131519724
13,0.4446239567581867,0.444671113408233
14,0.4446181064981309,0.4450854796629686
15,0.44461627452518426,0.44457079281582135
16,0.4446114444483081,0.44475005777834664
17,0.4446064558591736,0.44454780513832054
18,0.4445983236643884,0.4446284203760086
19,0.44460871175271316,0.4445702479731652
20,0.44459140746162557,0.4446947400978126
21,0.444592298663118,0.44453695277422295
22,0.44459273440508984,0.44456782219723495
23,0.44457963837341463,0.4445653978411672
24,0.4445845773133102,0.44455629110927913
25,0.44457465311944555,0.4445290181979944
26,0.4445756945086927,0.44453185623691926
27,0.4445699532402352,0.444731326390141
28,0.4445698142005945,0.4445228996702814
29,0.44456680633807166,0.444564657796997
30,0.4445596589443678,0.4445787576824501
31,0.44456331905576724,0.4445491359340346
32,0.4445602126958215,0.44459803185746927
33,0.44455741003905686,0.4446167952665324
34,0.44455894565517906,0.44464652199603194
35,0.44455504653791794,0.44460128322428566
36,0.4445543783977035,0.4445535693068067
37,0.44455534563789223,0.4445937746363893
38,0.4445523667202356,0.44487139962743
39,0.4445516917629682,0.4445769128077675
40,0.4445540968373234,0.4445312403863476
41,0.44454991713506814,0.44455399295828185
42,0.4445525778587704,0.4445206332147565
43,0.4445561505826028,0.44455845909142316
44,0.44455179344370715,0.4445280805119214
45,0.44455161845519503,0.44453505262843435
46,0.4445510086756434,0.44454963455720814
47,0.44454860774736904,0.4445268282967229
48,0.444542859948992,0.44451755848770996
49,0.4445519100187051,0.444584118831838
50,0.44454444053936304,0.4445280574983166
51,0.44454436553955345,0.4445619243841905
52,0.44454622926638326,0.4445184574677394
53,0.444546077931278,0.4445354601733442
54,0.44454747575884096,0.44463081663063087
55,0.4445428976616832,0.44453260633844893
56,0.4445428573588747,0.4448500083486732
57,0.44454641591574773,0.444709702490577
58,0.4445437754298264,0.4445185324246475
59,0.444541958770401,0.4446284587122962
60,0.44454059689486475,0.4445999377714493
61,0.44453888678443126,0.4445724906164127
62,0.4445437463062907,0.44454729176928326
63,0.4445429809544433,0.44453396590116895
64,0.44453703084333535,0.44455664702148057
65,0.44453828439028326,0.44460170150690576
66,0.4445403818208663,0.44453846609622016
67,0.44453985504260274,0.4445413462281523
68,0.4445339798330953,0.4445256655476525
