epoch,loss,val_loss
0,0.7795994332316908,0.7779397774570929
1,0.7779762807670622,0.777981996417933
2,0.7779403796197373,0.7778732645304564
3,0.777904593416508,0.777910239465775
4,0.777907929309278,0.7778592279472067
5,0.7778736873641778,0.7778585485134172
6,0.7778670446351232,0.7778626351439332
7,0.7778719284627504,0.7778491440836904
8,0.7778607313711943,0.7778398126585607
9,0.7778565648605124,0.7778311113861596
10,0.7778584249906803,0.7778774557279298
11,0.777852878866872,0.7779392860959244
12,0.777848044676257,0.7778344686214741
13,0.7778478233610501,0.7778473671257644
14,0.7778474031712199,0.7778272264056999
15,0.777843890633793,0.777945815244916
16,0.7778418393831827,0.7780020827395153
17,0.7778433481219573,0.77782403916934
18,0.7778415595124725,0.7778214679758247
19,0.7778403750578001,0.7778279601788106
20,0.7778390007984506,0.7778207877433625
21,0.7778390132564137,0.7778185070300516
22,0.7778386921363013,0.7778190164648865
23,0.7778377490662018,0.7778406030191085
24,0.7778369353591881,0.7778333967731845
25,0.7778382017873054,0.7778245260342771
26,0.7778344399525703,0.7778302253919559
27,0.7778347815167422,0.7778476297707475
28,0.7778346446179811,0.7778206298428197
29,0.777831542554388,0.7778175490074063
30,0.777832273084205,0.7778162936123074
31,0.7778332655609788,0.777820539326585
32,0.7778315700158629,0.7778162646234479
33,0.7778313693198353,0.7778611135246144
34,0.7778285196023713,0.7778140167444575
35,0.7778292285230296,0.7778440382581195
36,0.7778298462654072,0.7778186145254755
37,0.7778271549209733,0.7778122165362829
38,0.7778295347689983,0.7778223747946784
39,0.777822552668714,0.7778087765939774
40,0.7778240637763396,0.7778066667670351
41,0.7778207137225265,0.7778179909691917
42,0.7778223089594645,0.7778270671740359
43,0.7778203560749372,0.7778114933233995
44,0.7778203935553184,0.7778053154424758
45,0.777819536713603,0.7778263236689509
46,0.7778193673577184,0.7778292024401814
47,0.777820091710222,0.7778074820639181
48,0.777818998307618,0.7778211033965459
49,0.7778188639338959,0.7778209661431703
50,0.7778198648834729,0.7778362278015383
51,0.7778174984510484,0.77781560988935
52,0.7778192840495762,0.7778103832867246
53,0.7778192450578001,0.777803181862417
54,0.7778196305794214,0.7778653710119185
55,0.7778170833467934,0.7778422897270241
56,0.7778178292516601,0.7778156829235275
57,0.7778167158696163,0.7779227226011215
58,0.777817810472028,0.7778159080308957
59,0.777816549082945,0.7778101446610822
60,0.7778171634483492,0.7778113273769691
61,0.7778171303585854,0.7778041106595591
62,0.777817031484497,0.7778078468798408
63,0.7778155136694656,0.7778207882462305
64,0.7778168233695406,0.7778105006916055
65,0.7778169212512831,0.7778043363289561
66,0.7778148315689647,0.7778048610864738
67,0.7778164920632901,0.77784125544593
68,0.7778162029270043,0.7778096423551403
69,0.7778168143043274,0.7778133318974422
70,0.7778161944628781,0.7778186727694187
71,0.7778148680917086,0.7778097586951244
72,0.7778169614278791,0.7778037267346536
73,0.7778153013650427,0.7779334639497194
