epoch,loss,val_loss
0,0.36512410055866823,0.3083603257914651
1,0.276479745678288,0.2532026108057365
2,0.2608323737347631,0.2591509011051461
3,0.26018147239034217,0.2538216885211624
4,0.2601922059314047,0.2525841083786294
5,0.25859707088874495,0.26146643590579
6,0.25903042412990573,0.26286637240869376
7,0.2599550051738223,0.2506414847573429
8,0.25880801009474325,0.2627305635195975
9,0.2579614927561925,0.25917595373238744
10,0.25945970303506305,0.24944149288212866
11,0.2587056016142992,0.2573605050180687
12,0.25801059861572906,0.24804281341624995
13,0.2578830631445352,0.257178789791199
14,0.258204145629486,0.2578478628429919
15,0.2580757928754595,0.2572123855352402
16,0.25837346533243416,0.2519207926321519
17,0.2568735672975425,0.2531571443638843
18,0.2578439795249086,0.25561584843926854
19,0.25745645735999473,0.25452282504952606
20,0.257450469153867,0.25268630765748945
21,0.2560855758597525,0.2606580098760156
22,0.25797243636074685,0.25230470914819997
23,0.2561508966542834,0.25449302778435956
24,0.25529190466748913,0.25884838750396266
25,0.2558839247583581,0.26289000655594263
26,0.25587163723225026,0.25419993088202114
27,0.25614152238261306,0.24866948211484757
28,0.25608917890931016,0.25476719292017447
29,0.25569210473677334,0.24842622637419412
30,0.2561840817665787,0.26223274466788193
31,0.25612799363504113,0.25198528466962317
32,0.25617890207053756,0.2548956801525325
33,0.25559123547123874,0.2552047303768247
34,0.25603075769784256,0.2567184275543963
35,0.25639746322644225,0.2489290589550488
36,0.2558243963405859,0.2525239046648345
37,0.2543267948890952,0.2511224536417786
38,0.25521972215623495,0.2554612956182545
39,0.2565495296895838,0.2584845889197999
40,0.2561482150765727,0.2593920932407914
41,0.25700513244294626,0.2559381749630915
42,0.2565903537612644,0.25490031461360046
43,0.2554659207256959,0.24910793296445893
44,0.25606395174964347,0.2551902686528738
45,0.256940717129208,0.26050950403324524
46,0.2569148635430683,0.25066825663986975
47,0.25654660893692005,0.2507741874188255
48,0.25686619072247274,0.24877550521749348
49,0.2561522275864554,0.25497706096851647
50,0.2558058197680804,0.251085596813305
51,0.2564755282480177,0.2508973156196825
52,0.25617399397227975,0.2536117360407476
53,0.25574114117071595,0.24869077588595456
54,0.25554915849301074,0.25393300970991295
55,0.2552483872675019,0.2505023532621298
56,0.2551706240510197,0.2546984705877003
57,0.25550954687080796,0.24711986353007845
58,0.2562102686336858,0.24801059033142459
59,0.25535124051366015,0.2518328052622743
60,0.255470127528377,0.25037668207873487
61,0.25513233035374033,0.2493692124416815
62,0.255097655196794,0.24854240057829713
63,0.25532111408208297,0.25110334908294224
64,0.2553279721062723,0.2512901143686171
65,0.2550336235313774,0.2487243954930234
66,0.25451535636262834,0.25389162645673036
67,0.2552890215786717,0.24640885901055942
68,0.25553318601456,0.2476276318530163
69,0.2554986017773287,0.24786068183894033
70,0.25436618600746425,0.2556227357630289
71,0.2551819222639028,0.24758333415851502
72,0.2551950624258779,0.2520583486265335
73,0.25403098375510447,0.24978713781794132
74,0.25503483203818184,0.2514603093983907
75,0.254840917855525,0.2521949567212396
76,0.2544732972812786,0.252959064074925
77,0.25528288258613346,0.24774003476962952
78,0.2555598376108874,0.24489829839216787
79,0.25573787119963187,0.2554466681585786
80,0.2540298574071803,0.2573365853142343
81,0.25426069253401984,0.2539489777566131
82,0.25455857892569117,0.2470948885841076
83,0.2544141705695102,0.24686766776308453
84,0.2544597852692234,0.2502327858578434
85,0.2529029995024347,0.24318558075292523
86,0.25196781127358514,0.24258625539109382
87,0.2517375928118265,0.2513697583701729
88,0.2522395292727305,0.24542519350219355
89,0.25309431319423525,0.2469950864516381
90,0.25247048325747323,0.2512144715934639
91,0.25221844962079654,0.2435953303195401
92,0.2517986794551023,0.24188243163177697
93,0.25091926851194446,0.25176357045687364
94,0.2525593228906179,0.2543640853903288
95,0.25162896160765896,0.24322397850495017
96,0.25190504805909264,0.24912306360588737
97,0.2531322743490541,0.2500182763506506
98,0.25392837026755777,0.24726366264056104
99,0.25457301569713964,0.2466300654194914
100,0.25735418407393873,0.2499485586747092
101,0.26061277922323284,0.2618961976730833
102,0.258841008835321,0.2527669128251057
103,0.2533469830842899,0.25319299290005204
104,0.2507242729111636,0.2507103695442287
105,0.24955031342453046,0.24649065380126545
106,0.2475681921287025,0.24857909424670022
107,0.24754855952126611,0.24148996275479906
108,0.2460178603871549,0.2415565444125655
109,0.2458216004984842,0.23653014571109718
110,0.24572247112516782,0.24224570978083004
111,0.24474936573029898,0.24382722547135205
112,0.24411150081742772,0.24452628150594075
113,0.2429220984272248,0.23813312982327373
114,0.2435882658207064,0.2342017669092508
115,0.24388912455331413,0.23541925453537546
116,0.24352416143023806,0.23955650346525653
117,0.24351300110371946,0.23734834682028785
118,0.24246022258874037,0.2414133392433153
119,0.24265892720884746,0.24047299660889296
120,0.24296328903650113,0.23694070243374418
121,0.24231415458148617,0.23492419611495033
122,0.24251671350426335,0.2336441667393238
123,0.24210161108860104,0.23898505307175366
124,0.2435348995452781,0.2458797624333223
125,0.24674818546270771,0.23877353425231052
126,0.2456482455348797,0.2419209397488348
127,0.24503112491443574,0.23920039057543452
128,0.2419346563047547,0.24163228659151856
129,0.24261448826554485,0.23282865921201532
130,0.2409635876103652,0.2379792517296611
131,0.24178967371189908,0.2411387524058147
132,0.24149847235515726,0.2397574929618986
133,0.240143783747864,0.2371069122085255
134,0.24049521522889797,0.23464925589529473
135,0.2406955643249549,0.24000143596715784
136,0.24104800313520583,0.24190735004271874
137,0.24170444881935105,0.23729821312775645
138,0.2406700633758073,0.2324023587833546
139,0.24149689577418645,0.2360299687006385
140,0.24040264991833438,0.23420719880002075
141,0.24094149605523674,0.24257666137195893
142,0.24098444959337859,0.24325159289701398
143,0.24033115177060202,0.23378551489693403
144,0.24049493957528298,0.23533924616690968
145,0.2407624981791186,0.23474948435151494
146,0.24122585405072244,0.23958768117540732
147,0.2415645711785026,0.24216284714021735
148,0.24142462365942702,0.2470022058312876
149,0.2413615594081265,0.23668149878118766
150,0.24360460524174044,0.24939103930271228
151,0.2426800963153942,0.23812770480091588
152,0.24354944742030854,0.24471578760559198
153,0.24498736572494323,0.2416000382793919
154,0.24560440334079744,0.24151280330642527
155,0.24547101851466366,0.2430002816027323
156,0.24564244697014873,0.24202619271901243
157,0.2460909087321074,0.24594044374873908
158,0.2468767693753151,0.2411784060893326
159,0.24735503833142403,0.245325741329434
160,0.24756917496212572,0.2426385454827627
161,0.24696888808580897,0.2405109578756808
162,0.24686977281559,0.2425055556299184
163,0.24815898159925315,0.24576397963462143
164,0.24796912341499977,0.244803564548022
165,0.24866510046233567,0.24098955702856947
166,0.24771013880948084,0.24611266388983452
167,0.2492212957615475,0.24071583125943166
168,0.24894069065507368,0.24555420175771028
169,0.24821397137465617,0.24647747144843993
170,0.24865954546786423,0.24657189507322605
171,0.2485502978308881,0.25453641651978903
172,0.2500688338594185,0.24531282552745085
173,0.25052252253420726,0.24634165927803037
174,0.24962185834237427,0.2499540920980163
175,0.25010450960968517,0.25356992399400863
176,0.2499800131951781,0.24795852559188641
177,0.2505876173218377,0.2531899609430248
178,0.25165228265152273,0.2512546564969098
179,0.25200937114816774,0.2472085213698829
180,0.25148427699633735,0.24606682099078525
181,0.2511094322772049,0.2583116135003535
182,0.2524245859538432,0.2473965465152179
183,0.25197311619417273,0.251743400141585
184,0.25149566254955974,0.2489561693656134
185,0.2521004187677213,0.25462884565884425
186,0.25244198023057957,0.24920866068602548
187,0.2529645206497537,0.24933344012842276
188,0.25186934669336064,0.24469669744219474
189,0.25112505436991805,0.251294930148708
190,0.2511263182885546,0.25115235788481577
191,0.25103657085785,0.24870438911402987
192,0.2516475045959726,0.24390335281062708
193,0.25170851788289256,0.24931263460262423
194,0.2522673520991366,0.24741933121395188
195,0.25211383547666644,0.24266474596985513
196,0.25136093312887836,0.24873971556855076
197,0.2522630534119171,0.24853329805050106
198,0.25151422310123245,0.24579313233929914
199,0.2517676231124514,0.24985204205422676
200,0.25144291623271436,0.2510343630104998
201,0.25178643109963283,0.24803628232080163
202,0.25154351976683004,0.24896094712245717
203,0.25122832568834347,0.2502512206994556
204,0.2516239792596903,0.2528188899335846
205,0.2506722088971679,0.25114590924559566
206,0.2514237927661525,0.2538702115592941
207,0.2507694938199983,0.24642960621365997
208,0.2523376889866319,0.24362352806795462
209,0.2515339318284695,0.24598453288578856
210,0.2510523694358188,0.2454825430496904
211,0.2514212214641815,0.2477509583204679
212,0.25238698735225684,0.2531922837129802
213,0.25176797065136436,0.2480981067211118
214,0.2509337446684365,0.24812710732103993
215,0.2500042061237313,0.25215868113214046
216,0.2503904979125106,0.24546310993612708
217,0.25094304049758315,0.2459943726741148
218,0.2500343588378123,0.24564584574552625
219,0.24973943859314937,0.2469732390441759
220,0.24993587498494285,0.25081717468145426
221,0.24960027278946648,0.24813826652662718
222,0.24923317361292507,0.24359128383688788
223,0.24900219918822022,0.24608521389274401
224,0.24932199372328537,0.2504587076433832
225,0.25006915734921525,0.2599734690425522
226,0.24925587049348177,0.24087089936424638
227,0.24832933826698103,0.2446288351666391
228,0.24849290501990384,0.2483907124378969
229,0.248776251826879,0.24907198709442377
230,0.25011487839390617,0.24901503651463902
231,0.24791995840345166,0.24409997931313307
232,0.24832869562909282,0.24618389113455563
233,0.2468735825577133,0.24406691801152836
234,0.24795051225178916,0.2449798706416173
235,0.24854963159056115,0.2469970813372423
236,0.24730026496828889,0.2442054533897278
237,0.2474445765145677,0.24232407142397167
238,0.24792022638016945,0.24468817768270046
239,0.2467546991521506,0.24096091057526003
240,0.24681042767257141,0.2426641864059662
241,0.24674493048807605,0.23908583530546082
242,0.2465604460663456,0.24735298483458296
243,0.24612180362168928,0.24609695215016344
244,0.24705263083096413,0.24940333058491596
245,0.2461933189575716,0.24620873895609766
246,0.24589976932195357,0.2440419085941262
247,0.24673806148157607,0.24119685472657384
248,0.24603457614886676,0.25012253164868703
249,0.24660623392803396,0.23889532725267176
250,0.24577052595256138,0.24234395780568999
251,0.24651463205317894,0.24247297090673034
252,0.24570554102972733,0.24358687357537467
253,0.2452456551037437,0.24161228161208162
254,0.2452717348754549,0.24178401130856542
255,0.2448732556282378,0.248748606657455
256,0.24512098403833657,0.24097106364080073
257,0.24544158674996916,0.24608860775863645
258,0.24447280048228187,0.24341047412312303
259,0.24560637795906082,0.24003380795774634
260,0.24519449154392992,0.24568277702100086
261,0.24471846499221978,0.24288434335916365
262,0.24484819084477366,0.24272585172726588
263,0.2445875615131655,0.2344685956165371
264,0.2443261090740502,0.2452249165562635
265,0.2448674805289645,0.2389688036318548
266,0.2454752026856851,0.24320405980405982
267,0.24453176473446792,0.24246318023225502
268,0.24372155707683876,0.2377954536450596
269,0.2438871668968841,0.2486569879792672
270,0.24479036118915612,0.23947230089623436
271,0.24461531212075438,0.2412866400914956
272,0.2439835848008319,0.23760496446864288
273,0.2426529190332579,0.24872273214943502
274,0.24247273714017334,0.24141406197903564
275,0.2429403851655938,0.2410954258389236
276,0.24303403013139416,0.23602336134699828
277,0.24180474146593103,0.24045965210744125
278,0.24198051462237308,0.23824910694864104
279,0.24128737877741707,0.23245767394011663
280,0.24067501198473595,0.23489056762834187
281,0.24065396897226787,0.2433769570129917
282,0.24090967612038794,0.23225585883446537
283,0.24107453696947875,0.23349044203240757
284,0.23904452323437117,0.23136243948620328
285,0.23946286689082114,0.24338550152934812
286,0.24060540992340787,0.23960093980994673
287,0.2393814789400779,0.23698489770187386
288,0.2403391701854962,0.238301480143392
289,0.24046127195600317,0.24806252641760654
290,0.23969760046397848,0.23218290198479663
291,0.23939367109160725,0.24069976258578973
292,0.23998961165892801,0.23124046335562817
293,0.23904913935444053,0.24597914117052505
294,0.23878829284227915,0.2312312664342096
295,0.23897338705621274,0.23583383338368588
296,0.23880717960550346,0.23658278510386113
297,0.23886364685903064,0.2333237555498388
298,0.23975086341396892,0.23244035661502815
299,0.2383096433884139,0.22857336271862957
300,0.23838051790289647,0.2405982527943606
301,0.23934936758687647,0.23728122355764836
302,0.23830064582071905,0.24057895579061456
303,0.2384002406855853,0.23907358943239948
304,0.23931399399904515,0.23369506509546792
305,0.23870100486550114,0.2306161590020489
306,0.23722911440878272,0.2384128492934175
307,0.23921605204935553,0.23394721669998333
308,0.23832367741161112,0.23233978638473984
309,0.23948271105663002,0.23839782544168414
310,0.23766225197618243,0.23185840585425602
311,0.2386485885718553,0.23551676285342146
312,0.23836348145056685,0.23151095990082743
313,0.23776922784715915,0.2346508209641373
314,0.23751130391010564,0.2311895267880612
315,0.23804854826151514,0.23255879504292992
316,0.23872524201512624,0.23171000589558527
317,0.23835245357285872,0.24159012931298343
318,0.2385931912359955,0.23049159821978496
319,0.2385289699410935,0.24417856276835057
320,0.23909691451407736,0.23248179481550757
321,0.23732068312230062,0.23588114835751178
322,0.23872520415474185,0.2342660830612717
323,0.23755433020903338,0.23536546458949606
324,0.23922113382177865,0.23277575422104832
325,0.23821439137228195,0.24012866911449673
326,0.23972132553656897,0.23808898158730157
327,0.23968047977422924,0.23396756277135158
328,0.2387544758361783,0.2353601845800171
329,0.23988372396579463,0.2398056397898139
330,0.23885478562326262,0.2478865509133877
331,0.2394855666360695,0.23349089210157611
332,0.23933920639453174,0.2310585096631355
333,0.23900295323509868,0.23469453137412066
334,0.24026954126991718,0.23132509066066878
335,0.2395020167199637,0.23876638932781324
336,0.24045923255163607,0.23922770542710808
337,0.24119482089361127,0.23777946459324978
338,0.24028757278272192,0.24134609344302901
339,0.24038317942504975,0.24234978648839076
340,0.23992665444346642,0.2399759420797217
341,0.23992870988057766,0.24151145630966706
342,0.23938456420108473,0.2344828104187206
343,0.2395678324927148,0.23186422298767478
344,0.2394468804819883,0.23721396287972285
345,0.23951228513872977,0.2381808166204707
346,0.2399237698895468,0.23651095564993893
347,0.24057430555399278,0.2336831573035271
348,0.2401619921092221,0.23955260579427962
349,0.23902067145426498,0.2374901706977632
350,0.23977960643770216,0.23520333352245115
351,0.2387901823714578,0.2416716895309507
352,0.24025073538509775,0.24285939781564186
353,0.23979061506063246,0.2326666802967639
354,0.2400571169922773,0.2397807559914352
355,0.23865853827134026,0.23358840872287373
356,0.23975302985937094,0.23346631464143391
357,0.23918364093386585,0.2428876821836714
358,0.23981426628254396,0.23205996529973202
359,0.24037926178946675,0.23454764645308515
360,0.23987572661025539,0.23684827875178352
361,0.24071047399684395,0.23653710281274973
362,0.24002086292568156,0.24222200317418566
363,0.23993903811243797,0.2356885060985538
364,0.2394431141747845,0.23852636679807043
365,0.24056267042716534,0.24095489245846033
366,0.2399831210359109,0.24122456479420695
367,0.24068236789352698,0.23540079190256846
368,0.23928557071897338,0.24029817630337652
369,0.23997253637543495,0.24452229316957183
370,0.23960528255914518,0.23233375950601032
371,0.24009723216890813,0.24650702065102398
372,0.23989168307978473,0.23283792853402452
373,0.23968846764233853,0.24314856509242175
374,0.23983075052833291,0.23610827841905505
375,0.23989646392855807,0.2340472822313527
376,0.24032389930636286,0.24322021576769257
377,0.2405058892129613,0.23414218037638404
378,0.24023855728306454,0.23978258057805432
379,0.24066847788510945,0.23257646054005943
380,0.2412189384170478,0.2427273803253106
381,0.2405379163883001,0.23888399554879625
382,0.24041086156591238,0.23601214361877637
383,0.24131411627876007,0.24434496264760666
384,0.2412062088827149,0.2421277274554794
385,0.24086442204426042,0.24241982089927466
386,0.24107668633988913,0.238195192642163
387,0.24014189527879992,0.24458447301020844
388,0.24100082246757906,0.23577472828652035
389,0.24148614723667158,0.2442246020757597
390,0.24028061197506342,0.25280149776162175
391,0.24278408458693135,0.24572006507755362
392,0.2414911387266396,0.23346903955456583
393,0.24126394749950353,0.2434343219791328
394,0.24147524567935869,0.23415434601604232
395,0.24244970419733738,0.24466976890341918
396,0.24074042050077094,0.24390426769723267
397,0.24058382951026913,0.2385297000125909
398,0.24167987206976096,0.2453616927036076
399,0.2414231657695999,0.23797129044028464
400,0.24164013802814635,0.2495646572715199
401,0.24144474617082723,0.24340776298209824
402,0.24050111995993567,0.24048127126957172
403,0.2409901209205365,0.24024340135193098
404,0.24054402805608716,0.23506095978389505
405,0.2410578581986191,0.24394275821986497
406,0.24037570961349777,0.23966959197641644
407,0.24007985846911498,0.23795673241743254
408,0.24069474467770946,0.24185733033760196
409,0.24113882916698828,0.24171563577209765
410,0.24123467833732815,0.24021088474833693
411,0.24098978479274458,0.23512822127332816
412,0.24070048332214355,0.23439554494953382
413,0.24103308263585435,0.23833272670231753
414,0.2411002017063298,0.2347355769342951
415,0.24062593484954012,0.23104831766875222
416,0.2412195481913839,0.24301340560933785
417,0.24117627427827634,0.24054746108677977
418,0.2419088522223927,0.2374895624316576
419,0.24117584830875113,0.23811795457244955
420,0.2410317426033729,0.2343432082138197
421,0.24233634484638508,0.24260514092520644
422,0.24204400187726025,0.23365277558823883
423,0.2419836634545208,0.24571779513791875
424,0.24199454888379832,0.24426216827948072
425,0.24203244581234923,0.24308877223668932
426,0.2415807552153258,0.23599759011214044
427,0.24078978820861005,0.24640025319597716
428,0.24105177379602627,0.24068360256461901
429,0.24074527208539223,0.23576121789645094
430,0.24155879102284006,0.2407226813714525
431,0.24111297762365363,0.23780720646257184
432,0.2407242739014774,0.24087671747382644
433,0.24100650292482498,0.23720163012830497
434,0.2419077453198288,0.2396531397184238
435,0.2420329756790595,0.23538298221582865
436,0.2413393401270576,0.2375768153636401
437,0.24213280033269566,0.23761833345645417
438,0.24116764250371478,0.2365051350352702
439,0.24126704893023562,0.23847435560627256
440,0.24113487989472734,0.237844158202151
441,0.2413005539350849,0.23689009480901657
442,0.2416444083483671,0.2348250692861703
443,0.24176995552105487,0.2396991736863482
444,0.24173107896324733,0.23587601690096655
445,0.24123441368389092,0.2396593468224052
446,0.24186636312759752,0.2308339413193708
447,0.24158782946120064,0.24315427420124258
448,0.24235329973540432,0.24070327068607733
449,0.24177378290396134,0.23709053395061674
450,0.24180767597030584,0.24044943340387323
451,0.24181059290536588,0.23750076558802574
452,0.24151575359866487,0.2391449354512539
453,0.24190278451362673,0.23576350151410513
454,0.24195831765731177,0.23919802593639167
455,0.24217245698594553,0.23624577603193372
456,0.2417129807108693,0.23700219910259593
457,0.24136099258034255,0.23755598819763904
458,0.2413766587511908,0.2421266439046649
459,0.24145621097059272,0.2370353771907284
460,0.24164574880370324,0.24196291946009943
461,0.2417389147942491,0.23808628398316437
462,0.24199199844464409,0.23891478667554653
463,0.2414866723626447,0.23933273796124446
464,0.24157476432317737,0.2421025377775424
465,0.24244682596241543,0.244249559427305
466,0.24151417717254228,0.2331183674115314
467,0.24092314332175693,0.23613974888351083
468,0.24224979709163844,0.23463289667841197
469,0.2423572540402317,0.23616719661073227
470,0.24200042150170206,0.23417688367539913
471,0.24163987007525137,0.24495837787473493
472,0.24235302387929553,0.2470325372919099
473,0.2419158269723447,0.23682254951538395
474,0.24277361105386017,0.23294382735839864
475,0.24168757370097652,0.24933843696879512
476,0.2419142658404595,0.24060610248380132
477,0.24176301975711453,0.23677241160066087
478,0.24240461963234092,0.24224321591214298
479,0.24197220235324496,0.23616050700080046
480,0.24183764274147965,0.2402190294854737
481,0.2415018085893586,0.23953910090834868
482,0.24150024368155965,0.24483132423522816
483,0.24121349094082697,0.24537239414834564
484,0.24184545424940299,0.23948221856576773
485,0.24262964466421438,0.24154900676543636
486,0.24154549856170668,0.2434398760194372
487,0.24176961686209048,0.23758593279259735
488,0.24242540657949105,0.23386368874075286
489,0.2421534753424658,0.24132888126109844
490,0.24218513122160468,0.24516370940744736
491,0.24253738007480674,0.23659594201768772
492,0.24207811936033335,0.2385672965596394
493,0.2421184632001068,0.23751475322688764
494,0.24210529152652344,0.23824227841801782
495,0.24243569721301778,0.24412742674633003
496,0.24217823107870554,0.23388354603756858
497,0.24237379562749947,0.24109256767389242
498,0.24176147758817787,0.23773945350532186
499,0.241868033689513,0.24066976341988594
500,0.24240622272213205,0.23757651131879465
