epoch,loss,val_loss
0,0.612990647506752,0.514774539970279
1,0.4281571116760004,0.3101534308320251
2,0.33055341480780753,0.3276138056566514
3,0.30320630418501504,0.2655791767065038
4,0.2932664242675074,0.2796747628731716
5,0.28981063127231826,0.2787131186583518
6,0.29002345417090936,0.24298485920668214
7,0.2844258800839825,0.30593208398231864
8,0.27323775666413735,0.22999872892930362
9,0.2684776561318351,0.23776732895585054
10,0.2751684892330048,0.2524517464680096
11,0.2663497554241039,0.2002596682512393
12,0.26531220496082003,0.21136772130405046
13,0.2620105317933001,0.2765799257448553
14,0.25920222832454287,0.225362940517202
15,0.26467674223186494,0.22442580127960693
16,0.2601299875800749,0.22349368815546253
17,0.256235408536393,0.2321732687192727
18,0.2555535762882728,0.22589940705352066
19,0.2570344465587446,0.20774379033880527
20,0.25143072355708346,0.19030207489641426
21,0.2523409991944246,0.22955277972599608
22,0.2636205414645106,0.21855523514296
23,0.24742855211432507,0.2710546648516463
24,0.2489149629247846,0.2154756365630602
25,0.2465394856832582,0.2684688514837997
26,0.25227677258703823,0.20488235335605956
27,0.2584388564399583,0.23134423521859682
28,0.24688149431197765,0.17823996263737743
29,0.25025972893102755,0.220653570241691
30,0.24607192643350073,0.1935660397103196
31,0.24516291560815107,0.20863642940487367
32,0.2474437485918772,0.22247768005895727
33,0.23623905601285153,0.20251874024696773
34,0.24121857191518628,0.21460691204951707
35,0.2411993657894653,0.19486183731360235
36,0.24243658869791565,0.22305021862533964
37,0.24260903193319824,0.2132773509200577
38,0.24253955587065762,0.21420021368089207
39,0.2435982484969018,0.19887504874248624
40,0.24047729069833085,0.22563816265930034
41,0.24328341189739133,0.1924440499921436
42,0.24477901847528324,0.2295195266380965
43,0.2450003650703495,0.2574223461189699
44,0.23932920814418107,0.19371731652221816
45,0.24414021050115284,0.2293777528388724
46,0.2476985834116082,0.18909132967525893
47,0.24685238279717908,0.22257338276084426
48,0.2502594445344451,0.2133495841166497
49,0.24838739924793907,0.2287764495037255
50,0.24738887994647693,0.19468425009649573
51,0.2476042256855088,0.17936895190258145
52,0.25095880717086755,0.2130559511488596
53,0.25881994794384183,0.2021435226218947
54,0.2500143649993088,0.21696449108215984
55,0.2452745547147392,0.21625688726166242
56,0.2475731857746339,0.20680237242153712
57,0.24462661174513833,0.24061555574753196
58,0.2454830951732602,0.21225172353007235
59,0.25018275234934617,0.1916967823501638
60,0.2430380748020564,0.25183869885382165
61,0.24633697824155112,0.1955279926898071
62,0.2484218821846705,0.2354899824677063
63,0.2484777295510832,0.20509472015389515
64,0.25231976933378303,0.23284595347382275
65,0.2528570275977075,0.23347687216706414
66,0.25594623138507205,0.22845985663388785
67,0.2590682588154368,0.24885735834265846
68,0.25464459501510617,0.25060309982478574
69,0.25735469518614995,0.23509137774652256
70,0.25408820075382715,0.2083817482018151
71,0.253966605241636,0.23482786265996466
72,0.24696687975232837,0.20133520132364394
73,0.24646807612060642,0.2185538623661344
74,0.24930981381667508,0.23195102161653605
75,0.24856189076753735,0.17851094012431676
76,0.2463296280323649,0.2316476946730452
77,0.25805733745380177,0.2000936042185176
78,0.2443780957175483,0.19873397115797345
79,0.2425759314037532,0.18780172469819165
80,0.24451140151154413,0.24533250890289976
81,0.24160042766639464,0.2574949463757362
82,0.24055848554145995,0.19355693013769676
83,0.23782225823897918,0.21530952669780087
84,0.23776604863498613,0.2701991943623385
85,0.245238946573578,0.24344195040926372
86,0.24444370272515012,0.2128737684818545
87,0.24830137988884482,0.23503175800064932
88,0.2502695767761325,0.2343544220609183
89,0.25386047700373865,0.19485470569077307
90,0.2546153843021698,0.24122978737482237
91,0.24912170824601496,0.2236048762452066
92,0.2496171943801675,0.1968995687546651
93,0.24351515429173345,0.2034865899662757
94,0.24845026295295627,0.20623014567400774
95,0.2469796627628908,0.24019299144103193
96,0.24979821118495638,0.23722654270580085
97,0.24540533804945905,0.2236811805872251
98,0.243084039732659,0.24797478791005798
99,0.24033423687676064,0.17936735827808034
100,0.2405329150297373,0.18272657023232663
101,0.24287868855739955,0.1761536050967184
102,0.24144661028703435,0.19581466152287885
103,0.23570054751648892,0.23721622673893125
104,0.23299096645020562,0.2243437182390511
105,0.2420407458365583,0.2005261877506101
106,0.24111818111271596,0.23031657330850588
107,0.23923230611329838,0.18481956672837815
108,0.2304100994047501,0.1757562317265802
109,0.23686584391349036,0.17779324921737436
110,0.23445540188337496,0.2068856576929529
111,0.2312183032730977,0.15639513221164342
112,0.23410711050938834,0.23680019849101294
113,0.23545845600364687,0.19113087542384463
114,0.22812345522723132,0.20575552697763164
115,0.23473854669683175,0.17139525806800343
116,0.2321518372288711,0.2381921644956932
117,0.23161525799216126,0.20253009866002797
118,0.23102115636034834,0.23947394027094626
119,0.23095235752640106,0.1682197327277937
120,0.22344796253527574,0.21009815483697306
121,0.22916345403706143,0.1583146528291627
122,0.23036540256177399,0.23957621975968743
123,0.2264954668940972,0.1713889838205893
124,0.22451269365757776,0.219231560579321
125,0.23012401837167695,0.21471886714330882
126,0.2293949824907511,0.20318745589435053
127,0.22459882092799882,0.20464780980804914
128,0.22835116953157977,0.18019850926081213
129,0.22377910273824092,0.16111138132536798
130,0.22701295237127636,0.18997155132261712
131,0.22614982967182315,0.1964447116089695
132,0.23117475832204262,0.20878156917294652
133,0.22640857185057695,0.14906793759860856
134,0.22296568651279386,0.22183431392122463
135,0.2231002985138735,0.18615272223667167
136,0.22324249317510714,0.18833476015687836
137,0.22115979634588667,0.21886620074863403
138,0.21867971672571535,0.22904527002700031
139,0.2227288340683654,0.18933712732820127
140,0.2223990227220108,0.2376931283355418
141,0.22206736462031432,0.2144165463398645
142,0.22649165823888912,0.19688575635439973
143,0.22620792339721935,0.1886404896097665
144,0.22618186193928538,0.18706345930989557
145,0.2243977182512756,0.20640101216163048
146,0.2273287060354158,0.15576784841969152
147,0.22698966872325238,0.18615484337639226
148,0.22852106274460718,0.2622434944267243
149,0.22904568175069814,0.2262827808238807
150,0.23073735131586579,0.20772526923040752
151,0.23205360559393748,0.1771048759158051
152,0.22522371794155938,0.17034377084770067
153,0.22692931515516804,0.16004172061594246
154,0.22391668978712256,0.19706664329075682
155,0.22276375087783587,0.20694294057921717
156,0.23148990944802142,0.1681227053397268
157,0.2248532195671571,0.1795836385536495
158,0.22487823086843597,0.17533872781678647
159,0.2290089224978126,0.17140298032722984
160,0.2333923864791052,0.1590475011337622
161,0.22514393499834265,0.16742751792649538
162,0.22262174483659647,0.15237060233350805
163,0.22541644844672473,0.1757408648893978
164,0.22321229900339906,0.21711074430921837
165,0.22715438898506876,0.21910482185180485
166,0.2263793408495488,0.19691320893890574
167,0.22616094366299638,0.22260573262903008
168,0.22601770318383507,0.2156055504257696
169,0.2283306526992437,0.20994652634826155
170,0.2257784108261315,0.18057091536489922
171,0.2276438857666213,0.18798786644024837
172,0.2243355910817115,0.1875382345331496
173,0.22667307416193014,0.17439162805264827
174,0.22646452051153382,0.2022264244500915
175,0.23044370791370825,0.21936734533488703
176,0.220974241110156,0.17831539950129924
177,0.22235019843307713,0.1879611643708966
178,0.22107146038330622,0.19121323182485003
179,0.22456006969598463,0.2037498106049475
180,0.22941085006550346,0.20628664109211978
181,0.22514255546170364,0.1832339995332656
182,0.22848004433248253,0.20570070681698038
183,0.2252603137998177,0.183658817337551
184,0.22784517439220736,0.1954186318917075
185,0.23048569644383676,0.1995395889363142
186,0.22820944616572558,0.18790675638553753
187,0.2273474720051344,0.20303926846834272
188,0.22283142442397363,0.18272981327541626
189,0.22800931910411726,0.19276174678281244
190,0.22929932093687005,0.1839788151874068
191,0.2271297994992144,0.1750291653665484
192,0.23238369969607925,0.17950682678416477
193,0.22830799226161483,0.1434049247260534
194,0.22841389133013504,0.21766526800681027
195,0.22958331839810553,0.17267545316759395
196,0.23266961623867638,0.20979214417906192
197,0.23913984067982239,0.2123578698877848
198,0.24215258658527852,0.2032361590283634
199,0.2405345777122618,0.19887916904880762
200,0.2475782623834652,0.23452901561474743
201,0.2518531010865117,0.25134630557723
202,0.24624689171711603,0.26928078502581265
203,0.24822999035521187,0.2591092163239677
204,0.25332450208594376,0.24937055790951237
205,0.2584022669602546,0.2214762378416385
206,0.24471233749418236,0.21050907412710015
207,0.2456732404877623,0.22085463844280875
208,0.23851222484755955,0.19925982174011508
209,0.24290288197432014,0.20218176216522163
210,0.2507721614435041,0.19195889749203315
211,0.24464112775121852,0.284978847195054
212,0.2521881300399153,0.22627335269336354
213,0.26147099750505076,0.220553196172782
214,0.25924435926141215,0.22180453020470672
215,0.2636838313355911,0.23859188555730265
216,0.2606838001228637,0.18862584126259083
217,0.2527217820918055,0.2549710365360707
218,0.2525508001589661,0.205416536310007
219,0.2501491377715298,0.23239925239108733
220,0.25035749786763456,0.23927392494800812
221,0.2438250268213183,0.20591899851409112
222,0.2440522239743758,0.23180848803450577
223,0.24120320164733272,0.18458537492774657
224,0.23243239553545494,0.17643794991317094
225,0.23296536969766915,0.18675991210677817
226,0.2265163483403379,0.20300069814746363
227,0.23049708091907745,0.20270203828999822
228,0.22808536812127064,0.19358776749685794
229,0.22697370887088547,0.19305297752346876
230,0.22381178758961023,0.20713922626029438
231,0.227065128799108,0.177931018814668
232,0.2193193039138445,0.18398055073164915
233,0.2270108665005385,0.21054947558546405
234,0.2207179358310932,0.16808465666533834
235,0.22301829665256062,0.14960166451469029
236,0.23411357143728567,0.183508571469605
237,0.22863322079515191,0.22780559978197198
238,0.23093870452506174,0.18416902293534193
239,0.22978395973440174,0.17761404051400587
240,0.2298405798767015,0.22335788822823277
241,0.23390716989692167,0.20394980584013245
242,0.22808297722936152,0.1809542740224004
243,0.22850173896999001,0.19786604071049213
244,0.23691435508447872,0.20186618984263058
245,0.24016554430305814,0.19332265628071027
246,0.23635837908009355,0.22414000883945445
247,0.24111878275752163,0.24213953418532222
248,0.24372496355256493,0.24776100840687093
249,0.24054408764286483,0.18031461923820538
250,0.2352758970537441,0.19831775848613353
251,0.2307373431327341,0.28026889253998705
252,0.23022553691570516,0.19190100817437614
253,0.22771686606770225,0.20221106985608894
254,0.22572204110314614,0.2270445114247142
255,0.23077525743703953,0.18040457245582844
256,0.22509551153694698,0.18668666992398256
257,0.22066505698801325,0.1676347936079459
258,0.2190620776274793,0.15553666134941926
259,0.22386075086969076,0.17216475946562632
260,0.22588797427005142,0.1717589575071079
261,0.22288466737472373,0.17379741202495938
262,0.22064961647267917,0.15543005850104338
263,0.22596158770372352,0.197279045559707
264,0.22085682026964487,0.19529714081921537
265,0.22413681236674174,0.20585604560074133
266,0.22100706037571677,0.22803775994393802
267,0.21631719639523328,0.18133349713135066
268,0.2223504887615367,0.16054066388787674
269,0.2205818719107756,0.1799061547938349
270,0.22243478681019646,0.18953345693653742
271,0.22305176612570418,0.1834108942756525
272,0.22356851437061334,0.16856680321194756
273,0.2192183099002194,0.17347643677889124
274,0.21478149684951556,0.17193689830630618
275,0.21997163682985457,0.16005676100361318
276,0.21999582606289597,0.19281643019855352
277,0.21846217932187015,0.1690931658318594
278,0.2267623608060878,0.17224808185469379
279,0.21955070348618794,0.1907787795907038
280,0.22380442121665445,0.1905098552885447
281,0.22301629640692047,0.2181112270893407
282,0.22362930260354477,0.25449140187596936
283,0.2254856666989273,0.1795964783208993
284,0.22435416057288982,0.19835615009892713
285,0.2260587219533017,0.191290292327293
286,0.22409868450592652,0.22519874154063033
287,0.2254653764750174,0.17674671814445445
288,0.22399828304275335,0.19946104135208462
289,0.22211507027693314,0.17400682847520546
290,0.2207757616571957,0.2061974229827676
291,0.22048761649168938,0.18603263426081063
292,0.22279088589832555,0.17261469414738473
293,0.2228275746833697,0.18117490119132454
294,0.21821710389914464,0.20952417094028175
295,0.22135592023019407,0.1887332147491571
296,0.22449536535212938,0.1669631447957648
297,0.22131733085325866,0.1849819172082591
298,0.21974137861379903,0.15568793711459064
299,0.2204727333881777,0.21860031414286019
300,0.22279034420359525,0.20351077292787811
301,0.2203586936759339,0.1692517997245668
302,0.22087496577454604,0.17681601363651
303,0.22068992884848995,0.1821968768324171
304,0.2207736658166162,0.19629133375686458
305,0.22357744574070357,0.23808626682389508
306,0.22055964722193117,0.20858383019937712
307,0.2241038537914042,0.19973415536210587
308,0.22088903565701248,0.18783350198308407
309,0.22197325778998536,0.1754902058590465
310,0.22552289859615832,0.1838559655218305
311,0.22558740565745378,0.1871364832206702
312,0.2318428213314282,0.17087069280804285
313,0.21747657999717931,0.16190804483482193
314,0.22336415780021798,0.19210994250678415
315,0.2259720409814593,0.15716387898364967
316,0.2254516136446159,0.19939818703102707
317,0.2234362341898332,0.17110909862648152
318,0.221416182589712,0.19490388343911896
319,0.22413803240973695,0.21183454748110783
320,0.2283961642131531,0.19310785480719808
321,0.2272290865139519,0.19754139006420113
322,0.2265043863408762,0.15890791031348958
323,0.2262885000148742,0.17075535983152998
324,0.22159067431180407,0.20387428294464463
325,0.22787970565944363,0.1640783315958145
326,0.22720192714656096,0.20365826930224473
327,0.23057802856492576,0.1713253258247496
328,0.2234018700454923,0.22605991746933327
329,0.22640085687859357,0.2176068238061342
330,0.2282217112388447,0.20392170582545865
331,0.22610751032043133,0.16793094300198197
332,0.22527629692705986,0.17552545712562462
333,0.22642287423165677,0.16421767497683662
334,0.22638946882993294,0.18685750331620862
335,0.22257136358774537,0.15690967308882192
336,0.22511526025670894,0.16344517522330537
337,0.2243165307574802,0.1851915658202431
338,0.22555332143696474,0.14658464092082082
339,0.22772070950717568,0.23470919150579794
340,0.2310528631249873,0.1744819999258633
341,0.22432422781471822,0.16197005465873698
342,0.22464814147860598,0.1708899069321654
343,0.22811709182987586,0.22009815259203727
344,0.22611527050213276,0.16363587773801214
345,0.2267676157285746,0.19643710313722104
346,0.22428713601341638,0.2128739966683813
347,0.22234880703268387,0.17575424575579854
348,0.22636251392767584,0.1902889239218824
349,0.2257359752313887,0.2031039817298409
350,0.22998623520159703,0.18187929123004967
351,0.22405153549284482,0.19951508152456668
352,0.2288210685792968,0.18073195880006973
353,0.23237869529415378,0.2009508935198035
354,0.22886783319363874,0.1682559544633671
355,0.22307262658405838,0.24516302113139732
356,0.23337351097215375,0.2021390116393519
357,0.22646094656748167,0.21038829868669667
358,0.22803710645837463,0.19846449448964495
359,0.22284969821167316,0.16225280772068412
360,0.2310839673991112,0.20231622132901234
361,0.22863887463041918,0.1877115873859544
362,0.2317119119681424,0.20926466881758413
363,0.226192740817293,0.24383269747882352
364,0.22919671474505576,0.1960283292379545
365,0.22882476404940577,0.2063863500070647
366,0.2299258663154525,0.1733236101639017
367,0.22744146187742836,0.17045901781616948
368,0.22754809368166515,0.18576450182541018
369,0.22749611794305363,0.18688235718289414
370,0.23234563859866011,0.20626230174477117
371,0.23267355741714116,0.20952508223978855
372,0.22637894809793987,0.2284641846626315
373,0.22756265742268017,0.21191612845720412
374,0.226822896630501,0.16168951503667853
375,0.22564485101557846,0.167531334257728
376,0.22853473341055244,0.1943460686783576
377,0.2283097939203969,0.20608514287430374
378,0.2268083689988946,0.17972051302278333
379,0.22526388784511675,0.16578982509349216
380,0.23140894146941357,0.20539452695385527
381,0.22966273993753986,0.18744261587522307
382,0.22965826899361172,0.1710590994442742
383,0.22896172546392246,0.1770839581667389
384,0.2289144074518999,0.24171838431303766
385,0.23153100534380197,0.16933253126390918
386,0.22674726888978128,0.17044961214912344
387,0.227431564165248,0.19908036012864055
388,0.2333203140470526,0.21926805783936426
389,0.22990755417006764,0.15917206382130486
390,0.22660343939189811,0.20620106172401695
391,0.2291731985031272,0.21120049519245326
392,0.22957961843739882,0.19573397665110365
393,0.22762312809769197,0.1991767587276924
394,0.2287731446939216,0.22621044143740363
395,0.2265443346626181,0.24293502264354017
396,0.22668917744541817,0.19373591565295478
397,0.22041815411534718,0.17150877229134304
398,0.22490462532741942,0.1861678876435559
399,0.22881739438890364,0.20282230767897008
400,0.22779311083680054,0.18909402787920615
401,0.22564439518417387,0.1608485201139947
402,0.22613473639166137,0.2097777313337424
403,0.22717208182997556,0.1912728833724122
404,0.2221085312578985,0.18928049315405154
405,0.22133995533632717,0.20181066243546913
406,0.22723227830456316,0.20690924310270217
407,0.22693821975438716,0.18732963023735202
408,0.22504611433052615,0.2338035071140777
409,0.22649653317878762,0.2412130956868064
410,0.22462871397951906,0.19326775425187978
411,0.22412553675573985,0.15872089874114026
412,0.22467185279948534,0.19535367969414713
413,0.2239832789491978,0.20086818265463297
414,0.21866975062423283,0.2360649865235319
415,0.2292397202049895,0.18214146489455366
416,0.22246668063741412,0.22477797063063146
417,0.2248035911545098,0.19558357085735664
418,0.22789564386879702,0.19109851510014794
419,0.2273890549044529,0.19680846093814958
420,0.22420708123418828,0.21852255943683346
421,0.22585144316216263,0.1657934131919632
422,0.22802075952124728,0.17636592286302993
423,0.22797564971599457,0.19210537848222323
424,0.23211890569836688,0.1956384588788604
425,0.22827152400422726,0.21201619567039356
426,0.22470909816850956,0.19359522124115838
427,0.22653760023111347,0.23142291231473414
428,0.22400345414769735,0.21919727354841903
429,0.2278164661438059,0.1749004123713336
430,0.22613720896003917,0.1712361441861953
431,0.22679138418248326,0.16910251615173533
432,0.23207295603222317,0.19388618318462522
433,0.22411431730698814,0.1838896686553767
434,0.22417501200565235,0.19327989153581618
435,0.22229822643464514,0.17097563619395365
436,0.2259170055615721,0.1675949491966213
437,0.22521374015797146,0.20069173728751685
438,0.22355446432658332,0.1772721716641627
439,0.2248117062125465,0.17604102847043604
440,0.22806161718307544,0.16223173475020874
441,0.2284629753024744,0.17523486053699006
442,0.22921522521524787,0.1814727235259084
443,0.22808986520476573,0.1937797159991494
444,0.2304012028814601,0.20949947941039807
445,0.23097373182467706,0.1821581497376795
446,0.22682245991093744,0.20500708332001552
447,0.22723284202942745,0.21326448621953106
448,0.22584278353874823,0.17077038830532837
449,0.2249005344881714,0.18606321846488524
450,0.22515553514138878,0.18294959896976964
451,0.22719376638448305,0.15900744760045876
452,0.22688100729390775,0.18266780226364226
453,0.22766350332995972,0.1926507696027161
454,0.2282412492221208,0.16340625235530082
455,0.2274906440622372,0.201833599638826
456,0.22463671037023492,0.21672612298118288
457,0.22461798950303183,0.18456461355266557
458,0.22822361713428674,0.2123867534071607
459,0.22381843787600858,0.1798117706506574
460,0.22868572176693916,0.21597320766973985
461,0.22728613466262626,0.19699547737954448
462,0.22883642438075524,0.17276795603623046
463,0.22680723463459837,0.16933086466252945
464,0.22278698152608628,0.16784150083420685
465,0.2270175540130392,0.16970873661133465
466,0.22335594551835797,0.14994696594757081
467,0.22519833493909294,0.201350653227992
468,0.22655556206222918,0.20087574484692658
469,0.2210833158174293,0.1876862424630863
470,0.22434856273906884,0.16404696690960954
471,0.22692697329653633,0.16344224344630268
472,0.2261366490944684,0.17837954743602846
473,0.23163872817270667,0.19103238912153733
474,0.22618454578611777,0.19538397965886597
475,0.22775348015635802,0.1837114597058428
476,0.22583371836790364,0.18168766490803429
477,0.22506927329597237,0.16527691953936804
478,0.22850510905638968,0.19476762559814725
479,0.22359230354440202,0.1764877410318876
480,0.23036211483674846,0.21718717829251535
481,0.23049448846841603,0.1780466168601398
482,0.22378680605491955,0.19592722901088003
483,0.22832609569545176,0.2178318040311666
484,0.2237613884796151,0.19136959538981024
485,0.22693838012947454,0.21001596615929818
486,0.22680388784689678,0.20534730511522706
487,0.22715029599283526,0.18614347676592918
488,0.22690534702450824,0.21772936359341913
489,0.22876327446134065,0.18266814577833534
490,0.2269470998101669,0.20414342805919633
491,0.22238734163802495,0.22954133918601505
492,0.22707683101689502,0.18500162375283788
493,0.22340716934985488,0.17436314561796076
494,0.22477652303439727,0.2197477602309473
495,0.22960058956456889,0.18223249708797015
496,0.2305510740438335,0.17974448322826422
497,0.22718725510709864,0.1690490450695357
498,0.23380193707468414,0.20312724819358352
499,0.2257983581059509,0.18637005180332167
500,0.2279793121438804,0.18573824535605468
