epoch,loss,val_loss
0,0.6041655987952749,0.6019526171625105
1,0.5612574937497861,0.5512116316826113
2,0.5510443509933697,0.5513301050100965
3,0.5509701538495497,0.5508656065753909
4,0.5508921845483893,0.5508342311636686
5,0.5508006932858153,0.551087523837835
6,0.5507927637319135,0.5506435799243729
7,0.5507457242899172,0.5505850636337886
8,0.5506919642055198,0.5508317836756742
9,0.5506929663336061,0.5505620992804875
10,0.5506599950897055,0.5506053060515052
11,0.5219671466071278,0.5007200224523805
12,0.50067616355998,0.500726825782738
13,0.5006826804354455,0.5007524261403616
14,0.5006425170018673,0.5005350554847244
15,0.5006187176128878,0.5005178068471015
16,0.5006458234958006,0.5006089766623069
17,0.5005872350399734,0.5005666841644212
18,0.5005821361691121,0.5005806815535495
19,0.500583193004009,0.5006036760789289
20,0.5005691182397076,0.5005645394325257
21,0.5005654405137753,0.5004825696460071
22,0.5005481585216766,0.5005022872766254
23,0.5005488054435967,0.5005459411268495
24,0.5005244458304339,0.5005385783410842
25,0.5005368870033945,0.5011332799128209
26,0.5005341083064964,0.5006661389956699
27,0.5005090392630923,0.5004821045227146
28,0.5005204131121077,0.5004903334541889
29,0.5005021114034213,0.5005084784095991
30,0.5005073665293092,0.5004815466350716
31,0.5005250403623316,0.5008056272939772
32,0.5004879406505649,0.5007354867369602
33,0.5005011530418879,0.5004577690555203
34,0.5004880523628316,0.5004955379897844
35,0.5004870087944466,0.5004607172225308
36,0.5004776867908178,0.5005519528246991
37,0.5004861475660579,0.5004473653679746
38,0.500460778984091,0.5004807477257683
39,0.5004761766834264,0.5004200557029572
40,0.5004667487393866,0.5004807930726272
41,0.5004706110771403,0.5004123697505696
42,0.5004589895652685,0.5004310189642326
43,0.50046684186134,0.5006611514032331
44,0.5004660448372531,0.5007297294903038
45,0.500470539975325,0.5005515408279286
46,0.5004657728690234,0.5005013159131886
47,0.5004566510415844,0.5008135014077274
48,0.5004545277867395,0.500410223687553
49,0.5004584622565179,0.5004450847138247
50,0.5004530191371024,0.5006829174517402
51,0.5004516449834558,0.5005254148845342
52,0.5004558178994224,0.5004340496903318
53,0.5004605413969367,0.5005075057150412
54,0.5004476427762142,0.5004039807591781
55,0.5004448507457537,0.5004175765638612
56,0.5004475012280999,0.5006951739711146
57,0.5004459879283208,0.5004354766521502
58,0.500442853110216,0.5005017696184201
59,0.5004544179574055,0.5004275737861842
60,0.5004416945448839,0.5005023584768139
61,0.500445955531937,0.5004422720253615
62,0.5004447021463045,0.5005006995449587
63,0.5004372910560231,0.5004297206182929
64,0.5004357258071765,0.5004102894745157
65,0.5004318386781313,0.5003969948877471
66,0.5004376785954668,0.5004148642419289
67,0.5004417708190453,0.5004666428707966
68,0.500442320230761,0.5004068889333947
69,0.5004321647315751,0.5004096061361043
70,0.5004325258405425,0.5004316503593407
71,0.5004377821196971,0.5006442893231773
72,0.5004386555701894,0.5003841590644704
73,0.5004291388403846,0.5004276301665578
74,0.5004309865346765,0.5004738239733221
75,0.5004364148138679,0.5004023666713138
76,0.5004231712953856,0.5004567720458171
77,0.500434847868252,0.500547940944028
78,0.5004196109526056,0.5005351602883256
79,0.5004289663938714,0.5004553954891177
80,0.5004198607602857,0.5003845300922914
81,0.5004276388434038,0.5003929770614018
82,0.5004276824222156,0.5004122828727324
83,0.5004256298660946,0.5003923950656768
84,0.5004259781976234,0.5004304065893661
85,0.5004308406519515,0.5005308097112859
86,0.5004199186239867,0.5003783959904616
87,0.5004179240680341,0.5005563411168366
88,0.5004242801400898,0.5004420076055504
89,0.5004221115292031,0.5004889023511049
90,0.5004188233913013,0.5004542960422507
91,0.5004088101407091,0.5003734353458319
92,0.50042647389093,0.5004318940136628
93,0.5004258011080674,0.5004074065028585
94,0.5004147482324424,0.5003725716553018
95,0.5004245372515299,0.5004493775497891
96,0.5004226542721655,0.500435197471685
97,0.500428415438419,0.5004207072423646
98,0.5004208090342845,0.5003840720091505
99,0.5004187996846485,0.5003976420196646
100,0.5004281122609918,0.5004048066162886
101,0.5004125481544115,0.5005896442581347
102,0.5004220375237114,0.5003829772359976
103,0.5004166000688709,0.5004466197035153
104,0.5004187953563484,0.500384783301105
105,0.5004204290376156,0.5004287253538373
106,0.5004131393842745,0.5004355061142971
107,0.5004213643795655,0.5004855366853568
108,0.5004165079471516,0.5004188014614966
109,0.5004110686598633,0.5004299514346916
110,0.5004154701561442,0.5004358547497032
111,0.5004214258963298,0.5004944087553852
112,0.5004096038217424,0.5004218610581335
113,0.5004172346945376,0.500451059613571
114,0.5004219518664389,0.5004807074667502
