epoch,loss,val_loss
0,0.5597542335721066,0.551467211784855
1,0.55116260061351,0.5522016188347014
2,0.5510442801408241,0.5509637078339645
3,0.5509225064166695,0.551143413234881
4,0.5508609331810093,0.5506939121866344
5,0.5508204518591476,0.5506530670906711
6,0.5507834674227845,0.5508421208367454
7,0.5507283037827485,0.5506668086087437
8,0.5506953601762314,0.5506058362518291
9,0.5506683719415173,0.5505455984075371
10,0.550639930694794,0.5506019801123266
11,0.5506277732483357,0.5505505336129636
12,0.5506172523797217,0.5511577212189327
13,0.5505972465024498,0.5506589533969132
14,0.5505694607987497,0.5505124364833974
15,0.5505750992769813,0.5506862365874108
16,0.5505713062977328,0.5505007605398855
17,0.5505651810730834,0.550729786343965
18,0.5505521142434323,0.5505404879674131
19,0.5505273450556999,0.5507624525881879
20,0.5505251415139246,0.5504685349854879
21,0.5505206336063023,0.5504621307252359
22,0.550499650220271,0.550477444948097
23,0.5504946936193018,0.5504767974020529
24,0.5504965017925139,0.5504546877763999
25,0.5504817718275408,0.5503980300266749
26,0.5504841853269752,0.5504534509874159
27,0.5504886053654507,0.5504079039871841
28,0.5504722858005058,0.5505144550841736
29,0.5504740181531326,0.5504898868186894
30,0.5504592524203241,0.5506043450708129
31,0.5504649649868745,0.5504174905734381
32,0.5504572798632112,0.5504606206718805
33,0.5504507982996385,0.5504163696511508
34,0.5504520554353601,0.55044798398432
35,0.5504513357408868,0.5504669230569976
36,0.5504540715665519,0.5506070539022497
37,0.5504406394976292,0.5504329223786631
38,0.5504503025171943,0.5503997366126654
39,0.5504482744849521,0.5503896494065562
40,0.5504327252588261,0.5504315969074335
41,0.5504447338502549,0.5504075437562341
42,0.550424744558884,0.5503674810045115
43,0.5504281766042852,0.5503923132165194
44,0.5504327642506023,0.5504808011776756
45,0.5504263306540924,0.5503882547466098
46,0.5504229177866815,0.5506026250552895
47,0.5504299331455388,0.5504499274507054
48,0.5504176077220674,0.550434290386607
49,0.5504115600770902,0.5503956693573566
50,0.550412721664423,0.5503682794109468
51,0.5504150870974022,0.5503942346454554
52,0.5504180830549303,0.5504852585106275
53,0.5504159892975257,0.5503903898648529
54,0.5504113696571271,0.5503844160300034
55,0.5504146436489735,0.5504383305462064
56,0.5504049675419603,0.5503969082465539
57,0.5504121422228081,0.5503922363960417
58,0.5504071249538536,0.550765176328181
59,0.5504083177133089,0.5504087556088828
60,0.5504039203954508,0.5504540808443396
61,0.5504072903695416,0.5504391857175615
62,0.550413780785344,0.5506687382018891
