epoch,loss,val_loss
0,0.6094984538965872,0.6009710555928517
1,0.6010481721244755,0.6012034542507333
2,0.6008761598065501,0.6007445338050426
3,0.6008265086815096,0.6008455197213601
4,0.600746014738182,0.6007280130835976
5,0.6007206422791247,0.6009880234822446
6,0.6007072096430346,0.6010673054394592
7,0.6006636613927749,0.6006592961458059
8,0.600633731426947,0.6007086465731448
9,0.6006137254999789,0.6005831849190497
10,0.6005842960140669,0.6004965201796728
11,0.600605933337067,0.6004713800349839
12,0.6005567607569976,0.6004769450973341
13,0.6005549853367197,0.6009418750519196
14,0.600539632162001,0.6004491592755092
15,0.6005180544270803,0.6004708900936779
16,0.600509523624409,0.600615055389499
17,0.6005080155506165,0.6004006466557903
18,0.600483893028435,0.6004574813262996
19,0.6004872240738559,0.6004438268635468
20,0.6004759266599229,0.6006043983452374
21,0.6004825351159715,0.6004091212234781
22,0.6004712564067318,0.6006498533797915
23,0.6004616915355332,0.600444559837985
24,0.6004637150895978,0.6008053528759675
25,0.6004551815354939,0.6004126233735096
26,0.6004489689157837,0.6004936572044126
27,0.6004404323381014,0.6006230167064714
28,0.6004387065477361,0.6004096512758998
29,0.600443448276647,0.6004598288027287
30,0.600431156913198,0.6003998410317206
31,0.6004272540912055,0.6003780395753922
32,0.6004260154850574,0.6010412700122995
33,0.600424569539371,0.6004056508428701
34,0.6004209326913028,0.6005058593253048
35,0.6004201262904154,0.6003724706084201
36,0.6004141952137311,0.6009078928317977
37,0.6004146377108329,0.6007801696325354
38,0.6004078285248371,0.6003567402179425
39,0.6004139656884007,0.6004150549472118
40,0.6004147274684342,0.600386908066184
41,0.6004058257232637,0.6004948822499505
42,0.6003989982009573,0.6003977290749846
43,0.6004014754692603,0.6003725455061674
44,0.6004034975584711,0.6005229423123021
45,0.6003986954771064,0.6003694960556314
46,0.6003971557026765,0.600341882865423
47,0.6003907800779371,0.6003437200196032
48,0.6003907564225582,0.6005206068751238
49,0.6003956636484064,0.6004204866903887
50,0.6003917016051394,0.6004769441803395
51,0.6003848026844184,0.6007341968510346
52,0.6004028444403058,0.6003923144293186
53,0.6004008727832459,0.6003570580009195
54,0.6003886095115455,0.6003667875495797
55,0.6003770784049028,0.6003726071518645
56,0.6003781553541292,0.60035316671982
57,0.6003738178120915,0.6004355317901441
58,0.6003654389361467,0.6004743477251039
59,0.6003683688458817,0.600345097611619
60,0.6003628635407756,0.6003430272746026
61,0.6003717538510931,0.6003561848446394
62,0.6003754244838826,0.6003680980530921
63,0.6003584180712689,0.6003977367954869
64,0.6003757254431249,0.6004338031667042
65,0.6003584826013567,0.6003302571495472
66,0.6003576720070589,0.600403610737093
67,0.6003592508395263,0.600339823650663
68,0.6003681151398128,0.6005117626994775
69,0.6003584180499705,0.600333069690108
70,0.6003622019143098,0.6004277348222566
71,0.6003527695149685,0.600488835735889
72,0.6003608230300608,0.6003293695579983
73,0.6003596942351035,0.6003869255186606
74,0.6003596592860717,0.6003222138650955
75,0.6003554147318868,0.6003051356405538
76,0.6003540728436785,0.6004662706893372
77,0.6003464738190315,0.600343706442168
78,0.6003586408371308,0.6003291104626715
79,0.6003444582250318,0.6003395526935682
80,0.600357708042307,0.6003248062382265
81,0.6003539214896414,0.600333352390649
82,0.6003482969294938,0.6003490550050664
83,0.6003491917785275,0.6003247115511456
84,0.6003526118542503,0.600317572837432
85,0.6003448099090802,0.6003338662329738
86,0.6003486805161196,0.6004248895952778
87,0.6003433027416513,0.600331897120322
88,0.6003464609248463,0.6004237032114128
89,0.6003426850615912,0.6004177626545908
90,0.6003437191072426,0.6003385610675102
91,0.6003411239572478,0.6003019413048812
92,0.6003438136388319,0.6003406926065166
93,0.6003424029088011,0.6003061199306554
94,0.6003475224075189,0.6003748740215159
95,0.6003428338180172,0.6004504824986233
96,0.6003457084001337,0.6003256077506111
97,0.6003413757511973,0.6004193630466982
98,0.6003359916124634,0.6004447889682969
99,0.6003353325504779,0.6003423543485163
100,0.6003390124228116,0.6004268340082382
101,0.6003390536446049,0.6003747327156161
102,0.6003341790991188,0.6003114242707529
103,0.600340796894104,0.6004108843969056
104,0.6003339954544008,0.6004301981358019
105,0.6003385730542024,0.6003841200182515
106,0.6003401775622377,0.6004686446402859
107,0.6003375502982596,0.6003304524102223
108,0.6003373081642999,0.6004931661686294
109,0.6003451656926686,0.6003412151159188
110,0.6003277647981345,0.6002957911112764
111,0.6003380684384604,0.6003603093381555
112,0.6003365893241274,0.6003607349715221
113,0.6003345337057755,0.6002943217902267
114,0.6003368716772799,0.6002933235973046
115,0.6003298633318938,0.6004375613652743
116,0.6003301301869393,0.6003912149824516
117,0.6003401173951585,0.6003199405764823
118,0.6003299817460446,0.6004737200867154
119,0.6003298090052982,0.6002970620657019
120,0.6003329782723178,0.6003112181540459
121,0.6003269997988934,0.600334688481267
122,0.6003253015686064,0.6003107151085922
123,0.60033443851867,0.6004174968444975
124,0.600325705675808,0.6003132211363346
125,0.6003358645267246,0.6003575494212489
126,0.6003282325164392,0.6003020125346503
127,0.6003330922327448,0.6004329996428478
128,0.6003209022676343,0.6004044348193753
129,0.6003333478004481,0.6005145128844098
130,0.6003245737831225,0.6003021452030533
131,0.6003354058736332,0.6003460454290026
132,0.6003279524406336,0.6002869272646182
133,0.6003236752344846,0.6003180318967284
134,0.6003322629471637,0.6003014126723221
135,0.6003272488769074,0.6004000598680292
136,0.6003234550299478,0.6003666013701087
137,0.6003255966558119,0.6002995187236416
138,0.6003231000044232,0.6003371423586427
139,0.6003245236278503,0.6002965323386654
140,0.60032412685044,0.6003001193550621
141,0.6003255501465034,0.6003775630636191
142,0.60032561646802,0.6003748389094994
143,0.6003250541778957,0.6002906963192204
144,0.6003242730234538,0.6002980596374341
145,0.6003223173007227,0.6004070849335815
146,0.6003172169224108,0.6003132243310252
147,0.6003275084423919,0.6003309252244368
148,0.6003288157680942,0.6003290121963539
149,0.600326224691608,0.6003001419249598
150,0.6003228679927065,0.6003156581824234
151,0.6003197897359472,0.6004320031951734
152,0.6003303227540926,0.6003269422438837
