epoch,loss,val_loss
0,0.31083986800823143,0.2977731164124857
1,0.2966962833407882,0.2909926114375767
2,0.2899716693409879,0.28729769477540656
3,0.29292540318124577,0.2973758522708147
4,0.29165249946023863,0.29027837486476893
5,0.2901749123242781,0.28735367604512463
6,0.28891380340027945,0.28736900646369434
7,0.2884320270708554,0.28582580892153125
8,0.2876656089183853,0.2888446541900376
9,0.28675776740925324,0.2884770843282717
10,0.28656360793641034,0.2838070273870679
11,0.2927058178475134,0.2925494654468183
12,0.28858217846652906,0.3116414738699661
13,0.2865682762292168,0.28377642646274814
14,0.2863663523178324,0.2862897944566397
15,0.28630336122609695,0.28607653581748044
16,0.28597288985577846,0.28463696441873726
17,0.28579955321070766,0.28439058803342165
18,0.2853522163400467,0.2831721455281765
19,0.2856099716573357,0.28518447129468266
20,0.28421032975455396,0.2820579099611644
21,0.2864872697469375,0.2847730097181896
22,0.2823199851243042,0.28081429819821924
23,0.28088342679665984,0.2802256233536994
24,0.2799755831042512,0.27653313970793
25,0.2797610606189916,0.27842301884416826
26,0.27936597948698544,0.27787488257242043
27,0.27928242671957393,0.2787208951894868
28,0.2788653427286087,0.278179980796329
29,0.2788655687693217,0.27636025183730656
30,0.27816262431711175,0.2755060887322229
31,0.2783197641008801,0.27615428070589865
32,0.2779676083526056,0.2798314554267846
33,0.2780654561982525,0.27537828671163594
34,0.277341173134082,0.27660238890268896
35,0.27752160082002275,0.2776007316613816
36,0.27649404318798915,0.27595239690378826
37,0.2766823177311638,0.2774140390673983
38,0.27612210758883443,0.27403460007345204
39,0.2760137773071937,0.27305305662163853
40,0.2765147498159336,0.2741526678047428
41,0.2762489255854757,0.27231896140545436
42,0.27685305337198646,0.27394151295454444
43,0.27636059493220166,0.2773331943642581
44,0.276679383965136,0.273133463976302
45,0.27657290663215234,0.27260249821712407
46,0.27636949753491663,0.27413057412012554
47,0.27577602978440835,0.27440910684269615
48,0.279822498589778,0.27896379640768526
49,0.2773672567130185,0.2744669368957371
50,0.2764534004885641,0.2740334730356666
51,0.2765116734240798,0.27393235361078166
52,0.27614459741690617,0.27318116333652875
53,0.27639423455711937,0.27368434150578624
54,0.2761748238467426,0.2749314743780742
55,0.2759592846197019,0.27375575239616784
56,0.27619052403050964,0.27604973218301787
57,0.27575858924582636,0.27238359355457603
58,0.2755131421982049,0.27201258844340226
59,0.27521144438555856,0.2753098974395649
60,0.27519456015898286,0.27306072609703036
61,0.2749477108601955,0.2717634387078656
62,0.27497519771035334,0.271534734997001
63,0.2747016553733471,0.2727833868027797
64,0.27451168011435517,0.27127785503332535
65,0.2741754493169827,0.27252100203231594
66,0.2741880487140605,0.27184792363899857
67,0.2741971960197314,0.2719232891440778
68,0.27426735931534685,0.27220407820216835
69,0.27490246227030474,0.27202007158176744
70,0.2742214389115548,0.2749199516835584
71,0.27433448603706323,0.27045637958917984
72,0.27397269689387754,0.27181323921037515
73,0.2739096359611512,0.2712248854296824
74,0.27413248645068644,0.2712565182745215
75,0.2734085765359304,0.26998374404480857
76,0.27292539163218965,0.27034498547526364
77,0.2721139645551423,0.26760180309620313
78,0.2701825643893334,0.2696979564870651
79,0.26873827153880947,0.26674076429562943
80,0.26825671180116356,0.26771296363774105
81,0.2679841121892818,0.2629226952041926
82,0.2681521680310452,0.2630293915608697
83,0.2674444893701636,0.26880894325196214
84,0.26793274688448687,0.26319863709461755
85,0.26755313915286283,0.2644032953550249
86,0.26733325122653534,0.2645280985259855
87,0.26855516545564007,0.2638084670560493
88,0.26707161969249493,0.26389858110929443
89,0.267593699710979,0.26314419384106136
90,0.2669901972661933,0.2641742787439458
91,0.266621453337091,0.263932907233273
92,0.26711376818169874,0.2639434546691464
93,0.2668657291940062,0.2632037335938781
94,0.26664025229427984,0.2627062077625728
95,0.26675365717590954,0.2630642485311625
96,0.2667502481385982,0.263854094018853
97,0.2672341747031964,0.26583066887833295
98,0.2663360357230859,0.2625504052032326
99,0.26612924115122366,0.26107845132126617
100,0.266004940514282,0.2617412709962616
101,0.26613133814964324,0.2621069643087534
102,0.26786034838486616,0.2629175100714234
103,0.26652341576112665,0.26245069641556473
104,0.26701525270974663,0.2641009881258591
105,0.2666064895796862,0.26667307987386196
106,0.26673777577421776,0.2639183803655612
107,0.26780138955749067,0.26605257099465635
108,0.26840707063197705,0.2655373913056949
109,0.2683478715039903,0.26571772696521356
110,0.26759098116472496,0.26235868166059567
111,0.26761512903331086,0.2663235423870427
112,0.26757424833287324,0.2651297553515686
113,0.26713172681599834,0.2633503745132506
114,0.26747253519282327,0.26451804570473025
115,0.2692212402086863,0.2629109534215173
116,0.26737689056856523,0.264681102917964
117,0.2672284644088142,0.2622984869999317
118,0.26703814502128415,0.2652097462048786
119,0.2674078120081257,0.26359550969105666
120,0.267006728431289,0.2636054658420861
121,0.266972490490151,0.26407869581951904
122,0.26709501514788436,0.2644920184217327
123,0.26700213405671264,0.26520874461239174
124,0.26742541458043123,0.26380535509416175
125,0.2672925202296771,0.2656174336846341
126,0.2676131706371653,0.2639596004761145
127,0.26769223570931044,0.2653696481062935
128,0.2678514896296233,0.26538816166910234
129,0.2679335153024134,0.2664200909502218
130,0.26774719291872934,0.2672435268820154
131,0.26809933511995143,0.2657184097175664
132,0.2678764039863817,0.2650852185180781
133,0.2684930135862077,0.26497579877780686
134,0.268981235926513,0.2685333095001478
135,0.26853929071413507,0.26861266898171066
136,0.2676582123526485,0.2657024626229608
137,0.26831642750969786,0.26419761983582574
138,0.26805186717568924,0.27011872203197307
139,0.2692274402847903,0.27615818337198206
140,0.2687681014623472,0.26741216011460195
141,0.26703192888079785,0.26512756203478755
142,0.26674556423178475,0.2671099851105818
143,0.26739422993673334,0.2666793806782024
144,0.26704038943561487,0.26750337434607796
145,0.26698416626279214,0.2681519356280541
146,0.26759277082222094,0.2643663380763343
147,0.26833519268873407,0.2739082074452974
148,0.2678569035113955,0.26672115499593335
149,0.2668888216213382,0.2651440089527708
