epoch,loss,val_loss
0,0.6091995222815233,0.6018420511651686
1,0.6012023212799629,0.6016497962177983
2,0.6011266938250664,0.6008517569741768
3,0.6010840153143095,0.6008614355256601
4,0.6010172400127034,0.6008268566629101
5,0.6009739650646473,0.6008558511894924
6,0.6009690822615498,0.6007775817009046
7,0.6009198104138544,0.6011696978800066
8,0.600876379496755,0.6009692005341027
9,0.6008865869681742,0.600989875124999
10,0.600857317208261,0.6007719058043544
11,0.6008430281519472,0.6011701501776949
12,0.6008147584613214,0.6007916991656141
13,0.6007906621461198,0.600794247692495
14,0.6007794547087462,0.6007387296385248
15,0.6007836395849045,0.600701582210299
16,0.6007636962210696,0.6007046126289483
17,0.6007660693395733,0.6006940661043483
18,0.6007630275665751,0.6007609187808892
19,0.6007519423678854,0.6007148637428196
20,0.6007381273977828,0.600833070955902
21,0.600744035265333,0.6006802529527286
22,0.6007205274142193,0.601094512380417
23,0.6007324324006958,0.60103518015452
24,0.6007359165591333,0.6006567482628746
25,0.6007137299108538,0.6010920889646038
26,0.6007039445155871,0.600640159884161
27,0.600707620618358,0.6006783365313545
28,0.6006929143796198,0.6006517052669382
29,0.6007124135157682,0.6007331523447353
30,0.6006981420631502,0.6006573535855733
31,0.6006897731252717,0.6010710601013806
32,0.6007016421601221,0.6008442792936755
33,0.6006913617923489,0.6008160064499474
34,0.6006895919508471,0.6006836455616474
35,0.60069873002556,0.6006583847686452
36,0.6006856166191684,0.6006741659100214
37,0.6006798578939739,0.6006215073929072
38,0.6006952077892804,0.6006772905204795
39,0.6006857314399576,0.600657663672656
40,0.6006644512684174,0.6006635733165305
41,0.6006845837380815,0.6006183473102551
42,0.6006841962524772,0.6006161737568855
43,0.6006754130049913,0.6007100661605128
44,0.6006683606329739,0.600634711184766
45,0.600670247885691,0.6007267908669851
46,0.6006664687421008,0.6008829686288438
47,0.6006774279004751,0.600704339343971
48,0.6006584254903401,0.6011551616209659
49,0.6006715403402395,0.6006711863072426
50,0.6006628375446481,0.6006206865866865
51,0.6006756732871915,0.6006130344369439
52,0.6006666460395631,0.6006804266031989
53,0.6006612623822566,0.6010420228472508
54,0.600666419480623,0.6008365943599584
55,0.6006598113398419,0.6007298396772215
56,0.600653317513439,0.6006812131393519
57,0.6006650590025453,0.6006214745994672
58,0.6006628115591418,0.6008076888475226
59,0.6006589564266991,0.600648127577883
60,0.6006667630662373,0.6006511442241393
61,0.6006619202538269,0.6007510082947369
62,0.6006623319753748,0.6006116804450736
63,0.6006539569727916,0.6006711138862266
64,0.600658055725963,0.6006756762871766
65,0.6006613262405165,0.6006395982828938
66,0.6006529768183899,0.6007049662576169
67,0.6006542464028057,0.600720873390358
68,0.6006587008209119,0.6007205710839673
69,0.6006584846394517,0.6006254741544286
70,0.600657496357628,0.6006176598596066
71,0.6006591469835297,0.6006356197982737
72,0.6006437953922988,0.6006652435575646
73,0.6006335969321543,0.6015932805172428
74,0.6006600325400552,0.6006166374274468
75,0.6006454035534359,0.6006167024085308
76,0.6006479927232473,0.6006503517104839
77,0.600640576592003,0.6006136164743597
78,0.6006559176444439,0.6006194142731519
79,0.6006435669059209,0.6011202542984772
80,0.6006493270379438,0.6006500004008779
81,0.6006471640878621,0.6005968321017164
82,0.6006505728549647,0.6007052076247187
83,0.6006517501444119,0.600738640719034
84,0.6006454645700364,0.6006770182909125
85,0.6006504950147938,0.6006252375721686
86,0.6006481094517544,0.6007035741337295
87,0.6006470769504757,0.600618647775594
88,0.6006541803086864,0.600642421561914
89,0.600645471892486,0.6008964832744959
90,0.6006462231653199,0.6006062974792749
91,0.600657647806441,0.6006155341025929
92,0.6006476568438348,0.6006953305283368
93,0.6006458583751285,0.6006383099252314
94,0.6006388307923993,0.6006626040618988
95,0.6006434524538966,0.6009186441952867
96,0.6006573213918646,0.60060657738068
97,0.6006634231875855,0.600708293123474
98,0.6006523431303077,0.6005969043286884
99,0.6006572881888192,0.6007225715973954
100,0.600638520980923,0.6006258149667261
101,0.6006544512732387,0.6006578792413682
