epoch,loss,val_loss
0,0.5538574513134086,0.5513858172663322
1,0.5215599797736818,0.5011414976153693
2,0.5014024659189349,0.502248680528164
3,0.5013039041426232,0.5016264321265645
4,0.5012171184372891,0.5010949676805817
5,0.5011898514813128,0.5012893776240871
6,0.5011270239754885,0.5010194400908436
7,0.5010994015178596,0.5021432661311634
8,0.5010862220272086,0.5013395772673922
9,0.5010864398103313,0.5013987797582946
10,0.5010353259701982,0.5009077428181209
11,0.5010071885660169,0.5012656293379913
12,0.5010158299715101,0.5010058922873275
13,0.5010034926489325,0.5010198193191251
14,0.5009804111875353,0.5009123560775361
15,0.5009699155028291,0.5008538786960213
16,0.5009602664748745,0.500874485527691
17,0.5009297753267458,0.5009044830867634
18,0.5009302217480908,0.5008241671957022
19,0.5009230878399705,0.5008668297999659
20,0.5009315406002948,0.5009526561011544
21,0.5008911429426529,0.5008828034472121
22,0.5009047527520435,0.5011737882589298
23,0.5009085162260807,0.5008510475653173
24,0.5008942593552577,0.5013722264427826
25,0.5008921663920335,0.5008839410137369
26,0.5008921077631369,0.5012086344528183
27,0.5008946217498571,0.5008659181953404
28,0.5008775113193357,0.501067412832871
29,0.5008825270233545,0.5008271299971083
30,0.5008822783049924,0.5008656955037928
31,0.5008704226805658,0.5008971734578522
32,0.5008777481867355,0.5007968223840826
33,0.5008805814580505,0.5008663944692977
34,0.5008685013523885,0.5009044070073077
35,0.500868766686866,0.5013260842458168
36,0.5008777772032138,0.5008369890473959
37,0.5008612897279392,0.5008071885802584
38,0.5008635841886786,0.5011886257358216
39,0.5008728246199249,0.5009802865077148
40,0.5008687740349516,0.5008638794363085
41,0.500873693404152,0.5009549253513572
42,0.500850371110047,0.501238532670816
43,0.5008576234307668,0.5008195996076242
44,0.5008719507857871,0.5007995807814072
45,0.5008806182142547,0.5008134702869838
46,0.5008522838288443,0.5010334087474508
47,0.5008509146561958,0.5008135533094292
48,0.5008611312382789,0.5007890795021942
49,0.5008547404530896,0.500803398200022
50,0.5008618380408189,0.5012655068062896
51,0.5008570800025439,0.5008539199895361
52,0.500848823853895,0.5015547706510257
53,0.5008657252928872,0.5007898305282907
54,0.5008603329832108,0.5010396471728933
55,0.5008596768359618,0.5012823138631524
56,0.5008527977988597,0.500834416634169
57,0.5008482872421051,0.500781198886911
58,0.5008604971128059,0.5007845169923902
59,0.5008501713979853,0.5008693076664253
60,0.5008585516670053,0.5014795119400458
61,0.5008503217846764,0.5007904108761038
62,0.5008514078073583,0.5008513351432933
63,0.5008517014645627,0.5008153221437586
64,0.5008428307452384,0.5011281150190418
65,0.5008372710486088,0.5008313368762772
66,0.5008586433277772,0.5008549474289782
67,0.5008293963342692,0.5008263251592909
68,0.500845967914775,0.5010152995605326
69,0.5008422718801591,0.5007842447959526
70,0.5008497319240144,0.5009356584930602
71,0.5008442088005869,0.5007851517671855
72,0.5008416766524879,0.5010755642010936
73,0.5008438014758217,0.5009356476265948
74,0.5008533000500371,0.5008057527728018
75,0.5008422650171868,0.500883737698195
76,0.5008380428689477,0.5008885511163872
77,0.5008398671977409,0.5007787924617818
78,0.5008325468570416,0.500990483947116
79,0.5008390363714579,0.5010100396943694
80,0.5008348642829643,0.500912113640826
81,0.5008378752335219,0.5009065672426313
82,0.5008351493678622,0.5007973970714894
83,0.5008428920245099,0.5008311116242951
84,0.5008506972304004,0.501090521923754
85,0.5008477338043784,0.5008939848838581
86,0.5008652474949681,0.5009269807733239
87,0.5008331889225961,0.5007954179123695
88,0.5008334506542202,0.5008352879912243
89,0.5008329158487871,0.500847467519337
90,0.500824051657983,0.5007922842055063
91,0.5008217859711653,0.5009893703805239
92,0.5008394253400101,0.500796483152534
93,0.500843528652063,0.500790316618036
94,0.5008205159434427,0.5008358781500925
95,0.5008331673760733,0.5007763200569516
96,0.5008296523171039,0.5010228443376712
97,0.5008318928687437,0.5008019465661454
98,0.500830056292221,0.5009305708811967
99,0.5008230953912687,0.500791929682342
100,0.5008363678280444,0.501039049171807
101,0.500835512301608,0.5007693712268725
102,0.5008304096309784,0.5007848530387773
103,0.5008253113129585,0.5009836636641034
104,0.5008230429674835,0.5009517234924465
105,0.500834129221196,0.5008172098040221
106,0.5008339767445738,0.500789637175253
107,0.500826011092005,0.5008225358297319
108,0.5008405760101485,0.5008642016298452
109,0.5008229719157431,0.5007779226618114
110,0.5008334143421116,0.5012039260029774
111,0.500830990405035,0.5008081951292049
112,0.5008228288041734,0.500775304236487
113,0.5008299565288743,0.5008826228916143
114,0.5008286563716736,0.5007804154412641
115,0.5008298130000283,0.5007874644927152
116,0.5008268863400706,0.5007855739312568
117,0.5008229234509555,0.5008986992544081
118,0.5008228864285306,0.5009901042928843
119,0.5008295871943942,0.5008482612398516
120,0.5008241865999298,0.501350766508394
121,0.5008423789777874,0.5008474647175306
