epoch,loss,val_loss
0,0.5550635644470082,0.5514642844005901
1,0.5515087046894073,0.55130916655925
2,0.5512475166552266,0.5510930640651666
3,0.5511882375112007,0.5509302376640662
4,0.551125550953262,0.5510862144389114
5,0.5510438813112334,0.5515201205826381
6,0.55102089587505,0.5509012732711012
7,0.5509908572551719,0.5509669254256635
8,0.5404266297666963,0.5015577296046808
9,0.5010499503151117,0.5008957738325068
10,0.501013075659676,0.5009683582950096
11,0.5009820788275033,0.5009388048695783
12,0.5009592334439151,0.500836716533862
13,0.5009480002474214,0.5008779836350327
14,0.5009194221186236,0.5008634441151057
15,0.4628407246336367,0.4510647090362219
16,0.451008518214397,0.45116642131935286
17,0.4510014026457275,0.45096925255730547
18,0.4509743842430565,0.4509788787831612
19,0.45096655330644264,0.45084523462967135
20,0.45095660918093095,0.4510185158104107
21,0.4509535463281836,0.4508785115682418
22,0.45093574721351104,0.4508994524963928
23,0.4509351737141815,0.45091731853905
24,0.45094043882913065,0.4510306633094274
25,0.4509303548271237,0.45115107683618993
26,0.45092058147844205,0.4518958083860492
27,0.4509324034701234,0.45095123419718874
28,0.45092639912577026,0.45087421676583267
29,0.450945880968025,0.45090458355045365
30,0.4509236409572858,0.4509009097338821
31,0.4509153152011931,0.45086519677373593
32,0.4508969075491949,0.45120419192232747
33,0.4509085389970609,0.4508901823555191
34,0.4509142928030885,0.4508876518084735
35,0.45090766414241035,0.45085539515811296
36,0.45089408260703817,0.4508430874402587
37,0.4509045627359761,0.45082186834290044
38,0.45091427197319234,0.45084032227742366
39,0.4508968685334673,0.45109633589777204
40,0.45091575442511367,0.4509881712154337
41,0.45089475207321,0.45093662411149615
42,0.4509045033155166,0.45083782663227207
43,0.45089538078927566,0.4508327011013667
44,0.4508813860123341,0.45082705537392936
45,0.45091233240337564,0.45102217275698414
46,0.4508770113367923,0.45082764108398327
47,0.4509090768309023,0.4511227597220277
48,0.45087817829589044,0.45085043659025814
49,0.4508785748260965,0.4508979441850966
50,0.4508912756817121,0.45087555320381795
51,0.45089321464848964,0.45090898618691305
52,0.45087309960799876,0.4511216750135682
53,0.45089680554959444,0.45085705599747744
54,0.4508728100052369,0.45101921502911935
55,0.45087203588613156,0.4511255632890147
56,0.4509005663379578,0.4509647397227717
57,0.4508870266148138,0.4511620315323941
