epoch,loss,val_loss
0,0.40572096952552905,0.40308913408083
1,0.40137472031908816,0.40205875433999905
2,0.4011033710749844,0.4008124094742995
3,0.4009683228799137,0.40065510632382434
4,0.4008730956928488,0.40173965059498107
5,0.4009469630706052,0.40091383480848214
6,0.40075392784517433,0.4006464876105117
7,0.4007341546856204,0.401340159293144
8,0.40066919472865314,0.4005857994183713
9,0.4006702031326563,0.4013535364685816
10,0.4006407344486896,0.4005118589395329
11,0.4005999122091007,0.40072278089026364
12,0.40059684025665615,0.4006209473604008
13,0.40057393072106173,0.4010015140100389
14,0.4005635525333192,0.40067641541324833
15,0.4005391400734025,0.4006028859993956
16,0.4005247518686252,0.4004426392225119
17,0.4005112372575124,0.40091960116592296
18,0.40048542292413314,0.4005564089152712
19,0.4004682005958414,0.4006004960010424
20,0.40047284838281194,0.40050108613210633
21,0.40045704111876723,0.4007129947541665
22,0.4004569631206218,0.40082398339477426
23,0.40046041057972526,0.40036124081233004
24,0.40043516126502676,0.4003915107131892
25,0.4004177517825205,0.4004216762245737
26,0.4004540281990671,0.4004621864252587
27,0.40042463748327034,0.4012193101511404
28,0.40041765194408974,0.400343268799131
29,0.400415134663267,0.40034872188461623
30,0.40039828788659737,0.40043524480043513
31,0.40040672639558483,0.40055580770703164
32,0.4004055557615762,0.40042423675432987
33,0.4004016629671672,0.40065835385997006
34,0.4003926557185965,0.40034893796994137
35,0.40038835706539294,0.4003314237440786
36,0.40038643324326717,0.40049061403972636
37,0.4003856520718654,0.4003880821297837
38,0.4003873004817377,0.40067228385000014
39,0.4004510794489603,0.40034342780894144
40,0.4004046620669924,0.40034155842684044
41,0.4003779414860123,0.4003193835762535
42,0.40037141184336306,0.400447028313322
43,0.40037316791486943,0.4003476582744873
44,0.40036748747926215,0.40046274821752353
45,0.40036932390711577,0.40037262299220555
46,0.40036202038459784,0.40031280053164764
47,0.400362742542976,0.4003240721841012
48,0.4003500159763248,0.40031949859990673
49,0.4003614855129573,0.400344138346594
50,0.4003528057400876,0.40046724152032553
51,0.40036095012700085,0.4003382675553078
52,0.4003537092196904,0.40037688503490193
53,0.4003614480380978,0.4004348440294526
54,0.4003521127525749,0.4003514539071407
55,0.4003487675043029,0.4002978663142798
56,0.40034861021512264,0.40035583233419186
57,0.4003490185634589,0.4003425300121307
58,0.40035286439813855,0.40030967856459226
59,0.40034766098585295,0.40032649248764474
60,0.40035857953824083,0.4003260039070404
61,0.4003378893000811,0.4003429272926179
62,0.40034844945194314,0.4003342371276827
63,0.40034362543997226,0.4003099657613645
64,0.40033855636906684,0.40031029471096863
65,0.4003413924958104,0.4003731082893779
66,0.4003498546100862,0.40032318332059214
67,0.40034521618926683,0.400440815083738
68,0.4003445477832173,0.4003329391071282
69,0.4003400358884631,0.40032635229101254
70,0.4003455934727612,0.4003686977231473
71,0.4003389739048847,0.4003218610884238
72,0.4003445503196943,0.4003183537913907
73,0.4003449509635459,0.40040528252166196
74,0.40034567336409427,0.40035591848730745
75,0.4003294399565388,0.40028967665087795
76,0.40034180936664615,0.4003096233970178
77,0.400340673611858,0.4002991233215143
78,0.40033792497089055,0.40088609048805524
79,0.4003392625505194,0.40034818711410974
80,0.40034058444982196,0.40035816238772487
81,0.40035157767347257,0.40032690528308784
82,0.40034005180464893,0.4002950960589993
83,0.4003463235363808,0.4003032578280191
84,0.40033767738060644,0.4003633548249086
85,0.40033306494260346,0.40034073897390154
86,0.40033809963322226,0.40028699581735483
87,0.4003370497924702,0.400309788574356
88,0.4003354833126573,0.40032501339025
89,0.40033791207355013,0.40051337363702194
90,0.4003495719654618,0.40028720496605996
91,0.4003352950201638,0.4003310034499866
92,0.4003300292537728,0.40039829429858376
93,0.4003370523175091,0.40029302215753654
94,0.4003299066671155,0.40034731662007184
95,0.40033390850360784,0.4004497217185444
96,0.40033421596516067,0.4003269032864062
97,0.40032534083623567,0.4003150587933827
98,0.40032721133436644,0.4004353604156977
99,0.4003333700558149,0.40028492440065144
100,0.4003274851815848,0.40028467817282853
101,0.4003270641938549,0.40035695896550977
102,0.4003344670751961,0.40028592183927153
103,0.40033174376547304,0.40034493429785034
104,0.40033178606441117,0.4004739427980655
105,0.40032827778310665,0.4003219071600041
106,0.4003285696294116,0.40043515854378786
107,0.400327734297857,0.4003383955499966
108,0.4003227200019959,0.4002862853092828
109,0.4003273992529554,0.4002813029377987
110,0.4003267889476498,0.40030774212356834
111,0.4003314851868126,0.40028721345565454
112,0.4003255693778973,0.4005150830183668
113,0.40033366427570377,0.4002754595232365
114,0.40032563399475624,0.4004670154959629
115,0.4003320274769876,0.4002779115370426
116,0.40033229082490307,0.4005093645517051
117,0.40032603887145973,0.40036452899204
118,0.40033251629052935,0.40028797117415493
119,0.4003343708156787,0.40038093531102165
120,0.40031965067319386,0.4004180665939085
121,0.4003281786068971,0.4003615662418583
122,0.40032100358764217,0.4003297289902756
123,0.40033087948905227,0.40028261737551346
124,0.4003305554447538,0.4002745568752289
125,0.400326691489508,0.4002853470611809
126,0.4003232706202242,0.4004410138644888
127,0.40032355756120125,0.4004879188300954
128,0.4003475733229848,0.4003587091974822
129,0.40033591501937865,0.4004636924704606
130,0.4003255681394371,0.40028090351272755
131,0.40032289444542785,0.4002946389668041
132,0.4003329054675804,0.40028091189879045
133,0.40032945401542874,0.40047765624138615
134,0.40032122598275477,0.40042339663943344
135,0.40031700462721725,0.4003569788731653
136,0.4003289906565829,0.4003924258145742
137,0.4003374991464608,0.4006433447152746
138,0.40032539374806786,0.40028751230713155
139,0.4003269674342204,0.40030083217041074
140,0.4003201701441478,0.40039563068089357
141,0.40032531892061723,0.4002916522268622
142,0.4003315324660173,0.4002996613606626
143,0.40031910585758557,0.40029840439779885
144,0.40032709112089865,0.40034839391116767
