epoch,loss,val_loss
0,0.7049263614813455,0.7005191264318178
1,0.7006081720735152,0.7007080793380738
2,0.7005317214235441,0.7003817965907435
3,0.7004977894800235,0.7003695099288714
4,0.7004404441984484,0.700342310480681
5,0.700396629347146,0.7003049831828172
6,0.7003668819666398,0.7003340998595169
7,0.7003464017685715,0.7002962238143751
8,0.7003308537769617,0.7002483749507971
9,0.7003036912530316,0.7002986543231803
10,0.7003144782762117,0.7003465296021171
11,0.7002781058040598,0.7002614352602521
12,0.7002827755350466,0.7003596557872763
13,0.7002607392945452,0.7005043257258962
14,0.700250495471059,0.700199362480315
15,0.700244535844317,0.7002191922209103
16,0.7002344526964502,0.7002361016001358
17,0.7002336181059997,0.7007497164215107
18,0.7002334959196727,0.7002047663291098
19,0.7002189823357863,0.7002635610014866
20,0.7002188646915318,0.7001966774315751
21,0.7002107871558333,0.7002481451992953
22,0.700218899248516,0.7002106441753378
23,0.7002082476884297,0.7002140205196352
24,0.7002088685553556,0.7002588718464002
25,0.7002060679976626,0.700188558983152
26,0.7001981459084418,0.7002066566098121
27,0.7002006976933971,0.7003462422574425
28,0.7001944645728317,0.7001778629814129
29,0.7001985934800751,0.7002112485338973
30,0.7001920274685034,0.7001681228725254
31,0.7001991544015824,0.7001788032261964
32,0.7001862648003211,0.7002915340676793
33,0.7001906921472897,0.7001532306446331
34,0.7001894254785797,0.7002133591003513
35,0.7001974127944237,0.7001739580637172
36,0.7001857739243881,0.700192646057375
37,0.7001900570980223,0.7001748964745117
38,0.7001865525979656,0.7002133661700833
39,0.700187880814204,0.7001707221379055
40,0.7001877043848973,0.7001989035393404
41,0.7001809796279685,0.7001896597611401
42,0.7001845643991791,0.7001527926466306
43,0.7001860471681529,0.7001536282948762
44,0.7001788980682138,0.7001725486726974
45,0.7001791588863573,0.7001740325769183
46,0.7001769967399174,0.7001501570268541
47,0.7001828813483124,0.7001794462464288
48,0.7001751458918906,0.700194487116177
49,0.7001798652567341,0.7001929588708333
50,0.700177725977634,0.7001771891087516
51,0.7001784809690123,0.7002497663273113
52,0.700170162630107,0.7001656700008856
53,0.7001735061516342,0.7001620150677323
54,0.7001756190199788,0.7001484388749002
55,0.70017855049396,0.7001614318887885
56,0.7001745812936552,0.7001834662617288
57,0.7001685386940228,0.7001543324875181
58,0.7001737032537606,0.7001592064909544
59,0.7001690303879707,0.700156499197702
60,0.7001707084502881,0.7001855359479748
61,0.7001690300471969,0.7003244670094095
62,0.7001726432438303,0.7001759693285372
63,0.7001703672963068,0.7001592506545945
64,0.7001656504880552,0.7002381371209403
65,0.7001714048025472,0.7002211241804932
66,0.7001656330833507,0.7001807589980568
67,0.7001711046029465,0.7002233414436984
68,0.7001660223400733,0.7001667858944933
69,0.7001659490539929,0.7001817569839156
70,0.7001661041249884,0.7001480632916869
71,0.7001617844838283,0.7001804651752594
72,0.7001654184794938,0.7001806014228992
73,0.7001678960759493,0.7002728390930308
74,0.7001629435839859,0.7001460238366801
75,0.7001654668449149,0.700216848264557
76,0.7001635939160101,0.7001628144503231
77,0.7001642985367661,0.7001461323674204
78,0.7001618715034069,0.7001526019709282
79,0.7001619190918323,0.7001933534447076
80,0.7001622929127655,0.7001494729193505
81,0.7001652581943442,0.700211917318718
82,0.7001619290578873,0.7002092579458251
83,0.70016408677979,0.7001463588354901
84,0.700163123785469,0.7002372396790951
85,0.7001614218050929,0.7001860077564533
86,0.7001633397918623,0.7001469014300307
87,0.7001620265483711,0.7001697408650117
88,0.7001641280915097,0.7001404377721971
89,0.700157846441447,0.7002562444795746
90,0.7001667395954899,0.7001795067384876
91,0.700162810898356,0.700180045103021
92,0.7001611915272205,0.7003680969881952
93,0.7001561219905119,0.7001634692140016
94,0.700161542774258,0.7001492606203255
95,0.7001592552625137,0.7002418863566283
96,0.7001651392619332,0.7001407886557188
97,0.700162934847714,0.7002939336648946
98,0.7001617672266345,0.7001826492787591
99,0.7001638641780045,0.7001394819976674
100,0.7001611505886164,0.7001885214751175
101,0.7001604743412205,0.7001522877376074
102,0.7001597244906353,0.7001413276118617
103,0.7001590067493005,0.7002269635129508
104,0.7001593383316409,0.7001512050924467
105,0.7001595804466688,0.7002062423945065
106,0.700159951994988,0.7003408567781189
107,0.7001584033296759,0.7001381876450911
108,0.7001611902469523,0.7001685525584161
109,0.7001582219126087,0.7002257423720348
110,0.7001612282329724,0.7001362997899871
111,0.7001598371928814,0.7001451604123743
112,0.7001583827830689,0.700155045199335
113,0.7001631117526841,0.7001469631348887
114,0.7001600746695997,0.7002165771299793
115,0.7001585962612679,0.7001492890175756
116,0.7001604395049913,0.700163167611541
117,0.7001601076031755,0.700171577841709
118,0.7001551837780163,0.7002033226839071
119,0.700161942954673,0.7001665190195031
120,0.7001567572772166,0.7001428250343569
121,0.7001588285545963,0.7003478650123842
122,0.7001606467072735,0.7001596682420735
123,0.7001620680793851,0.7001548900793563
124,0.7001545049464194,0.700425191108997
125,0.7001619398277582,0.7001512487827992
126,0.7001582900105663,0.7001600965376823
127,0.7001604212467746,0.700147183331899
128,0.7001554554212488,0.7002378466998969
129,0.700161545592741,0.7002389580676929
130,0.7001594667465552,0.7003124949949847
