epoch,loss,val_loss
0,0.5672074275772419,0.5610576432928553
1,0.558656502460402,0.5605555448283629
2,0.5581802899531334,0.5582120415886341
3,0.5581944583284617,0.5575809440009352
4,0.5579627109275024,0.5573894027149116
5,0.5578073901338206,0.5573099631825392
6,0.5575891048600812,0.5574031473389335
7,0.5575889360918734,0.5608943426875264
8,0.5573625631838572,0.557774840779695
9,0.5573353156999787,0.5569135606732617
10,0.5572383547668222,0.5570476256292451
11,0.5572527768561076,0.5569324357633851
12,0.5571468315716953,0.5572348598806793
13,0.557174100846163,0.5583819202394699
14,0.5570785974087148,0.5582075201252258
15,0.5570194671675627,0.5568045991821857
16,0.5569587742877965,0.5576322478632774
17,0.557009532826607,0.5567447755827797
18,0.5569858704980983,0.5566825541609866
19,0.5568929967455418,0.5575039512170455
20,0.5568594865837067,0.5567598738682181
21,0.5568624973183528,0.556645083604912
22,0.5568953305165361,0.5567094067190185
23,0.556864715449505,0.5566992874772614
24,0.5568592605931152,0.5566468975384241
25,0.5568538701768869,0.5593058014921751
26,0.5568420065760185,0.5567455589031759
27,0.5568541080724729,0.5566638670251624
28,0.5568558854813866,0.5569852303926169
29,0.5568117423860647,0.556591680919562
30,0.5568326314085269,0.5567963704281942
31,0.5568404624086046,0.5566386090910465
32,0.5567664632456657,0.5567193620553975
33,0.5567718036383561,0.5572564958047038
34,0.5567998569953959,0.5575297168999097
35,0.556775298539163,0.556624970424264
36,0.5567849255297905,0.5565834270813329
37,0.5567465303981051,0.55659396775603
38,0.5567459614597371,0.5567329823822892
39,0.556768423011141,0.5571586018756365
40,0.5567468294160413,0.556531891515178
41,0.5567372685694438,0.5567812236899478
42,0.5567164882538129,0.5566043644625851
43,0.5567441862035354,0.5566658997062418
44,0.5567591487750017,0.5568816645565459
45,0.5567293191875574,0.5565067199856116
46,0.5567381049773544,0.556532642267478
47,0.5566855017165566,0.5566921863603237
48,0.556714876064169,0.5595822925603123
49,0.5567040100635132,0.5582724296129666
50,0.5567039477531879,0.5565516165409136
51,0.5567223515922454,0.5570894973745417
52,0.5567387362560233,0.5573330181999775
53,0.5567230541052526,0.5565699745052801
54,0.5567201923802463,0.5565814144558113
55,0.5567319088820165,0.5565646075729105
56,0.5566789393233397,0.5578438402701252
57,0.5567586388267813,0.556544295818575
58,0.55668564271328,0.5566315841733965
59,0.5566970184365513,0.5565623044671847
60,0.5566978307165749,0.5565303161777279
61,0.5566980971164666,0.5565594438879424
62,0.5566874370338808,0.5575401309406195
63,0.55669437691056,0.5566000465128026
64,0.5566812695375079,0.5571958705154305
65,0.5566832607488291,0.5564766502557854
66,0.556688499665876,0.5566458772488918
67,0.5566890451523826,0.5564789938867536
68,0.55667662067497,0.5565047844763725
69,0.5567176545969907,0.5571048463544538
70,0.5566784568965452,0.5569219875572338
71,0.5566885879428467,0.5575083353679174
72,0.5567167379408023,0.55662503263199
73,0.5566765456321694,0.5565421331017544
74,0.5566938096792162,0.5572653174104525
75,0.556688627273819,0.5565464428281666
76,0.5566804950999377,0.5565089678054412
77,0.5567239868456472,0.5565824324380672
78,0.5566680990187614,0.5570127624435993
79,0.5567067555617893,0.5565690646396382
80,0.5566684847817641,0.5566113766014724
81,0.5566744288133734,0.5566311709638269
82,0.5566579962898132,0.5565442472770256
83,0.5566850834743431,0.5574036627490231
84,0.5566839522111425,0.5565356544466231
85,0.5566384993589498,0.5564939652128196
