epoch,loss,val_loss
0,0.5669742807280722,0.5606545634364372
1,0.5585387434424712,0.5605757712726261
2,0.5583058196786388,0.5611235271612409
3,0.558166241680837,0.5574366851420911
4,0.5580254281399067,0.5575030685950154
5,0.5577760544564867,0.5574932902385816
6,0.5576847362375691,0.558157189992758
7,0.5576310829179081,0.5571216941471431
8,0.5576387120000634,0.5570761322975158
9,0.5575191216647023,0.5581363673245641
10,0.5574010876265658,0.5573142198415902
11,0.5572999875045794,0.557400152996811
12,0.5572020134439167,0.5568862764474476
13,0.5571155965748662,0.5571435727197538
14,0.5570891707312463,0.5568670305069859
15,0.5570487590976199,0.5569396008332965
16,0.5570245159730782,0.5567739879818767
17,0.5569969170007807,0.5567623379804361
18,0.5569903506003167,0.5566895951704115
19,0.5569280932061029,0.55706316782878
20,0.5569588892957872,0.5568087821562888
21,0.556975025923593,0.5567633819639239
22,0.5569475327860036,0.5568622272008702
23,0.5569372039986248,0.5568440443824597
24,0.5568972538649706,0.5579044250637367
25,0.5568997329578331,0.5567059853532474
26,0.5569228050717007,0.5568231782309766
27,0.5569101700505298,0.5565874553791642
28,0.5569343877905811,0.5566407123215441
29,0.5568612025618385,0.5568138638441971
30,0.556904259628522,0.5570117401425951
31,0.5568462811948112,0.5569464851549778
32,0.5568438724906632,0.5570008025275862
33,0.5568370912441721,0.5567611135856685
34,0.5567824881533165,0.5565389214319272
35,0.5568060212662505,0.5565781137487729
36,0.556850955525455,0.5565845889429892
37,0.5568423980170063,0.5568174041826139
38,0.5567802734590886,0.5569808939550414
39,0.5568370881906184,0.5570409223104529
40,0.5568245626343428,0.556564877494689
41,0.5567964164203958,0.5565562670047467
42,0.5567855601925322,0.5565996911034691
43,0.5568069823326756,0.5570636568826718
44,0.5568075263992915,0.5567367463490508
45,0.5567761163851581,0.5565773197498274
46,0.5567847159334148,0.5579590553977057
47,0.5567745705217636,0.5570619276084616
48,0.5567748201298702,0.5565406940415243
49,0.5567508096410084,0.557188556921985
50,0.5567898660788956,0.5568666624963727
51,0.5567542475765895,0.5580770370682179
52,0.5567355490810267,0.5566696267269977
53,0.556747547139233,0.5568723803418446
54,0.5566972206913032,0.5566182599765787
