epoch,loss,val_loss
0,0.3635581753611308,0.31943583158642125
1,0.3131104923107425,0.319087895344268
2,0.31248694443047653,0.311826198938171
3,0.31224955529263637,0.31142956496172447
4,0.3120164270755879,0.3113643050785396
5,0.31186095016176923,0.3155040686390832
6,0.31165437662448914,0.31105824639424495
7,0.31140277535857225,0.3118752533389676
8,0.3114776999632732,0.3113023688568371
9,0.31120246316967887,0.31551245797065
10,0.311132136223102,0.3131454060302479
11,0.31097915163473827,0.3117043335887398
12,0.31079742029912527,0.3123893403681573
13,0.3106421327036712,0.31026192678707115
14,0.3105295150562967,0.3104210855647293
15,0.3105178881882817,0.31131361385728823
16,0.31048139794329627,0.31049058524609796
17,0.3104599414417981,0.31008512559658835
18,0.31035062772427097,0.3103318483302966
19,0.31037200804035076,0.310239926742265
20,0.3103930074435378,0.3100260421596745
21,0.3103361604465698,0.3099872054296451
22,0.31026523940313394,0.30996952281696327
23,0.31027793207581106,0.3100367171592807
24,0.31019657074689655,0.31004004707703225
25,0.31031816417766955,0.3100493119461069
26,0.3102294351724203,0.3106518363982217
27,0.31011626292008004,0.3098981239215908
28,0.3101555977058446,0.31040295642007965
29,0.3101837134777295,0.3098901632849691
30,0.31012758077491726,0.3098499779222029
31,0.3101838591013245,0.3099363472858079
32,0.31008832607729836,0.30996674513698513
33,0.31017657358420375,0.3104825857555304
34,0.3101256866825417,0.31007227124114783
35,0.31006946812879965,0.30994680523872375
36,0.3101236847013496,0.3103592178661829
37,0.31009124462987986,0.3102698607864806
38,0.3100864150239341,0.3099910589364859
39,0.31011446681436117,0.30990013996365645
40,0.31006302115415857,0.30981923184974614
41,0.31008732911367004,0.3101370413605096
42,0.3101140704656789,0.30986397899409973
43,0.3100647809465674,0.3102121852763533
44,0.31002593848817966,0.3104673873106244
45,0.31006485648159693,0.31117465096726904
46,0.3099896379611003,0.3118571527246802
47,0.3100498303684445,0.3102459605367249
48,0.310023534784019,0.3104568680521868
49,0.31003874175693164,0.31018042085188496
50,0.30998871215253315,0.3098683031262003
51,0.3100034458115885,0.31036117062083546
52,0.3100557606002939,0.3107980777548797
53,0.3100518966734459,0.3098375808216502
54,0.31001211777742593,0.3108075449839419
55,0.31000337081335655,0.31063322365727675
56,0.3100350476766194,0.3117825931118381
57,0.3100272879771417,0.3108237329546926
58,0.309927566543775,0.31203873975401186
59,0.3099592779699382,0.3114932544917682
60,0.30997558333242653,0.3107390872006381
