epoch,loss,val_loss
0,0.1949037797659707,0.1207612448481471
1,0.10112608613656293,0.09472080724697557
2,0.09532138573632633,0.09537765898263256
3,0.09529064734467119,0.09509164994639868
4,0.09506932331575192,0.09443169075410575
5,0.09506009594737579,0.09478199411986282
6,0.09496028291331016,0.0949718779586579
7,0.09498051452717717,0.0945804592254318
8,0.09497019920131858,0.09518412509440623
9,0.09494764879524564,0.09487305128183907
10,0.09493651963490472,0.09463586631189111
11,0.09487872466528349,0.09458275717972016
12,0.09488205752558083,0.09511313969658977
13,0.09494662749097883,0.09447205015520647
14,0.0948165684259481,0.09484923142284131
15,0.09483906641292819,0.09455656615433584
16,0.09481389961428018,0.09460043870118441
17,0.09479614261159604,0.0945920473715877
18,0.09477161071140418,0.09469207329197765
19,0.09477368848239012,0.09477777602687631
20,0.09475166877980332,0.09444012347647028
21,0.09471018643950006,0.09523446202842664
22,0.09473671580997588,0.09511513552895284
23,0.09474753322218248,0.09434537429012646
24,0.09470439460768784,0.0946767397030847
25,0.09467605088981126,0.09470748722012248
26,0.09463836019821495,0.0946999146076009
27,0.09473414145570865,0.09450774903878888
28,0.09470604713276612,0.09449391678598987
29,0.09466136532197658,0.09483966967583456
30,0.09473083742993246,0.09429040683496628
31,0.09461329092117522,0.09439469639273639
32,0.09463028470389277,0.09448795337538693
33,0.09464345063320358,0.09434488960839485
34,0.09463212744807073,0.09430933824866046
35,0.09461804940927324,0.09431135830864157
36,0.09464185363907132,0.09461961837739764
37,0.094600353556738,0.0943537712061885
38,0.09461651917555922,0.09444670602032398
39,0.09461564364598142,0.09493954083349353
40,0.09459571675252286,0.09449971059150553
41,0.09458158396893172,0.09436035827801938
42,0.09460225790965376,0.09436917345568055
43,0.09457505782612032,0.09464325542960848
44,0.0945842891550369,0.09448228603568525
45,0.09459086814872938,0.09456354348487335
46,0.09451536908983994,0.09453605023678024
47,0.09458463841812502,0.09447028554958345
48,0.09458120492436617,0.09434207895772138
49,0.09455206480434092,0.09436071498853162
50,0.09454048243608121,0.09431738072407933
51,0.09452742892358419,0.09447220462979344
52,0.09457604175837016,0.09447018669266916
53,0.09455208804050415,0.09458871997287166
54,0.09451275395391752,0.09448166352703333
55,0.09452369409821017,0.09424731181236168
56,0.09454738973177594,0.09427925095185578
57,0.09451503993617259,0.09420222545008822
58,0.09450256566313817,0.09434813025812512
59,0.09451329964194462,0.09433287340374377
60,0.09451613177379353,0.09428011054421563
61,0.09447680824070716,0.09440637371652034
62,0.09449248241006042,0.09427032684400125
63,0.09450875760482655,0.09447181561775064
64,0.09451378228888808,0.09419493323108204
65,0.09449186045631802,0.09441499250346314
66,0.09447706706946989,0.09423896425125067
67,0.09447897337883306,0.0942790684214519
68,0.0945013050796936,0.09424977549061403
69,0.09447457704195777,0.09419198029607699
70,0.09448418767749073,0.09428524965127812
71,0.09448781223308078,0.09448299672228197
72,0.09447467560581356,0.09433684167000093
73,0.09447250567930494,0.09457184420200249
74,0.09446646265095944,0.09444632886334865
75,0.09446061027945755,0.09420055146281325
76,0.0944777267138592,0.09431955448830326
77,0.09446832302103131,0.0941473668016311
78,0.09445577044543221,0.09419346219127162
79,0.09443072662305393,0.09430540982860228
80,0.09443448957124298,0.09435364591059199
81,0.09446440470352066,0.0946222297500322
82,0.09445598599114578,0.09434455527902684
83,0.09443981072706856,0.09431318121344062
84,0.09444227033286548,0.09449629822559213
85,0.09446396724247247,0.09427867302319716
86,0.09444340687099216,0.09464752169556757
87,0.09444909080934467,0.09421944765237343
88,0.09444069838245138,0.09417155681394082
89,0.0944789303399676,0.09433738660323121
90,0.09444541109206198,0.09432955812471724
91,0.09444828983321846,0.09434952044708106
92,0.09443465878756689,0.09426597010670634
93,0.09443872676586075,0.09424772842742367
94,0.09444075997332207,0.09429269939684548
95,0.09441850509801261,0.09417865528844903
96,0.09444695163509256,0.09429165435147831
97,0.09446301033123315,0.09421163319882767
98,0.09446395949410687,0.09415178345523674
99,0.09440596359405967,0.0942235729218282
100,0.09444178701590578,0.09433955311681119
101,0.0944176136160926,0.09431731396287844
102,0.09442144083521731,0.09429306122338386
103,0.09441959717981725,0.09441823692258738
104,0.0944784900172056,0.09416848081792539
105,0.09442516269801046,0.09432385135045085
106,0.09445160669055011,0.09422704343990539
107,0.09439944590834215,0.09426456562227965
108,0.09446406981749214,0.09466677778286546
109,0.0944052568281726,0.09426473601535257
110,0.09442226433580062,0.09463625919329621
111,0.09443781018066559,0.09412942981992825
112,0.09441646586338298,0.09422797166346186
113,0.09442811797586657,0.09429126976744434
114,0.09444211354608731,0.09418662352268396
115,0.09447449176824636,0.09437313276595173
116,0.0944247361120703,0.09432910726168256
117,0.0944285678724162,0.09439981514154312
118,0.09442336491638903,0.09421655077607781
119,0.09443455428290043,0.09464901588098591
120,0.0944331651248282,0.09441310888260673
121,0.0944353545949661,0.09417572055355997
122,0.09440502073231646,0.09416898281181903
123,0.09442121568891547,0.09433141647122842
124,0.09441158760913747,0.09427206398185634
125,0.09441524743736028,0.09417146550169496
126,0.09445518219499566,0.09423751702154351
127,0.09438535004115696,0.09420897989242022
128,0.0944249205094733,0.0941694032550799
129,0.0944508058930949,0.09427971288785279
130,0.09440344821611087,0.09430650785718268
131,0.09441305153506646,0.09419152726314156
132,0.09444047825978243,0.09427920683642119
133,0.09442827067107891,0.0943438174657306
134,0.09443686124113061,0.09434155923415095
135,0.09441421032368803,0.09429099451347703
136,0.09441665181522366,0.09418552031927252
137,0.09442592328257984,0.09423908297834005
138,0.09441369821687491,0.09419193307574376
139,0.09441638664066268,0.09429101473060102
140,0.09439714595997076,0.09425107619615644
141,0.09441824761821593,0.09429838883542789
142,0.09443103197178872,0.09420186474672339
143,0.0944161787837577,0.0942281120131123
144,0.09439444741447099,0.09435145793910467
145,0.09441154418612936,0.09424663513851805
146,0.09439433949718849,0.09425800507733835
147,0.09442452201359182,0.09416016957471948
148,0.09440136388789931,0.0941692269638757
149,0.0944134000715592,0.09436002386044402
150,0.09439363610222758,0.09429143527383022
151,0.09441071633490727,0.0941730454893402
152,0.09443282006646422,0.09419840301997848
153,0.09441191388024606,0.09429689724918605
154,0.09439970239353694,0.09421422272544257
155,0.09441859915638141,0.09417094770104469
156,0.09442501029462742,0.09417816757238466
157,0.09442113277961692,0.0941742571054619
158,0.09443505257248974,0.0943008957235194
159,0.09439970167885295,0.09459366325962328
160,0.09442064403701457,0.09425259609107625
161,0.09442638641865038,0.09417789216552462
162,0.09439959732010114,0.09421603131712941
163,0.09439449913079123,0.09425487098796403
164,0.09442711001236757,0.09417752621088239
165,0.09441449679583191,0.09421552641239332
166,0.09439310119997302,0.09431638470435576
167,0.09440784342735886,0.09446016616748841
168,0.09441036838207313,0.09428945399567944
169,0.09439370930075741,0.09439906437940832
170,0.0944248488207134,0.09423815786556268
171,0.09440177749041363,0.09422054307001636
172,0.09440074524850392,0.09464014603829139
173,0.09442008344187058,0.09425016507306434
174,0.09441669135809326,0.09412833211477478
175,0.09440305043193553,0.09410420275383703
176,0.0943981119864088,0.09417399978698852
177,0.09442950376301265,0.0941851493897359
178,0.09438505554668528,0.09412256744120567
179,0.09441613162057005,0.09411151153818302
180,0.09441363169468468,0.09420695110579222
181,0.09443101840172645,0.09426251826506482
182,0.09440843243714717,0.09427835655875721
183,0.09442247260364887,0.09417370241649901
184,0.09440508366024179,0.09432292373258483
185,0.09443151539595103,0.09418988101413707
186,0.09442232796947637,0.0942728421941176
187,0.09442933327514681,0.0943631511578526
188,0.09441840946733904,0.09431043468362812
189,0.09441185565136796,0.09426082884738458
190,0.09440883807391286,0.09419730327429504
191,0.09439416281837258,0.09423422016609158
192,0.09442152923864904,0.0943565949409518
193,0.0943979384968702,0.09427224186667327
194,0.09441173865462092,0.0943458928611209
195,0.09443198101257058,0.09430766200327742
196,0.09439334217056954,0.0941771879474667
197,0.09442062948128398,0.09424165092355732
198,0.0943981262800886,0.09420216054712212
199,0.09439285303786886,0.09426659987776319
200,0.09442879884339256,0.09422266520353971
201,0.09440358358917,0.09424956497495911
202,0.09438693442707248,0.0942882146295263
203,0.09440233155811052,0.09417861998198818
204,0.09441024763919086,0.09416180613855725
205,0.09438885732901563,0.09422854454666023
206,0.09441359923016444,0.09421863145802843
207,0.09441598793037599,0.09424863806275185
208,0.09440236771814257,0.09421660504123783
209,0.09439750593736303,0.09441486239762596
210,0.09438378242947024,0.09418723362350238
211,0.09440605411474272,0.09425526982630532
212,0.0943850720409962,0.09436139681368431
213,0.09440056265270014,0.09425067171254493
214,0.09442076549755869,0.09423747911590616
215,0.09439085400123581,0.09417127067518685
216,0.09440473806288698,0.09423430350439324
217,0.09440817005580945,0.09434254717408153
218,0.09438659034842115,0.09442669697158809
219,0.09441257635954854,0.09417852223060597
220,0.09441615224813672,0.0942678971255776
221,0.09438251597370556,0.09417842096269084
222,0.09439670570867716,0.09414864847202797
223,0.09438370929645311,0.09421574608985138
224,0.09440242556585587,0.09517391659936852
225,0.09439733298085957,0.09418532553392785
226,0.0943894667936553,0.09421918363602216
227,0.09438857730093905,0.09422034488574858
228,0.09441417309163,0.09427780732688888
229,0.09439526535540843,0.09437995215829377
230,0.0944300101315089,0.09418747328874533
231,0.0944044406888344,0.09424211739341198
232,0.0944196157913795,0.09462819650075335
233,0.09439014493049287,0.09431831929729788
234,0.09439042519381959,0.09421915582718582
235,0.09440578188267734,0.09435870441966106
236,0.09441651754992471,0.09433060828611055
237,0.09440289787370429,0.09410434680231557
238,0.09438330045552086,0.09425963670156468
239,0.09442021709373243,0.09419067991396152
240,0.09439934397951591,0.09413451520283578
241,0.0944066201325515,0.09425856602314239
242,0.09440915472061037,0.09412986184187357
243,0.094406839787698,0.09413069784758876
244,0.09439963630909066,0.09422671756668173
245,0.09439915045798063,0.09423679519729908
246,0.09440496501078804,0.09426454159459827
247,0.09437765378793843,0.09461596274150105
248,0.09440513269947493,0.09415074398457392
249,0.09441162931690399,0.0942266706462535
250,0.09440263033473044,0.0942258740280591
251,0.09439032293147416,0.09423302290424551
252,0.09440048247409,0.09416219259846746
253,0.09439604246406723,0.09433737866456995
254,0.09439203819687322,0.09416785652160456
255,0.09443109858033659,0.09411879529516436
256,0.09439986117845245,0.09423297927101108
257,0.09436304967918938,0.09416322354830055
258,0.09440073815526531,0.09423334851284712
259,0.09440669121680785,0.09438266258777929
260,0.09439756671825854,0.09445606112691861
261,0.09441566546495965,0.09440603913429128
262,0.09438664632306683,0.09433668857732906
263,0.09442328209047028,0.09419598979632875
264,0.09439444211092021,0.09414493279044987
265,0.09439052072026842,0.09424920084326871
266,0.09440524073289358,0.09411666855133699
267,0.09439423011182595,0.09434709829684779
268,0.09440202300223134,0.0944709375488918
269,0.0943821589771411,0.09413915584429852
270,0.09439843032750295,0.09422621317354825
271,0.09440820854154232,0.09413440850722855
272,0.09438115940522328,0.09433748705375825
273,0.09440364981655308,0.09429813288122815
274,0.09439116652956683,0.09426834974099824
275,0.09439402538464128,0.09415162805153238
276,0.09438121185409461,0.09416246690567592
277,0.09442745015727912,0.0942623441790443
278,0.09440536467994241,0.09413991676791973
279,0.09436835711308235,0.09426491103637095
280,0.09440251276325837,0.09417706595670547
281,0.09437938978512891,0.09417565001120413
282,0.09440398431843895,0.09420794376775611
283,0.0943699327262519,0.09412837366043533
284,0.09438528001403733,0.09419277115727186
285,0.09437259628797035,0.09428416271918198
286,0.09442282950194429,0.09417136534519241
287,0.09439044306687504,0.09414534167854825
288,0.09438291989522968,0.09416229765929852
289,0.09437283474823935,0.09416321506275374
290,0.0943807677762638,0.09409265926412079
291,0.0943965655651024,0.09423714606848493
292,0.09438277762844789,0.0941660229966409
293,0.09437368420674075,0.094121275544637
294,0.09442847291473672,0.09446766743790755
295,0.09439179418291405,0.0941679177081011
296,0.09439568967818261,0.09434395128803735
297,0.09439052738767448,0.09431976687983443
298,0.09439319528216462,0.0941437856597795
299,0.09439890776023113,0.09421371648583529
300,0.09440629736339445,0.09447222875744316
301,0.09439694603605808,0.09432726471016703
302,0.09439860145858438,0.09410218889189217
303,0.09439929407968414,0.09417399800520011
304,0.09438751308287648,0.09425540087302087
305,0.09439339849660151,0.09418207975641046
306,0.09440560677318836,0.09413257674053135
307,0.09440119543092713,0.09421722039921414
308,0.09438439544370707,0.09446604785104389
309,0.09437985966900746,0.09416371238165798
310,0.09438970911024,0.0942154158415433
311,0.09442521113274004,0.09416413125482806
312,0.09440327848759678,0.09438152900575744
313,0.09440943793796426,0.09411860725474151
314,0.09439857687941082,0.09418576374214846
315,0.09438721493756075,0.09416059371680845
316,0.09439864101634322,0.09409985371410329
317,0.09442429840683841,0.09424349178737228
318,0.09437139720308314,0.09412360573577053
319,0.09437250071983162,0.09420039517115493
320,0.0944057333377673,0.09416000864335469
321,0.09441047002800362,0.09418121693566171
322,0.09438898218133085,0.09423354054024206
323,0.0943996515169704,0.09415377720002593
324,0.09436192925123098,0.09414427724520616
325,0.09437262990491853,0.09413019036719812
326,0.09442815137840957,0.09422186629783477
327,0.09437671712607884,0.09481869471548295
328,0.09439102177330248,0.09424752154591146
329,0.0943631855048817,0.09413427811912786
330,0.09440325387566686,0.09410476529913431
331,0.09437321378982706,0.09429307925296564
332,0.09437625015453754,0.09439455126224772
333,0.09437816501926366,0.09416208513839656
334,0.09441015933998388,0.09430625773054836
335,0.09437361303017103,0.0944318812702148
336,0.09440342713591102,0.09419238261566824
337,0.09436972146864227,0.09422685394700155
338,0.09438574892118108,0.09417588263750076
339,0.09439852898664992,0.09415644895941043
340,0.0943913280838828,0.09443041655193093
341,0.0944075376140795,0.09412783628363447
342,0.09438582633932431,0.09419715037567934
343,0.09439245022410493,0.09429110213232116
344,0.09438330622361624,0.09416487972357185
345,0.09439579591893558,0.09417346074600905
346,0.0944003923673281,0.09434061775597043
347,0.09437294186745807,0.09423899243643835
348,0.09439139838496463,0.09446961535015912
349,0.09439307849386708,0.094436985329558
350,0.0944119869596619,0.0941005609958964
351,0.09437035508066725,0.0942187781997713
352,0.09439687400484542,0.09417931562629193
353,0.09440421370222128,0.09421537805939624
354,0.0943895291349442,0.09413555073357043
355,0.09437957777977467,0.09419800133548012
356,0.09437124873046204,0.09411893213416238
357,0.09439550218083781,0.09417542093084286
358,0.09436854207627683,0.09430918001644048
359,0.09437382571417079,0.09432973817355443
360,0.09438963512555777,0.09523803504344132
361,0.09440506709446247,0.0942355404948285
362,0.09440082796126437,0.09418204366196396
363,0.09438652430864261,0.09431062655224985
364,0.09438073588051289,0.09415517882653457
365,0.09436282949398557,0.09415828265490829
366,0.09438184399208387,0.09424760419619582
367,0.09439755194514489,0.09414254642299714
368,0.09440961722537673,0.09422039517569748
369,0.09439963482314354,0.09420937858374927
370,0.09440440933207432,0.09418059233355541
371,0.09437288751871847,0.09416992875917182
372,0.09439781898383995,0.0943607317420471
373,0.09438148025366709,0.0941773154952908
374,0.09439143957458526,0.09415558613866168
375,0.09440119454352786,0.09423926043976172
376,0.09436950798657873,0.09417747796146345
377,0.09438043230062099,0.09418913609720914
378,0.09438707790881705,0.09419612596495093
379,0.09439065078977676,0.09412592546551267
380,0.0944069804583522,0.09423467249336823
381,0.0943724113992221,0.09421330911490328
382,0.09438562671319663,0.09421494129777613
383,0.09438859428659523,0.09416561146232211
384,0.09435832171405344,0.09426809685641419
385,0.09439207193591326,0.09430939594802654
386,0.0944057558800915,0.09439622021582339
387,0.09436810183391678,0.094168302327418
388,0.094393648299501,0.09432679981628364
389,0.09437117823284212,0.0941250609276609
390,0.09437771629896477,0.09413836294257368
391,0.09437856359256924,0.09427739969721532
392,0.09443411899270486,0.09433750680044305
393,0.09436329770133459,0.09424239330011366
394,0.09437004580117053,0.09414917789252612
395,0.09437862488267709,0.0941700156081259
396,0.09441335579986386,0.09415264263008181
397,0.0943627542318057,0.09421600088559462
398,0.09437859028601628,0.09409658646691758
399,0.09438804810424503,0.09433950063343959
400,0.0943784043341756,0.09418618306811626
401,0.0943753212737999,0.094180544642783
402,0.09436395991560843,0.09411890933550336
403,0.09438607396541548,0.09414865985665626
404,0.0943667303523619,0.09426096446324073
405,0.0944128360250871,0.09441958828266907
406,0.09438139052211428,0.09440363874187033
407,0.09440316071660874,0.09414915401185697
408,0.09437549629395338,0.09416018103579414
409,0.0943776053978766,0.09434984226864722
410,0.09437988328037979,0.09414406692948789
411,0.09439498608370574,0.09412268895564722
412,0.09438326128786036,0.09415505659467326
413,0.09438365328905107,0.09425524254671307
414,0.09439758111616309,0.09419603746945969
415,0.09436078768053786,0.09413566569714633
416,0.09439458056009835,0.09419903543725575
417,0.09438986196625623,0.09417740045072719
418,0.09436125215961874,0.0943161718953098
419,0.0943891526155954,0.09415652315355043
420,0.09438389082916444,0.09437373183497126
421,0.09436145593984713,0.09409993577045818
422,0.0943775188079555,0.09413508122350253
423,0.09436165256727991,0.0941480691202908
424,0.09437418425326152,0.0943856334935612
425,0.094378848757437,0.09422261043853805
426,0.09439384570415262,0.09415013832352533
427,0.09437742212312303,0.09438660660877694
428,0.09438456166729176,0.09426336654336225
429,0.09436165856764757,0.0941701883181118
430,0.09439135810954394,0.09413818267615837
431,0.09437417996217974,0.09417098096697558
432,0.09438264713906269,0.0941871580886107
433,0.09438616008185845,0.09426912160233052
434,0.09440024601195833,0.09414870179042914
435,0.09438879336479852,0.09420568726504047
436,0.09436900961956532,0.09418957265889259
437,0.09438105770569148,0.09415322328140723
438,0.0943894819211331,0.09414769933156922
439,0.09437699596897113,0.09430100782917726
440,0.09438305732300527,0.09409835358350975
441,0.0943599477600899,0.09422237170829299
442,0.09436927268878638,0.09443676125349355
443,0.09438413648987465,0.09417993872887334
444,0.09438667898412517,0.09414731821114375
445,0.09438078477383137,0.09430818531394664
446,0.09439609398980507,0.09441462163861192
447,0.09437377972425602,0.09416049631825563
448,0.09437577288856895,0.09468511721353035
449,0.09438262993900133,0.0941858395299012
450,0.09440544557919224,0.09437727511234893
451,0.09436493372316841,0.09420440534178252
452,0.09437794318135313,0.09413417071198138
453,0.09436625034379349,0.09414519668919134
454,0.09437071392052084,0.09418564479160045
455,0.09439055901541889,0.09421659011655467
456,0.09438699258448217,0.09419634872378566
457,0.09436956188864083,0.0941075425545061
458,0.09438642462809309,0.09418503092726856
459,0.0943479839500954,0.09425182812262824
460,0.09436572119772291,0.09412475573611993
461,0.09439444683379025,0.09425333854407895
462,0.09436887565502922,0.09434362328607639
463,0.09440859184145546,0.09435971197102516
464,0.09436926478259473,0.09428426009421284
465,0.09439054744944965,0.09461446069386782
466,0.09440449867055094,0.0943826468163056
467,0.09437718140862161,0.09421090759930878
468,0.09436943161366083,0.09422595559633333
469,0.09436530870594662,0.0943082307760134
470,0.09439543067968244,0.09417019312835248
471,0.09440322599107985,0.09410571258135828
472,0.09438110749832065,0.09413161642126146
473,0.09437276727313713,0.09412684532113215
474,0.09437475333825576,0.09417246446754392
475,0.09438163968477603,0.09419969535170339
476,0.09438724889100598,0.09419477633961375
477,0.09434571573369319,0.09431342812932751
478,0.09437470456405128,0.09427081650650775
479,0.094372328421433,0.09414279363290852
480,0.09438201713619186,0.0941563110854462
481,0.0943880071230739,0.09431519173526726
482,0.09436501534901363,0.0941774812192548
483,0.09439292813328912,0.09420590573111762
484,0.09437361613011284,0.09414600142834219
485,0.09439914133384836,0.09417281498001989
486,0.09437458109941414,0.09417307016975596
487,0.09436030185622848,0.0941861730595226
488,0.09439037266156847,0.09426335137169853
489,0.09441965232662064,0.09414750632801297
490,0.09436571472089925,0.09424116898801445
491,0.09438301380768382,0.09429264506700007
492,0.09435993978838554,0.09415390234272972
493,0.0943769149148731,0.09464990030665424
494,0.09436800231417115,0.09415001174598203
495,0.09437819829078124,0.0941114196261272
496,0.09439649499303622,0.09418604314774157
497,0.0943965469982079,0.09420914494600838
498,0.09435893972810033,0.09418848123410224
499,0.09440287139764031,0.09430417481989209
500,0.09438995345474052,0.0942067215373503
