epoch,loss,val_loss
0,0.3237194025711857,0.3094918513472097
1,0.3039562729932517,0.3001644447057757
2,0.296913250578012,0.2945901187814496
3,0.29428914111914584,0.293103439408489
4,0.29298427007157357,0.2918842550611157
5,0.2916685539981921,0.2903141981283322
6,0.2903820072039426,0.2892646121762358
7,0.2894691309268526,0.28831327127347145
8,0.28833142896112113,0.2881153070183372
9,0.28813275032573277,0.2877881166355386
10,0.28745921341468583,0.28770742565981494
11,0.2872490817301279,0.28664180153029684
12,0.2871394035794276,0.28603968858107304
13,0.2867970717646521,0.28809092026247973
14,0.2863678695212642,0.28746346750641394
15,0.28615804043986337,0.2858550738258068
16,0.2915112735639564,0.2847842844739709
17,0.28534844585007235,0.2841679734937206
18,0.2844749911071109,0.28401324844492076
19,0.2837903689887884,0.28462688440211475
20,0.28364638574451184,0.28449168836590616
21,0.2832248595168741,0.28424422535824795
22,0.2829759045482444,0.28189954067556144
23,0.2827147313242527,0.2830606875875002
24,0.2826757017526028,0.28278247359331515
25,0.28245677076560033,0.2823708319320581
26,0.2825924759085992,0.28276548104767923
27,0.28238474771225575,0.2821007592408038
28,0.2825544575195042,0.282288689580882
29,0.2824056874231088,0.2824764749080813
30,0.28229505447842046,0.2829412220732471
31,0.28230388055769184,0.281665714888377
32,0.2822528942454633,0.28183833787830775
33,0.2821263725654208,0.28301098179469075
34,0.28235120123191226,0.2811439420848544
35,0.2821605741131982,0.2814582461739678
36,0.28200927715626456,0.2808588295116515
37,0.28177780811068154,0.28237483749826214
38,0.2818148443929488,0.2818270730591234
39,0.2820205781087696,0.2815553104915107
40,0.28245414629114046,0.281617950139407
41,0.2817852703168047,0.2817216436389684
42,0.2816710155204141,0.28214181228096125
43,0.28141276929065956,0.28205657080580326
44,0.2815418386881014,0.2830845578128932
45,0.2847088503537418,0.2859275799241702
46,0.28438268522088,0.28181616598541753
47,0.28242897525798977,0.28747907778411375
48,0.2786920095066563,0.27593519713291526
49,0.2746062582637147,0.27371040500565225
50,0.27246991579504987,0.2731501125357898
51,0.27037828287882487,0.26872508066699746
52,0.26834394680343565,0.26904297447759706
53,0.267309615261954,0.2652602650772048
54,0.26580571394851454,0.26431311646971817
55,0.2651858377507884,0.2653153230742667
56,0.26501026288341945,0.26487961284457556
57,0.2650753040459278,0.2645643705703559
58,0.2645958245699878,0.26307755705166164
59,0.2635838797034548,0.26303540930540054
60,0.2629297266779043,0.2627476916575677
61,0.2633180284558488,0.26268181846357275
62,0.2631543989328267,0.26509758738922906
63,0.26388552915051783,0.26580993897019173
64,0.2652294077396059,0.26618400213750404
65,0.2661544703882185,0.2661507438924149
66,0.26728154924943104,0.267739348883881
67,0.26799653555980496,0.27023819371199365
68,0.2691112721203376,0.2687716046678992
69,0.2697343747827599,0.27148678273127225
70,0.27015315517961835,0.2697620189733268
71,0.26742478150972643,0.26924970364396555
72,0.2671991555179528,0.26894311881502875
73,0.26832855397836863,0.2692102421289744
74,0.2681232962480409,0.26758740698858424
75,0.26802128613543075,0.26770705516849247
76,0.2678659346839078,0.26926145406223795
77,0.26895081516888314,0.2693724799798338
78,0.26897111235798404,0.268781451342279
79,0.26833721710671243,0.2673273145705579
80,0.2684430999519061,0.26848075304830177
