epoch,loss,val_loss
0,0.21408512976488098,0.0683074725384588
1,0.054267021072514764,0.07545550301047696
2,0.04129314072188928,0.045543597512764544
3,0.03985476680807203,0.01896916876158191
4,0.037964656202347395,0.06787585964589582
5,0.032465594088871605,0.033477833562169663
6,0.035543024050463425,0.023454258153722242
7,0.032865043779422676,0.039895174849922485
8,0.02975160960178021,0.058225043526694074
9,0.030005566928227492,0.03664578497115796
10,0.027965516274829183,0.013907737838105838
11,0.027507403259836347,0.06360645633376105
12,0.026445494709368186,0.03444333366120576
13,0.027295497537915894,0.04390231670478054
14,0.02641734187762967,0.02265929257542765
15,0.025155984374659535,0.038318697739489545
16,0.02473037496140654,0.023555231576854543
17,0.02515260919967263,0.0193827838387749
18,0.022735554881827186,0.019981592708365036
19,0.025239062172991277,0.018486755584008644
20,0.02383533511444819,0.025051219083057113
21,0.022923977371658102,0.033963555177554616
22,0.023568171798791306,0.025070463003621576
23,0.0217873525346438,0.02055569405019895
24,0.024391688867103602,0.02591157948338054
25,0.02237185124113566,0.04312295652778956
26,0.02251124600928238,0.008461043645863751
27,0.022137383431223012,0.022809635762539828
28,0.02110622233196015,0.01596439259542827
29,0.02074704600850211,0.011384656237498595
30,0.020032764656274175,0.014099457851025234
31,0.019103045350120817,0.02273550134184517
32,0.020729532272709038,0.008922599118214686
33,0.01904176595601455,0.029082184160553103
34,0.020373311673784606,0.016032585613988192
35,0.019634130330634214,0.024022834343157985
36,0.018607154470882552,0.023967164195926996
37,0.01723273290409822,0.03232800753400518
38,0.017444622910787744,0.018887173399129247
39,0.0173855228165312,0.020699974728693806
40,0.016464569851187327,0.016486610915150197
41,0.015509790611184604,0.01507132480636933
42,0.017053011848370162,0.015031614607668995
43,0.01598925021965411,0.023036851899752773
44,0.01655436908140582,0.024228253556913812
45,0.01625681878663123,0.017134581556530477
46,0.016474487890543746,0.006914454168289453
47,0.016029509952474985,0.016389405762081366
48,0.014229964448152471,0.012866795975229781
49,0.015820261043255224,0.00903697414051715
50,0.014461659645806138,0.017363758685674458
51,0.015035729106369732,0.011577225518107838
52,0.014343631323531187,0.009131414648924602
53,0.015501809486044313,0.005567778123508854
54,0.01476368382588017,0.009211304145493936
55,0.014301996446399987,0.011431026107086944
56,0.014685789556454698,0.01812722388252134
57,0.013467550692282509,0.01965200675661722
58,0.013438587612044408,0.018505459842466893
59,0.015268139342005424,0.017885639334440043
60,0.013253392413076904,0.015086851797956788
61,0.012788781566995023,0.009102904869959452
62,0.014175797943293834,0.00805420232877935
63,0.015057534868862453,0.013039100807139558
64,0.013002202356718838,0.020030745582239027
65,0.012310189138212019,0.015140869958295347
66,0.015331368281808998,0.007956029436365064
67,0.012985330964286003,0.009883338212084845
68,0.013465255800021185,0.011916305220023609
69,0.012195651302021816,0.006258411275630121
70,0.012779776797835365,0.005564262991258029
71,0.01212561757147065,0.010605152952907447
72,0.012674159574159365,0.006650458579558083
73,0.012215640828784683,0.012028407921460357
74,0.012213678749596073,0.00909879014863329
75,0.011731529743116585,0.01115867702015503
76,0.012303520732899483,0.006513844564668805
77,0.012297964069343132,0.010761763169867558
78,0.012516340662667201,0.007416915956328917
79,0.010712180861557046,0.014868557062838007
80,0.011469695574531763,0.010042574792518189
81,0.011958894630645414,0.0068417251254883965
82,0.011442823270201791,0.01260889158014505
83,0.012135710286759704,0.008910078730290108
84,0.012167910411994871,0.010430527779684588
85,0.011865020724017914,0.009565788285914095
86,0.011552398704434577,0.00708416568985666
87,0.011914495754127891,0.009962434721662241
88,0.010767990230976476,0.007323075582412231
89,0.011491543353463767,0.018186470551009054
90,0.011143268096624769,0.01934860509562276
91,0.011674114363100514,0.011707179277000365
92,0.011333907936713834,0.013314082601123094
93,0.011586454302015946,0.010842002698182824
94,0.010931262323877764,0.005123782546451314
95,0.01095241232463222,0.005678299578140477
96,0.011442136008394428,0.016325343209124026
97,0.010774786036620162,0.012708360359407873
98,0.011228716848299002,0.043208567635836144
99,0.011433660715288348,0.01711552046259958
100,0.011088559822961808,0.00812492484995697
101,0.010435919547051514,0.009095216637452287
102,0.01069634740905677,0.018796403378530478
103,0.010993901003196055,0.013222266611185193
104,0.011142431975354989,0.010290848053756576
105,0.012337197539032542,0.018779610607834812
106,0.010250481332262917,0.004634317018359241
107,0.010452331295594287,0.009475374711940585
108,0.011535357867127848,0.014700406707305793
109,0.010435460483749135,0.008862769353955443
110,0.01069358355781848,0.011247524377855382
111,0.010117969212612118,0.01589420210090837
112,0.011014890479319226,0.012853651783842925
113,0.010824574805929405,0.017286040546003533
114,0.010244139626590189,0.015265782606282993
115,0.010892962198071688,0.007614771112573245
116,0.01087210764665511,0.005854146883270946
117,0.010931121414437217,0.01759259522199372
118,0.011163850093995937,0.009425012575610943
119,0.011207325472891015,0.017573690732122175
120,0.010330107453153383,0.00906064120454283
121,0.011600924205953638,0.01803739256892227
122,0.010405282429095617,0.009295222981617548
123,0.011719984221283338,0.012341636013983505
124,0.010435936744879488,0.007108250640600261
125,0.010366516256370664,0.009965042330783328
126,0.010866124157627804,0.008391298688492416
127,0.00992542883404698,0.009337052235404807
128,0.010875512831576383,0.014102719724178314
129,0.010454117483701363,0.023557419867358438
130,0.011014368319470766,0.008403069351086041
131,0.010822572131945695,0.008546463162039173
132,0.009452861245088042,0.004687586886001179
133,0.010910896401253822,0.004536651779074977
134,0.011086139310844434,0.013545795137999138
135,0.009641999425422355,0.008024177396406831
136,0.00938491198726722,0.007247842099273543
137,0.0109900020232847,0.011509763080576742
138,0.011023756063957925,0.012898462602534959
139,0.0101501757724227,0.008483509606245873
140,0.010409024026100453,0.0077293207652090615
141,0.009844727176565418,0.009788871384810159
142,0.009627250185199856,0.01569124723431061
143,0.010622823332472862,0.010270806474886075
144,0.010656143581274329,0.011646008649701289
145,0.010749577343810816,0.010294895307488016
146,0.010191058512121218,0.008958884780592893
147,0.010355010119767086,0.009216889501611784
148,0.010156324309435376,0.01474342177583062
149,0.010182529549597563,0.009943982365011182
150,0.010127736502688089,0.013397941107096498
151,0.00983110568674131,0.016258101569284297
152,0.009922048568053336,0.006436073545428271
153,0.010408475014420568,0.010493940078368926
154,0.010007627490389762,0.011450888363360747
155,0.010340909612533316,0.007409470782842378
156,0.009764423565775287,0.004139526929829825
157,0.009732130832756482,0.00981730058342336
158,0.00966855492653157,0.011127716441945289
159,0.010626079358006392,0.009159391729018541
160,0.00933881246128963,0.013399805840554675
161,0.00979465509730977,0.010180440881299097
162,0.009968422470334396,0.011797341440922647
163,0.010273010359048176,0.01962505958403954
164,0.009420657661917665,0.0048357343110796164
165,0.010550884854440822,0.0033990220940762275
166,0.009426764372701226,0.020588726305124226
167,0.010146858433609922,0.01161808733135203
168,0.008859607312890837,0.007788167553773736
169,0.010024356985945615,0.007178372710843254
170,0.010110671096723332,0.008530465133661652
171,0.009867561582050068,0.009826638130875394
172,0.010250768593350928,0.010415839326098244
173,0.009836657723091054,0.010957917463160822
174,0.009421750513496523,0.009101792486368339
175,0.010245582047975708,0.01582184405343191
176,0.009725472080609877,0.006866108247938242
177,0.010553357645599015,0.016153126088395163
178,0.01011261680788047,0.010188113888483069
179,0.010156501924412862,0.006064292734037517
180,0.009278069126611794,0.006756777499509121
181,0.009672801887752751,0.013669699794321005
182,0.010945156002123145,0.007818947787284146
183,0.009358213168474362,0.007651471696064852
184,0.010459665460497152,0.00735381056775869
185,0.009517269977591752,0.020158460769499488
186,0.009937525029107332,0.02063649163185233
187,0.009845271466678079,0.013889440916031717
188,0.009261165080658293,0.013808281593842118
189,0.01026500444963491,0.00923095426493528
190,0.009180989336139775,0.014252146512663967
191,0.009515160372179986,0.010810671182350795
192,0.009312340833837066,0.022937373017808446
193,0.010301306230134422,0.013755796732999908
194,0.009348545029821197,0.010809363641474034
195,0.010270701879508895,0.019320435720571592
196,0.009662182523041137,0.015881743052740593
197,0.009343501275515469,0.007560687137057603
198,0.008951193357216303,0.009436486139320185
199,0.009232565644755513,0.012293808807596129
200,0.009452680906494535,0.009663808282285387
201,0.009516344304929088,0.00651354686597446
202,0.009660862962812853,0.004508357596691719
203,0.009823501474770466,0.009095042415445445
204,0.00953184222976724,0.01145103852828375
205,0.008783830034875607,0.0024421801772218526
206,0.010268432349781784,0.009768683492002425
207,0.010180465024739628,0.011779684371270104
208,0.009438415485930047,0.008170129976440413
209,0.009698237361982732,0.008486528282186814
210,0.00948179357334879,0.011524957651750206
211,0.009690616087303858,0.01719666565544227
212,0.008871234051487167,0.008591086985197892
213,0.01040835661612984,0.007801855382477922
214,0.009581439140484297,0.007926952116626543
215,0.009700041452644588,0.012260907546461993
216,0.009663658803976554,0.013386714261910205
217,0.010439040078085472,0.01021175879923349
218,0.009984819381181403,0.009226290409136402
219,0.008748077609718477,0.008339657292031663
220,0.009358769673262265,0.009394436913682845
221,0.008452141778632927,0.0075128097950841796
222,0.00938002680375097,0.013245941906426494
223,0.010106087660139276,0.009454363646116563
224,0.008604039724128579,0.007777441221332705
225,0.009703696842568157,0.008074767201780192
226,0.009655308363557928,0.00751295245760477
227,0.00973483295121091,0.012698146466815574
228,0.009003776360022501,0.010302429676244083
229,0.009433890197077672,0.008233783334411311
230,0.009608110762480424,0.008527479368249496
231,0.00967286766901669,0.009276503247180226
232,0.010151200354930093,0.007230138145578289
233,0.010103850796495636,0.008980429218604207
234,0.009645784903745012,0.013570693829453358
235,0.009199321611418123,0.005383475174232082
236,0.0089397140235888,0.006544195906492134
237,0.009339847747120354,0.01387158441397743
238,0.009886313587141265,0.01061589029215529
239,0.00956269171085956,0.00906427875352287
240,0.009437991393939239,0.011418477606378208
241,0.010042288762180033,0.007886150480639821
242,0.009425923754505777,0.00632033704382374
243,0.009354583707620961,0.008801020555427532
244,0.009626353357573874,0.014537217657816109
245,0.009715121138456026,0.008769582969525383
246,0.009459768796691762,0.010566141421082647
247,0.009508674047410124,0.00921627941255435
248,0.00949336752573923,0.006350486357376603
249,0.009537046395918186,0.018260033349870412
250,0.009109427498338624,0.008821284648724894
251,0.00874358715240484,0.008254381403144693
252,0.009285765449437561,0.011566448521571735
253,0.0091666972107752,0.009002827325484465
254,0.008961126660287148,0.006537251433191472
255,0.01038716299406109,0.006960301727994441
256,0.008971338558251218,0.015340286615762592
257,0.009477025967260315,0.008650710502302756
258,0.008823976250753242,0.006940890325934588
259,0.009631564340488665,0.00783272971779155
260,0.009648978406433865,0.009019836319585485
261,0.009054954561180056,0.014124678774944844
262,0.009824202630202101,0.007613238068878204
263,0.009781388716651596,0.009107549991620369
264,0.009866704315253846,0.008107815211272748
265,0.008492283643406482,0.011525345393607207
266,0.009031527106546693,0.0071689232720037145
267,0.00934446788328565,0.015471439125735221
268,0.009313958017047581,0.006520580727130692
269,0.009400776020983766,0.010834663447019098
270,0.008620933304986747,0.011714499262944393
271,0.010083177799193693,0.007556365190210569
272,0.008870448460143586,0.00530990140384685
273,0.00876693905805417,0.003461620137690851
274,0.009595390750101948,0.00715897230125652
275,0.008818556648138598,0.007094113172738333
276,0.008938318447226272,0.006630100857469399
277,0.009015376954212886,0.016671661128772934
278,0.009315907444375352,0.008838100388246253
279,0.00896422271451114,0.010934334958373513
280,0.009966259654466179,0.008702750858389894
281,0.009546073919015494,0.007298876365298301
282,0.009590521920565441,0.0061295783627210824
283,0.008547213461754813,0.007823922382131065
284,0.009101362810633945,0.00890971795415422
285,0.00887965144486063,0.00465383895855888
286,0.00984913498523543,0.009324867712023602
287,0.008284737189433617,0.01303530361315187
288,0.008826197701789957,0.01369437869438268
289,0.008561662505760485,0.0028740735584906734
290,0.009322911879210789,0.011067335897411242
291,0.00889586728847147,0.0037599130208003494
292,0.00877391694340301,0.0064224444845016534
293,0.00936470043433787,0.009148761273553593
294,0.008665947088723083,0.008297629014536703
295,0.008345980528011757,0.006882971628247845
296,0.00895866424572631,0.011671473745524224
297,0.008555339778390833,0.008255138645211754
298,0.009227996029303694,0.008597630258405547
299,0.008580132662657378,0.012911189027018875
300,0.007940728641706977,0.00930437408593478
301,0.008434211257562267,0.013395233632557112
302,0.008828351699127752,0.007600947592301616
303,0.009396431901265863,0.011443068721752846
304,0.008612567018590969,0.009407965855227508
305,0.007965088836929882,0.00637495389021492
306,0.009214171142556326,0.009732750409827424
307,0.009356738739761618,0.006893149197054549
308,0.008206995012578096,0.0063898500342483636
309,0.008801793517488287,0.006935726480754041
310,0.008717302204691154,0.008745021376414806
311,0.008369385896769495,0.0056235319023309445
312,0.007994709355435777,0.005145518204760344
313,0.007878279357647552,0.020014289571023778
314,0.008895675305274875,0.007150009919498954
315,0.008922041666196685,0.004630143850109736
316,0.009130246454584066,0.005010228841503069
317,0.008435044051363891,0.012973580613067843
318,0.009483079597496127,0.0034206740823872063
319,0.008341889611432712,0.01478611340859483
320,0.008437987106029974,0.005072934704449766
321,0.009062823247544908,0.0051906928945635615
322,0.009496652619089845,0.01374423279608552
323,0.00856091821524162,0.008066804908310087
324,0.009203042844396016,0.009680449363541066
325,0.008856864028824695,0.011055167629174013
326,0.008997294081964617,0.009613425345193145
327,0.008079099177429787,0.006088358926018604
328,0.009368937727224698,0.012714251403968072
329,0.008242589828232937,0.008188775762248175
330,0.008457653195434194,0.008075472720528953
331,0.008438407267212308,0.005974173166178279
332,0.008921282842560269,0.010501463210244017
333,0.008846441763442018,0.015731485936152673
334,0.009065689456233714,0.006369699234100266
335,0.008115944382976546,0.003522942275258741
336,0.007740508071422357,0.007410588741137837
337,0.009558929526395976,0.006818709409874353
338,0.008639737426546766,0.009005732702763182
339,0.008090500428016,0.0063054308974446515
340,0.008661443810090333,0.008839448883794336
341,0.008319171453858886,0.006888291544935886
342,0.008936946498055896,0.005889892901184409
343,0.00788457502054868,0.0149825046018307
344,0.008591249691051461,0.004675668876341764
345,0.008475443970845292,0.010567223537057614
346,0.008806857468875245,0.010099854187241622
347,0.008440450373512182,0.004722183317220943
348,0.008858935908506737,0.008721528458684659
349,0.008060141171936949,0.009574099776835637
350,0.008446251162138733,0.0082365258974659
351,0.0086570632169682,0.005928759227911835
352,0.008603163621314674,0.01062174606259733
353,0.008669689500821288,0.008289409627154434
354,0.007866669144443453,0.009582503334175863
355,0.008363901335708083,0.00425817998568656
356,0.008644035268242922,0.008301574962497369
357,0.008453029016279232,0.0096065455565454
358,0.007963535254778374,0.009685930420351293
359,0.008199376446160702,0.0101194910458109
360,0.009393185830219454,0.002489791094599661
361,0.00844495558960856,0.016495651215603008
362,0.009011453476181324,0.004833275973782143
363,0.008264834677493818,0.00496982893705862
364,0.008032759650145842,0.01127651937147154
365,0.008123695718695511,0.007970120246950669
366,0.008102352852277237,0.009721974099103447
367,0.008410704830999403,0.006644626605620677
368,0.009018487630517696,0.012767347999669805
369,0.009034899762365595,0.014343744408465692
370,0.008621828151784158,0.011518410137974331
371,0.00876120053105902,0.007999055520149907
372,0.009077428906730158,0.004996941475625479
373,0.009710070004758925,0.005163757432613819
374,0.008917307366336362,0.0071776212507678044
375,0.008203191194328949,0.008586839472120826
376,0.009318172210938395,0.011221531188319825
377,0.008178214721704017,0.004009730211255488
378,0.008012026109245809,0.011491982014180877
379,0.007788061127747796,0.00441665705749155
380,0.008078294583308927,0.007081732150584741
381,0.008050395687353417,0.0063829602954443175
382,0.007976205590989539,0.009349796054377598
383,0.008443881606431506,0.009373303793147264
384,0.00808754138727423,0.010895988824553112
385,0.007870897618706803,0.009093240723778342
386,0.008020741268910532,0.011135675693732035
387,0.008612302917451839,0.012217048547526891
388,0.008264022847290615,0.010679054279806534
389,0.00841246450879722,0.013476522185125968
390,0.007855976896016574,0.0070726965581990875
391,0.008408892380675192,0.004985079355243867
392,0.008259620817231503,0.00837436369888561
393,0.008727208260527933,0.013758537833650185
394,0.00779035773636739,0.009214909769294764
395,0.008333965492437406,0.007946608925492583
396,0.00794143973217665,0.009189027478446524
397,0.008855429385117977,0.005907054154397869
398,0.0081874682576575,0.012118924359901974
399,0.008548779060228837,0.004954405770664292
400,0.00813695206511602,0.00726085502857191
401,0.008179346361918916,0.011478098676096716
402,0.008804309907161611,0.005473836677938394
403,0.007950145286041871,0.007786943697780018
404,0.007752581313773573,0.008099927729761614
405,0.00785548557040857,0.0132929283975614
406,0.00814746007675768,0.00571607166075022
407,0.007717879328167261,0.00707080553123329
408,0.008185625789023722,0.006631771921773383
409,0.008063223190344334,0.008188018201164543
410,0.007750590829897841,0.006217186926880994
411,0.008548162140727913,0.030208498313023333
412,0.008531664883595802,0.006052765924330645
413,0.008182394198424143,0.007202845771341998
414,0.008150080854309906,0.004407075366987343
415,0.007595455931997646,0.005262830910282452
416,0.008828654473418181,0.01028563752520503
417,0.0077443013200722485,0.006904153043408632
418,0.008588703425726195,0.007693381060499936
419,0.007408072110835007,0.007077311609240268
420,0.008252824071983097,0.005653113728769906
421,0.007472609537080389,0.00845123045095011
422,0.0076902227313946385,0.004750587564364558
423,0.007821504001432715,0.007140466378121133
424,0.007186230588544288,0.008740324384423345
425,0.008548734443475136,0.010340304818113159
426,0.0076304223541234385,0.0076937506434043845
427,0.007886413649244936,0.0033306689257053593
428,0.006766448918112861,0.006421147409059113
429,0.008260192601460603,0.012240807306030273
430,0.007969963532179403,0.0062750791458246885
431,0.007509398021564769,0.006486150196473384
432,0.007684885758160651,0.005612146867558231
433,0.007412631033758203,0.010930646129317094
434,0.00802356823344531,0.0050073969166875825
435,0.008015757246180434,0.004984349434667553
436,0.0076522322884908945,0.00486156431702278
437,0.00797860285224055,0.010509420157613816
438,0.007956677165588172,0.008835758425842239
439,0.007531240271094689,0.006755148520768159
440,0.007620837150452782,0.007258774832864281
441,0.007825720795358775,0.005198296883541152
442,0.0073990208223546974,0.005064076366566045
443,0.007771398083844351,0.003695058189817626
444,0.006612659795198599,0.015848190034133246
445,0.008710094656479612,0.0061215187824274625
446,0.008213411090053547,0.006004261976474016
447,0.007541569682555816,0.0072496680203963425
448,0.007339459596074102,0.005531514434315905
449,0.007505037742451006,0.007930640283025266
450,0.007357693631849665,0.01350035367646764
451,0.007710674728957756,0.01323392715352134
452,0.007399704156936311,0.00926503274169322
453,0.007376739554733282,0.010926117635410699
454,0.007999411137267608,0.00495458360917237
455,0.008103627920914576,0.013485961632645779
456,0.007353927520532563,0.006429268525370882
457,0.00746360935920702,0.0092035415020037
458,0.007660607685804737,0.010242494755228298
459,0.007538667947093366,0.004356264013792634
460,0.007634286555445952,0.008421581506070511
461,0.006816994373287952,0.009406204991801196
462,0.007326062376086833,0.009724602544270074
463,0.007123772742328711,0.005228994256907217
464,0.007198271040486799,0.011490237835174296
465,0.008012967884818242,0.005130650295531223
466,0.006907306237073301,0.012695742375566532
467,0.008243960254605292,0.00912845088352744
468,0.007870807040886258,0.007295344399777848
469,0.007124844843225418,0.006620284297445461
470,0.00759211507682457,0.011534625892957413
471,0.008021011379443936,0.014942744995989993
472,0.007398763814268055,0.004814834792634447
473,0.007586496558392511,0.004153160283697773
474,0.007298014764070993,0.004873258286635755
475,0.007812014857152973,0.006571437068645208
476,0.008251172847294663,0.005823072427905796
477,0.007282552266248511,0.007017731756977472
478,0.0073234843543182005,0.009236770512237733
479,0.007183732859753846,0.005976227099618389
480,0.007765387427798814,0.010767493227198308
481,0.00839277352777784,0.005244788783216509
482,0.007161694999726908,0.008621733199037617
483,0.007069395875355764,0.005688825975765416
484,0.00809597868757467,0.005414042760042478
485,0.0067559285706346875,0.008933645437876588
486,0.007115390491214016,0.011546941332213269
487,0.007235604320946101,0.005190202582630475
488,0.0081409125004059,0.00841271343928392
489,0.007226129749240421,0.005760589679563455
490,0.00790833603681179,0.007939386694973604
491,0.007848273826034206,0.005919102960852017
492,0.007130753369625958,0.012495367598867642
493,0.008009383805002348,0.004256575531895907
494,0.007584707106468822,0.006810100686654813
495,0.007664867391013991,0.004340363838419542
496,0.006876582930740758,0.0088795222086213
497,0.007017580635970731,0.004489072657138074
498,0.006801354816275761,0.007315280315802148
499,0.0072038109450758125,0.005728205241448148
500,0.006809041749196146,0.006803570854041693
