epoch,loss,val_loss
0,0.497891133518623,0.5125751237560655
1,0.4624187083457776,0.3549550978941718
2,0.33326809794353923,0.32834739885465686
3,0.2811571273395865,0.17338575689738062
4,0.18543938929133183,0.17009423966001316
5,0.18029106516155788,0.18178917529927338
6,0.1749622664428491,0.18638666639811616
7,0.17634084211479273,0.18476013467597885
8,0.17465959419663862,0.18768241592251417
9,0.17543708997593224,0.15812378473750419
10,0.17708547368681402,0.17051049108428096
11,0.1757516359730209,0.16480462903475893
12,0.17765813437309103,0.1844645618169253
13,0.1746655513259242,0.1685595490397105
14,0.17723414815849156,0.16096805491805924
15,0.17567604161399922,0.16553675021679268
16,0.17783912442785374,0.1706876616922061
17,0.17644594109458603,0.17080001283698695
18,0.17786196351265735,0.17054837842155085
19,0.17842332502420571,0.15472919366307022
20,0.17555955073220744,0.17884656020102768
21,0.18020472112748262,0.1711704643133031
22,0.17630013805046546,0.1819184763208561
23,0.17954799883681044,0.17566711085700762
24,0.1780557992111007,0.15251342138979693
25,0.1784222936399168,0.17193006296607577
26,0.17724033013927185,0.17411707346375382
27,0.17742961535541465,0.16874493640901164
28,0.17736190681953987,0.16588801256106797
29,0.17630372631202024,0.16750942728090398
30,0.17584192910664181,0.15800865974215514
31,0.17740631778891996,0.15473511979724822
32,0.17740612935057457,0.17997845706266027
33,0.17769519344484397,0.1657748525666739
34,0.17990402670667993,0.16932655220532286
35,0.17895264673433145,0.1685779774363058
36,0.17889568888597923,0.1655480993033961
37,0.1778626900008447,0.159008121904465
38,0.1773286124737524,0.1543972757545718
39,0.17678147026127,0.1743310489871884
40,0.17937958789624567,0.18747350303037202
41,0.17892306754819687,0.1601577309778382
42,0.17806509776200227,0.17046616350513044
43,0.17754751049000012,0.15483585250547013
44,0.17606078992954358,0.1577063068900413
45,0.1796988325653602,0.18171999253620758
46,0.17802964107429,0.17265626786963245
47,0.1771133679756634,0.1757000893377938
48,0.1770007379537673,0.17943339548481668
49,0.1783801624201518,0.1679105744200987
50,0.17802052073579708,0.16119823134971023
51,0.17759419458327916,0.17515226779909895
52,0.17871111156724148,0.18133969923691573
53,0.17765859947454252,0.1750317914874514
54,0.17874716810709376,0.18502755381972563
55,0.17542283895383065,0.16398209428683735
56,0.1776307996579831,0.17300491359587628
57,0.17592669151526846,0.16555038743726644
58,0.17730735546703055,0.17759642710625514
59,0.1772449591891657,0.17578439999021878
60,0.17827510503794458,0.17415367450268135
61,0.17785828762191186,0.17334804716266417
62,0.1779885396397085,0.1688970112092587
63,0.17577771777562576,0.16273665190589834
64,0.17694177770381161,0.17996664949778787
65,0.17568733574722786,0.16161479202305698
66,0.17605362814083564,0.15508552388403485
67,0.17567796979269248,0.17291142192287717
68,0.17707553433237982,0.16582037212699063
69,0.1782889032035137,0.16717724747891113
70,0.17660264723259006,0.16130157580691806
71,0.1778940173278419,0.16728960920857366
72,0.17755857505481973,0.1676950137165464
73,0.17706853875236736,0.18003752504217407
74,0.17874155362113583,0.16277337612932652
75,0.17886518043198651,0.1602516137034101
76,0.1784857144053701,0.16599559267628541
77,0.17811473972386688,0.17222574550802536
78,0.17948541544276556,0.18445453214758292
79,0.17974970913786206,0.16353665134665904
80,0.18026110056421454,0.15979315845653028
81,0.17990418510447495,0.16407193194107456
82,0.18034630148507041,0.19478109957622372
83,0.18035003355295537,0.17438959795467102
84,0.18015796123005504,0.16672216171153248
85,0.17958038903588205,0.16825327719396366
86,0.18192936844534155,0.1853562357299612
87,0.18667943209266777,0.1691579841894716
88,0.18029364247878582,0.16377729745530292
89,0.18155395587404474,0.19129858501755354
90,0.1843642276539791,0.16772254716954837
91,0.18130670757673914,0.16575022648076138
92,0.18855300992965507,0.15424732992097723
93,0.172455246303436,0.16256143189172811
94,0.17461151923302362,0.1676230184916163
95,0.17393460623818716,0.15820086527477595
96,0.17401414111459093,0.16071565025842557
97,0.1759069780413386,0.17760663658921513
98,0.17660877149668244,0.17814189408506667
99,0.1778044679539381,0.17388171126923413
100,0.17567299776297393,0.17390592313932451
101,0.17571082902993326,0.1813895944755851
102,0.17539972524277025,0.17053417575669835
103,0.17645086472233137,0.1718832915612065
104,0.17770255867430537,0.1602360008206533
105,0.17625111706560845,0.18451318062471422
106,0.17671052824488456,0.157306746571621
107,0.17596221464774686,0.1582917030180357
108,0.1759840238580315,0.16142627199334053
109,0.17750025076045692,0.15432869730592244
110,0.1748211117421123,0.16766638604552142
111,0.17409693119194297,0.170668477323362
112,0.1753667886171648,0.16739555401837816
113,0.17674742884439626,0.16133940639158073
114,0.17686882023688413,0.16773547668483377
115,0.17769578233849612,0.17191329374968206
116,0.178321560051182,0.16138623459610116
117,0.17556027165181537,0.16159857955379758
118,0.17738408724562252,0.1740507907230457
119,0.17921655814496162,0.1729799222550998
120,0.17723728585348045,0.1661562420245504
121,0.17824912904430446,0.16318698548480293
122,0.1784854591262045,0.18180966445471983
123,0.1793224886417103,0.15583859758647106
124,0.17799903106072443,0.16539265648200932
125,0.17765375872036154,0.1618338122011266
126,0.1788564762480253,0.16526671774220825
127,0.17800246553121807,0.17587616292858274
128,0.17852669954299927,0.18277717056524687
129,0.1796445921420765,0.17862020122459205
130,0.17796508219840523,0.17709650174547767
131,0.17780751598586472,0.15626230748883363
132,0.17795070619296302,0.1640179221942468
133,0.17719991742778454,0.16798433879039
134,0.17720779264382988,0.17095616623324114
135,0.17826038229165317,0.17000864476741726
136,0.17804520593272696,0.15769639531269541
137,0.17986837558918814,0.18457998714065024
138,0.17909757147351804,0.17464129603228987
139,0.17962136915881188,0.15884817647435295
140,0.1794978875360138,0.1689713514970811
141,0.17952029533880792,0.171033913341675
142,0.1793335625808016,0.1684423154183232
143,0.17952202695260328,0.17938050132571193
144,0.17977126819386088,0.19533365086344348
145,0.1777538145802242,0.1642716477589054
146,0.17910011560260822,0.16931041244832004
147,0.1804839491510658,0.1722053032553657
148,0.18067874598036185,0.15913438077225117
149,0.1811882135459035,0.15927568756061553
150,0.17989464534772673,0.17640672123093443
151,0.17856761710130148,0.16171582994634182
152,0.17778811923010077,0.16199650279677752
153,0.17949049709607467,0.16832137346597006
154,0.17984765392842053,0.17201229720578573
155,0.18015962892727885,0.17373374183298382
156,0.17966927028447985,0.17741785206094726
157,0.18041641204703532,0.16877007081034434
158,0.1793023082051727,0.16400034957357346
159,0.1804782085829406,0.16314553661711495
160,0.18045757781210944,0.1687526677124314
161,0.17926661574023423,0.16933150139020575
162,0.18251021299287856,0.16160192517615155
163,0.18035506518434086,0.15867795624668052
164,0.18113160716722623,0.16936055957189017
165,0.18197125028506173,0.1703898205518158
166,0.17992786302578917,0.18533146045014157
167,0.17990181415820483,0.1628472066080843
168,0.18006004585469845,0.1636973493971407
169,0.1804422862309632,0.16676280049470435
170,0.1792212880784564,0.17718769043048913
171,0.1761786730276595,0.16473880519571507
172,0.17772821835476718,0.17407429340606426
173,0.17733748941470107,0.1680976204403574
174,0.17828094612041728,0.16761917401555024
175,0.1776748658965627,0.15605349709950947
176,0.17773200139153203,0.1608855027261454
177,0.17730218679201212,0.1645366946895384
178,0.17666543335270443,0.16808714485347223
179,0.17705625350431478,0.17012701407604172
180,0.1776613989393774,0.15804573007357242
181,0.17573167639468118,0.1855140588560157
182,0.17604730445608724,0.15694819274928123
183,0.17549822441965557,0.1674229665214656
184,0.17621006563210564,0.1515949945646943
185,0.1770007468813615,0.1776792851365638
186,0.17620325813309656,0.15611094755621152
187,0.17690673961246806,0.1697518406369692
188,0.17615751120493375,0.1702608012645002
189,0.1740355089747553,0.1558006888030548
190,0.1757280494180991,0.16686402352992813
191,0.1754058306153825,0.16383834231436112
192,0.17400948973380023,0.16279684953926676
193,0.174123003921039,0.15695096433586084
194,0.17226814707632448,0.16254989148926904
195,0.1733791592012016,0.16409263701634608
196,0.1730692998396693,0.16071590416621484
197,0.1738073567894818,0.1657770672767484
198,0.17475720196605016,0.151165928900383
199,0.17442167377014525,0.16253447169827587
200,0.1728347241908288,0.1576283819555954
201,0.17368045475461977,0.16345538582355842
202,0.17200791006155913,0.1633048363812062
203,0.17424051167605686,0.16491427738881054
204,0.17291339557710217,0.16059031466870394
205,0.17373166079048535,0.16546131308236833
206,0.17486753481493103,0.17534863969991785
207,0.17528842657590085,0.16163511908280162
208,0.1736270365037983,0.1609621783387689
209,0.17476320336107537,0.1619296912589032
210,0.1750798846492998,0.16777508178374478
211,0.17379802514275583,0.17052322873094464
212,0.1727755939919981,0.16815396247177306
213,0.17530841827928592,0.17119106449239727
214,0.17510167172820354,0.16870779002521955
215,0.17440269144771578,0.18220796735388328
216,0.17557819556298968,0.17893385975353343
217,0.17472976888064667,0.15703000764538194
218,0.17381333369169114,0.16083778277474683
219,0.17408395110727024,0.16330374133403414
220,0.17505069105304497,0.16312693166469341
221,0.1753101287890586,0.1572531704403513
222,0.17475761433275674,0.16561259743305484
223,0.1767404492465045,0.1699516076738663
224,0.17410895100933946,0.17980787508489582
225,0.17595598018236108,0.16830420501136178
226,0.17461503553185626,0.1666307251991582
227,0.17525336287504764,0.15810758435853184
228,0.17569305312385758,0.16599939101402836
229,0.17604043718269594,0.1586463975219531
230,0.17791291679457413,0.1661248697525136
231,0.17632604631588614,0.17917877592105233
232,0.1776734512540505,0.16727734478844747
233,0.176747079167387,0.1675349328469929
234,0.17579313729116194,0.15883629841416863
235,0.17648429482532063,0.1612952406141075
236,0.17584663924934577,0.17386312222941805
237,0.17573760138105432,0.1726651724601413
238,0.1771222987293387,0.16262575600593224
239,0.17660523130358172,0.16394977524417917
240,0.17628705615310264,0.16004012640339235
241,0.1767277935271164,0.1699670227781091
242,0.17695933054510257,0.15982643431368643
243,0.17607516704572382,0.17742107188786307
244,0.17668134740573896,0.1596626240433721
245,0.17602165058243285,0.16620701611418373
246,0.17673108724357603,0.16652471415151643
247,0.17772729230894269,0.15385313641982654
248,0.1768458883027188,0.16343361640315218
249,0.17720093973260895,0.1633011121493959
250,0.17823696151959428,0.17420587924492106
251,0.17677359972938264,0.17500832671007022
252,0.17869944871067525,0.1805560397132702
253,0.1771602122326025,0.16999242444770393
254,0.17736720605243406,0.1609393499597566
255,0.17724215705022156,0.16032999482273397
256,0.17899038244804127,0.16689467818227074
257,0.17906145849149765,0.17345375832884727
258,0.1771575769217466,0.16330016356170318
259,0.17681766805841292,0.1771055580291018
260,0.17716696156229048,0.1765082928615945
261,0.17745123280109548,0.17667267222807176
262,0.17790101087993856,0.1664325177857701
263,0.17879619649488576,0.16557255108570995
264,0.17830808860935468,0.17196119945399294
265,0.17863042473935967,0.15703503545241368
266,0.17925580210691924,0.15810219432508843
267,0.17757782139938227,0.16018026544408903
268,0.17781492346506134,0.1698740487646285
269,0.17935214974849725,0.17391243851034305
270,0.179901109193917,0.17173928002390978
271,0.1778803712351145,0.17898320456659503
272,0.1793867691243581,0.17353063989974613
273,0.17989271483737693,0.15775248811719167
274,0.179126068282661,0.1598797831228613
275,0.1779086106031728,0.1591946437731444
276,0.18004998243112358,0.16165445713236656
277,0.17945620341957522,0.16086539567316624
278,0.18111386326112622,0.16444848950043756
279,0.1794581929032656,0.17694752741584463
280,0.17932498516986886,0.16046739072078028
281,0.17864750663963536,0.17202912118130062
282,0.17938189253175288,0.16681806587900058
283,0.177979950296531,0.1662272500446112
284,0.1783464478729345,0.1686538767654687
285,0.1790336922501965,0.17309055266271167
286,0.1767323543663791,0.16481032326594053
287,0.17811588219387067,0.16293879885935086
288,0.17754777669191932,0.16657753752128476
289,0.17722531431596533,0.16636372814520947
290,0.1785683821645572,0.18531864361680203
291,0.17789346989777258,0.1720305432131089
292,0.17760008422852896,0.165747369885821
293,0.1769497651967118,0.16876351828639113
294,0.17775473782984758,0.17089118702071054
295,0.17660517187165223,0.15419812917403566
296,0.1755878672980481,0.1665858924153666
297,0.1764055145420521,0.1598437590246701
298,0.175829333379019,0.15908119691669612
299,0.176213464919302,0.16359303450034
300,0.17707919876138084,0.15754125164358657
301,0.17516246270373476,0.1669926020274881
302,0.17711876781224062,0.15500267913187218
303,0.17550737394703378,0.16027842284472044
304,0.17686557457696714,0.1599771137619075
305,0.17499111396827097,0.1608876818827785
306,0.17640089903541986,0.1655629873216952
307,0.1764923331858538,0.16132947228607833
308,0.17437384909779716,0.15556017744583508
309,0.17568240200372623,0.16641268216443983
310,0.17712323031694197,0.1612510842630594
311,0.1766647641107047,0.16316508935160212
312,0.17478137328732404,0.174282450678787
313,0.17545992840858674,0.1666943847180448
314,0.1762253079745028,0.17189377713316337
315,0.175744114915649,0.16376768942884132
316,0.17562632995853417,0.16428110864375084
317,0.17583203402688083,0.16097873488136794
318,0.17621572709960237,0.17185102222044824
319,0.17593873359507126,0.15848191211260296
320,0.17638747271993083,0.16951628793810142
321,0.17387189370670098,0.16728949217506536
322,0.1748784441265652,0.170673369843845
323,0.17556447117067545,0.1698569634013413
324,0.1759321098681167,0.1613043343858542
325,0.17539513865106113,0.16850537255747447
326,0.17642070739556084,0.15798325111594083
327,0.1743140857365968,0.16722491561143343
328,0.1757341807516073,0.16880588008836206
329,0.17569548766509138,0.17845727818493967
330,0.1771626653883764,0.17972289039896713
331,0.1767328967817491,0.16608287588102946
332,0.17771149942462297,0.1708018719597228
333,0.17609414707223098,0.1638682566718408
334,0.1751553859475324,0.1643984008348167
335,0.17545157633453823,0.16367196476332485
336,0.17400119677007342,0.17711929323029688
337,0.1756613696996066,0.16694810656035333
338,0.17722326107055164,0.17857620692808232
339,0.17633609308732404,0.1612399128025314
340,0.1753249185548412,0.16920573894160887
341,0.17538683781092115,0.15987215307559569
342,0.17472841226749664,0.15839153434125663
343,0.17417310756280555,0.164882450231484
344,0.17487703843249214,0.17504328265844976
345,0.17718510365457557,0.16907041074727217
346,0.1752165018630733,0.15986479367787385
347,0.17476825540562232,0.16549177672464074
348,0.17607390794227068,0.1683073387479067
349,0.17629979517486552,0.16295794276454453
350,0.17551800555629218,0.16968758421896382
351,0.176403233026572,0.16503777123852423
352,0.17581671365885904,0.1688768210825999
353,0.17601802236408734,0.16212327384346567
354,0.17516385649534152,0.16836451736132554
355,0.17557192536042654,0.16792418610748572
356,0.17663189117237627,0.17179917536481873
357,0.1740315505783621,0.1605876197284286
358,0.17568320340270713,0.16614076037668485
359,0.17533148024722542,0.16815500476507098
360,0.17758175850414828,0.16916894381123448
361,0.17522894133993094,0.16529476763746734
362,0.17463833563845696,0.16775847165812258
363,0.1752688480104855,0.16510554748839437
364,0.17399520782543887,0.16809678557545724
365,0.17517309336901474,0.171943358071413
366,0.17536953557952703,0.16020012105320416
367,0.17605216030498966,0.16058423407169994
368,0.17576295971798955,0.15555793628531736
369,0.17543559167668116,0.16442880935337756
370,0.17493616383698443,0.16386924427070293
371,0.17590772842974972,0.16936960388283703
372,0.17515380491765378,0.17576434333303734
373,0.17523837190785474,0.1686650818271155
374,0.17454756655805498,0.17101580770164376
375,0.17548738282432946,0.16607854795813468
376,0.17519664828130285,0.16921055735615922
377,0.176696357800425,0.1758138204453588
378,0.17537947807261509,0.16247722440661647
379,0.17501417073986228,0.16197156060513493
380,0.17502645196483957,0.15521755606382967
381,0.1765227434243992,0.16335905170407744
382,0.17660486182387022,0.1752729248887644
383,0.17507183980598723,0.1724563646876351
384,0.17606606897857072,0.16733499137124586
385,0.1765985759280378,0.16536324494169186
386,0.17718505528833656,0.16378834893031674
387,0.17554279094596179,0.1596448176849895
388,0.17641442023712,0.17054026293397043
389,0.17689611826785845,0.16807549860219648
390,0.17579208160761736,0.15554707052205244
391,0.1761257120733448,0.16005028322068554
392,0.175925835865817,0.17547890077026793
393,0.17572168412087538,0.1632709694877796
394,0.17610562604060656,0.1760026584390401
395,0.17426979363107567,0.1609389125101192
396,0.17620849886910617,0.16738213585791104
397,0.1755570461281198,0.17646484936704387
398,0.17656703214708278,0.16591057945822013
399,0.17662391682668366,0.15956860727791533
400,0.17563698818083767,0.15706933062191356
401,0.17581506937051372,0.16481521265800297
402,0.17484486818932993,0.16480405380524513
403,0.17630735126664218,0.16188640490280143
404,0.17631736227410208,0.15884939551165278
405,0.1752939736552471,0.16431187683659082
406,0.17645088885780527,0.1565329016031199
407,0.1773529344504114,0.170190729488984
408,0.17658007295607187,0.16609651714728024
409,0.17520670027588958,0.15767097846555633
410,0.17508252814924308,0.16504022741327157
411,0.1763694838499375,0.1669305522868082
412,0.1756576402224511,0.1667912363794345
413,0.1762844350972145,0.16955356453946
414,0.17555836401730895,0.16254659149951603
415,0.1767872433147604,0.15989975075530743
416,0.1769722450396521,0.16091960132263172
417,0.1778699552281488,0.16570124700489058
418,0.17682284783187815,0.15968245443106638
419,0.17570845854225203,0.16747068889562597
420,0.1762164904952621,0.17252904604811695
421,0.17496762820165887,0.161119122284552
422,0.1755736406436927,0.17496386498518599
423,0.17674798175966522,0.1745015810983992
424,0.17565256297635995,0.1650141381203611
425,0.175722333458926,0.16290152926753615
426,0.17629800755962385,0.1729920322770854
427,0.17733677093693012,0.16354909446310978
428,0.17598017424249726,0.16625338562285702
429,0.17793111020712543,0.16281115735315768
430,0.17869654005999377,0.17799780182040575
431,0.17693140803814697,0.16596482786472708
432,0.1773596348629581,0.16888258108117962
433,0.17759059058974305,0.1615553194305609
434,0.17712535648990116,0.1685813875441111
435,0.1761942426208779,0.15929460487877561
436,0.1764812171399641,0.16696924493363643
437,0.17722696210030647,0.16670922413997605
438,0.1779480474017602,0.1715992239510439
439,0.17610185775015472,0.1770054175214873
440,0.17723821917121454,0.16847845708514728
441,0.17622992329650836,0.15836413178795797
442,0.17780864127962995,0.1611605935510257
443,0.174257344985418,0.16887183179277648
444,0.1767366700690332,0.16470239468465758
445,0.1763390303432322,0.16335905248618257
446,0.177460258616675,0.16614626891375905
447,0.17706827485828186,0.1626196558621801
448,0.17747475655316164,0.16421313034025062
449,0.17630823610497892,0.16926281232954296
450,0.17631415242283083,0.16176087271654427
451,0.17582329216716197,0.16763427540742232
452,0.1783048199842588,0.1641556450416464
453,0.1770033617790559,0.1637010454966877
454,0.17613246758207143,0.1686383441690394
455,0.1767646853002808,0.16686803894007216
456,0.17689495570630098,0.16340258922177972
457,0.17664575532710047,0.1618719172811734
458,0.17804992577131037,0.17238030283349465
459,0.17513029497090005,0.1692784225013939
460,0.1779818781714836,0.162506632718545
461,0.17669228395278885,0.16987178241209241
462,0.17682681423273208,0.16836241447464537
463,0.17663901132478607,0.1709211299691317
464,0.17655542291266074,0.1658476074097565
465,0.17585662769661436,0.1630910051591112
466,0.177413802424209,0.16443609843220217
467,0.17648384688521843,0.16280083493539077
468,0.1770752261725547,0.16581513776187362
469,0.17744267762279053,0.1709603497077841
470,0.1775058103825072,0.16196833158113302
471,0.17549065593406737,0.15928528051538174
472,0.17657697490817734,0.16027249019495973
473,0.1772656709902721,0.1727402973993613
474,0.1777774270335071,0.17592083118803029
475,0.17737918539787179,0.16744854760480474
476,0.17705801720146558,0.171374664392731
477,0.17809665166764713,0.16095045564112553
478,0.1789240187568535,0.1623898511245294
479,0.1777327199765056,0.15844963667377676
480,0.1774057698317712,0.16487591066224988
481,0.1766081868017987,0.1620067248287028
482,0.1773604697657289,0.17204592686849215
483,0.1769144469968897,0.15927647859822508
484,0.1765935723956445,0.16585867526781492
485,0.17897490491207652,0.1711389951425551
486,0.1764760017305684,0.1631348906842008
487,0.1764721092607954,0.1711085702997545
488,0.17594884684998735,0.16670134047306515
489,0.17647974001918193,0.16499661345508218
490,0.17695380359006632,0.16695310778757108
491,0.17592786455587994,0.1591039109789864
492,0.1770073893985493,0.16454727294389526
493,0.17569055510081832,0.16966127911795756
494,0.17639458747052078,0.16179933340745173
495,0.17665055359034038,0.16248489127162882
496,0.17715801971612408,0.1649384131653627
497,0.17725310333186298,0.16868384591735247
498,0.17716566679908408,0.16235824905471155
499,0.17677131118319875,0.16944309668034763
500,0.17733725727938537,0.15834664923286665
