epoch,loss,val_loss
0,0.33678797630669116,0.28873561323865155
1,0.30969218945474647,0.2759918028102113
2,0.3168380331459472,0.288582192435449
3,0.28624462943187623,0.27423739842570666
4,0.2995233280922202,0.33518784175073435
5,0.3122638313771247,0.40446755174773835
6,0.3002743010255073,0.2779465468031455
7,0.3170589505315875,0.2932111742276325
8,0.29064710532351556,0.29182740554342895
9,0.299852769687879,0.3634799660757572
