epoch,loss,val_loss
0,0.2817809168043897,0.14153412756551978
1,0.126863151362879,0.1222158274844865
2,0.11776119485783348,0.11384371312918772
3,0.11278661149892685,0.11129842365150294
4,0.11067643395657066,0.10854918405049037
5,0.10949308587480887,0.10926579809273522
6,0.10927660131066157,0.1094015938506977
7,0.10951848332580331,0.10731219686714795
8,0.10895251050639114,0.10881535840627238
9,0.11207817828388428,0.11156077365425504
10,0.11415971187855319,0.11567370491815347
11,0.11938579381703378,0.11957041040098187
12,0.12160126526924156,0.12461416225148264
13,0.12431695355440406,0.12481061258627471
14,0.12547117026506377,0.12528127871730146
15,0.12501006233070394,0.1227161835970235
16,0.12430474491451951,0.1256311541068902
17,0.12474451017239206,0.12414699253621023
18,0.12400353558772474,0.12205528686059773
19,0.12518898037662038,0.1237874636522126
20,0.12493163055712751,0.12281817851122101
21,0.124590412312322,0.12263920919083195
22,0.12355314817526739,0.12349186544236745
23,0.12405648935350964,0.12203374652055275
24,0.12408649100126218,0.12363514043655373
25,0.12372217393762393,0.12227273130261625
26,0.12340023050562655,0.12078279403832924
27,0.12163747883707786,0.12162976489117885
28,0.1219331244740793,0.12043976083386104
29,0.12158819153118762,0.1205354245833835
30,0.12030547793260772,0.12036039629082278
31,0.12156678029566075,0.12085380645699641
32,0.1226848785956796,0.12092629076814501
33,0.12161463729852585,0.1209393020398803
34,0.12229184721180385,0.12173951673597073
35,0.12348811421022236,0.12194531810805849
36,0.12275709397346377,0.12170961854983806
37,0.12251559238460996,0.1224365415670501
38,0.12271348468596034,0.12306942531417088
39,0.12232860013675823,0.12178497386900759
40,0.12203107610178127,0.12078308749241252
41,0.11999292470675578,0.11726985473682679
42,0.11933243941131541,0.11763166246352087
43,0.11947955889739006,0.11745078528289637
44,0.11896321813253571,0.11498825060352154
45,0.11874463719477375,0.11784279906288694
46,0.11750404720755218,0.11885087115024147
47,0.11719625610277522,0.11773877314511677
48,0.11619598471777712,0.11211821720909677
49,0.11544941697153542,0.113336470469115
50,0.11530980079782475,0.11512377169556569
51,0.11494491953882191,0.11397653997485432
52,0.11574332481570286,0.11550492836837234
53,0.11467770567174247,0.11033653299711592
54,0.11314680142034825,0.11290397567949431
55,0.11317529851238695,0.11059646585981207
56,0.1131549186849718,0.10922541785117859
57,0.11124368159355019,0.11077145380633217
58,0.10998192721669622,0.10663483972825116
59,0.10946009908136513,0.10721582314256806
60,0.10931524392559851,0.11030429132406225
61,0.11102835004992909,0.10941086241412369
62,0.10999815468843892,0.1060318667338698
63,0.10986061014240975,0.10721480554732735
64,0.10863873186252482,0.10818201316419133
65,0.1093478185339845,0.10778805894605174
66,0.1082074467083819,0.10692258712548201
67,0.10855008562584575,0.10502444155919995
68,0.10863407961220192,0.10732985785394178
69,0.10925130149741158,0.11043331161694162
70,0.10851959815973954,0.1072127915089678
71,0.10868780928061639,0.105804668846757
72,0.10952281697893695,0.10743528222863657
73,0.1101985842787581,0.10835947379787418
74,0.10950586510350188,0.10759251444191094
75,0.11078500447811174,0.11054060844544265
76,0.1120042968496716,0.11844759699083636
77,0.11324224064497353,0.1115741456117137
78,0.11389104108647001,0.11345253237350399
79,0.1152406310905322,0.11621680111281027
80,0.11719133318971386,0.11696235914350779
81,0.11685785728928855,0.11919024543161927
82,0.11758874363297943,0.11886373044071746
83,0.11899430088573794,0.11969906563893395
84,0.11904037205411566,0.12036132139183917
85,0.12047797665119075,0.1201150174757676
86,0.12029154617771161,0.12197154136440748
87,0.12180665264920079,0.12238013417987063
88,0.12261789128017558,0.12315831919095604
89,0.12287659945486071,0.12184088593664937
90,0.12264733990843443,0.12153104402789378
91,0.12155466682190517,0.12175849564050066
92,0.12208356819064212,0.12160742696265865
93,0.12235671477757103,0.12133061477727747
94,0.12330249660938002,0.12246487132658052
95,0.12378512034051234,0.1239314682093679
96,0.12348266741592917,0.12613049882222277
97,0.12363937435497482,0.12334635963144505
98,0.12415003340890844,0.12325976121562056
99,0.1234912195062037,0.12363947002362716
100,0.12278480913868244,0.12309869536990337
