epoch,loss,val_loss
0,0.7097144106201128,0.7067399545579631
1,0.681265808290389,0.6580634292242841
2,0.6577602588102243,0.6580822747043581
3,0.6575739743103397,0.6574655091792123
4,0.6574158685186006,0.6570411899249547
5,0.6573404237452272,0.6579235784469112
6,0.6572519770438287,0.6572692318826396
7,0.6571410724898413,0.6572525338558642
8,0.657094765023584,0.6567840694789555
9,0.6570071930726665,0.6570239098728738
10,0.6570434493606849,0.6568469087184216
11,0.6570085908951021,0.657889512306999
12,0.6568904732940318,0.6568068504629301
13,0.6568805225028537,0.6565862524893976
14,0.656775803304309,0.6576128812640831
15,0.6567654069427544,0.6572021603584289
16,0.6567724057267543,0.6565259367893115
17,0.6567456541807191,0.6566365592532951
18,0.6566595990879845,0.6565227806124438
19,0.6566744470498184,0.6565786819895799
20,0.6566800064172625,0.6565832123567094
21,0.6566449906790648,0.6565646754009257
22,0.6565917315226377,0.6564815927971681
23,0.6566152969183642,0.6564559124243762
24,0.6565482038260847,0.6564471766907287
25,0.6565482576454638,0.6565369009675814
26,0.6565214922665379,0.6578596118661961
27,0.6565129129414687,0.6564500232192482
28,0.6565160494484548,0.6567671585911261
29,0.6564739663865558,0.6567648411684534
30,0.6564782404515911,0.6563198801601495
31,0.6564597559935066,0.6562722427081825
32,0.6564917334843094,0.6565062676115012
33,0.6564286832901836,0.6562508226032588
34,0.656415246915048,0.6569947903564491
35,0.6564235208445053,0.6566286561506853
36,0.6564104466211679,0.6562500776487308
37,0.6564093857466818,0.6563383676278088
38,0.6564014208146258,0.6562490461186203
39,0.6563831095855722,0.656262696913395
40,0.656390277311322,0.6581598318244328
41,0.6563906113413962,0.6562807533936228
42,0.6563510909313494,0.6563699747433438
43,0.6563873090479729,0.6564933879203891
44,0.6563519204267588,0.6571075468737789
45,0.6563562865117546,0.6566418007644766
46,0.6563162047471338,0.656236860769854
47,0.6563354986273174,0.6564300281829929
48,0.6563208103195708,0.6567133910898535
49,0.6563606874605887,0.6562041433218395
50,0.656333558518651,0.6566024329467092
51,0.6563464640447754,0.6568563856498775
52,0.6562982522905385,0.6581006830738437
53,0.6563043149074742,0.6562316544298499
54,0.6563190831550668,0.6561828823006775
55,0.6562962913749516,0.6561557832781789
56,0.6563142890321895,0.656722759727213
57,0.6563090345933709,0.6564159571680774
58,0.6562940901578529,0.6565467458800701
59,0.6562580657845254,0.6563640935545227
60,0.6562792961305671,0.6561146699465238
61,0.6562922595519455,0.6564614143324253
62,0.6562897814948143,0.6563439572123677
63,0.6562705699919557,0.6563702786235005
64,0.6562783275379325,0.6563787367740281
65,0.656261152376043,0.6563915712957642
66,0.6562655927820618,0.6561265380151811
67,0.6562667907146521,0.6562653913095631
68,0.6562644304264104,0.656540325143497
69,0.6562492855315132,0.656138902828652
70,0.6562184083337285,0.6561922320361173
71,0.6562440746612517,0.6563506287321559
72,0.6562235080360147,0.6560911446587915
73,0.6562645882062417,0.6562017212730483
74,0.6562176633210264,0.6561492011505676
75,0.6561937061380165,0.6560605944534094
76,0.6562627905307548,0.6562744544694205
77,0.6562190218787514,0.6606810775643247
78,0.65619726147016,0.6561022637203965
79,0.6562164272541161,0.6565218813366097
80,0.6561771752925477,0.6564348469596939
81,0.6562067780942619,0.6561966965867035
82,0.6562469010601664,0.6561051730482513
83,0.6561935643729745,0.6569432384618754
84,0.6561974325819762,0.6561235794654259
85,0.6562336563016462,0.6560233345990145
86,0.6561953716792644,0.6561675575767498
87,0.6561997309629838,0.656187822564364
88,0.6561883310211104,0.6561338169403171
89,0.6561820292488301,0.6567451311104351
90,0.6561775303890668,0.6565937206112126
91,0.6561877441692436,0.6560306079630225
92,0.656203060657931,0.6565678694112129
93,0.6561850394675826,0.6560765189509238
94,0.6561701815649363,0.6563961003909335
95,0.6561999364266888,0.6560093864317863
96,0.656161723967885,0.6565556879670685
97,0.656194433718405,0.6561744721296703
98,0.6562281695600333,0.6563454065370204
99,0.656155568164312,0.6564317709163164
100,0.6562063416143412,0.656370016333483
101,0.6561877720030453,0.6561246855383179
102,0.6561722738464435,0.6562744330235806
103,0.656174952692684,0.6560788968064944
104,0.6561762606470822,0.656198336794122
105,0.6561727388496016,0.6562075996517248
106,0.6561589510239108,0.6569046363937056
107,0.656170693949058,0.6560958919690797
108,0.6561836781521143,0.6560859911199243
109,0.6561643850008079,0.6568627677543584
110,0.6561803104750913,0.6560381575790292
111,0.6561823271071888,0.6563028178794804
112,0.6259723667103833,0.6069392283560324
113,0.6070563462229518,0.6070520471698297
114,0.6070386450996302,0.6070344468204318
115,0.607058408665456,0.6070113536737692
116,0.6070339509197034,0.6076654290147219
117,0.6070686778742215,0.606995008571568
118,0.6070378900822206,0.6070891842948591
119,0.6069815194325485,0.6075348096804938
120,0.6070224481856321,0.607720950667379
121,0.6070631445475726,0.60690291750224
122,0.6070443178627004,0.6072290590915728
123,0.6070232681906499,0.6069472874364545
124,0.6070255008764706,0.6070885549408035
125,0.6070025103069254,0.6068524231981699
126,0.6070577520725027,0.6074534641601903
127,0.6069782683971793,0.6069532373998656
128,0.6070143688395729,0.6068288824398523
129,0.6070339205293096,0.6072642273110137
130,0.6069971157738029,0.606931026165302
131,0.6070649347031606,0.6073992361501783
132,0.6069992298246009,0.6076383982639455
133,0.607033608692127,0.6083532044077038
134,0.6070045995514443,0.6070781476444406
135,0.6069819428794502,0.6068414600847969
136,0.6070378290987042,0.6069021303659633
137,0.6070310815154549,0.6082301001394949
138,0.6070352892092775,0.6069337550818772
139,0.6070163492052957,0.6083144165446089
140,0.6070017839523759,0.6071877006265721
141,0.6070081648764629,0.6068691121141608
142,0.6069820163453834,0.6074755586702238
143,0.606986058651127,0.6069191901914535
144,0.6070087175925797,0.6080174628025841
145,0.6069833900288883,0.6069004593356964
146,0.6070361362056286,0.6069180251351065
147,0.6069838186844224,0.6069205776929264
148,0.6069888337415027,0.607834170266949
