epoch,loss,val_loss
0,0.46642045157955103,0.4627701252624947
1,0.4622863013582234,0.4664647728130776
2,0.4621010599743309,0.46511750799550605
3,0.46156346713380736,0.46095126675021264
4,0.4614468741241969,0.46051749538251247
5,0.461062317670044,0.4611088175040025
6,0.46090364317776855,0.46181448279480186
7,0.4607356494648502,0.46250531791753274
8,0.4606893678236436,0.46035645000692044
9,0.46063520649943496,0.4604272073758743
10,0.46044243009049624,0.46003818389203943
11,0.4059720983149298,0.3630711996082041
12,0.36228897968983237,0.3617085841837947
13,0.36224949739832885,0.36192782676545326
14,0.3621658657833105,0.36513852354314724
15,0.3621439222364289,0.3616269144763426
16,0.36206741670649933,0.3624109349978473
17,0.3619642352925654,0.3667904588336093
18,0.361870319818665,0.36201395666037245
19,0.36181211884351394,0.36214537000833613
20,0.3617902843489705,0.36316485501104784
21,0.36182540263246277,0.3618856464810762
22,0.36174578373148275,0.36328962474839566
23,0.36172964760418835,0.36145766760516107
24,0.36172505915523867,0.3619581260988789
25,0.3617177980507719,0.3632775236152242
26,0.36171159631925676,0.3617981331224181
27,0.36157159235976905,0.3612441425140087
28,0.3615673581644755,0.3620650929049878
29,0.361559060684159,0.3655107230169897
30,0.36152077733060733,0.3615614678368675
31,0.36165841380419067,0.36135267820902556
32,0.3615503070197832,0.3615389273716853
33,0.361560902288303,0.36120979870223524
34,0.36159977613889627,0.3615154841105932
35,0.36150213031830897,0.36129551398251253
36,0.3615425295409075,0.36478892403560004
37,0.3615225165823252,0.3612646527089197
38,0.3614850125547119,0.36122342593616646
39,0.3616291562887342,0.3612753235968408
40,0.3614817057992821,0.36431501336192373
41,0.36143058336418,0.3618043121865606
42,0.36145713267400065,0.36170513659493797
43,0.36140727184845906,0.362329805252274
44,0.36148994001360796,0.3611898242687765
45,0.3614178451532419,0.3614015906531521
46,0.36145076507677104,0.3617563202570449
47,0.36142219285893595,0.3627057860566132
48,0.36141344428171296,0.36118313747067604
49,0.36135846503262636,0.36113210912082094
50,0.36138038416527635,0.36117849938626917
51,0.3612959122782726,0.36143650986420606
52,0.36139292740155754,0.3613795598298681
53,0.3613381723153475,0.3614729025671559
54,0.36138145959916373,0.361260077409058
55,0.3613708020416169,0.3610455695511981
56,0.3613258196970252,0.36151552720933633
57,0.36133205992769324,0.3610789248132824
58,0.3613448070283303,0.3646161290463384
59,0.36137825416555613,0.3624167927441467
60,0.36124349403712025,0.3613457348890991
61,0.36130256082887907,0.3611518211163599
62,0.3612427142911309,0.3612380834726187
63,0.3613127885602709,0.3611485759910224
64,0.3612771968576128,0.3622955768930705
65,0.36123850319390927,0.3619647885374632
66,0.3612078646470135,0.3608887134947197
67,0.3612288890233169,0.36294847102674005
68,0.3612897705722421,0.3609499950562754
69,0.36126634608370706,0.36092243215286407
70,0.3612234626881926,0.36200095085293127
71,0.36117657765181516,0.3618061211357637
72,0.3612371256206926,0.36129926301113724
73,0.3612328333029624,0.361685325105492
74,0.3612897423440263,0.36117410962989843
75,0.36123177534911266,0.36106431648394016
76,0.3611540100854559,0.3610299223557891
77,0.3611595355242176,0.36115713249660897
78,0.36117343158068205,0.36087669129702943
79,0.3612058575210841,0.3608271151263424
80,0.3611179930687399,0.3622611683592311
81,0.36116101879173085,0.36082954746913676
82,0.3611326506717447,0.36083058145442615
83,0.3611456169325101,0.3609773033458009
84,0.36112251658569383,0.3612937652295636
85,0.3611754273577407,0.3609340919750204
86,0.3610710471285177,0.361604052989122
87,0.36108289364060714,0.36120758447102813
88,0.36114431909049444,0.3609009484499323
89,0.3610931735659975,0.36136009883939774
90,0.36110281026788865,0.36079259785469947
91,0.36110124575580765,0.36087364240852243
92,0.3610382046126961,0.36104255317162637
93,0.36113324529396323,0.36140126259096206
94,0.36113653865745726,0.3609795666953766
95,0.3610800661499543,0.361002588982026
96,0.3610218358181687,0.36112106747130307
97,0.36112293021878433,0.36076254220517634
98,0.36110527237609763,0.36085859012071314
99,0.3610901612036045,0.3608037318248607
100,0.36104872972836094,0.36367211696823537
101,0.3610457822273635,0.3608898693367506
102,0.3610277577562788,0.3623952672883831
103,0.36118214483575756,0.36076647021042796
104,0.36098342757931445,0.3609316006635614
105,0.3610296911113929,0.36096467063681364
106,0.36104516057121505,0.36085045374652586
107,0.36104821276785265,0.3612810478021134
108,0.36102526458007267,0.36083438176079363
109,0.36104492276831635,0.3614891039970199
110,0.3610304440979645,0.3623224242449398
111,0.3611208837654325,0.36116145659912907
112,0.3610606647126562,0.36274005962956335
113,0.3610102228887473,0.36085251148226244
114,0.3610568231147726,0.36113596591109376
115,0.3610677452993198,0.3630324289313617
116,0.3610306057505477,0.3615032325459473
117,0.36108134244867846,0.3611337520940132
