epoch,loss,val_loss
0,0.663495275512683,0.6603314389957684
1,0.6583422470898325,0.6578408575827076
2,0.6579877591106613,0.6587489231052824
3,0.6578175194339723,0.6571929840828585
4,0.6577266788031771,0.6572158972619485
5,0.6575195907227527,0.6580881431735774
6,0.6574809514779376,0.6570119499568607
7,0.6573055027886774,0.6569555032637812
8,0.6572427851242745,0.6587714743081748
9,0.6572108774558075,0.6567265819970787
10,0.6571198183787736,0.6567502442423818
11,0.6570484069019374,0.6568019667866803
12,0.6569937196336509,0.6574285398050218
13,0.6569600536530112,0.6573675972652199
14,0.6569440147933566,0.6570520541804008
15,0.6568772943127369,0.6567096895378813
16,0.656864601042128,0.6567202300055152
17,0.6568464756507347,0.6569378844857512
18,0.6568606641459142,0.6568112175162909
19,0.6568462896411099,0.6565607820196128
20,0.6568298247961045,0.656543024331701
21,0.6568318508539098,0.6566116287749695
22,0.6567891681579727,0.6567718041446013
23,0.6567673706081962,0.6569332101208992
24,0.6567847859793047,0.6565650274676661
25,0.6567611464100662,0.6567345997535857
26,0.6567813182323298,0.6565359903328472
27,0.6567401989567354,0.6565323730556308
28,0.656702162047695,0.6566056534610966
29,0.6567187542411188,0.656547871623974
30,0.6567254928924668,0.656559405374172
31,0.656712939945711,0.6572451085074072
32,0.656710456829036,0.6564932281858572
33,0.6567014324400181,0.6567692864029934
34,0.656732973883967,0.6566954227890034
35,0.6566636431110071,0.6567414691075498
36,0.6566667429114522,0.6565544947796956
37,0.6566503008470154,0.6566175183646437
38,0.6566508892781161,0.6566096019212425
39,0.6566249992712679,0.6571394149186298
40,0.6566886566792819,0.6565070660770975
41,0.6566560054519232,0.656589535655218
42,0.6566292803694952,0.6564465608549473
43,0.6566062008879726,0.6568704113179342
44,0.6566544478941512,0.6564454797183905
45,0.6565950083534767,0.6569556061446519
46,0.6566376032047209,0.6565973717876463
47,0.6566386299513453,0.6567196290487095
48,0.6566092568871563,0.6567687275983559
49,0.6566153385337826,0.6572021642926313
50,0.6566135642020876,0.6564097625741888
51,0.6566164417746516,0.6566286897836785
52,0.6565682513613719,0.6565585941889741
53,0.656601920654301,0.6566482530929906
54,0.6566004921298846,0.656426901202048
55,0.6566388483802299,0.6563960633561866
56,0.656584526103523,0.6571247777927011
57,0.6565839309642276,0.6566418743902637
58,0.6565367946044368,0.6564153172833748
59,0.6565905431806202,0.6565461376168887
60,0.6566022260144156,0.6590917041816428
61,0.6565836177150426,0.6563779584231507
62,0.6566043833537367,0.6568679754254836
63,0.6565794104164229,0.6567638220621398
64,0.6565547999511715,0.6564455476647275
65,0.6565734271374573,0.6564672714723251
66,0.656608502993038,0.6564936941669833
67,0.6565982130112717,0.6565916603611361
68,0.656576376544658,0.6564107764743398
69,0.6565577223086656,0.656992562621758
70,0.6565966111852521,0.6567449614072852
71,0.6565888197788264,0.6567884794239962
72,0.6565230138482239,0.6569666818117089
73,0.6565704767434325,0.6567094263308693
74,0.6565457585281983,0.6565948411489538
75,0.6565920133378094,0.6563936901447495
76,0.6565912979684808,0.656604642933119
77,0.6565268776626638,0.6563605704023584
78,0.656605742690035,0.6563756798396335
79,0.6565529957473427,0.656630444437931
80,0.6565700820816593,0.6571028281086432
81,0.6565172904707834,0.6572676114941354
82,0.6565590142277651,0.656926832157684
83,0.6565328076862625,0.6564940073354073
84,0.656549501576202,0.6567248726601045
85,0.6565204445489168,0.6566764878575915
86,0.6565274035688778,0.6564943906982839
87,0.656519136128321,0.6565553988475658
88,0.6565470644639854,0.6565282124147818
89,0.6565562731264173,0.6563868376516526
90,0.6565354874656868,0.6575970132356838
91,0.6565964324699214,0.6574590994169931
92,0.6565518584740604,0.6565843075439889
93,0.6565102576338606,0.6565308602808723
94,0.6565222325880788,0.6570102456781468
95,0.6565294286138278,0.6612117885360055
96,0.6565951830150195,0.6584077383389249
97,0.6564979884372719,0.65696636958986
