epoch,loss,val_loss
0,0.5266728591015579,0.5110630946478831
1,0.5117615197447025,0.5123363853979939
2,0.49727628670812396,0.46176220143107566
3,0.462225398654899,0.4613854585155364
4,0.4620389956647417,0.46267583157229364
5,0.4617998083994161,0.4622090679096525
6,0.4615824731382527,0.46286820433571674
7,0.4613473450769475,0.46139083606729436
8,0.46124279728800155,0.4617398047269722
9,0.46096131632078163,0.460335783449651
10,0.4608825381560124,0.46296815873671404
11,0.4607032276034786,0.4605324114818431
12,0.46061846149382507,0.4601285731230421
13,0.4605060609733744,0.46023534342609623
14,0.46037283521037364,0.46041270763643327
15,0.4603289042964172,0.45990945075640904
16,0.4603466415839602,0.4597669169417682
17,0.46021704013297043,0.4600134935183797
18,0.4601188718190341,0.46007029000050376
19,0.46007767760713086,0.46288546427307886
20,0.460133522246858,0.4617647311379833
21,0.460105221786241,0.461064784151153
22,0.4600289205738491,0.46029061951649103
23,0.4599576115105732,0.4598027192481398
24,0.45999477939878586,0.4596213373593598
25,0.45999467301189806,0.45963650578008985
26,0.4600074262373914,0.4618473277937981
27,0.45995010808834974,0.4608450931147961
28,0.4599175926380385,0.45945331908337234
29,0.4598485399459376,0.4610703177398843
30,0.4598960924926502,0.4596419056355214
31,0.4598287316902355,0.45963836375892014
32,0.4598055094099116,0.45946383273631114
33,0.4598263563523356,0.4599852635901856
34,0.4598332477129275,0.45982873566984833
35,0.4597820476918426,0.46046902089201786
36,0.43908583816912017,0.4117086134388784
37,0.41064618088610566,0.41103535263473284
38,0.4107055988412864,0.41234406139655383
39,0.4106561536315549,0.4103021552337902
40,0.41060981856143924,0.41042860246473745
41,0.41062628545700336,0.4102902997516225
42,0.41062237691837306,0.4103843158291232
43,0.41061673979416485,0.4102990881385046
44,0.41063248469700475,0.4106805732912816
45,0.4105407749818813,0.41059945383971147
46,0.4105669482470622,0.4103021711480825
47,0.41059593182931803,0.4115197643156975
48,0.41052013644273044,0.41079922355434145
49,0.4106181128343805,0.4103710468294603
50,0.4105100247392842,0.4102435764100948
51,0.4105883668126308,0.41067710295504434
52,0.41060407318082054,0.41252441125235545
53,0.41056591564378314,0.4109255611896515
54,0.41059054487722857,0.4129394692315653
55,0.4104820766336141,0.41143923542339805
56,0.41052627338423886,0.4124199671721636
57,0.4105530825032919,0.4106576861577945
58,0.41053138172892645,0.41092437436207946
59,0.4105829880446335,0.41110495516739176
60,0.4105543906489811,0.4105967304251034
61,0.4105454777777838,0.41173844714614355
62,0.41057739250823483,0.4120748030340701
63,0.4104730921092106,0.411841401864518
64,0.410548305126842,0.41179291688774716
65,0.4105009541738434,0.4111722134478926
66,0.410565552911013,0.41196098579070706
67,0.41046134165154324,0.41029377340087225
68,0.41052693749630226,0.4108119789335331
69,0.41042553269062154,0.41075867157124407
70,0.4104986429964653,0.4101367794994089
71,0.4104737276948812,0.41041876083568074
72,0.41047028107706296,0.4103376350391
73,0.4104371208543884,0.4101893896944174
74,0.41045758191666865,0.410173587024064
75,0.4104568973218932,0.41179823440594354
76,0.41042779692562453,0.41046190982125236
77,0.4104415493380583,0.41159267659222815
78,0.4104767460969371,0.4128718981228159
79,0.4104431277485027,0.41138184518731263
80,0.4104547161895427,0.4107850535631771
81,0.41039689246554406,0.4108503990374487
82,0.4104404202831822,0.41021897828312726
83,0.410486101628918,0.4104684818471336
84,0.4103566113084342,0.41010009312156415
85,0.41049086624331155,0.41042439276468073
86,0.41048054136773154,0.4104916802854751
87,0.41043736119218643,0.4101908059924767
88,0.4103949881609991,0.4101435361074159
89,0.41036365121522944,0.41052984499162243
90,0.4103640034767001,0.41013533379836353
91,0.4104487859576933,0.4102532163595147
92,0.4103663183876019,0.41018194838729743
93,0.41048777062365566,0.41392931285922047
94,0.4103502495572101,0.4103623948085397
95,0.4104499859684515,0.4102197090538205
96,0.4102960556390162,0.4101968888905149
97,0.41043167310967893,0.40999767589509933
98,0.4103769845240494,0.41057551522408764
99,0.4103586530292115,0.41030861692452253
100,0.4104118034330552,0.41045545858721577
101,0.4105189303382747,0.4101397275333073
102,0.41033331989718225,0.4100819766965161
103,0.4104273684669031,0.41079811070752204
104,0.41034547076915223,0.4101809803812439
105,0.41035126550872114,0.41017671144629825
106,0.41040975905944876,0.4106941190458113
107,0.41038631622434835,0.4102107066522461
108,0.41035745903602894,0.41025884623267217
109,0.41035466810085636,0.410867618612261
110,0.4103914270510837,0.41019322231744715
111,0.41028719110523665,0.41015215964234497
112,0.41040648213828895,0.41016909131045376
113,0.4104062466265417,0.4119494096812776
114,0.41031935311122936,0.4119154208499208
115,0.4103265767739674,0.4110479804037818
116,0.4103823192868733,0.41004642765811894
117,0.4103186830328642,0.41048915315206824
