epoch,loss,val_loss
0,0.16639605572344446,0.06192137667910735
1,0.05373790128071674,0.04970764834213276
2,0.048234529394230584,0.04859249627227941
3,0.04795769791302683,0.04886101953679403
4,0.048016530850963246,0.04818885340910308
5,0.04798490426046766,0.04906426351326323
6,0.04789158654399961,0.04912770221093647
7,0.047948112011515644,0.0482936036532661
8,0.04791568972759967,0.04826436649593389
9,0.04797416040859968,0.04855578693237094
10,0.0477745710082239,0.048067896629094886
11,0.047853757404714085,0.047518223553496074
12,0.04785665595452848,0.04805021962090656
13,0.047743224459205216,0.04767658289789495
14,0.047747241851272916,0.048767905688205854
15,0.047735724815552376,0.047826981326328455
16,0.047834056854653036,0.04766463984947743
17,0.04776066462460944,0.0476897682321288
18,0.04782332833722341,0.047555974192899704
19,0.04768039583623838,0.04746680682629417
20,0.04772213203973955,0.047566044811032944
21,0.0477181747153723,0.04766850481022976
22,0.0476503304193179,0.048032418599068503
23,0.04768161215543223,0.049117774476944785
24,0.04764456165988716,0.047344821084058464
25,0.04765637132892315,0.04815048644732281
26,0.04765578581215285,0.04790037708693635
27,0.04765427812969656,0.047524274703947315
28,0.04763655044841204,0.04784057543399114
29,0.04762187809627548,0.04749972357369824
30,0.047625221402870475,0.04745227971717703
31,0.04761663384193616,0.047732299515696706
32,0.04756101363782974,0.047613990546778236
33,0.047599213251428636,0.04765270030289159
34,0.04756992044661352,0.04767489099570777
35,0.04759563402020388,0.04741639306955481
36,0.04756337273672378,0.04735615929469596
37,0.04754955150175104,0.04725567614270085
38,0.0475238688293097,0.048077340980943205
39,0.04754776032797867,0.047675533142255436
40,0.04754035459677998,0.04758329344317964
41,0.04751275345939193,0.047482781373875856
42,0.047514816963498734,0.04720405729424323
43,0.04751629686112598,0.0479356043552355
44,0.047604258271227544,0.04784376495874295
45,0.04749096758651743,0.047180923585498434
46,0.047501656181401584,0.047223688330392526
47,0.04748340807765794,0.048083643328277914
48,0.04742571757994681,0.04830566885415832
49,0.047537349590318474,0.047803080872277526
50,0.0474825757596609,0.04762686967802687
51,0.047419796303974734,0.04756597052868559
52,0.04747342565606871,0.04760785515537014
53,0.04738842839781615,0.04760160776709325
54,0.04750542705811614,0.047501176069384025
55,0.04746465738282072,0.047375789284118064
56,0.04740866623092279,0.047473413574243964
57,0.04745887432673233,0.048310056305251536
58,0.04740980819022532,0.0474392622885689
59,0.04740990025045679,0.047696986189369336
60,0.04742009358869182,0.047228755707240236
61,0.047464427738476526,0.04716939387671008
62,0.04738628535980372,0.04718037565909885
63,0.04745207386438271,0.04745356490410682
64,0.04740741943045677,0.04790242235069681
65,0.047467746509076786,0.04773465697466151
66,0.047369511902248924,0.04722070687795212
67,0.0473863609808145,0.04724717329255502
68,0.047415780606303665,0.047176406966506164
69,0.04740101579043696,0.047342240786872325
70,0.047407142801595914,0.047433266985129445
71,0.04732973371549762,0.04723213843254471
72,0.04738760392347591,0.047537635456132626
73,0.04737457962666484,0.047565835324463734
74,0.04745846902646369,0.047623688403602274
75,0.047337995693206694,0.04734671716861304
76,0.047413941246452186,0.04737483392210108
77,0.047357138240342135,0.0477949972628324
78,0.04737074106490965,0.047867265430697324
79,0.04738225922923532,0.048961435333658786
80,0.04735843236479971,0.04722257843498367
81,0.0473626200928629,0.047210015024293006
82,0.04735938034248914,0.04753539036450748
83,0.04735978233734433,0.0472365789932817
84,0.047356664081759973,0.04751960404846456
85,0.047423092908948826,0.047235545802982004
86,0.047288690987739156,0.04724987079672392
87,0.04737376542441803,0.047496476561277985
88,0.047359678265955045,0.048439973128787533
89,0.04735414862638707,0.04728366401643384
90,0.04738969393044734,0.047855720650213575
91,0.04726014040011487,0.04729793657678832
92,0.047365013545722985,0.04719869138550928
93,0.04736329496746584,0.04737507558965081
94,0.04733514051577694,0.04722096404941325
95,0.04733550427950543,0.04733651565665698
96,0.04735751035842869,0.047226237590353416
97,0.047307913612237844,0.047321488776471354
98,0.047330505848169134,0.048092907431352395
99,0.04728678491064828,0.047317803144196216
100,0.04729280875866219,0.047128844432879735
101,0.0473835346200388,0.047690772781502855
102,0.04739030898451138,0.04770676553802125
103,0.04731030153374163,0.047325680169093866
104,0.047283743355545305,0.047428158253737106
105,0.04732687775489333,0.047427845755687544
106,0.04733748258881384,0.04827590404929565
107,0.04726413471086753,0.04714904838751034
108,0.04733466253363543,0.04727264089126143
109,0.0473606535683957,0.047332352084631796
110,0.04727646334023832,0.04800455262200891
111,0.047331166844502344,0.04727836107010435
112,0.047285221354793204,0.04726379608769255
113,0.04731344706196484,0.047483041276824504
114,0.04729212206795061,0.047534976048716995
115,0.04736224395021212,0.04728813965723283
116,0.04730467239378406,0.0473372194160367
117,0.04730932030537956,0.04738309774797736
118,0.047345646940689864,0.04721500586068527
119,0.047298128376428265,0.04742756430956446
120,0.047298768115379544,0.047138501270347063
121,0.04725519722576241,0.04737441971215942
122,0.04733038486408101,0.047187332249148776
123,0.04726830707769171,0.0476643258871859
124,0.04736487410938759,0.04744296734116166
125,0.04731309652286801,0.04740275335281311
126,0.04728089584161242,0.047632979406977416
127,0.047327854413744645,0.04763886421895347
128,0.047263642036014325,0.047238304673002385
129,0.047287917236606185,0.047452870380036365
130,0.04731637381350727,0.047198664379359795
131,0.04726401458737804,0.04771031730094573
132,0.04730379254930168,0.047455216201511816
133,0.04727554782409129,0.047307204216977414
134,0.04731474762155617,0.04718029256777775
135,0.047269348842765596,0.04723763405312303
136,0.047292637070722815,0.047457171484957365
137,0.04730258696674586,0.04710908492860967
138,0.04724331999526655,0.047347709642401245
139,0.047315280215977,0.047135708281724774
140,0.04730321258771048,0.04734212453252891
141,0.04721786563458155,0.047566803082553254
142,0.04731650044359892,0.047388885796493495
143,0.04728292044159844,0.04782349225236566
144,0.04725357991673773,0.0471675985337668
145,0.0472691371995244,0.047257844743854714
146,0.04727481071242421,0.04746906445218337
147,0.04725668651255058,0.04729190405278857
148,0.04731492163072959,0.04739235094274323
149,0.04729743970544647,0.04726469255072353
150,0.047247583180558765,0.04720812295023249
151,0.04725992099957453,0.04720044779372949
152,0.04727075545550536,0.047216553779079296
153,0.04723233085789745,0.04721181119344511
154,0.04733111052144822,0.04720892098562494
155,0.047270629002595786,0.04711346917483594
156,0.04729435170481769,0.04722590925614478
157,0.047273058325147554,0.04729822317422048
158,0.04724315581448692,0.0476878191584805
159,0.04727228617609786,0.04750097919352523
160,0.047278754953607664,0.047077136103948834
161,0.04723751365834718,0.047297866931207175
162,0.047303352828065366,0.047295059991122795
163,0.047225594029223605,0.0473779411346967
164,0.04728853827763757,0.047272784889755795
165,0.04726448814741237,0.04737187793512183
166,0.04725174005065176,0.04716917599280142
167,0.04726915626074198,0.04722149989140626
168,0.04735788611395896,0.04713573746953598
169,0.04718789102123986,0.047304365534009005
170,0.04732707953698439,0.047664060829987934
171,0.04720422076426155,0.047207545286195904
172,0.047255905228946134,0.047296391977930785
173,0.04727268571422683,0.04759095101701809
174,0.04725447601134733,0.04718188146730531
175,0.04728744426023045,0.04720897501556536
176,0.04724914591006047,0.047263272985780716
177,0.04729828887509642,0.047216508114135636
178,0.04722695805275326,0.04752170192790765
179,0.047262768695156256,0.047218725282254896
180,0.04723775064011367,0.0471638607621287
181,0.04725058083470872,0.04728165322998516
182,0.04725618960319473,0.047193526927655195
183,0.047245529275551305,0.04724850782561509
184,0.04724009535599241,0.04718099263126961
185,0.0472561897327312,0.047363783590842534
186,0.04728937934009101,0.047225792578406096
187,0.04726258656389708,0.047226706615280896
188,0.047219921704485926,0.04715615813785777
189,0.04726783085248167,0.04712420746966338
190,0.04725845871444086,0.04708243948249433
191,0.04723454494592097,0.04724894150291829
192,0.047247580781900625,0.0471148081653073
193,0.04722466009954135,0.0474837589612041
194,0.04726034358924003,0.04741255920483262
195,0.04722282789695225,0.04798033819684572
196,0.04730899245154371,0.04760959000865493
197,0.04725523901690873,0.047632216286993254
198,0.04724051159539287,0.047337428532135045
199,0.04726141388807222,0.047173966454443446
200,0.04719018680806593,0.04720824290928449
201,0.04728253625577493,0.04736728679562236
202,0.04726542185375587,0.047152592197072345
203,0.047199417992556794,0.047117384784247054
204,0.047277097454031025,0.047171822454318724
205,0.04724346637743697,0.04838423765519518
206,0.04725051116939786,0.04733147025225947
207,0.04726763997825501,0.047315235366572894
208,0.04725760626171133,0.047599651242864346
209,0.04722162678712707,0.04718003953324121
210,0.04724164029284061,0.04731676855139969
211,0.04728110852561218,0.04717578005336737
212,0.047237382683572436,0.04723107189692751
213,0.04728337674499225,0.047161494117838806
214,0.04715080851082989,0.047865735950579115
215,0.04728958004420038,0.04715780059982682
216,0.04726705285791251,0.04717676089260648
217,0.047229983514066126,0.04730837065035561
218,0.047218709549815246,0.04732990701518947
219,0.047220131129228904,0.04733316693822511
220,0.04723827097472622,0.04720073154794483
221,0.04721843451410413,0.04742942883058995
222,0.04724236047840852,0.0473767992994074
223,0.04723823803672783,0.04713367215036499
224,0.04726290044863876,0.047179575791933825
225,0.04722739083857702,0.048067931388670194
226,0.04726694028327267,0.047124759080189836
227,0.0472063531817721,0.04740626192059965
228,0.0472676930450302,0.04728003096161815
229,0.04724654775532744,0.047670759519396
230,0.047225876385978846,0.047339463851987236
231,0.04723207512014299,0.048922898890281535
232,0.0471945922765181,0.04759221799207091
233,0.047250587040548034,0.04711363160572564
234,0.04724050039867703,0.04717196166021389
235,0.047181003653317045,0.04798017509558018
236,0.047252112133004114,0.047189752126572726
237,0.04726061889891335,0.04770487265833363
238,0.04719681839207761,0.0471447402612845
239,0.04723271093279909,0.04833512289277568
240,0.04724273724194101,0.047177853461152094
241,0.047242531445708204,0.04727281491847704
242,0.04726988270872836,0.04718403474978321
243,0.0472190152782259,0.04734683605447564
244,0.047228932484901016,0.04743866602160278
245,0.04724292010277343,0.04709544007526012
246,0.04723385746459023,0.047274915464722275
247,0.047218555121494234,0.047063438902478945
248,0.04727450131530241,0.04893812642454066
249,0.047231001809215564,0.0473527404426023
250,0.04719843892313594,0.04729069512405072
251,0.04727755253055065,0.047308968763795534
252,0.04719865450309478,0.047643615445967444
253,0.04727276777632707,0.04719574702131814
254,0.04725030355072088,0.04733393969339184
255,0.04723950282191868,0.047197866767362616
256,0.04716849138291715,0.04818931887633422
257,0.04722766199414964,0.047209194790051506
258,0.047241984286623226,0.047311081444431496
259,0.04722246311033229,0.04718814267179302
260,0.04732797889382862,0.04727845871857799
261,0.04723327311215927,0.04737040128826436
262,0.04716927507560221,0.047180746335774404
263,0.047233364493440955,0.04738997988808597
264,0.047297039489856633,0.047251225985004475
265,0.04718565744765514,0.047169043373054845
266,0.04722870506501074,0.04711551355358269
267,0.0472294052915393,0.047239675950303074
268,0.04722168736403985,0.04741982927203366
269,0.04723260602463397,0.04712637732630182
270,0.047225367137901694,0.04728484318107249
271,0.04723072513717589,0.048176389581567204
272,0.047254831600877685,0.047173475889281766
273,0.047248194822006755,0.04737044735014109
274,0.04721588411515089,0.047414571579013555
275,0.04722226255362649,0.04714232659953828
276,0.04722019592426616,0.04729972566877093
277,0.04721689741197917,0.04722695218453562
278,0.04722076355458068,0.04765895663539349
279,0.04727328759130481,0.04718401485314591
280,0.04718771594004046,0.04725812325267314
281,0.047202712800398436,0.04742724088850507
282,0.04724336398108829,0.047581373871948746
283,0.047220909769991506,0.04708574398552327
284,0.047223679868759014,0.04734307081506962
285,0.04720628641093139,0.04721612636155751
286,0.047219678269718575,0.04725093680015679
287,0.04723377030887764,0.04751986008499114
288,0.04721366475335509,0.04744992796228736
289,0.04722754957138015,0.049902332177784094
290,0.04724326458045666,0.04737313436645641
291,0.047195947466255855,0.0471503268942037
292,0.04721922597599973,0.047153643446356266
293,0.047230003796202194,0.04723850431857188
294,0.04723856993299499,0.04709474045868548
295,0.04720036956600005,0.04736603709744861
296,0.04725597097689538,0.04732459290180981
297,0.04726471616138371,0.047296557057981144
298,0.04722114604005186,0.047013118868986264
299,0.04721256631532971,0.04728751867750826
300,0.047260060697960724,0.04712823805147113
301,0.04717766994879924,0.047197968114664354
302,0.04724338223530854,0.04710880544362994
303,0.04722542015852021,0.04740225788038268
304,0.047221109382718875,0.047278207748093375
305,0.047215565794901694,0.04728617971643935
306,0.04723908009973885,0.04726795842187463
307,0.04719604427764694,0.04712263338014942
308,0.047220924557994405,0.04724163619688203
309,0.04725230735935849,0.04725229279112421
310,0.04721748954404315,0.04711913722313664
311,0.04720896727544703,0.047786827013190564
312,0.04728452798923095,0.04733155253501322
313,0.04716597758471775,0.04764014272270658
314,0.047205081117227016,0.04730742031615742
315,0.04721434601544619,0.04727736319802649
316,0.04723583631884518,0.047217139728726036
317,0.04719554295660638,0.047157094935168405
318,0.04721086801027508,0.04740688231815573
319,0.04727303258610143,0.047182448940453044
320,0.047185998170269576,0.047446754608882535
321,0.04724735538099262,0.04751715216353453
322,0.047193304925180264,0.047120572541911675
323,0.047252611896629146,0.047267341511449006
324,0.047247870447788595,0.0471145277659114
325,0.047169951711603396,0.04746038325560215
326,0.04724641956930919,0.047417776028448516
327,0.047240381274256206,0.047175752832580006
328,0.047156675561643144,0.04712605270268227
329,0.047224919395826515,0.047170301653803474
330,0.047201498287270584,0.047312415601140224
331,0.04725599848478437,0.047160756366287714
332,0.04719075501161656,0.047415643509980156
333,0.04722149891378306,0.047247735317428936
334,0.047208217250333605,0.04721210150440659
335,0.047218822645578834,0.04716978635236139
336,0.04723862018421304,0.0478245991869479
337,0.04723265804022812,0.047281963540492515
338,0.04722935628208468,0.04772757577409214
339,0.0471902735751691,0.04713936569058905
340,0.047216160872059286,0.04717337965212568
341,0.04721754853376191,0.047395706482543286
342,0.04727625788943611,0.04714115835790947
343,0.04717703602558894,0.04729977274503215
344,0.04717659644431157,0.04723292773246953
345,0.04724307061075497,0.04713527403401407
346,0.047205273166215485,0.04738084926624983
347,0.0472016147346043,0.047154098087605664
348,0.04723857181797401,0.04724910844414368
349,0.04721737969562495,0.04712087571938488
350,0.04724076661697442,0.04707544464867888
351,0.04716455377787233,0.04767193670524983
352,0.04725054540424991,0.047625980262762935
353,0.047197914315308696,0.04713896771667977
354,0.04719222048304969,0.04721304552295872
355,0.04724125300558637,0.047591152453196735
356,0.04722733317549042,0.04742720681988732
357,0.04717723193535988,0.047078346802714124
358,0.047236333415805576,0.047034065050220716
359,0.04718331244888065,0.047283962815882374
360,0.047231635845584166,0.04770158344163797
361,0.04721579843049617,0.047128791970089845
362,0.04720387447753446,0.04711650256082216
363,0.047260953292107694,0.04715486063424207
364,0.047214014756438924,0.047246846046236995
365,0.047222424285124534,0.04739491534496539
366,0.04719825113247291,0.047195739958849875
367,0.04716553577600861,0.04776736005152787
368,0.04718913441504553,0.04726843071929469
369,0.04722569572131077,0.04718015599046153
370,0.047203948308857414,0.04733346641098973
371,0.04724370759370611,0.04731536998568601
372,0.047198617172767694,0.047211270482406524
373,0.04723541119800721,0.04723549403703015
374,0.04715802394252696,0.04737437728736564
375,0.047236973285782254,0.04713244992289942
376,0.04721158319156614,0.04749280661520943
377,0.047169670878018405,0.04720370525872039
378,0.04725080424939081,0.047127347295455514
379,0.04720122834368289,0.047139843054051084
380,0.04720891992614376,0.04713904822940608
381,0.04730431595258861,0.04719338546659218
382,0.047154971525716266,0.047415241749035435
383,0.04723058550876917,0.04728208420814354
384,0.04716475416930745,0.047183456186031675
385,0.04722644110246719,0.04747828049401458
386,0.04722649530975891,0.047730756569256814
387,0.047221780030263796,0.04714229505365066
388,0.04718385144121212,0.04724145349300369
389,0.04719652853709617,0.047236644748918824
390,0.0472378047521142,0.04738731139825382
391,0.0472250752773383,0.04707477372007381
392,0.04719228847480887,0.04739447127977693
393,0.04720099937233279,0.04718252902684385
394,0.04720186459110509,0.04729621288173295
395,0.047269844145571394,0.04707489458472125
396,0.047223122735365594,0.04709738547948278
397,0.04720294068185545,0.04779739203644533
398,0.047194344106969315,0.047171734717410665
399,0.047232757994739846,0.047426206957263656
400,0.04720247235539243,0.0474268565926151
401,0.04721045722331789,0.047386856695259286
402,0.04717320464789677,0.04704303262371573
403,0.04724818367293651,0.04729835014869683
404,0.04720795167822966,0.04716199976351662
405,0.04719697996128282,0.047398771737844056
406,0.047222547909076644,0.047148350479218
407,0.04715471394020591,0.04710754714523984
408,0.04723396426517901,0.0472742436981474
409,0.04720217691396447,0.04713048239039359
410,0.04725795663851533,0.04826044028399964
411,0.047182493142599015,0.047104889863621276
412,0.047173420920205725,0.047298491615640335
413,0.04722392265435508,0.047573119593047684
414,0.04722346162362446,0.04713774667413289
415,0.04722863242333884,0.04711199513009522
416,0.0472447005413967,0.04723677499294751
417,0.047143887018235464,0.04733999322250121
418,0.047290760731930545,0.04719529706093864
419,0.047103714875334934,0.047062878006659065
420,0.047248676248031744,0.04731303568703035
421,0.04717953304807059,0.04707086489086746
422,0.04719367850539114,0.047609951676420084
423,0.047217587239855675,0.04755532739782484
424,0.04726554715423752,0.04716556359908669
425,0.04715522669321246,0.04728440084474804
426,0.047180470219142526,0.04742120428638564
427,0.04717625249072993,0.04720643835455391
428,0.04719380311352267,0.047124121517483984
429,0.04722942446591519,0.047269333298035086
430,0.04721477762501922,0.047321193325961776
431,0.04717053860860715,0.047133773071331216
432,0.04717900539688069,0.047490759005133526
433,0.04725652400830047,0.047254518627085455
434,0.04719968407387309,0.04728046069017243
435,0.04717992990315675,0.04724772316245649
436,0.0472018985787956,0.047774090463238245
437,0.047187680143306106,0.04726718908621273
438,0.0472360285316154,0.04731090946362634
439,0.047201679879538924,0.04716734644010863
440,0.04719826311980792,0.04725496366843522
441,0.04721752715875491,0.04722666101208237
442,0.047187703322890184,0.047180322281892784
443,0.04721376828128676,0.04742023562270069
444,0.04719708329565424,0.047205259201676245
445,0.04722297111962387,0.04723004685992694
446,0.047192078272847056,0.04760469512715524
447,0.04719160148184553,0.04751093566547065
448,0.04722170868246771,0.047319125625192415
449,0.04717358685493898,0.047524684891633945
450,0.04723386773966152,0.04710018797097661
451,0.047191497038225,0.04708555908822223
452,0.047214125748351515,0.04711325985880094
453,0.04719801387376637,0.04709941927628811
454,0.047180926081814546,0.04772279549451823
455,0.04715006732099729,0.047816652313592216
456,0.047206847000119685,0.04731918979603753
457,0.047183701332262476,0.047440151465673
458,0.04720029208532197,0.0474595249716513
459,0.04718884713441539,0.047164523640343216
460,0.04715974125073111,0.047332504015906926
461,0.04724636797656973,0.04711392928788111
462,0.047207926988875645,0.04771573611938681
463,0.047183741588327145,0.04741922930035896
464,0.04719241795619186,0.04772325035628599
465,0.047192988580734514,0.04711641075755539
466,0.047225210540216986,0.04713824392247125
467,0.0471831484571945,0.0480422726181801
468,0.047214384230194716,0.04714652427252391
469,0.04720035659746348,0.04703555247307577
470,0.04720280524626148,0.04740502795861665
471,0.04722919233208842,0.047143658833326836
472,0.047227455770595374,0.04714787430949539
473,0.047188553534787625,0.04721390912875286
474,0.04721483692294545,0.04741620883968936
475,0.047190836781887506,0.04709313203005125
476,0.04723200511535723,0.047292187854047825
477,0.04721348368072157,0.04806998498508473
478,0.04723212525075812,0.047135302980725186
479,0.047137943464967844,0.04707332918363099
480,0.04725144859656489,0.04724682201855561
481,0.04717529172019707,0.0471275064391514
482,0.0472136981812098,0.04719490263296472
483,0.04720556059424921,0.04707655528208921
484,0.04718108281499143,0.04718151319869033
485,0.0471763032675385,0.047045317149905584
486,0.0472036548908785,0.04833955140144879
487,0.04722248344755859,0.04708851745974011
488,0.047195960784689794,0.04743707704562885
489,0.04721379920476965,0.04743215418769886
490,0.047188082566971684,0.04749011412415809
491,0.04719070805538949,0.04731979857668598
492,0.04720441078980097,0.04732467977722611
493,0.04718954088858706,0.047750390269268
494,0.04716926764139979,0.047701771517343755
495,0.04725614084536842,0.04714809047042053
496,0.047181522434980847,0.04707088470223765
497,0.04715628546925424,0.04748311067836531
498,0.047244930167873796,0.04725447802524352
499,0.04724430096306675,0.047189788841410896
500,0.04714251960144578,0.04725774959752949
