epoch,loss,val_loss
0,0.5080847511474463,0.30654250838056546
1,0.3029177840009963,0.2865000498887584
2,0.2932456389283962,0.2836808689062108
3,0.28984962902861916,0.278102367987008
4,0.2878141613374892,0.2742786312206768
5,0.2900590705011579,0.29365535020451894
6,0.2893398643004523,0.2853719919167265
7,0.28819900520628305,0.2732067040646274
8,0.28889107876877895,0.2628853376352044
9,0.2860215725980217,0.2891677063261324
10,0.28806256546938924,0.27706837294227793
11,0.28575895804104856,0.28016938449081324
12,0.287360219682435,0.28353764457832475
13,0.2869950174141845,0.2627201380580076
14,0.28873133546800067,0.2746513451448838
15,0.2884967714833985,0.28163557988315846
16,0.286741860181117,0.2837820990803492
17,0.29003827493015427,0.29151999851616706
18,0.2871765740436139,0.2854861640727887
19,0.28797180945281503,0.27144547065553837
20,0.28735805894854927,0.28887450813823734
21,0.2882544987981649,0.26577002688619034
22,0.28918988564365106,0.2770602851165216
23,0.2873486147926961,0.27670797027041805
24,0.2884406019255316,0.2749926107270377
25,0.28805900335931284,0.2844040167783317
26,0.2884472900514694,0.27483842005010845
27,0.2873713574904523,0.270348718752989
28,0.28832532039625375,0.2774840205931344
29,0.28805095636897043,0.2841790954052414
30,0.2874550074100685,0.2668934917252367
31,0.2861787984125334,0.28856671475103357
32,0.28687792355946595,0.28015806806445026
33,0.28789980697641365,0.2617964737276064
34,0.2852778418553914,0.27762527837937706
35,0.28640309874292946,0.29077232075706655
36,0.28803747704179644,0.26407956076167
37,0.2862180685110801,0.2737046431841207
38,0.28801227813597013,0.2757936958473502
39,0.28656826594726836,0.273310277308172
40,0.28549263491738236,0.2752065639398939
41,0.2855378213546259,0.26468118742966895
42,0.28613673553144714,0.2688125448379351
43,0.2867201078983901,0.28781426463337895
44,0.28599083406342973,0.2842451173344652
45,0.28775161943680566,0.2701232960210979
46,0.2861287883526797,0.27564110041793727
47,0.28599025965999547,0.272010639980259
48,0.28637751354445085,0.287389846161396
49,0.28827824917652434,0.2838333861603921
50,0.28853331026818446,0.27757104416249206
51,0.28879428502443216,0.2646689103194457
52,0.28628577316979426,0.2871000398165049
53,0.2866521324756906,0.2802460572455187
54,0.28821448385000803,0.27201366028215535
55,0.28622032271372044,0.273502179860316
56,0.2863252839917759,0.291585761104029
57,0.2879115406402962,0.28160285073514046
58,0.28901184756430887,0.29270899843868536
59,0.28682086401753765,0.2802302398099237
60,0.3178904302281251,0.37364689482415675
61,0.4012059066578639,0.4338408315050009
62,0.4760958835137167,0.5103163662489324
63,0.40721282435597467,0.3434667093083909
64,0.33730798956158636,0.3416381415506
65,0.32324062453375924,0.3122322059162226
66,0.3136595170274913,0.323746387823981
67,0.3056488185584974,0.31976466067870396
68,0.3024904850742323,0.2973405639063964
69,0.29799853701242723,0.28167369633607253
70,0.29777156328745213,0.2859395439806376
71,0.29655857843389327,0.28435825602972514
72,0.29729407296168336,0.32286635725725893
73,0.29839178941828265,0.29379750117835984
74,0.2965190834064278,0.2769147430641405
75,0.29700254670959964,0.2880047010382801
76,0.2953444105103243,0.275766821350276
77,0.2955998330295896,0.27706972202072955
78,0.2927897448400609,0.30088249867415934
79,0.29387189960665555,0.2955701641426749
80,0.29505069237604414,0.2774223385712436
81,0.29421949950005893,0.2856433241148115
82,0.29416127304593437,0.29747155649791857
83,0.30075176191225134,0.2963828015910798
84,0.29668513357901366,0.28117769566124223
85,0.2967099009407796,0.2948933021233791
86,0.2949769112715523,0.28914109699210505
87,0.29388123756046775,0.2878015001834427
88,0.2924077419294632,0.2752266124231945
89,0.2916941482195561,0.27225245664744463
90,0.29199803201891156,0.2748075403984645
91,0.29153861333545356,0.2859071857386343
92,0.29149468584979277,0.289230289815351
93,0.29285203140797755,0.27918977849626503
94,0.2901706322968054,0.2983470191001516
95,0.2929263576198158,0.28961398677743133
96,0.2916701651222224,0.26978028020523814
97,0.2905524424809537,0.27879485871345866
98,0.2888270751547089,0.27451961768031025
99,0.29162206461461043,0.28115421434792365
100,0.29028637086053927,0.29410793071858227
101,0.29100362064955615,0.27105764279049405
102,0.2895919540874678,0.2694531100630854
103,0.290106761941521,0.2812071675589071
104,0.29407697912457464,0.2911505498397792
105,0.29309743186600395,0.2702287850694197
106,0.29007701416143317,0.2823913631447677
107,0.29016854585432034,0.2742760225295456
108,0.2895870136318923,0.2856850303362558
109,0.29106797688870695,0.29298195839163443
110,0.29257771334678623,0.28646859043257955
111,0.2897457326713988,0.28164877177413844
112,0.29102467270873245,0.28080914050176
113,0.2970899763903458,0.30030529139873635
114,0.30607230056056395,0.5383974837569995
115,0.3057014393053657,0.2791135689242204
116,0.2898269663992927,0.28203335168000365
117,0.28962039318587857,0.2643806483205511
118,0.288456419942905,0.28279925662885996
119,0.2885599516147523,0.26672577458097885
120,0.2906461562708223,0.2995856940252346
121,0.2907019035755206,0.27870674062029244
122,0.29030308524648446,0.27689217527315385
123,0.2899340367991385,0.26447914767754577
124,0.2902975442598192,0.27932001510377746
125,0.2898739622198611,0.28678649238177706
126,0.2900797092049814,0.27934548277599003
127,0.29173013058712155,0.2806428799077857
128,0.2882664059039405,0.27605363674867595
129,0.28817516699326123,0.27080308855897156
130,0.28653491973329026,0.26671077072291083
131,0.28644561014777653,0.2722342684335754
132,0.28822502179992954,0.278218352804056
133,0.2884011208760939,0.28561215229691156
134,0.2870441625039164,0.2677382646038858
135,0.28673574571415106,0.2727054636616733
136,0.28855650593265353,0.2754661502124008
137,0.28695651109246234,0.2723234703480586
138,0.2891837455135741,0.2700846962036819
139,0.2884415012421749,0.2705356994998107
140,0.2892248402956388,0.2614650078641211
141,0.28677680371381303,0.29679842694311886
142,0.28820758999037227,0.2738225617179178
143,0.2848934782780618,0.2833175258718331
144,0.2868043082735712,0.2802736749424178
145,0.28481380285905133,0.27812447846406263
146,0.28786433867508654,0.2875818655823946
147,0.28594896701171246,0.27842075030165764
148,0.29195917254205134,0.27453051233442166
149,0.29609385917750863,0.2826175798486327
150,0.2868443168372178,0.27234446907146953
151,0.2859956224282964,0.2639081291707369
152,0.2858608565706429,0.28314634072046724
153,0.2876731970255895,0.2747506192916947
154,0.2872930101150994,0.28229829036258014
155,0.2874938639090787,0.28131229436905625
156,0.28861948365954565,0.29842814153917396
157,0.28666548716793244,0.27813711778893657
158,0.28570952155083107,0.2935058571451183
159,0.2860634664920785,0.2702471729494402
160,0.2854322726241976,0.27023183565583864
161,0.2870704422144295,0.2901749434721404
162,0.28472558980722795,0.26976822951739476
163,0.2853954681139484,0.288275765368293
164,0.2875283950035997,0.29148240890809657
165,0.2872664519458366,0.29292970947515523
166,0.28632220341790493,0.2678259454591122
167,0.28385906176363157,0.2671106805364824
168,0.28585063276602496,0.2772431135553964
169,0.2879096644816639,0.28216084219285986
170,0.2986858490583517,0.28921296956177855
171,0.2902050355105377,0.2775962613964043
172,0.2902016295350903,0.29628633546048294
173,0.2870305009978376,0.27640735696127966
174,0.28724641995511946,0.28450479435469095
175,0.287128293644086,0.2888205813533599
176,0.28907084439417347,0.28144505417713894
177,0.29159471650513336,0.28085103827427954
178,0.28678981934210285,0.2911687388651561
179,0.293897106725392,0.27321700387191095
180,0.2893308974820361,0.2990898549580254
181,0.3016330296580168,0.29259349947946695
182,0.28885675144257494,0.30070993463025847
183,0.28858051858812594,0.2901191455977304
184,0.28694529810564506,0.2835317742852781
185,0.2872832338634631,0.26368066098102927
186,0.28720043275615487,0.27216515586003603
187,0.28709498049615384,0.2699564810851096
188,0.2873025654817371,0.28899380599972574
189,0.28675717032022424,0.2676113050404551
190,0.28469827245894097,0.2764590418799806
191,0.2864806779878412,0.2741254934689711
192,0.285579319754474,0.2880319420898064
193,0.2865448202625167,0.27237615407971577
194,0.2852817756904782,0.28371898204252866
195,0.2855195886940121,0.2709223208647595
196,0.28735536612052137,0.2737169217997493
197,0.28669377677231955,0.26834461317583624
198,0.2860967440011023,0.273206028690372
199,0.28485457151294424,0.26870679164977174
200,0.2871193653114027,0.28056489786202266
201,0.28693420834821476,0.28195839748668594
202,0.2850661664474592,0.26803184002520253
203,0.28497041506971194,0.2922766028940913
204,0.28690872809512435,0.2692665607795625
205,0.28677154390169657,0.2782046861576112
206,0.28596744240878774,0.2784061223009767
207,0.28646906626691443,0.263768861318726
208,0.2860067996511356,0.28516159191927576
209,0.2864253265585164,0.2789973055013259
210,0.2871651851492439,0.26284144218972844
211,0.2871820852339125,0.2697250157500593
212,0.2859416607139017,0.27613322779054045
213,0.28634593800770386,0.26908551546985365
214,0.28694223209346037,0.2833638635788175
215,0.2853387327586337,0.2701419536156643
216,0.2860070982520624,0.2831951260637277
217,0.28696357613082507,0.2739041244644957
218,0.2869612971822516,0.2807494115199079
219,0.2853702857887907,0.28074669960265847
220,0.2858940700142027,0.2765783698848598
221,0.28667415172862204,0.2793228152754181
222,0.2862779324551185,0.2726158990150563
223,0.2868741106727331,0.271997209023846
224,0.28592612539573636,0.26651032380730316
225,0.28638033948237185,0.2700380684356569
226,0.2874856932069377,0.27613267247236517
227,0.28713518906411506,0.27618104867466625
228,0.2861494634339182,0.2613802006278531
229,0.28688742104861187,0.2715885926629016
230,0.28648640201103204,0.26804340986539366
231,0.28424623487688466,0.28021228683916904
232,0.28562855746725097,0.2715851712880778
233,0.2862093007678894,0.26822796645085456
234,0.285950000843794,0.27053173767268984
235,0.28490957677316703,0.29383752561499965
236,0.2849530923090202,0.27438207903337364
237,0.2855141841702991,0.2840250166457943
238,0.28487028462661923,0.27704959947854024
239,0.28651428025522585,0.27058306858590386
240,0.28566630685524785,0.2734641152615611
241,0.2860628856862668,0.27478859278990136
242,0.28544613510537015,0.2705104644009704
243,0.28510757885891186,0.2742522912601269
244,0.2857643472407457,0.27865202054557786
245,0.2852057635927086,0.2714334542862336
246,0.2871401959912573,0.2753570575175929
247,0.2860458797866778,0.2835929010125155
248,0.28450546912747704,0.27045928092339705
249,0.2845834271965934,0.27218980497982714
250,0.28292265090701296,0.2689633359448968
251,0.2831345526434535,0.2592176446527972
252,0.2825186613449852,0.2709409900203688
253,0.28328540152330384,0.28388010654613177
254,0.28380785135032655,0.2764231079238178
255,0.2830005384189524,0.26616692238420414
256,0.2822632671808072,0.2662379610533778
257,0.28087753911527225,0.2724878507259801
258,0.2796314385511892,0.26953161391999275
259,0.28023935071260425,0.25788483836327186
260,0.28010751213506163,0.25580071255082487
261,0.28326250708026945,0.25642174796363737
262,0.2810221903984972,0.2666558492178981
263,0.2785185025535899,0.261683532169887
264,0.24905076861786518,0.2256474112231805
265,0.23430999470867223,0.2095381609666225
266,0.22139849391677302,0.19796270957685588
267,0.2177692649842833,0.18967982022284333
268,0.21107359582500207,0.19445670705991366
269,0.1929646211979296,0.1858542402640232
270,0.1888541729270602,0.18545927269635656
271,0.18536116562777763,0.17288767245922299
272,0.18022092390093777,0.16175988557047982
273,0.16645120508927141,0.12881898226682464
274,0.1689805346403381,0.13719624137445613
275,0.16494162076359078,0.15859886486415517
276,0.16752661010034556,0.1764264889914122
277,0.17507112975255382,0.15404729643908655
278,0.17553973846512733,0.15760497750615923
279,0.17590063283566854,0.1653784191222669
280,0.1817469733426992,0.1580964942722219
281,0.19207970542516067,0.10636572807956701
282,0.19061263948440743,0.169701853774388
283,0.190893751286941,0.15588134698328673
284,0.1936432737961328,0.17353698170222726
285,0.1691144642551883,0.14835127313116356
286,0.18808849621340812,0.17006170093401643
287,0.1969343410085717,0.14259869994003188
288,0.1593847228980941,0.1406256278893001
289,0.20277822484894337,0.20163992715333517
290,0.22864695702144186,0.20287691021445425
291,0.2267835469161578,0.23668361636909238
292,0.23047520010639055,0.23633859287168252
293,0.23164297961335864,0.21151790710867346
294,0.22730874736532033,0.1959310947860802
295,0.22836798971457828,0.22794907009074702
296,0.21942159906625272,0.278987371977992
297,0.23290349463288257,0.17551984508016868
298,0.22203304432481408,0.20300687897741654
299,0.22700381471360806,0.14770620182191846
300,0.22340585077576022,0.19642783642614933
301,0.230836019828189,0.23192944374720506
302,0.21429227356263678,0.21363320766750432
303,0.21554818918271887,0.23672231330867818
304,0.21180813566600676,0.24925773303247195
305,0.2178388924794279,0.2121116013840229
306,0.2212002937652939,0.20296681934016467
307,0.21229033572651404,0.1649996687752954
308,0.21384943184628188,0.13835880207963694
309,0.21526210017496353,0.2198754511038525
310,0.21424042846230293,0.21309310184893124
311,0.22597339371447084,0.16467907828379544
312,0.22379670952626174,0.24362312285516238
313,0.22526608986093652,0.2115619265031137
314,0.23311666934657915,0.22747272365941903
315,0.23147264439210619,0.19974956489164433
316,0.22330571940655616,0.2444319243424505
317,0.22993865459383153,0.24237924237936243
318,0.23478558647344344,0.2386635506515345
319,0.23038818720552465,0.21989296490786672
320,0.22441959811998405,0.20580560063036202
321,0.21880736298186126,0.17485708754506749
322,0.2191639808799437,0.23942372875601264
323,0.23360221072745552,0.22862968115752008
324,0.22871667492411119,0.1754964700273011
325,0.23200041005651442,0.24346396797457923
326,0.23440149319853237,0.21484613110441436
327,0.24066170642106272,0.22760875397247882
328,0.24277442291700582,0.20461889816817094
329,0.23480926801880106,0.22848301314423192
330,0.2294820431950424,0.23260924307116393
331,0.22881506072233715,0.20341387082952728
332,0.22529815209152507,0.2215482474032028
333,0.23251354217314893,0.20210198292416104
334,0.2164210862964749,0.24212001531069544
335,0.2324644675899705,0.2026635776990591
336,0.2380849421530557,0.22493998747504218
337,0.23792913664194892,0.22729624934853204
338,0.2332488605640918,0.2238605990006214
339,0.24030501078025138,0.22539092314553807
340,0.23281596720718936,0.22333139256407356
341,0.23391877427744828,0.2325129179194299
342,0.23506161410638468,0.21658420787378851
343,0.22347118665607904,0.2414854266272818
344,0.2342430518762909,0.23411624507586035
345,0.2302203616239041,0.24721589390461898
346,0.23276763306938106,0.21419233337762136
347,0.2329988693959898,0.22905037098732536
348,0.23063209820255864,0.2316045183291469
349,0.22958641776816546,0.2188720137774709
350,0.23130410744679822,0.24189307231929422
351,0.21750408609350808,0.14740596602846529
352,0.224806811684351,0.2288018938656764
353,0.24035477238617164,0.21483106586579365
354,0.23468926498929946,0.23398768196166173
355,0.23243477789284608,0.2346666681550108
356,0.23244391452315613,0.2541754566009532
357,0.22993229353408828,0.18075728383512127
358,0.22617976047950303,0.21902281923282776
359,0.22622975099572745,0.2151505670024357
360,0.23392909715811222,0.24698141988752015
361,0.21593288873597014,0.22634876311860314
362,0.22844558423586028,0.2455336891273485
363,0.23871030669799334,0.21704464713324687
364,0.2355897625227817,0.19231989136481717
365,0.23166671514415818,0.23737220114483643
366,0.22987870082592698,0.20095753700317318
367,0.2288619936120024,0.23609619324801942
368,0.2273171455841318,0.2188201757072932
369,0.22195320113075914,0.17083257682556793
370,0.2276966552243387,0.23056013572846423
371,0.2282739951283478,0.25471320508405176
372,0.22847763906946952,0.2316225522389634
373,0.23154503793763123,0.24109809369954333
374,0.22997900008928956,0.23079294873064865
375,0.22952258703913048,0.23617848739815964
376,0.224591118388539,0.20750968280559276
377,0.23349811798400827,0.21616049012097205
378,0.237314901340732,0.2120553624493547
379,0.22987805481115692,0.22427702912121375
380,0.23186821978000238,0.14562622640037876
381,0.2308176024813208,0.2247501283460653
382,0.22424758763181316,0.1977355173467743
383,0.22558919583066858,0.21745957799943866
384,0.21967766125448984,0.21727592050558767
385,0.23196142416098992,0.24190906000683038
386,0.22564611731649492,0.24148267760414163
387,0.2334354879032317,0.2145274338072082
388,0.2277280881012277,0.19223371095185027
389,0.2335863423040159,0.21698447536227264
390,0.22634826344158723,0.17197003636006397
391,0.2213004003468749,0.22686177632097382
392,0.23120543130820126,0.2164958805410337
393,0.23777487146840107,0.22271091472754445
394,0.23081599829270305,0.23240070274333458
395,0.23074623123168658,0.17927537270437194
396,0.20969394422311197,0.1590302392499317
397,0.22979045055395694,0.2290698168615516
398,0.21909587712680026,0.21531073760826377
399,0.23200580265691623,0.2372706365942861
400,0.22504741295898179,0.2256637325697088
401,0.20914798101885237,0.14966654611108993
402,0.23235166272956975,0.24863481972051965
403,0.2247937996413925,0.19386769278414528
404,0.2299543678593769,0.2243039377016069
405,0.21680242547707307,0.137501802086689
406,0.21652479830096,0.13243998730615453
407,0.21450921817184637,0.22243096070818386
408,0.23242173495767213,0.22828379600369847
409,0.2297455082706315,0.2383438475553502
410,0.22232851798204686,0.24041266792292848
411,0.20302200581518104,0.13377724124534732
412,0.20923344931490034,0.20137819616034355
413,0.21210544497715675,0.24472498006959928
414,0.2159646131384144,0.17083445831180655
415,0.21694841773973572,0.22630343500939334
416,0.23044685750222987,0.21174311346206123
417,0.23768269058040006,0.21274189474597727
418,0.23066543496781877,0.17730345742243336
419,0.22267777000149663,0.19797189650144179
420,0.22701523514936486,0.18377114043239542
421,0.22958732012221567,0.17695031093393807
422,0.22164317170123785,0.15045569794753827
423,0.22163750505526003,0.23087097959623812
424,0.22938671315328585,0.19510490797171937
425,0.22898616526219295,0.23017755071996418
426,0.2271638345702899,0.21982108975077766
427,0.22315304663231808,0.21800941930997061
428,0.22463616286571936,0.1832521846775192
429,0.2358210774765407,0.17951487978566041
430,0.20929543786257102,0.2405417077566755
431,0.21410210749549832,0.22399176770105264
432,0.2216394430221461,0.1941163169533226
433,0.23361571750147261,0.246248248014849
434,0.23613878364542978,0.21675567713513935
435,0.22219739443094705,0.2028088064624648
436,0.2265602230168075,0.20961787044155192
437,0.22215713411390925,0.21280292800870954
438,0.22824084995795402,0.18961881116420712
439,0.23716478927029694,0.22901488524209634
440,0.23518906441702545,0.23358347378053718
441,0.23624988047958467,0.21894273831087863
442,0.2280934605655148,0.1908703014877902
443,0.21094504423695598,0.1624471375626095
444,0.22929765864742174,0.22822730011514725
445,0.23115862474786483,0.22785946550384317
446,0.2329256319099193,0.22858849658256641
447,0.2353651877716005,0.23832555097581462
448,0.2381473198580704,0.2582909126707956
449,0.2352243909994952,0.21452086799334802
450,0.23216169198854364,0.2044303323470803
451,0.2241658751013801,0.2452497395386165
452,0.22686674213595243,0.20745943000962064
453,0.22950172519607606,0.2032428061341148
454,0.2235978237724752,0.21277731346538337
455,0.23405404129831625,0.21537254372025064
456,0.24274736707754654,0.24172256514136023
457,0.22817435347848086,0.1285147988711555
458,0.22712374084906803,0.23524433042745282
459,0.21817930859567927,0.17503034847405546
460,0.21963059628526752,0.18498531190918108
461,0.21798394346158567,0.22699059255497608
462,0.22019743332140546,0.13578072941811328
463,0.2220740349952885,0.20442551343856877
464,0.20941231453078066,0.14462439393023382
465,0.22806938074165872,0.19292788061694827
466,0.2288653916365904,0.14682580344231935
467,0.22568550074307753,0.24053460328994816
468,0.2198569909613624,0.17016205663227527
469,0.230607210562455,0.2121449120889617
470,0.22522001086379126,0.22612157626328924
471,0.2332704600324924,0.24232206057871808
472,0.2275842433537749,0.22995584435178806
473,0.22616907823190605,0.233883257070299
474,0.23311031063040383,0.2232023396991611
475,0.22429521014090542,0.2337097949815154
476,0.22671211063325833,0.14558313297726738
477,0.2122285183039691,0.2627715009493252
478,0.2122292637670164,0.2544422351241394
479,0.21922863258434525,0.2110806675341154
480,0.2400448218964749,0.23643637671419834
481,0.23556397254053923,0.21475069413010117
482,0.22414270403692954,0.15024735999088543
483,0.2247836211715623,0.1959837083517329
484,0.22519810289311276,0.23101682771635318
485,0.2296175248295569,0.21711599014129052
486,0.23009488735791686,0.2369434108462217
487,0.22618028689488517,0.2116919275499651
488,0.21285146547497796,0.15867868907920188
489,0.2282293593759636,0.2222954185345837
490,0.2292416323866728,0.17243973438017182
491,0.213497004328038,0.23694672205594927
492,0.22878804427685498,0.23945165517862707
493,0.2322931871098056,0.22763010712477197
494,0.2175993348012487,0.19367268849708194
495,0.21768401846361102,0.2441148366646778
496,0.2079225343754061,0.21326809204179845
497,0.20434810064858097,0.21531296874842684
498,0.20520514167612977,0.22629532603739563
499,0.21598831765490661,0.20333498596392377
500,0.2255516276448417,0.14993129250164944
