epoch,loss,val_loss
0,0.3480835749260367,0.3433598409134262
1,0.3423302888900214,0.34124559471204735
2,0.34113167685091683,0.3406355319533137
3,0.34082737241631744,0.3409714098674864
4,0.3405155416327388,0.3402311158346831
5,0.34021167980049916,0.3410092616447555
6,0.34004634457488575,0.34071431954417775
7,0.33988031973472926,0.34001624712693
8,0.3397125666943264,0.3398276592755821
9,0.33967773483647284,0.3402298360670183
10,0.3395274700217626,0.3391565428601573
11,0.3394653380926417,0.33910327982018446
12,0.33934609746911215,0.33911246237857806
13,0.33929301006041285,0.3391598642714841
14,0.33915810022168313,0.3388238229249155
15,0.33906993449570016,0.33869043473679056
16,0.3389919048259556,0.33883789274945075
17,0.3389189056695942,0.33856478241183974
18,0.3387072662556108,0.33847205606371294
19,0.33871918742238977,0.33833353283652545
20,0.33835203046767215,0.3376920096492207
21,0.33820532917928264,0.3411812200510485
22,0.3389968888790944,0.33932867942016165
23,0.338828173020976,0.33835080828016595
24,0.3380238527364703,0.3386412028975197
25,0.33850390789946244,0.3375917559571544
26,0.3390931946787418,0.3395492954232001
27,0.3386248827561938,0.3386683012093365
28,0.3376129897393673,0.3374936507867786
29,0.33743996921189034,0.33748156597817985
30,0.3373296086960073,0.33864297209863947
31,0.33723966252505083,0.3387318381941165
32,0.3371343389506962,0.33739468435910236
33,0.3370857915626779,0.3368627872990676
34,0.33697804527132624,0.3365919238492688
35,0.3372981604933482,0.33674343446190064
36,0.3368980281921029,0.3366614173087919
37,0.3369114096054334,0.33672244573266086
38,0.33685896896985945,0.33655158143176417
39,0.3368156657988599,0.3369234766570352
40,0.33673868426405645,0.33694050920015295
41,0.3375554648169846,0.34049984108971965
42,0.337241552280834,0.33685902086670333
43,0.33668010358019984,0.33729006367078446
44,0.3367281200841174,0.3376884221846061
45,0.33664168934109256,0.33652462336408234
46,0.3365860989845635,0.3366114615314969
47,0.3367256674577181,0.33684616810521645
48,0.33756998233463176,0.341157610125441
49,0.3391304567056027,0.34436306363536345
50,0.33806313390434495,0.3374964164512885
51,0.3373413996469471,0.3389461809786725
52,0.3368683732711849,0.33740348592861996
53,0.3367658851600291,0.3367488367918732
54,0.3367086134293049,0.3383975797997631
55,0.3365961340122167,0.33651334440138336
56,0.3365662218213363,0.3368103035304288
57,0.33655590016016945,0.33768197457497323
58,0.3365715261237748,0.33638484849614797
59,0.3364972866875858,0.3369283777050353
60,0.3364620862329793,0.33752866436730156
61,0.33655365480472493,0.33614256504993506
62,0.33642644474454586,0.3364516649527154
63,0.3364610439708666,0.33696237981688587
64,0.3364134361545669,0.3374876902134471
65,0.3364587059037687,0.3362100084627434
66,0.33640788357904516,0.3365915464502072
67,0.33645645888059944,0.33621242462793605
68,0.3363764520771006,0.3373826862219233
69,0.3363794514965552,0.3361313252202363
70,0.33637685421312574,0.33669895897531427
71,0.3363482639823295,0.33677826557478224
72,0.33629732873861845,0.3396855491990416
73,0.33636185539665875,0.33612708546243736
74,0.336322119451856,0.3360868047840618
75,0.33630277081598625,0.3377892722875443
76,0.33631760546953127,0.336447400548959
77,0.33626629552590853,0.3363791764331504
78,0.33630604008581017,0.3359851630808949
79,0.33626513990623447,0.3376408204618514
80,0.3363663660240111,0.3364172230116882
81,0.3362573783920903,0.3366343357486537
82,0.33629084254328395,0.3369084689988018
83,0.33622343189296994,0.3361429946941668
84,0.3362597596776533,0.3367840170585789
85,0.33626870675991954,0.33615909758183204
86,0.33622194991649906,0.336736060109842
87,0.3361817768631457,0.3359721622306884
88,0.3362954762515636,0.33616782571751863
89,0.33622717668048346,0.3365655518939273
90,0.33623112573006625,0.33619594922543933
91,0.3362190586362859,0.3360811841143338
92,0.33621897459120076,0.3360954591498898
93,0.3361953409644147,0.33600213217871594
94,0.33619457792265395,0.33703193690155125
95,0.33623987193935123,0.3365330767689271
96,0.33624101703226456,0.3362123519679147
97,0.3361913718104365,0.3361493219255133
98,0.3362043911415331,0.33625034769745277
99,0.3361986230564134,0.33665099158606226
100,0.3361627475209419,0.336091820294372
101,0.3361621064167398,0.33615633615316126
102,0.336241285704558,0.33606152626916075
103,0.3361775651268967,0.3360057660103867
104,0.3361583483043875,0.3363994534065444
105,0.33614588069517587,0.33625935387219513
106,0.3362253861431819,0.3364056160152006
107,0.3360967447937694,0.33616115072615205
