epoch,loss,val_loss
0,0.4566348350647476,0.4519594697270182
1,0.45169987988751853,0.4505240693700225
2,0.45106491281674865,0.45058194145960184
3,0.4508687887607424,0.4512133987977502
4,0.45048277850846846,0.4505708613707297
5,0.4503156382455968,0.45033492724138613
6,0.45004276651586506,0.4504232677780902
7,0.4499439925768426,0.450109093482104
8,0.44985728993315466,0.450007571499367
9,0.44973997411050354,0.4521810158232914
10,0.4496318624474162,0.45330993048355694
11,0.4495828102858285,0.4496033251503261
12,0.4495304490895244,0.44942727341848043
13,0.4493871259100648,0.4490082589893165
14,0.4492949718904131,0.4490257143448966
15,0.44905415505664414,0.44927774244297947
16,0.4491230553963356,0.44882575210615133
17,0.44975710642061956,0.4508704877626674
18,0.44964774025757537,0.44988377630114273
19,0.44984081533132697,0.4503407842709334
20,0.44936423925950786,0.44901588986047547
21,0.44909196233701587,0.4488338372107061
22,0.44942061341768763,0.4489101543348139
23,0.4490815647382687,0.4489171626275544
24,0.4488664097987394,0.4486559706631967
25,0.4490724498989039,0.4490683428542054
26,0.4488725153996415,0.45039346570653993
27,0.4485333667411386,0.4482903342048611
28,0.4486267984237225,0.44883435653403997
29,0.4504277893579415,0.45120581518341024
30,0.44937894360847347,0.44938828270218006
31,0.44918072473871345,0.44892791621369255
32,0.44894780015139596,0.44950606372832724
33,0.4488588761513691,0.44860589936108214
34,0.4485946381652989,0.4484949266511106
35,0.4489489918662581,0.45011841813278364
36,0.4491536453141175,0.44806608369336426
37,0.4481346194152051,0.4480644467001172
38,0.4481672765209205,0.4481670138489278
39,0.4567759152804105,0.44963941177300315
40,0.44962637537125705,0.449196490753316
41,0.4492314879265518,0.4491749928099628
42,0.4491228377985814,0.4497108719515312
43,0.4490165585169703,0.4491691961186413
44,0.4488749617061587,0.4487993353834337
45,0.44875102174897574,0.44890242943039427
46,0.44855300019253047,0.44824795004667245
47,0.44823924350217287,0.44803374235935206
48,0.44810439346706327,0.44802265746670716
49,0.44808581918102347,0.44766714967809745
50,0.44799813142176326,0.44886260414257945
51,0.4479236091718346,0.4480565971153131
52,0.4478519272750858,0.44757504456664565
53,0.4478125784285857,0.44793995423309
54,0.44779270416893885,0.4488087956827179
55,0.4477791056581518,0.4479871050803571
56,0.44776332915620815,0.4479651061934253
57,0.4477108573112861,0.44812905884497084
58,0.447703598184585,0.44790600951330917
59,0.44759824006208043,0.4477222259955802
60,0.4476595579989404,0.44764738624931155
61,0.44760854194758515,0.4479608713222228
62,0.44761407847078766,0.44756749564832365
63,0.4475275674460524,0.447499284396214
64,0.4475597504322299,0.44767817673615773
65,0.44757919453523587,0.44745622256766887
66,0.44772103565914717,0.44790810588211866
67,0.4481101092086584,0.44841500106540505
68,0.4483798646515993,0.4497466180293129
69,0.4480211239640673,0.448538393913346
70,0.44768106068799335,0.4476157148215285
71,0.44762963238659287,0.4472907804862571
72,0.4474516309162236,0.44740103111345464
73,0.44748757025749963,0.4475533883922229
74,0.4474481272418371,0.4474138993440364
75,0.44744824435744873,0.44725247254461753
76,0.447482823059337,0.4480447393476878
77,0.44739485971649684,0.44780932881064656
78,0.44753503695888486,0.447498659505832
79,0.4474181737538162,0.44721046480343835
80,0.4473460687420626,0.4471888345386256
81,0.4473651537890738,0.44753844235243256
82,0.44734865092190457,0.4474933710820678
83,0.44746672900796597,0.44738614805751475
84,0.44747041979211816,0.4476608390351487
85,0.4473835115406646,0.447229048077769
86,0.44732506648659004,0.4481146699221376
87,0.4472922504974049,0.4476022601378462
88,0.4473606190874824,0.44721180100241825
89,0.44733808352523063,0.4474963449132202
90,0.447323729981193,0.4478198867104859
91,0.44730728297876077,0.4477060287528252
92,0.4473077952189332,0.4474161611424754
93,0.44733408766241456,0.4478442511407841
94,0.44731338374765867,0.44703531525561746
95,0.44724563279630214,0.44763787074686895
96,0.4473170701823562,0.4475475330451793
97,0.44723124093304906,0.4475798680751271
98,0.4472876560911881,0.4470512063513299
99,0.44723751715558446,0.4476163915571607
100,0.44725478366400406,0.44739451097868466
101,0.4472420735521906,0.4471813846774114
102,0.4472639524461896,0.4473286371240923
103,0.4472039350009824,0.4470695222140646
104,0.44722257959728856,0.4471987361673781
105,0.44723067797191784,0.4477211440983927
106,0.4474042756463424,0.4474589712201972
107,0.44723321897510887,0.44737326496600044
108,0.4471879253092313,0.4478606363530384
109,0.4472169961474624,0.44720444194197523
110,0.44722677629936464,0.44784134682472004
111,0.4472263245074608,0.4475572422627174
112,0.4474516293587339,0.4470396237404967
113,0.4471604238670514,0.4471226258445055
114,0.447186393885717,0.44715910273704224
