epoch,loss,val_loss
0,0.4421031077961334,0.28924855505269614
1,0.26853690736049457,0.25336040376360014
2,0.25485148413287245,0.28234731864610146
3,0.2490270448456391,0.2260170015902995
4,0.2478565326612219,0.24087169225005145
5,0.25080466600920887,0.23357535626766454
6,0.2521064721399827,0.24812556588108328
7,0.2558227688956967,0.2501194926170634
8,0.2581925508174732,0.26533209795354346
9,0.2602154746997633,0.2378013258602014
10,0.26338253325348,0.26781160804380366
11,0.2619020312344484,0.2556242383261183
12,0.2606637408737663,0.23884956623274237
13,0.2636534151754635,0.2629733677328068
14,0.260519766224156,0.260413916780034
15,0.2592957403430278,0.22322374535158024
16,0.2605934080073507,0.2284556179997018
17,0.2596313206253766,0.22873565587249114
18,0.2593382111458992,0.24506073346586607
19,0.25959832590517756,0.23664732013934042
20,0.2544308107456653,0.22715434701531667
21,0.2540654630614243,0.2283680066285052
22,0.25705893012621195,0.2543140105474121
23,0.2568957914678071,0.24924894039793316
24,0.2574480100034522,0.23393500735869954
25,0.25580199252518776,0.23624998513557807
26,0.256689663639395,0.24196952843656408
27,0.25512246792916776,0.24436188828191038
28,0.25607708440101845,0.23489049275232735
29,0.25504188370213116,0.24533780099218297
30,0.2555726357132459,0.2287556798426194
31,0.2557559517846764,0.2434953276282486
32,0.2577613765974824,0.22797011303060535
33,0.260436464539521,0.2431264176469263
34,0.26069890503123627,0.2425110363322163
35,0.2568155870354586,0.2430511516521157
36,0.26031814051495256,0.22830971506245235
37,0.2608064793414169,0.23739006287521786
38,0.26045851661764785,0.25723098705478153
39,0.26297537705676854,0.24971721673630545
40,0.26040389595196856,0.23305674117218644
41,0.26147079872813006,0.2359371079314751
42,0.2626397966968717,0.24189277543155333
43,0.26303138956725836,0.2742607853490941
44,0.26343418809296704,0.2518763191943621
45,0.26331984469468733,0.27315978795314166
46,0.2610891507841569,0.23904300510689966
47,0.2597531969364497,0.23971358823853592
48,0.2598803840500054,0.24563853191294907
49,0.26154863542084505,0.24656346298917367
50,0.26015448567268845,0.2871120957369159
51,0.2600498774392401,0.2581640147669762
52,0.2607662017950065,0.24051217692515178
53,0.2617700472951317,0.240633565011009
54,0.26000107202628214,0.23804990803431614
55,0.2595503030596875,0.23036479739667146
56,0.2581509680772801,0.2487151768279095
57,0.25912176565922573,0.2455300014867883
58,0.25875136173301166,0.2417503591847439
59,0.25612994876382256,0.23493159595583865
60,0.25863910218278724,0.22606502704183357
61,0.25696780425224236,0.24976866097104133
62,0.254972132380673,0.24353096626294113
63,0.25341356367326145,0.23006432251483563
64,0.25281285677102205,0.24383995733363592
65,0.250506548594245,0.22971923187653032
66,0.2508593749663561,0.23720121479140774
67,0.25001184480060473,0.22503356634361998
68,0.24831315360850006,0.2250783480069353
69,0.24721239305573334,0.22949989896572806
70,0.24266356644962578,0.24249706741812166
71,0.24154002665041732,0.21559187398871463
72,0.23921174938985115,0.21235640829206964
73,0.2386526799349903,0.23879537248601782
74,0.23215948208701237,0.2093058958685891
75,0.22988381955006104,0.19952660008648596
76,0.2306110531366091,0.22404345498999637
77,0.2282164364850359,0.19737162117733767
78,0.2245052299552483,0.19932361978007251
79,0.2229703122837912,0.19200558880674867
80,0.22305092381371605,0.19195218920852727
81,0.22026860387660294,0.18902586004111405
82,0.22041794950600335,0.19285197882321628
83,0.21601225712520777,0.20052309202548457
84,0.21892238946987974,0.20221381529936053
85,0.21825436313000557,0.20691264941019444
86,0.21834573051254685,0.2062468771903571
87,0.21717684864520645,0.20141138850627444
88,0.21626608374955847,0.19388430766815687
89,0.21318826839936267,0.17882799824876508
90,0.2075500712932063,0.18116000743653846
91,0.2014480260393923,0.17940490080734045
92,0.19629668543119733,0.16366509169896057
93,0.19306100772811566,0.16439978086479484
94,0.1891860557709626,0.14985842561078863
95,0.1822551999261992,0.1596297505526937
96,0.17428321032236824,0.15073531464237752
97,0.16336439780181078,0.1252187627812565
98,0.16039019441597455,0.14448884034654713
99,0.15681523667742386,0.10878411531206658
100,0.157281525609038,0.1142893531884687
101,0.1541781287798412,0.11089893058244522
102,0.16203613412246598,0.1460626204131777
103,0.16303328146712126,0.15150561905182772
104,0.16035275192285559,0.13193111445540254
105,0.16596139384041414,0.17526557799866793
106,0.16262161007241976,0.14648914952903672
107,0.16547129649200662,0.13122783092493365
108,0.1665718025677771,0.1601212073150729
109,0.16725566244130138,0.1339841012851262
110,0.16050275098129785,0.1503417361270869
111,0.16317929932959468,0.12875924560347904
112,0.16558933543791476,0.14805503580522847
113,0.1703339423671114,0.1386585054860208
114,0.1690874374818334,0.14992677321882628
115,0.17123029276346854,0.14264739348288
116,0.17002308472776242,0.17729180659690913
117,0.1727583590563867,0.17129313736694765
118,0.17550563710846837,0.16690279875745256
119,0.18267697314496895,0.15121543094431203
120,0.1782770302680562,0.15018882528732969
121,0.17945329708049448,0.14911366330832848
122,0.17480292536312336,0.16398047064245955
123,0.17938409499328933,0.1515066623385612
124,0.1797329339894464,0.18106017362655707
125,0.17759426636062114,0.15790637555348613
126,0.17485920687596068,0.14853008383309463
127,0.1687924601942945,0.1594984115064386
128,0.1710668187543714,0.13895071166758602
129,0.17061967587618945,0.16410777914214694
130,0.17237511894302524,0.1406958976281627
131,0.17397574828661758,0.14627860030892026
132,0.173179433197141,0.15289897677720513
133,0.17502696407411555,0.15218063199172055
134,0.17560234659308907,0.15475677497026308
135,0.1774981281130289,0.1501429544373537
136,0.1779345999463641,0.14916335733340025
137,0.179564551437636,0.15631538245219673
138,0.1772890908299111,0.16704441677093118
139,0.17948736971895918,0.16618874347606327
140,0.17575817501502003,0.14815837490490946
141,0.17604610977397622,0.17587287337893118
142,0.1741577211478121,0.14275372208421636
143,0.1742117332847859,0.13089753797962136
144,0.17244712512990873,0.15746162475267272
145,0.17514867520480273,0.148838257086248
146,0.1772659724239734,0.1504403979601361
147,0.17613943641762242,0.16250967098413593
148,0.17845635381851604,0.15461348203242745
149,0.17683766619432822,0.1633793660058109
150,0.1790526206191298,0.14895714259278164
151,0.17931974670880313,0.13765635902163273
152,0.18221515595161314,0.15471333578917812
153,0.17871198957686046,0.15779384205061928
154,0.17826011207542294,0.1489912773522534
155,0.17611489775743458,0.153279692998091
156,0.1787157553711159,0.1655095279071743
157,0.1736407467753912,0.13752636188355677
158,0.17183955221938743,0.13754001949269504
159,0.16695328372671567,0.14448215785252788
160,0.16451911103902003,0.14207014138753687
161,0.16769217957166122,0.14125573891913706
162,0.16592147802893786,0.15514661764479806
163,0.17009225263117886,0.1554942202345685
164,0.1689698307680263,0.1481827835266124
165,0.1713977189536234,0.14677730608136308
166,0.17047823342778762,0.14543956971371552
167,0.17150931407789213,0.15148239845632056
168,0.16847388528651291,0.13092775611450105
169,0.1679535518147594,0.14340293751266656
170,0.16639273655746248,0.1397023962603675
171,0.16655693842087677,0.12962912548173278
172,0.16240655799344886,0.13508946478777753
173,0.16389952642057207,0.13830281806156486
174,0.16265632359503363,0.14559007526072465
175,0.16753467727449534,0.14831905278459567
176,0.16420431257940657,0.14589995560927402
177,0.16122760031941988,0.1517240329912206
178,0.16527927675253873,0.13856582532108846
179,0.1639635154128886,0.14617589610989076
180,0.16313812414928375,0.12962092109332699
181,0.16444599489756734,0.13873680995811993
182,0.16629849365048163,0.14239048080432734
183,0.16234170682161594,0.1308048927411739
184,0.16257167004758688,0.13698191085750266
185,0.16554376296848178,0.15682675774055868
186,0.16425903302261693,0.13422523772484485
187,0.1625390544241433,0.13351734204932333
188,0.16319198686304429,0.13311426480514482
189,0.16070244932849947,0.12823796924279168
190,0.163458166016136,0.13930881344875667
191,0.15844321468348405,0.12422955973981747
192,0.1599078970261103,0.1559770903750251
193,0.16165397077906218,0.13790065509970365
194,0.1593012060102126,0.12645177261576068
195,0.15995763204365468,0.13463557973226103
196,0.1560439322325733,0.13105370847558162
197,0.15586947831060527,0.13235322277863046
198,0.15867763911310534,0.1339258387841931
199,0.15848195660200187,0.13628470762319325
200,0.1593030657204654,0.14297584613478484
201,0.1590780696396927,0.1313073529113335
202,0.15520104254074724,0.10949002591241982
203,0.15206890632573655,0.12885332997021207
204,0.1555826700865936,0.16205334333462726
205,0.1598460089483912,0.15784485174670804
206,0.16061093646874897,0.16216015847156615
207,0.1622496550713328,0.13623368754584134
208,0.1577709661073404,0.14681502559735152
209,0.16265971402975443,0.13869495517049296
210,0.16081796050537006,0.13773116861550863
211,0.16127433299159316,0.13167255184487028
212,0.16125134696022236,0.15150022147176523
213,0.16272154772539346,0.13177633249266593
214,0.16051038566997664,0.1407128296435991
215,0.15766189357726645,0.13585139180791156
216,0.15612992897534295,0.13234208001538397
217,0.15466803982495975,0.11166350162208129
218,0.15665944364425943,0.12027704538679278
219,0.1546069031910862,0.13450456758098495
220,0.15667617060930086,0.11788952680544841
221,0.15110181162269523,0.16959029900186542
222,0.14909789267125084,0.13557268428976518
223,0.15030893256919112,0.12555031550312468
224,0.1525683704020979,0.1413222983697035
225,0.15222457090647723,0.12365490961925633
226,0.15386928183685025,0.13601001745447916
227,0.15468737933101703,0.12824660346866718
228,0.15836068651407026,0.12949340212229105
229,0.15971123108608995,0.15539391484452958
230,0.15759705682639316,0.11794292490509402
231,0.15320703258113064,0.13152614255214454
232,0.15538330132170045,0.1397439705363542
233,0.15955993375652214,0.14031159877172836
234,0.15819005048971735,0.1333205708440783
235,0.1599563281592414,0.13225620184985004
236,0.15789663494587708,0.1678673606018467
237,0.15931562483131742,0.13939497503848552
238,0.1569365887664813,0.13179572075242835
239,0.15640087810466535,0.14888361895219737
240,0.15917577933344104,0.12171836809496134
241,0.1588123435582563,0.1430550750589719
242,0.15963413829119613,0.15224974970457908
243,0.15355522805948654,0.13451008823762942
244,0.15575424803672933,0.12246133535737828
245,0.15933720010211222,0.13328740719195217
246,0.15667034825496526,0.12558780364021477
247,0.1518060498124509,0.13253415336670762
248,0.1490133552550315,0.100385270843589
249,0.15261968176325766,0.12404490515456776
250,0.15560434320814806,0.132523150931793
251,0.15790639517663288,0.13178948181268169
252,0.15869487260727047,0.13889480738115814
253,0.1559612223888942,0.13604456950084814
254,0.1571493011692746,0.13864269351098757
255,0.15494585872662842,0.12101940943618567
256,0.1591480178855437,0.12287270174409351
257,0.15968215845829492,0.12674075557826886
258,0.16011225201004595,0.13633028433536573
259,0.16281487906964615,0.11198616960816334
260,0.15895769927647707,0.12491653736949644
261,0.15911298880191016,0.12045960482406307
262,0.15945746961107152,0.11696672163426344
263,0.15907299078052478,0.1463464248958682
264,0.15730185025006985,0.1266032395112447
265,0.15559778705811958,0.1512779032408176
266,0.15507396661622033,0.13843643461676602
267,0.15178412399452337,0.10419706075730985
268,0.1532504144486329,0.1353986382738227
269,0.15328515539343973,0.12582144341813
270,0.1619208015626769,0.16690968656240202
271,0.16166586603662125,0.14365675538439918
272,0.16360408601591928,0.13518011018887632
273,0.15996247496876456,0.14097049948362828
274,0.16453161839846137,0.15581655980896775
275,0.16200963084737333,0.1493094050765811
276,0.158340921418203,0.1660043370380502
277,0.163096418566972,0.1805172511840969
278,0.15885383246527662,0.10640648958505118
279,0.15713039557453248,0.13037710042257958
280,0.16403913174310716,0.13225439772166958
281,0.16537615803597544,0.12542936685649922
282,0.16336547013363234,0.11678161059973786
283,0.17058051482821293,0.1502356715651421
284,0.17162822991359034,0.1551389456375382
285,0.17513304059389975,0.16306989266562055
286,0.17157932401025552,0.14280372772846198
287,0.17047465935325604,0.17061178702845964
288,0.17534070221589412,0.13388660608731143
289,0.17838371637239278,0.15383693734780618
290,0.18281901570512735,0.15966438615675002
291,0.17629858094444267,0.15282432738591864
292,0.1759071292622601,0.14878167469426082
293,0.18317125973592194,0.1638041838628919
294,0.18499703222723174,0.167829988821918
295,0.18458301744895805,0.1593941799081735
296,0.18908266645309638,0.16414197803220415
297,0.18553838074159584,0.16849570700238609
298,0.17805426810279762,0.14686531670216324
299,0.1755801148837905,0.15426784061916649
300,0.17658025912159056,0.16217751837874078
301,0.182920603882417,0.16288698780058075
302,0.18268907549168417,0.16644079897428854
303,0.1826625111236202,0.17181745398750367
304,0.17928247148092027,0.13921533703248093
305,0.1736584305972028,0.13925932292182178
306,0.17440466290478518,0.1565689979799376
307,0.1742458023769174,0.15726185661331968
308,0.17558246300376062,0.1555662037803212
309,0.17431441810820178,0.14824666316105115
310,0.17191660410767082,0.14829111462406094
311,0.16813622917636956,0.14070315172613296
312,0.17028011774436963,0.1354218405903304
313,0.1679499119585805,0.12678254322607346
314,0.16907271724626768,0.14124133536367037
315,0.16720564634478788,0.11681831353143861
316,0.1682698360656957,0.1314558825377807
317,0.17251490761009192,0.12673268852708597
318,0.16918789606997736,0.13360992777980835
319,0.16935468728753258,0.1505283758418887
320,0.17599581422103797,0.13014597263842798
321,0.1776926934396963,0.13525694127089594
322,0.17892482782825173,0.18291266434142384
323,0.18305601823845322,0.14191427626869876
324,0.1826847436054169,0.17076238290696055
325,0.18500808766298146,0.18485949492415857
326,0.18350712497762625,0.13979917892163493
327,0.18396698756276178,0.13856008032522643
328,0.18218903360758618,0.14286109837737396
329,0.18104541046415165,0.1631045876205306
330,0.178625981673133,0.1607969031281715
331,0.17967104236539408,0.15688163700112462
332,0.18263799426637237,0.1513736678010936
333,0.1801602581293703,0.13039464714414978
334,0.18282642283195777,0.1429507964428904
335,0.17978201323062826,0.14178531167353448
336,0.18258805227897662,0.16031177630172158
337,0.18532703868490014,0.16888373589863742
338,0.18425940566236157,0.15801362085419754
339,0.18633823508353498,0.15540260747860624
340,0.18464164907415453,0.13653091248200372
341,0.18564227161954364,0.1666101094966774
342,0.18854791354283607,0.15895562536790905
343,0.18968192156586197,0.16040579909390776
344,0.1932586704353221,0.18319593743396212
345,0.19510804355335387,0.15356062436045811
346,0.19244536870808673,0.1601820349185716
347,0.19432621244922746,0.180514231831778
348,0.19902862147618236,0.16124664229512312
349,0.1951739677430106,0.14832208592622917
350,0.19469399179359548,0.18057400154951425
351,0.19160646237761045,0.20154337339641018
352,0.18803503003726013,0.1796944337773884
353,0.18933970765997354,0.1943174777167267
354,0.1847121620519434,0.14343453993883348
355,0.1779454143925177,0.1571997000691568
356,0.18043522114415853,0.13636455649852947
357,0.18178384355288013,0.1488338152047878
358,0.18469470931445245,0.16640113947334467
359,0.1785076937114028,0.12646418373007554
360,0.180489819294052,0.13405102688368992
361,0.18062019133694274,0.16021015860641863
362,0.1748703165595726,0.1400044104273205
363,0.17240814251110875,0.17227376921333537
364,0.1785717204129629,0.1525754618963766
365,0.176322674442879,0.1531947481431617
366,0.18188995610567643,0.14370419663911124
367,0.18459097472570532,0.16230707940103944
368,0.18864839388619814,0.1480168446306281
369,0.17974680800548642,0.13996239659124918
370,0.18104874518356198,0.17193933919567647
371,0.18234933214523108,0.1583213292346287
372,0.17590611634121311,0.15079878109891726
373,0.1743682908465425,0.16100757006504432
374,0.18628383802176954,0.18840256857852672
375,0.19189904586041423,0.15434924047817955
376,0.18863111046896733,0.1714989323310995
377,0.19037970151003597,0.18789467333973855
378,0.20013864755964547,0.17221187823735304
379,0.19265924193400494,0.14566635777939652
380,0.1890967073376843,0.15742504477065844
381,0.19465147913862363,0.1483559935910375
382,0.1970279928299787,0.15676861424346522
383,0.1905618371565739,0.1634664227710153
384,0.1890789951094157,0.16751180030254456
385,0.18178157195198336,0.1546873908492964
386,0.1829119202963489,0.18170778498065637
387,0.18622789839752393,0.16320377611838408
388,0.1930253634555899,0.20566754893906602
389,0.1915072730755071,0.1523504060393219
390,0.18446655331359949,0.14685228341300605
391,0.18143994585156822,0.16624023599757087
392,0.18053423741264188,0.16283921227282078
393,0.18336935078291247,0.1630345854458051
394,0.18347050294315845,0.2045434142212895
395,0.18546244451363053,0.15841793029026008
396,0.18606196720305207,0.1598799869913641
397,0.1867724629111582,0.1734181662714781
398,0.17553981497072524,0.17112741146209468
399,0.17655992637678466,0.1456990687649422
400,0.17588044040268952,0.15869995886996233
401,0.1756540217531548,0.1296114994262837
402,0.16769125759362982,0.1480271725009731
403,0.18340698529103452,0.15585578885004953
404,0.19589641855193005,0.17436151204680583
405,0.20643229142511435,0.2125428374448832
406,0.20493708673217376,0.18773058125717507
407,0.20580760924051628,0.1698916998827061
408,0.1970986366104946,0.18162232147951196
409,0.19240611948794703,0.1830079344260625
410,0.19249234050571967,0.16791676206020253
411,0.1846060004768322,0.185307421001688
412,0.19121217178561098,0.18253095199060168
413,0.20177566392527665,0.2487649723150241
414,0.2025660248167568,0.19945186375363128
415,0.2167493140845417,0.19315711370784872
416,0.20901147064098938,0.21184975428496158
417,0.1977335487077053,0.12582870931738485
418,0.18985811872385425,0.14347786713763164
419,0.18897655073574202,0.21975771710578737
420,0.18874431146179035,0.15722012451554543
421,0.1879101228103149,0.13876959186618346
422,0.202378261998427,0.14492418278622027
423,0.23099982525834187,0.24782125308614192
424,0.1839002497297368,0.15704547282722262
425,0.18087053764536917,0.15084214015453692
426,0.18177442525247273,0.17624583546697659
427,0.1827374320056698,0.1257908435089745
428,0.18281282873763094,0.14851834495088867
429,0.17497746202590658,0.14946236862632575
430,0.1709904585979145,0.1550866025594416
431,0.1663787434305593,0.18846548789174017
432,0.16609665022505293,0.13683758483291736
433,0.17334599444289223,0.1452368402193449
434,0.17853622795571034,0.15848702538550044
435,0.17808240862657204,0.15295703630571142
436,0.18107832001270152,0.16259825073140285
437,0.1831493911186488,0.14083721163619947
438,0.1848715226485836,0.17008004149018702
439,0.1887766228850075,0.1666703252219999
440,0.19611379360739856,0.1548896093172265
441,0.19749395968653471,0.2221592841888963
442,0.20163391268639874,0.18956776008021997
443,0.2120547060123246,0.19785079982400616
444,0.21551372755089218,0.2007839062884873
445,0.22084593685795728,0.20161377963068422
446,0.22001060844064235,0.20174494621382433
447,0.22479750266711745,0.19966099784080324
448,0.2247642384494563,0.1967487193807198
449,0.22181801012365984,0.20754886930392993
450,0.21511600787540355,0.1819751335418234
451,0.21352395461238413,0.17498958592408087
452,0.21597973358115738,0.1833991236011864
453,0.21267767824990164,0.18255157102222666
454,0.2115563378424001,0.17776530071645855
455,0.2087463585255717,0.20512985168002237
456,0.21000729292762385,0.19270026413096902
457,0.20531178587932794,0.1714716287690841
458,0.20604905270761828,0.19186673072277774
459,0.20523240413066385,0.19057251624793226
460,0.20453016776099409,0.17433041802457167
461,0.20616829698924735,0.1963225343995044
462,0.19940555947508404,0.17428426129104446
463,0.1957371943116522,0.1549986141514024
464,0.19667116033913995,0.16012531899018492
465,0.19412414152160276,0.1681861140722196
466,0.19264119722134024,0.20263492937795727
467,0.19271535000758613,0.16307841320518354
468,0.1919688998048214,0.18897943952802904
469,0.1920476924326775,0.17502183589815418
470,0.1927279147675173,0.15888823850408185
471,0.18982285680510314,0.15401031821361907
472,0.1877559725675371,0.15713184338368155
473,0.18315920791774393,0.1507740325724218
474,0.1837513303612355,0.20257977558796908
475,0.18850744779320885,0.15116271062996556
476,0.18876203052622018,0.182593238469748
477,0.19326906862129584,0.16712127823536704
478,0.19089527486609498,0.15737132673716023
479,0.18657205563733537,0.16105752645569513
480,0.18578875830786243,0.1453278087689832
481,0.18556106149004975,0.17838858072823466
482,0.19033304952365385,0.15670386635353192
483,0.19278288595348572,0.1683084402907117
484,0.19079537393511822,0.14974655937297693
485,0.1884412866613691,0.16231766150960666
486,0.19228292391706314,0.1641490864541022
487,0.19423900993527463,0.18964120476156932
488,0.1973593327715647,0.18231553141411397
489,0.20350645031269976,0.18300695540285264
490,0.19501520779201562,0.18956231720449473
491,0.21109592850156741,0.37858445138730173
492,0.23621054392179744,0.13007746366761316
493,0.18334561955628154,0.11606175300800405
494,0.17441537575997573,0.1678864377137615
495,0.21674450860023975,0.34521070475609245
496,0.2739024136761268,0.2421505523593273
497,0.25779607039007596,0.2332399895494775
498,0.24613229400091308,0.2472103258650765
499,0.2502454259068227,0.2308412136967745
500,0.23837195485054827,0.2285405811819717
