epoch,loss,val_loss
0,0.7784152232826881,0.6719473208986579
1,0.6711549505756942,0.6706419473548569
2,0.6706669471622901,0.6705395041741472
3,0.6704155781874763,0.6716631247691736
4,0.6702144332809121,0.6703835198126541
5,0.670055069913036,0.6700580199692048
6,0.6698266055718887,0.6697783891560635
7,0.6697707158827243,0.6700567202102727
8,0.6698214510103097,0.6700790114481903
9,0.6696254599380489,0.6696161235090625
10,0.6696005524148605,0.6694828520810129
11,0.6694479554778591,0.6692020869953624
12,0.6695944655949411,0.6702343256384187
13,0.6693212130508985,0.6691617419393323
14,0.6691898772023434,0.6691412426506468
15,0.6690917516272628,0.6689003216561503
16,0.6689489587004679,0.6688581350655409
17,0.6688516541981326,0.6689713791294365
18,0.6687417537289672,0.6691320604827076
19,0.6687598092394121,0.6688212301734139
20,0.668736460552779,0.668890958984674
21,0.6686347595749765,0.6692777906208923
22,0.6685855500071481,0.6683896970224509
23,0.6686803945257299,0.6685633873284498
24,0.6468035965639078,0.5578956895022614
25,0.5584628872394268,0.5584316385328079
26,0.558916444284321,0.5579135305298043
27,0.5580483968449251,0.5578849849453688
28,0.5579899667236625,0.5582637501005258
29,0.557957687382552,0.5577922785766771
30,0.5579173341182959,0.5578166975546436
31,0.5579000998624152,0.557735358251737
32,0.5578461745479344,0.5576858145718879
33,0.5578701230873797,0.5578855971258672
34,0.5588518347054358,0.5587176188308322
35,0.5582055794381593,0.5593101918858272
36,0.557851689381841,0.5576479421620598
37,0.557807793309742,0.5576646305065752
38,0.557811722302849,0.5576263727868419
39,0.5577991205103211,0.5580433034955538
40,0.5577548357402289,0.5576935993530873
41,0.5577457896583735,0.5576099338220266
42,0.5577296991315673,0.5579437341494315
43,0.5577310207974283,0.5577994019943172
44,0.5577214021194218,0.5580083653910569
45,0.5577141502739553,0.5580318455745705
46,0.5576803298045017,0.5576748922313416
47,0.5576912032307404,0.5576570712045316
48,0.5577039835145826,0.5576464577394761
49,0.5576826581715034,0.558126329779341
50,0.5576792705841307,0.5577815966566764
51,0.5576555869788458,0.5575907498867867
52,0.5579388057317027,0.5576770684823964
53,0.557640243066603,0.5578708134654289
54,0.5575998270988931,0.5575784668527521
55,0.5576291667340485,0.5576438355421252
56,0.5576319856314178,0.5576299555636368
57,0.5581158282149001,0.5580905242980577
58,0.5580711400892948,0.5576063331363882
59,0.557611463330252,0.5575045436852618
60,0.5576134375393254,0.5574501517397535
61,0.5575950920605087,0.557898819290382
62,0.5575813216529899,0.5574063283688723
63,0.5575742836186334,0.5576090320189907
64,0.5575962214964899,0.5581008734893511
65,0.5575626448295837,0.5581620200978625
66,0.5575978702860604,0.5576057917156995
67,0.557541149089877,0.5577657622951769
68,0.5575480998906133,0.5575267582426606
69,0.5575700385773864,0.5575838857166953
70,0.5575811336167762,0.5576166607130704
71,0.5575034909528471,0.5574105413107336
72,0.5575368558098341,0.5577454435762875
73,0.5575701357826479,0.5578571089122036
74,0.5574944480435537,0.5574610470750511
75,0.5575154959113086,0.55755815878262
76,0.5574866701724156,0.5575598631328073
77,0.557904500601752,0.557427770981282
78,0.5575970949898652,0.5592098791570498
79,0.5662185866195523,0.5577155631819434
80,0.5577202902776708,0.5575641618941878
81,0.5576037755458312,0.5576938250830803
82,0.5575765567675186,0.5581121123677608
