epoch,loss,val_loss
0,0.39642844343190187,0.2558302616593211
1,0.21993283859545665,0.168616376188014
2,0.19392772254159601,0.17126088839350673
3,0.19359181637315157,0.17652027754682015
4,0.19554385308810562,0.16970921593005955
5,0.19209051474654892,0.16988833356816277
6,0.19131887381335053,0.18507719397450773
7,0.19031121189907776,0.18409443434383704
8,0.19295131873717603,0.17846573751652062
9,0.1921297589556681,0.1914873880458424
10,0.1923757420300389,0.18640891551359864
11,0.19174082855359734,0.17668208482233483
12,0.19279071731235292,0.17342945201809046
13,0.18982327334600674,0.18472524975215532
14,0.1900918403213068,0.16974542936238135
15,0.18876162368497498,0.168615277347926
16,0.18715483666979058,0.16197531181663252
17,0.18700500060137895,0.17480812107095967
18,0.17870565599424662,0.1879103154226279
19,0.17604448219878877,0.15937905237019862
20,0.1691499155142801,0.15982099387856477
21,0.16580201162220382,0.17575714811859117
22,0.15997715138917346,0.14439230395191377
23,0.15522608377760072,0.13599877095918722
24,0.14904566761627377,0.13618154352752826
25,0.14379000424635974,0.13245315941516678
26,0.1399136857032109,0.11877945744106877
27,0.14066695983258845,0.12807198447464202
28,0.13891689986181108,0.11659805845372208
29,0.1368163241673526,0.1342765257091812
30,0.13257304033477435,0.1183195001053923
31,0.133420610194393,0.12320697615724337
32,0.13516243763393063,0.11775165239397521
33,0.135227439360772,0.1197878002720549
34,0.1345605628935696,0.13799771475998923
35,0.13160652540427603,0.11210317432221786
36,0.12794899564090487,0.14185338570856162
37,0.13243896263442356,0.12478543680393517
38,0.12924736571445358,0.09890275893713794
39,0.12888955142346026,0.1160356832437376
40,0.12965838824042217,0.12643508110327709
41,0.13215454477522012,0.11460094671364177
42,0.1333212838511911,0.13997822362509127
43,0.1334517228124525,0.11522948320281722
44,0.1318050527827536,0.12732915325647465
45,0.1326459568949769,0.11497425248562677
46,0.1332352247735341,0.12063675689574951
47,0.1349654506615026,0.11883543729311666
48,0.13657700833227995,0.11693087948196595
49,0.14480033598774725,0.16272011109949006
50,0.16941195277037094,0.1507603673068858
51,0.21299105939521587,0.21859394603106763
52,0.21052666930117006,0.21015204964374687
53,0.2031019338243585,0.22737858768467276
54,0.20120767416130247,0.22462950742141224
55,0.21366354604240514,0.199478167020249
56,0.20663548421433314,0.13556213143569049
57,0.20306156713852017,0.2025151044342023
58,0.2185618941553777,0.22235895667428
59,0.20985290999237677,0.2084858046334469
60,0.2144113328727744,0.10760537784872981
61,0.20896274953199137,0.22208988253724038
62,0.22517188491938497,0.1978375325427812
63,0.22241418739016966,0.20876232258852015
64,0.22246487739739373,0.2133991059677377
65,0.2224806428974052,0.19023448451118574
66,0.21988115316445975,0.21180364080273267
67,0.2185495796410157,0.22318268377383862
68,0.2123467941209376,0.21714653823915767
69,0.20906309597640874,0.2129229569797358
70,0.2149922023895833,0.20433911752917208
71,0.2171974836541213,0.21209736353031933
72,0.21505170467969992,0.20960521867356152
73,0.2208320296300258,0.20942462157478647
74,0.22331621889158976,0.22157959047272718
75,0.21514782009067104,0.22579531088153867
76,0.21644872136944107,0.17971913007271037
77,0.2197057374959274,0.19965384408960968
78,0.21835779966257934,0.21300322877062336
79,0.22005875761226878,0.14644326924125134
80,0.22222263433878942,0.2207571876241922
81,0.22052355222016884,0.20684070482955924
82,0.21810457963261196,0.2003494135347425
83,0.21823661447428971,0.1922456486519623
84,0.21345911705963236,0.2156990035227555
85,0.22080913546988717,0.21416439291239725
86,0.21510193750059767,0.203151243461712
87,0.2202849869521783,0.2057781787537738
88,0.2192310492465679,0.2116436266649776
89,0.21850182993901815,0.1948191226234376
90,0.21825148655975657,0.20905752041345518
91,0.21744881562596793,0.2124514738075735
92,0.2182251646531095,0.19660866427534476
93,0.2169989264375872,0.21098281948841174
94,0.2197162119461764,0.21839461139834765
95,0.21842427133060663,0.20272511796586234
96,0.21685995713031167,0.20332404254879083
97,0.21818763219552645,0.18542648896563213
98,0.2168416834230141,0.20306724576895502
99,0.21671708055037103,0.2003958067653117
100,0.21629713489402302,0.2153635695517863
101,0.2194010906642099,0.2063046845636127
102,0.2102387383532562,0.19086122619842297
103,0.20832312768466657,0.1934578465187559
104,0.20843185536521708,0.20821793370342856
105,0.2095338805711908,0.19460387351527964
106,0.2062830875585262,0.19069692002052197
107,0.20787045987937852,0.2027187960864807
108,0.20765644069507921,0.20922546686153293
109,0.21045179341694148,0.17067802080556738
110,0.2085247353690086,0.21083195082955034
111,0.20230774725262496,0.2034801729640908
112,0.20944111142977537,0.20263277196517213
113,0.2069002374423017,0.2069530265248471
114,0.2083432025117554,0.1872175092431816
115,0.2102121009166054,0.1963764309718464
116,0.2070431704524991,0.1990400013861547
117,0.20710734321738034,0.19506561079877704
118,0.20638857177681297,0.19449774898594538
119,0.20805215108678113,0.201145229065804
120,0.20665375903236877,0.2231296497531641
121,0.2080536748615386,0.21530529350959698
122,0.20423640937601728,0.20274094577464138
123,0.2102278262007532,0.19053141354056166
124,0.2113764930567105,0.19640107886849564
125,0.2077280010500972,0.19878789667266508
126,0.20786596798032023,0.21906713668577485
127,0.20984915192488382,0.16428296632576667
128,0.20899916941122854,0.18706854806232376
129,0.2064805394537348,0.20540211626696794
130,0.2130586290173679,0.19661131547065636
131,0.2070552732059948,0.20871657204844393
132,0.2117691499461754,0.20536823783602035
133,0.2076883761705064,0.20916117194984124
134,0.21271165220333424,0.18647460991130066
135,0.2049196500161426,0.1552924393972451
136,0.2097210603878557,0.19933908007562678
137,0.21088601041326133,0.16292830537225472
138,0.21070957612648283,0.20790339575899616
139,0.21227392228506356,0.20439725388620628
140,0.20644925195845865,0.1977239773089056
141,0.20604722338209716,0.21162196558671573
142,0.20920958321133581,0.1784060898736037
143,0.20622734883599145,0.20151506104427902
144,0.20944028807212886,0.18159582586437112
145,0.20546095773613424,0.2058246142533038
146,0.21051123792485749,0.1771325388689538
147,0.2128758847499065,0.1769767493103655
148,0.20871345613369172,0.21952759439821026
149,0.21038573459803248,0.19748543048808212
150,0.20557009458815834,0.18550563173775797
151,0.2100425357941529,0.20972405516357995
152,0.21114797996197768,0.19249288114441976
153,0.2086571997893657,0.2072195314170812
154,0.20897910787428406,0.19310515909657858
155,0.20876702392916027,0.18381361031776916
156,0.20797293013829787,0.18933995106884505
157,0.21015532016694594,0.19249548718933054
158,0.2080991805272756,0.19995179557151088
159,0.21152073673183303,0.19934830330635678
160,0.2113672677549622,0.20667900564920835
161,0.20918548878410356,0.2071269536192434
162,0.2083979370705277,0.17406233562995999
163,0.20867127366512894,0.19042932369761703
164,0.21058355942428064,0.19927669243024104
165,0.20938433191294578,0.21446644754135052
166,0.20533045509652936,0.21257146790729514
167,0.21211018227487446,0.20339580258941123
168,0.2129390380210537,0.1967780198534361
169,0.21016925958087213,0.190693067417619
170,0.2078309518267973,0.19711869552837363
171,0.21048213817852196,0.14723640976689797
172,0.20721882601960195,0.20047178125889545
173,0.20544952146417136,0.19508900668033954
174,0.2067200520353542,0.20109596478016994
175,0.21308336851241397,0.19991096897725524
176,0.2095502076222361,0.2379789793218509
177,0.209548574384692,0.1862355665654391
178,0.2111042255549122,0.2042414263984587
179,0.20581613968518808,0.1937423985283866
180,0.21213609013530751,0.20168437124851094
181,0.20776209087787773,0.2061565743719581
182,0.21022896226837956,0.19276249679224455
183,0.21237165424272977,0.2034448399469433
184,0.208905099229299,0.19442332832946868
185,0.20748979639973666,0.19372844920679633
186,0.20783607989287586,0.18926205844181018
187,0.20760201649080745,0.19716630158644544
188,0.20595032814071237,0.20230488383873485
189,0.21061194405781566,0.19852668732616408
190,0.21018970569522738,0.19704907919679368
191,0.20710411141637705,0.18939473392366893
192,0.20870513497270363,0.2046281416865908
193,0.21140514017580797,0.2002003169379652
194,0.20310710002478363,0.19886463077264033
195,0.20631036762710955,0.19977694413468136
196,0.20803089019396512,0.20530662395724558
197,0.21222386892131573,0.20608803301743853
198,0.20784192830681514,0.21466669655495396
199,0.20664193195333297,0.2066110849451059
200,0.20601357913596166,0.2097356372116679
201,0.2100118565753543,0.18731939272797757
202,0.20711125379248108,0.2214572033782408
203,0.21104260356568222,0.1983366708588017
204,0.21102686787394884,0.18740516204766242
205,0.20977098297932262,0.1899032162439193
206,0.207191470227272,0.1991634654923509
207,0.21037376130656374,0.20045656918444404
208,0.20865787231593394,0.17605589552478895
209,0.20771425782288197,0.19237620045372888
210,0.20812641869453216,0.19596537196128125
211,0.20945222362232724,0.17573632698597264
212,0.20884858292164943,0.17998892087680482
213,0.20751468701769027,0.19295998418669863
214,0.20110241385053196,0.19871537114516336
215,0.21071577204955663,0.2246079582841545
216,0.20795118943940727,0.20151125763755384
217,0.20625222047610725,0.20103798206857368
218,0.20292043202310253,0.20025124583737344
219,0.21028986137857636,0.2174512038879161
220,0.20221777986005532,0.2243815084541512
221,0.20843624700900082,0.22530456037858196
222,0.21157977699661712,0.18159238194374935
223,0.20726959036885023,0.20437696470269653
224,0.2089394585941907,0.2054136386045623
225,0.2059369437801514,0.1958987869633966
226,0.20389546242525441,0.20491510038076655
227,0.20852674297887167,0.1946712334676342
228,0.20789194716323767,0.17446702427062447
229,0.20797362962334182,0.18943232102665078
230,0.2067211737199653,0.1878297979448758
231,0.2078182744107944,0.19419412316067913
232,0.20744829244917626,0.2125885422035005
233,0.21195952249445218,0.2004788002468228
234,0.20790608445231576,0.19402152059956998
235,0.20720177633370712,0.18919905174550053
236,0.20722085377462,0.17477540583618062
237,0.20859851041059796,0.20414756229051756
238,0.21127812771035803,0.19462885411828168
239,0.20655954216452813,0.14467612462854798
240,0.21100831614564552,0.2039391122752508
241,0.20996867044628573,0.19971052194403774
242,0.21187544028631314,0.2076443331911513
243,0.2122152780683683,0.19791703872917765
244,0.20940956519804985,0.19246172292221222
245,0.20870712852115922,0.1951111937684155
246,0.20930573094091257,0.21030472723536353
247,0.20782540282673784,0.1882358308302293
248,0.20931439598401388,0.1931553846423609
249,0.20984902892181342,0.2021719059703288
250,0.205975505942516,0.11259510522177582
251,0.20585528177489862,0.194290606038911
252,0.20441663228898502,0.1927434534140243
253,0.20277770471384676,0.20093008820570257
254,0.20589810518695295,0.205571362303295
255,0.2117817792341673,0.20709263657432142
256,0.20830902759786799,0.1941275936393354
257,0.20144324242580328,0.19094196318309892
258,0.20737569527529318,0.18421938428515605
259,0.20909581610934436,0.20767850971588867
260,0.21000289074856218,0.19352289695577915
261,0.2105909359636162,0.21320457508362647
262,0.20950099239222628,0.19544483270810736
263,0.2085465317864498,0.2031411877417997
264,0.2088656242219188,0.21457776689538827
265,0.20910802741738246,0.18847843150783922
266,0.2095406748932138,0.21678287901084256
267,0.21118433717831814,0.19777631746706478
268,0.21040525039930424,0.17076272008780335
269,0.21301976005307777,0.19112885319396278
270,0.2098033330220875,0.20736933400194382
271,0.20843646494890575,0.19367086966158184
272,0.21000425397253913,0.19055340466719495
273,0.2108805555341055,0.1877748261734361
274,0.20462272413593116,0.19939269410077284
275,0.20472112786676958,0.20911871613059912
276,0.20251491422549808,0.205229185021761
277,0.21037874181124327,0.18830075744765898
278,0.20706903401741403,0.20391117538536452
279,0.2071333132821212,0.2066242465280414
280,0.20875009621004406,0.2031468084786196
281,0.2101041719758158,0.20846307222402838
282,0.20770562420800912,0.19883962121410642
283,0.20663113678864342,0.18894953498853503
284,0.2113900240674484,0.21046157554086023
285,0.20467426459923638,0.1733174373431759
286,0.2092217002138436,0.1791735696411547
287,0.20818343763943198,0.19529903543070723
288,0.20555402414439966,0.21257310934017848
289,0.20522043877820983,0.19965942847324153
290,0.21257352764062362,0.19874964929652572
291,0.20921942005626304,0.1933853139346664
292,0.20854795542206886,0.2114421124404683
293,0.2095437875980858,0.20175450029999795
294,0.20645646310502963,0.18804867310418608
295,0.20348462926076472,0.19703904194161942
296,0.206818995474697,0.19791331990741798
297,0.21151673271477842,0.20073707654613535
298,0.20988522598640524,0.19069749096903918
299,0.2060019927118703,0.188914594917478
300,0.20295721470571154,0.1851337982522472
301,0.199778789498037,0.1980037060467013
302,0.20852258640656368,0.20098708163073614
303,0.20109627900316085,0.2117761313186072
304,0.20379108719402653,0.20026583016953697
305,0.20195665021391987,0.205707991285501
306,0.2084589551547639,0.2026362743496236
307,0.20411966859305697,0.18896516574210037
308,0.20629981701537,0.20195226351294635
309,0.20377741557219142,0.19606303971116715
310,0.208686355587771,0.19525522842779813
311,0.2149872680922016,0.19143579789711532
312,0.20979854451428406,0.18748884379346256
313,0.20659932915231496,0.20611560391739964
314,0.2106656209259725,0.1988658018604262
315,0.21022916855000193,0.1943344888413338
316,0.20614270432342252,0.19981410329089733
317,0.20973119058673806,0.19846947767551998
318,0.20461213276635923,0.18998863532163068
319,0.20584848613666593,0.18341998323127803
320,0.20708462927969906,0.19970606241578084
321,0.20363971921537133,0.1978293542633305
322,0.20184199102550482,0.21121641213769696
323,0.20459044824758593,0.153263609782861
324,0.20068365044826322,0.20287487264825493
325,0.20788247178164984,0.19431194643054125
326,0.20565181170745814,0.21432300550597055
327,0.2072971761286211,0.19764870555737682
328,0.20828429548193417,0.1949716359612127
329,0.2078020830961059,0.18061532020192497
330,0.20780275895488826,0.2021118216069552
331,0.20837784148782468,0.19948641546570417
332,0.20209724413786384,0.19680161144946068
333,0.2089609623812943,0.21266483993584845
334,0.20564313441645996,0.1838746349479424
335,0.20035603535261085,0.18672221720265703
336,0.2062553290268786,0.211247299234041
337,0.2053624974499694,0.2054041073184928
338,0.2090209042288655,0.22485678748248972
339,0.2080729883625734,0.20037351120572064
340,0.19867013736094216,0.21020552125519057
341,0.1998022622782454,0.1893530601978114
342,0.20311207243864485,0.21525122799220384
343,0.20439795873981775,0.18397152020457042
344,0.20883381264887269,0.21651991876025978
345,0.20574968155148884,0.18096194823802506
346,0.212582803172745,0.20285412916162396
347,0.2001520903210798,0.18365893026647742
348,0.20317276016318445,0.18838433223911036
349,0.20826891610781542,0.1957405239531819
350,0.20541721066053537,0.19338537218679852
351,0.205269630066306,0.1799226808637357
352,0.20759916171538745,0.1968896014420367
353,0.20886404864150557,0.20807725707423338
354,0.20636697264788725,0.2003640451813271
355,0.2054143535445253,0.19552490181027196
356,0.20245537685630896,0.20155731438649577
357,0.2077290155529547,0.18838612663529478
358,0.20706339385047806,0.19956276785132446
359,0.20643926019684303,0.18967002965421684
360,0.20958429449301164,0.2062307364750586
361,0.2078354383716814,0.21972710305814586
362,0.2078622880873444,0.22006717320728603
363,0.20365342574654152,0.18912460494436611
364,0.2116091979934062,0.19219217934567062
365,0.21111715254452018,0.19468918160462625
366,0.20646557763969298,0.2017671101636179
367,0.20782004053787076,0.19812995789318266
368,0.20560842147953123,0.20981193614363577
369,0.20910253129202686,0.19881783009469273
370,0.20745833322322435,0.2015832166857106
371,0.2095195816920625,0.18662787876264636
372,0.20808214328283792,0.22123271266870265
373,0.20701144988850342,0.1929002323767851
374,0.20668907382850835,0.19909380703294194
375,0.2102019272381358,0.18078740980790747
376,0.2103239963714072,0.19427524062480717
377,0.20768963708747015,0.2066366109164945
378,0.20383281097840444,0.19644724607655828
379,0.2078345855750102,0.18737689483890219
380,0.20598962398277199,0.19148202338083203
381,0.2057769584188835,0.21394335501478146
382,0.20789239126489126,0.2024274009273291
383,0.20361207563766567,0.2208275584226155
384,0.20823715464602843,0.20078501259377365
385,0.2018897810475908,0.19630078764392714
386,0.19695716531132812,0.21040951410615735
387,0.19623737158082563,0.20506384123143193
388,0.20640851986958542,0.20027517279773221
389,0.20277436021908962,0.14028771548004912
390,0.20581020539303382,0.1548785150004073
391,0.20602450640105324,0.20667100017383142
392,0.20380575957891944,0.17051384950258078
393,0.20607316582132396,0.20221477468228283
394,0.20535883517693176,0.1811316586448719
395,0.20168015834608144,0.20140819610247201
396,0.20951514885865813,0.20363194897076983
397,0.20769198974676364,0.19885868272775728
398,0.20559906532510008,0.1888178088647132
399,0.20678737429048805,0.2083171784948343
400,0.20849224642443237,0.21239278269689105
401,0.20797918051135816,0.1935979422496451
402,0.20733983228675468,0.2070076963566567
403,0.20732743086384164,0.21716459641187513
404,0.20609889970385104,0.19257996213088002
405,0.2086427406036406,0.19032405475602907
406,0.20782550720633458,0.2190068281346075
407,0.2115616497399805,0.20046210149045807
408,0.20837791349521453,0.19457160579753657
409,0.20895842151294985,0.21269605075315687
410,0.20995028188331522,0.18713451903122283
411,0.2095120660930896,0.2066385627804352
412,0.20897328121651657,0.19492374492284342
413,0.20750151325663407,0.2060174692448614
414,0.20689792816134855,0.18603567008720012
415,0.2034446574378309,0.1940630860068051
416,0.20624031829271766,0.18785201775199706
417,0.20737998804254687,0.18855961486873613
418,0.20789248929273405,0.19353567603637406
419,0.2062074954388477,0.18643008853472776
420,0.2074278192125636,0.20447598811718265
421,0.2078699526532615,0.2128741003766997
422,0.20763394554599013,0.19826562762636787
423,0.20709241689633218,0.1941295341892137
424,0.20806681816812328,0.13256126103574306
425,0.2064236284618517,0.19051544634065198
426,0.20449020101023999,0.20149164318144558
427,0.20209356948590393,0.2092119055346607
428,0.20578921107139042,0.1913908123146763
429,0.2086048420789621,0.19651142248461917
430,0.20725393432864753,0.20363553512867924
431,0.20621073074478039,0.1974178466184363
432,0.20647502542554522,0.20050869890339468
433,0.20564715744708653,0.22183565591956653
434,0.20733629436873133,0.18059779249643282
435,0.20592239823975533,0.19363544927211662
436,0.20806666597616758,0.1978216319805821
437,0.20491342452301872,0.19313738967314797
438,0.20668596359525176,0.17896461792601875
439,0.20897986466209476,0.1893722372160432
440,0.2058959384110096,0.1914141360896727
441,0.2005536913258328,0.19688975981538842
442,0.20599907386800845,0.210231192827507
443,0.21025695350411222,0.19376137468084728
444,0.2095694438599759,0.20221633956294974
445,0.2029279835260124,0.19966507511949952
446,0.2056630632574324,0.18075206822876677
447,0.20633771878888282,0.20271893226686385
448,0.20623864523834176,0.22080576797357768
449,0.2082051280722153,0.19292126109069413
450,0.20532692708283495,0.185151579653831
451,0.20730844046846092,0.1834195572250738
452,0.2031421246681568,0.1879707848875186
453,0.2065889292942296,0.17962061536763724
454,0.1989238855036662,0.19622780276784393
455,0.2021955031243493,0.18510790583225528
456,0.20890476197290192,0.21217218140212213
457,0.20734160769876722,0.21842454997168437
458,0.20766094833803025,0.2272448418360577
459,0.20807957942251393,0.19541443390411567
460,0.19707636017617372,0.1598831793291887
461,0.20580371201848335,0.17978059855049391
462,0.20142967215211366,0.19003104315607589
463,0.2057505641296375,0.19961097563639718
464,0.20621553619952795,0.20145021103787064
465,0.20484271519880692,0.20494694722009252
466,0.1997391602320732,0.19796195754453527
467,0.20262228923557188,0.20455731506787989
468,0.19669285007446505,0.20555668951680364
469,0.20773692601483218,0.18227954820421802
470,0.20084495901418248,0.1955188531972521
471,0.2028238752113877,0.18478767304507032
472,0.2077975841991002,0.1992803490599404
473,0.20877572603756003,0.17434169671953242
474,0.20588334367203293,0.19732458697780436
475,0.2029863404427215,0.20135337200189257
476,0.20458119974243077,0.20284451920636168
477,0.20783194579737935,0.19855264553707608
478,0.20665119541920632,0.19984018955535557
479,0.20377699467990038,0.20414169606676982
480,0.20145550096254172,0.2052234803821124
481,0.20726501263922256,0.19597196997670366
482,0.20405067027889662,0.15977664458276536
483,0.19911132925908437,0.17162598232020518
484,0.20378989290645558,0.1889154295942025
485,0.2071034064401778,0.20091263353589395
486,0.20480556179770082,0.1918363943049168
487,0.2074771479969259,0.205721728250843
488,0.20215276050732003,0.2160959250831002
489,0.19967248634123308,0.20683034433562075
490,0.2126635409010162,0.21815367942733283
491,0.21463176482420365,0.15814942696029594
492,0.21015360007445208,0.20279690204592513
493,0.2019809368941233,0.19958111008698298
494,0.21112484408082435,0.18811894631000042
495,0.20778768797882263,0.19376141235126504
496,0.20777216615925115,0.205679078951725
497,0.200049085535115,0.17703794600367076
498,0.20685640557838095,0.22966855039912693
499,0.21180553596428067,0.20200379472740448
500,0.18962668492306145,0.17116783220606144
