epoch,loss,val_loss
0,0.7617134979064707,0.7369242771083949
1,0.6840944662511491,0.6476488868928651
2,0.651795300267202,0.6596972388174934
3,0.6490058804111039,0.6370485657862819
4,0.6487627041330345,0.6497705098956047
5,0.6484121232152843,0.6347744557080348
6,0.6484871479532988,0.6365098551962445
7,0.6470881487778146,0.6404625215488997
8,0.6467467906901971,0.6372328191736879
9,0.6470695852185134,0.6371439825199492
10,0.645458000717308,0.6433261685138061
11,0.6452954281910622,0.6348379815104634
12,0.6455422432111989,0.6369989337936197
13,0.6453508415477548,0.6391295205445956
14,0.6446529174927804,0.6416199294337157
15,0.6446547996368911,0.6403411737839444
16,0.6462307879917151,0.6366807144273429
17,0.6459576330548948,0.6400684349726953
18,0.6461106393691733,0.6461230770941315
19,0.6450212080177548,0.6409684401755269
20,0.6457557924312177,0.6389869466106441
21,0.646841145390801,0.6408980861364996
22,0.6455657009264644,0.6353889822771724
23,0.6456325288823278,0.6440654507093573
24,0.6455567199692166,0.6376638534789774
25,0.6466075360632058,0.6358846454236483
26,0.646761984395371,0.643966855218115
27,0.6459146699459433,0.6434929936348027
28,0.6465823520287621,0.643107883979132
29,0.6461512356115092,0.6409579353155634
30,0.6459342665809522,0.6390626900480221
31,0.6464636110001617,0.6390953357518895
32,0.6469182316109622,0.6378852028308558
33,0.6472633563214355,0.6432358215621069
34,0.6471500030810313,0.6504505090386076
35,0.6464128402068461,0.6388495412979337
36,0.6470748969881559,0.6460539540062764
37,0.6457425423329778,0.6350835359463469
38,0.5463830647970751,0.5396167584639793
39,0.5201490264502074,0.5089107050891928
40,0.5128845941725013,0.48334977178942434
41,0.5148989768932573,0.5115438443332934
42,0.5133528079417684,0.49224396629792644
43,0.5144060427288738,0.4957383032991083
44,0.5119448312871653,0.5199170475553695
45,0.5142079962433862,0.51048959223605
46,0.5147213352431687,0.5103426799119318
47,0.5128601789831829,0.4884488149571814
48,0.5133994445383406,0.4961140443465798
49,0.5199422115783134,0.504812418379554
50,0.518512620068759,0.5018644526941907
51,0.5250508234464675,0.5206068825938143
52,0.5281562025693776,0.5047079196527612
53,0.5176149919617186,0.4856285114832158
54,0.55120927893477,0.5090834527102247
55,0.5162095601181332,0.5128705431225739
56,0.5188281101931771,0.5117468818869286
57,0.5157816287496393,0.5155576434818515
58,0.5268526124558766,0.5210064611241115
59,0.5169227257740202,0.5037969284247674
60,0.5135666726233005,0.5056781448664962
61,0.5200396208502025,0.5070155842528159
62,0.5139717065173087,0.5097026882109533
63,0.5111746389588578,0.5101000979460405
64,0.5132570825130057,0.47972984486145587
65,0.5128930425353283,0.4991336098644991
66,0.5122835777646346,0.48445679817786813
67,0.5134451313079785,0.505027222887399
68,0.5121823132014294,0.48653514623265615
69,0.5133800256333286,0.5181105066070241
70,0.5109382745244806,0.48704573171008925
71,0.5134040939745953,0.5054606450008612
72,0.5116192975180517,0.47949609341542365
73,0.5181109763259034,0.5084237376817494
74,0.5102184507534278,0.5089523700295985
75,0.5108007457282999,0.4736362873519982
76,0.5124618293260403,0.492942782773121
77,0.5139197823550585,0.49276766025747193
78,0.5205163176802041,0.4961596749011418
79,0.517603526429402,0.5230292290237445
80,0.5144738443344712,0.49316720402231345
81,0.5111978464037014,0.4824969840030926
82,0.5113147374847048,0.5124547644308823
83,0.5124890937817563,0.508883386309352
84,0.5101279753456108,0.49246006025605626
85,0.5105072927060459,0.5019512187333773
86,0.5108455749962637,0.4955044480036259
87,0.5095538760332181,0.5045877872203971
88,0.5103028821859429,0.5156649293491194
89,0.5095389099310723,0.4812328458632083
90,0.5101573616742706,0.49685639759265443
91,0.5134432140609725,0.48940323134435854
92,0.5108410221019046,0.5032468002521813
93,0.5117925540220252,0.5213257739321867
94,0.5111223434944518,0.48986821397609753
95,0.5128039408216087,0.5033409890454871
96,0.5109022992501537,0.494085356604893
97,0.503817012127069,0.46861602282467657
98,0.5021403848553161,0.4854106750653876
99,0.5022732674432315,0.45968571204130537
100,0.49902255962983216,0.47663905866144207
101,0.4789705892427743,0.45606985819932505
102,0.47806380826125233,0.42711104465547095
103,0.471629608139622,0.4420685624173051
104,0.4829043428674876,0.46373630898998025
105,0.48564650407798,0.4632356283743737
106,0.47876134757801214,0.44792860372384513
107,0.48033865388158226,0.5023794188542731
108,0.4853968197802941,0.5052716760251498
109,0.5214926411064981,0.4770281392707539
110,0.4757566527544642,0.5317370211315983
111,0.5307239474986287,0.49926971838807344
112,0.48891826299168795,0.430599941003953
113,0.5205085768664388,0.5183584150500249
114,0.5218788707951942,0.508507598782489
115,0.49588200729861437,0.5503144558010462
116,0.5373709116646236,0.5025748188747792
117,0.49742188905592827,0.529946358187893
118,0.5184756635928707,0.4729767323198898
119,0.5131716815401896,0.5298788048144674
120,0.5284372657227764,0.5386097802359379
121,0.5048969803477744,0.5270519198257337
122,0.5057990729665871,0.4665033256292531
123,0.5091986873452898,0.46830632066576144
124,0.4978095230391081,0.4512171360716259
125,0.5022351593255615,0.45267515784186835
126,0.5211888762186471,0.5415282618980664
127,0.49694284874138883,0.5084096514388342
128,0.49945430862579604,0.4607685586083283
129,0.5129981478936761,0.5275798614982931
130,0.517869138126846,0.5314062293016167
131,0.4988226876032057,0.4256356377816144
132,0.4968169004344445,0.521125390525869
133,0.49630945094293066,0.4255386805948349
134,0.4890651523376064,0.5188778281070722
135,0.5031606244097511,0.474134229611673
136,0.5237548663962087,0.53242502061043
137,0.4847702250587378,0.46828637684341856
138,0.5271636881916929,0.4378578313571219
139,0.49145122788411727,0.5245875680456034
140,0.49775768288796085,0.45880403185605817
141,0.5054281138235049,0.5154302909605694
142,0.5028486504710074,0.47657654409156414
143,0.4837672750321891,0.5296546489870633
144,0.5221671589153657,0.43266770403594035
145,0.4914111146371332,0.5295070093874867
146,0.5296187606289519,0.4283056314902317
147,0.49596918676253987,0.5104927140469615
148,0.5003394193643574,0.48344505647081226
149,0.5116339598080333,0.4645733060146187
150,0.5154954073764533,0.4399870209507615
151,0.5013073675995536,0.4941147517856878
152,0.5183351326236527,0.45992809110677607
153,0.49271121239967103,0.5169479277722931
154,0.5161657783029368,0.41259013790263843
155,0.5049126018270504,0.537515728654312
156,0.4947534813869485,0.5605682356205152
157,0.5188519650106903,0.44529149606647506
158,0.5048125616485457,0.5214060258470188
159,0.5067611736931104,0.47012318109750934
160,0.5141940890289516,0.5464341781839387
161,0.49292699392322153,0.47194590120213936
162,0.531430468213358,0.4373967251207477
163,0.48010141735406614,0.48734248841759154
164,0.5308470916833808,0.5321747404482765
165,0.4988215006083893,0.48335835626958956
166,0.5106245837718558,0.5362439052552431
167,0.49253783937838436,0.4816906174149397
168,0.5042742404529897,0.5354894588759497
169,0.4915230756612133,0.4378153228251691
170,0.5052756889522981,0.5286847690992122
171,0.5028985109355906,0.4619651998745332
172,0.5274371401869136,0.5278022837337774
173,0.4903601100928873,0.4803098850628477
174,0.4978264812514079,0.5383662271189144
175,0.5404761370709188,0.5366109724391043
176,0.4958497346948377,0.446705108236495
177,0.4917686057629155,0.5342014231075898
178,0.5359935351579691,0.5297618954785716
179,0.4827549599772163,0.4597469927432881
180,0.5144070665256011,0.44633763094727413
181,0.49470464999584274,0.4740645385625895
182,0.5156393532010672,0.5059192008923242
183,0.5189264036601873,0.5343997093195415
184,0.507905918798096,0.5025401378157766
185,0.5328477491125119,0.5550947998956892
186,0.4893026850063452,0.533508468822127
187,0.5285712492218215,0.46413356030467184
188,0.4802222517278078,0.51349880289354
189,0.5299510975940812,0.4367471717433282
190,0.5146568494735004,0.5191877029877341
191,0.49976791692771116,0.4709284368376141
192,0.5214257719133684,0.5458194358008248
193,0.49727483127090477,0.4240985776414623
194,0.5159768887894521,0.5490459061882679
195,0.5034063694526633,0.4940436803033809
196,0.5206475772684236,0.5473421753017378
197,0.5183350750677687,0.5303847126915592
198,0.5233944558577953,0.4523904610781003
199,0.4978684313434491,0.4919703415085598
200,0.4982704877329292,0.48658179514692257
201,0.5139483585179472,0.4817448673092105
202,0.5329817684410478,0.5112454970709056
203,0.47638100495250774,0.446322839092625
204,0.4759485048713158,0.4818854956243014
205,0.5054394538454015,0.5407661758451454
206,0.48899913922869426,0.4748591838761776
207,0.5014710223360314,0.5272836266725008
208,0.51817831579301,0.5157809083915265
209,0.5161518750311754,0.4243926602785476
210,0.5138545113501789,0.5404359353228451
211,0.5032600241361095,0.4711686519063545
212,0.5280300377608298,0.5139314337518146
213,0.4842497153486089,0.519733921010944
214,0.5091783537400617,0.5096241868238517
215,0.5023143280276673,0.42456617217507997
216,0.496309465820269,0.5220684148988671
217,0.5294344641512437,0.48050266527809676
218,0.4977403745400629,0.5099630210469253
219,0.5218506855168026,0.5289730809293776
220,0.5085852246680896,0.5397007220263733
221,0.4969666688609943,0.5099238728855949
222,0.5251173761537035,0.5385603088041695
223,0.5093240184630516,0.47577908980912265
224,0.4980118126510907,0.5072678979118697
225,0.5098668424178847,0.4839032673421768
226,0.5235866426016025,0.4342664566534941
227,0.512955049101969,0.49721194186263323
228,0.5164315892185429,0.5470567644818524
229,0.49883345948706426,0.5148175534246094
230,0.5115892472717878,0.4539400933761717
231,0.526129013342823,0.46475660690380627
232,0.5047020117322699,0.5176183758002147
233,0.5091570650073264,0.4476251329318124
234,0.5361800332911771,0.44628019203985403
235,0.48208227690508804,0.5379079107045186
236,0.4973651508061434,0.5167547684536267
237,0.5272158318095737,0.47070662624363646
238,0.4934803328211073,0.45782271458016854
239,0.5005795910275526,0.5077716750758035
240,0.508748929682586,0.41734144936044476
241,0.4825437280604784,0.4475709404076002
242,0.5162919937825794,0.5209688177330812
243,0.497836840012186,0.4434089920562181
244,0.4974237799787407,0.5264665206398847
245,0.5135227615813271,0.4288670831575296
246,0.49516597910703036,0.5267336714333593
247,0.5150359355264621,0.4649192299443902
248,0.5190852435229779,0.552827895581487
249,0.5093659283064729,0.43690420850676254
250,0.5119614342419649,0.46487031668871526
251,0.511224819911565,0.4346573737162535
252,0.5026779183261781,0.5250281684729841
253,0.508033121613671,0.4237403147975196
254,0.5052726594902438,0.5091039752668532
255,0.49652509332941974,0.4587299739317153
256,0.5163264529143783,0.5211618381545783
257,0.49710165774174253,0.43916407227516174
258,0.48443318172086247,0.5320555388033625
259,0.5227250379505013,0.5475472790242747
260,0.49749774860440016,0.4544682639879605
261,0.4937574586851134,0.5515654820246121
262,0.5191667833202462,0.5300236013148277
263,0.5243072758118311,0.4364128252513407
264,0.507308855378847,0.5343318927118698
265,0.4919511396035874,0.4421264681885726
266,0.5059192715336284,0.48005078797652767
267,0.5068869779197622,0.5056542215990851
268,0.5347194824215892,0.5213488185368096
269,0.49567126255812977,0.5073042833485185
270,0.514184035938516,0.44510566000403995
271,0.5274167434631778,0.5200670201569537
272,0.4852301638951595,0.53210015111583
273,0.5058265019425576,0.4521491492274434
274,0.5159147997244561,0.5357938740276029
275,0.4940913648223229,0.45390633665960234
276,0.5053771809517718,0.4401415888258295
277,0.5015576875848259,0.5281477203355969
278,0.5395513505315324,0.5318285631870038
279,0.48832277521240913,0.5180069850529849
280,0.5056091176210452,0.47027370105508565
281,0.4886663492372949,0.4923373353509519
282,0.49687287024409177,0.4412734400783831
283,0.5156651216802551,0.4310119035400174
284,0.4990606267246411,0.5247141192678212
285,0.5076764003693057,0.5009089498982809
286,0.5154387234069174,0.5128464933305438
287,0.4938045895094875,0.532923108259335
288,0.5054621320905731,0.4399929185880858
289,0.5125133023201991,0.5069575062067186
290,0.5209157263084376,0.521132813374076
291,0.48780221496221066,0.42952175947654503
292,0.5098801838289158,0.4255887505663787
293,0.5072329747829315,0.5022532457005064
294,0.5049079243513606,0.5130969610803223
295,0.5080972228833526,0.5493799294179692
296,0.49822474198995065,0.4334373255131653
297,0.5240982515658501,0.539660549483717
298,0.5051725183864482,0.42076342507620546
299,0.4837911723614883,0.508021998471318
300,0.5019283897990136,0.43349037776335825
301,0.5113739065176768,0.5081931392837907
302,0.5351988818886564,0.4479506645225218
303,0.5075341043807715,0.5221232865726092
304,0.49485684347619635,0.45459723921864637
305,0.510605946433344,0.491382456874885
306,0.5081650571023627,0.44505383839923374
307,0.5157074657775801,0.45869624551206284
308,0.5214549934835457,0.43482195630069786
309,0.4986450848914832,0.5324297151701038
310,0.500650636822009,0.5271981534472393
311,0.506949694727441,0.4923499504364468
312,0.5115702192036272,0.5079043767493638
313,0.5096352711188898,0.49076847105206894
314,0.5109714043559692,0.5135618000164123
315,0.5071067703094223,0.4609998142568728
316,0.5071048527527199,0.5102203922565283
317,0.5085802153527117,0.4084855505304254
318,0.5155519373911462,0.4940680275776298
319,0.4948123567324462,0.5352888740040509
320,0.5227831172214138,0.532486660869082
321,0.5230609356022948,0.536470750865733
322,0.5161592510583208,0.513060979492192
323,0.5202649371634475,0.5413837355003643
324,0.521154056671712,0.45420253465000626
325,0.4928888987532432,0.5395322246116828
326,0.5264523637761697,0.5293190677803901
327,0.5154830715972647,0.5225061526097174
328,0.4970129192185154,0.5348511953568402
329,0.5236409813594475,0.42489751592431374
330,0.5209321982497506,0.4554045553412509
331,0.5047749777873166,0.530724391000141
332,0.48631050641969337,0.5429681284557484
333,0.5116820905944236,0.5430110286988888
334,0.5152653719571759,0.5078924437771657
335,0.49334779882030805,0.42568386539569875
336,0.49471744118358113,0.547925631362054
337,0.5412404034539855,0.5056268341116014
338,0.46769790696821434,0.442330278226872
339,0.5310796803588586,0.4517916380982749
340,0.497461764444169,0.5079825594844833
341,0.48227325084207534,0.5191885291730313
342,0.5170563493343852,0.421592675308214
343,0.48541124135279634,0.5326537210214957
344,0.4872649317855934,0.4255206341242922
345,0.5142551751540815,0.4828825695785652
346,0.5135828890293527,0.5410641243632798
347,0.5159691507867772,0.4371497292592004
348,0.4618738275780666,0.4648670011744691
349,0.5438680376628224,0.5458544545175527
350,0.5084220693527842,0.53016656855946
351,0.5085709941544407,0.4727349903702077
352,0.5105913202110812,0.5421746518071844
353,0.5006790564810153,0.49315486924800706
354,0.5231229903029023,0.47006066899743715
355,0.5053757019013428,0.5007366372688417
356,0.4964632137263898,0.4711346832334101
357,0.479942489775727,0.43332243955972727
358,0.5145659860041882,0.492630156434796
359,0.4947403722839485,0.5573029488019333
360,0.5042043224298697,0.5294221568361642
361,0.4964467281465241,0.4793804503371608
362,0.5075452332016376,0.47425776656537705
363,0.4888566144698148,0.4721836648358072
364,0.5308448362955563,0.5628265746955149
365,0.46779275252569397,0.4179040763024373
366,0.5093055903244552,0.43972273557884256
367,0.5152276534256603,0.503124362267936
368,0.5004151408001483,0.5254142003776336
369,0.5001992866885271,0.48322797976522436
370,0.5061090556885317,0.43974076229093956
371,0.5283418803883018,0.5467484058502065
372,0.5028270168317784,0.5322084202009952
373,0.5036972527214282,0.4504257720478332
374,0.5104275441689076,0.5100372416020945
375,0.5120314879478406,0.5274280863854485
376,0.4949714176469951,0.5165457593801931
377,0.537430885062515,0.5177310323423537
378,0.5144113475899045,0.5265571108792086
379,0.48968024292199924,0.5491972913305498
380,0.5100236260991017,0.4934375824990382
381,0.5106773888059467,0.42992171231178006
382,0.5147839450745655,0.4350374265035119
383,0.5160113411793987,0.5218868080376637
384,0.512367892632191,0.509439965026437
385,0.4855153827572898,0.44684392496084924
386,0.5135901250022588,0.5114940128979386
387,0.5172711971233026,0.5175322477471292
388,0.5232561549408544,0.5473223629906692
389,0.505718682774251,0.5332262601876879
390,0.529833139978248,0.5215135902613284
391,0.5255469393363292,0.5432373464060469
392,0.5129812398760153,0.5181708221559743
393,0.5184432940302993,0.46623990574782537
394,0.4961941784663166,0.5223925029469364
395,0.5141044410346128,0.5193008194312206
396,0.5009756208204632,0.47047850649565714
397,0.5145999474657906,0.4497891453042591
398,0.5237119792819881,0.5216929168332347
399,0.5086518491534211,0.546734059360334
400,0.5069340210524108,0.503296266838426
401,0.5049092109016567,0.5003328237509107
402,0.5138539801493919,0.43526971876480114
403,0.5019108535503026,0.5098682132026955
404,0.5083980280980408,0.5344202130586027
405,0.5055483862174024,0.5299176082144408
406,0.5078532927804332,0.545985881277399
407,0.4990950332437869,0.4199074911102123
408,0.5297886463497087,0.5401037934264896
409,0.49410782051648644,0.5365411454095742
410,0.5126944353445161,0.5483917042130829
411,0.5199156711808592,0.44637837836661487
412,0.5114078777585384,0.5566975273950512
413,0.4939707910342754,0.47212129925401924
414,0.5216054694829799,0.5397831004439326
415,0.5006281116264139,0.5385497815748228
416,0.512871785558385,0.46148894991852113
417,0.5007448928843109,0.4580473423756853
418,0.5146346233493323,0.5149132323810786
419,0.492372398634704,0.5366077170469861
420,0.5164577904627097,0.5038227621221881
421,0.5014320492363281,0.47124842566679853
422,0.5031638164624131,0.5399032141057731
423,0.5133406962040994,0.4937207470423797
424,0.5160196420195386,0.531921213503042
425,0.5060314955733282,0.5275957923097316
426,0.5087624627718632,0.519740996745598
427,0.5225423689273526,0.42381384216054935
428,0.5110573266788447,0.5367247074160316
429,0.4939504345234254,0.45801682545617517
430,0.5248455049441777,0.4275179689760366
431,0.504800376786793,0.41982206718697734
432,0.5126013674443479,0.5002471063912338
433,0.5188568068160523,0.4782764885307017
434,0.5079852360234463,0.5340780176181161
435,0.5144297731913727,0.45074014199843254
436,0.504895811732248,0.5227679993189878
437,0.500196930649374,0.535936006995384
438,0.5236858384643527,0.46162441838606194
439,0.5277195169294862,0.5633809893453037
440,0.48996323279196696,0.5227776058988488
441,0.5099663824605332,0.4955841471759372
442,0.5053947800926739,0.5162197474005096
443,0.5225784988473836,0.4392066387652222
444,0.5073440504803074,0.45380426565774706
445,0.5154888614309396,0.42707815037153796
446,0.4933666484199649,0.5457440594706652
447,0.4834739819800349,0.5114404450463985
448,0.5193651172039891,0.4866285553671002
449,0.5172030242512838,0.5234896079140944
450,0.5010681515284103,0.5277203237483514
451,0.5151305787330813,0.5236002315944259
452,0.5107797411896533,0.4234681752081828
453,0.5172859600169673,0.4274651797954361
454,0.4935356296366639,0.5264583758086602
455,0.5033895969033527,0.44394253444840986
456,0.5089091315901251,0.43763785469974226
457,0.5120079742489959,0.44268640638244555
458,0.49065360772333366,0.5378367445933696
459,0.5049819145842993,0.4618295827717318
460,0.5069969587927338,0.5122351904694452
461,0.5007341689438366,0.45315415852636265
462,0.4995914683948985,0.47568089823696497
463,0.5258215991236704,0.4367390501988433
464,0.4614822515290228,0.45968866512920314
465,0.5228843246932796,0.5042799985963902
466,0.5040143375678791,0.553059637123144
467,0.5090011644968503,0.521346368277835
468,0.5151538044857464,0.5505266715526205
469,0.5187077592912434,0.5525011036606783
470,0.5064697062892974,0.437942489593539
471,0.511128473160364,0.5276072634047378
472,0.5001073287997981,0.5251470767520221
473,0.4929613725935145,0.44323433814504154
474,0.5168554564888814,0.5174043389315105
475,0.4927643492734499,0.43578763032110074
476,0.5104406520092992,0.43088889470134273
477,0.4980086165009071,0.41684793144017573
478,0.5211307777584695,0.4494967301859099
479,0.5033353202753692,0.5209360923838596
480,0.5008193240415373,0.4719989678007275
481,0.5082942902755966,0.46007014734592605
482,0.5143532650195342,0.44407108863602496
483,0.5137029466726225,0.4587588418442712
484,0.5221751790276343,0.5148747879497254
485,0.48040265122430026,0.48212903364022697
486,0.4943937662122347,0.4808912521850056
487,0.5208471272584441,0.5269206222720098
488,0.5024102238728274,0.5123901550188343
489,0.5127337574363231,0.5395696534118788
490,0.5109714594819277,0.4653483794586058
491,0.497594299540817,0.429485024150752
492,0.5150266633116656,0.46178286489108084
493,0.5122580871307593,0.5129023123276732
494,0.5179791845958963,0.4525684872384888
495,0.5198158619048403,0.5736167588004374
496,0.4737253958920685,0.5198246464309677
497,0.5349213451766472,0.5221944008413599
498,0.48592659134230165,0.4028078115588582
499,0.5339432938231362,0.5191808099716596
500,0.49525119567946563,0.48339479773554545
501,0.5175861735090459,0.5142814791522444
502,0.5086087875371929,0.42907936190091067
503,0.5121615468431339,0.5159214137102923
504,0.4856374594781229,0.4213285197304663
505,0.5191560422035335,0.49790677670521727
506,0.5252332741217457,0.5343288232608395
507,0.49057957032125155,0.5448943666096456
508,0.522761299003133,0.506875124002124
509,0.49886604661135364,0.4868186924668307
510,0.5025016500009335,0.530466235662504
511,0.5030592796828249,0.49152478321669324
512,0.5122722909390498,0.4392811836176438
513,0.5037835036560023,0.5302957293078385
514,0.5124792358357844,0.4787411138168356
515,0.5207966626714841,0.522738973644651
516,0.49232690267378,0.5180774404951787
517,0.5082142939575189,0.47716061494532963
518,0.5033271787144679,0.4751268730637777
519,0.5080635199586836,0.5457644873984516
520,0.5044237236610706,0.5391493212217031
521,0.51534643154636,0.4553295693109613
522,0.5269154311536695,0.4917919129344922
523,0.5010918240895946,0.4505202148077332
524,0.5131703394708588,0.4964792990929138
525,0.5063732934655617,0.5337229249462332
526,0.5082638179488795,0.5319143371405146
527,0.5152727249119398,0.4073286333136796
528,0.5006578449460624,0.544150942197068
529,0.5284223144265007,0.4488870270767829
530,0.48275222115331795,0.5192043833499267
531,0.5098311978397514,0.488717345172435
532,0.4992285937452011,0.5510054796628342
533,0.51934209035979,0.4720460125895683
534,0.5011689461035123,0.47801325889488044
535,0.5018973331943118,0.5154259490656307
536,0.5079821129497006,0.5349114420805376
537,0.49305019373421094,0.4427096281544656
538,0.508902469865805,0.43446091991197244
539,0.5071889006858059,0.5503414463789894
540,0.4854221944686034,0.41862078781380085
541,0.5156934468580379,0.48450946511484644
542,0.5006677188533102,0.5224091754527946
543,0.5271330868287815,0.42641939452151756
544,0.46776047179834257,0.4668254240723981
545,0.5217001481736593,0.5018090147763232
546,0.5127265988398704,0.4574583140808292
547,0.48512651605142965,0.5191783023661484
548,0.5170330027882144,0.4716985989670727
549,0.4922424067291234,0.5107262140432491
550,0.4994324995197362,0.44958694539111527
551,0.5175626660875089,0.4268402822533271
552,0.5070598232779476,0.5487806849716776
553,0.49653655931436946,0.4549746190174979
554,0.4988903305727801,0.47841798250093737
555,0.49755357959859375,0.5280892296672902
556,0.534605500449856,0.5377999457347648
557,0.4871149517649369,0.474000458912108
558,0.4958871519513172,0.4578456198642267
559,0.5298817248629342,0.4324412880540365
560,0.48692346021806976,0.5039057117234842
561,0.505232341379094,0.5128198076677586
562,0.507831728751425,0.5098233546623585
563,0.5122520429053181,0.45983837190912574
564,0.5020821433987834,0.46097728969924734
565,0.5162674044247726,0.44566336572875914
566,0.5217502137525476,0.540582365023403
567,0.5001777790004401,0.49684407827227534
568,0.49474649332600723,0.504414639561404
569,0.5149902596319322,0.5041719142526929
570,0.5258913945784862,0.5222156098863696
571,0.49799527589985126,0.5196110669938052
572,0.5097380087768241,0.4592408241252779
573,0.5135177055256163,0.4420305150601463
574,0.5251250057983742,0.557664185974103
575,0.5052356417897603,0.4735167232807358
576,0.5125568497905152,0.4998299280959222
577,0.5120583340275487,0.5029376127302129
578,0.48585750609278966,0.4178643780330456
579,0.5141601994407358,0.43711707438176883
580,0.5016532455750411,0.48800821674086486
581,0.5205812112485572,0.5143351238265034
582,0.5074511989296007,0.4406267613901712
583,0.5206391916072054,0.4416795498570214
584,0.5026103802007451,0.5185329194321064
585,0.5037274483939727,0.5174574507157823
586,0.49382291766379377,0.4798880006115363
587,0.5138831272614088,0.42535990413098984
588,0.49896971509753946,0.4501126780694361
589,0.49369855705115623,0.41924477750237005
590,0.5082722840001352,0.5022031179119869
591,0.5090282543790903,0.5228838062041749
592,0.5050772382296342,0.4441860153530184
593,0.5102082814791982,0.5370817176215557
594,0.49071931312505385,0.44170970275069
595,0.5141808826693719,0.4761600329260612
596,0.5059092145719879,0.539665981315682
597,0.48466800150873185,0.4543166513648105
598,0.5158540343018554,0.5403459707911596
