epoch,loss,val_loss
0,0.20541973894746374,0.07714708976230004
1,0.0732124434243575,0.0716877822141621
2,0.07196147830860554,0.07124386873352029
3,0.07195285483777857,0.07177939665545699
4,0.07184656123689515,0.07142490093267707
5,0.07177962425301115,0.07121343830719461
6,0.07163192147610904,0.07228812680895064
7,0.07166954012011452,0.07118252853274157
8,0.07166807372405899,0.07156366384172873
9,0.07167910680704885,0.07156952305593262
10,0.07157882630265207,0.07158896008884238
11,0.07160504653507904,0.0707481306725444
12,0.07163807356076465,0.07119212659177294
13,0.07162606304617142,0.07112175707529639
14,0.07152092018924791,0.07146519379603553
15,0.07150323907558104,0.0709507850417022
16,0.07148636999628621,0.07117529401604171
17,0.07141641290526357,0.07109889124050418
18,0.07146503827679786,0.07200306269980455
19,0.07147728707745588,0.07149033556856221
20,0.07141208098374968,0.07085906075873805
21,0.07135760197214944,0.0712292363930379
22,0.07141614550178191,0.07094856578306881
23,0.07142364339445897,0.07223597208909754
24,0.07139759153860221,0.07092787128091799
25,0.07141661648597601,0.07153572351175588
26,0.07128891314742423,0.07202838437709642
27,0.07140522576916179,0.07108653862479171
28,0.07136094501669363,0.07091844472931234
29,0.07120829436341397,0.07097731071694122
30,0.07138138556842515,0.07106367388377062
31,0.07129046349651474,0.07108517820287523
32,0.07124444214458898,0.07099153511314385
33,0.07124614120750643,0.07082645915560395
34,0.07127656966304893,0.07204755221588365
35,0.07124551884877643,0.0706894386944897
36,0.07129019818348374,0.07092354727736964
37,0.07121233854570883,0.07089000509576997
38,0.07124530996004645,0.07132237949118242
39,0.07122189958812855,0.07112017609384837
40,0.07121379511932627,0.07120704991065242
41,0.0712092322551256,0.07116607938552806
42,0.07117838839546954,0.07071339433105706
43,0.07125331640993948,0.07095491043170701
44,0.07115386805082444,0.07075655035198253
45,0.07119897815832893,0.07112272862042135
46,0.07111009258887084,0.07085701953781431
47,0.07120736200901434,0.07074439170128638
48,0.0711863693356109,0.07083078798997468
49,0.07116546643396124,0.07070138564755245
50,0.07108367161660029,0.07090735321110313
51,0.07116369936588428,0.07105062236008253
52,0.07117995258858449,0.07154599458402598
53,0.07111366409108602,0.07291738932104024
54,0.07112742881391117,0.07078626499626706
55,0.07111190273601421,0.07173611290147197
56,0.0710901508791198,0.07065105362080079
57,0.0711201785249914,0.07070971900434031
58,0.07114958222940576,0.07073842004917698
59,0.07106861340657745,0.07109001210957601
60,0.07105044676340837,0.07077143374527639
61,0.07113724551963911,0.07087733779152548
62,0.0711121305311136,0.07064646257538916
63,0.07106100963197833,0.07104915815340127
64,0.07105127056773237,0.07067519907663916
65,0.07107871644746819,0.07076907553066865
66,0.07109303713041387,0.07064536736356337
67,0.07111759397605483,0.07085109886955161
68,0.07105683144643533,0.07117897447348581
69,0.07102318129522338,0.07072508011392561
70,0.07106595727608359,0.07077659144350743
71,0.07110981553864422,0.07062959834204101
72,0.07101186570063008,0.07114437960482246
73,0.07106319332657625,0.07082655244369439
74,0.07103412499953565,0.0707100027820776
75,0.07103982954907664,0.07064259959930215
76,0.07110472164934964,0.07067828373755633
77,0.07102971010767728,0.07083536393134822
78,0.07100250487693018,0.07064806640548037
79,0.0710326866414264,0.07067964844340965
80,0.07104144420037024,0.07059297653910393
81,0.07105070637832347,0.07129903326447591
82,0.07107507183903651,0.07071233994159157
83,0.07105787106894618,0.0706517780501022
84,0.07098137383623947,0.0709164602845178
85,0.07107564694077657,0.07066354001471634
86,0.07102955318540692,0.07072379313344643
87,0.07101599441664062,0.07086011742101284
88,0.07107240864657145,0.07061613256136733
89,0.07099831999718047,0.07067384163025052
90,0.07101589635901934,0.07074500593902938
91,0.07100561370315264,0.07065060346342487
92,0.07099547643783234,0.07098782177200069
93,0.07104808096881869,0.07073769210922314
94,0.0709994329939143,0.07065720749164812
95,0.07102843512037246,0.07061588342853578
96,0.07110245987999259,0.07073469295356814
97,0.07097646074114944,0.07072304826356242
98,0.07099073826015996,0.07057968226879624
99,0.07104834056884456,0.07068838030335088
100,0.0710152522113612,0.07067608553989722
101,0.0710052108164314,0.07143241967991194
102,0.07098379935458791,0.07070877059894277
103,0.0709711232026823,0.07129519102299599
104,0.07100506030398307,0.07070846531331398
105,0.07094660053829209,0.07152604713930139
106,0.07099282123940549,0.07087339104786104
107,0.0710161162613274,0.07097138689673596
108,0.07100857093447832,0.07067877417628748
109,0.07101532659507531,0.07062737772207422
110,0.07096642454256781,0.07085647647163956
111,0.07098416714436954,0.0708303333957692
112,0.07093344421254741,0.0706903269101337
113,0.07104488346073554,0.0706836715805173
114,0.07097064963669228,0.07075874157538072
115,0.07098113839104354,0.07080149347728505
116,0.07095692358571562,0.07125631864487701
117,0.07099435111577752,0.07068083185964244
118,0.07099257348526677,0.07149937061773762
119,0.070974442857704,0.07130842710585696
120,0.07098927956035764,0.07069777677919137
121,0.07102494525740281,0.07066738371455773
122,0.07102077633743997,0.07182791701208538
123,0.07094034607813274,0.07067266589981792
124,0.07095880658744717,0.07060556652960856
125,0.07094746734425843,0.07077663463276489
126,0.07099838933343891,0.07101395346618301
127,0.07100722229601049,0.07128805877683476
128,0.07100724159843391,0.07066227194001191
129,0.07094120850368178,0.07072179797439944
130,0.0709802430810974,0.0706019430364693
131,0.07102187102784117,0.07104778300967853
132,0.07090720320812804,0.07093754050269688
133,0.07098800286227804,0.07055196254833909
134,0.07095685999224083,0.07074822435462766
135,0.07093548872243824,0.07064898551133739
136,0.07094271075751761,0.07058783545325663
137,0.07096519176926401,0.07132537346906613
138,0.07097963279010437,0.07096321350397232
139,0.07104070288546795,0.07073016578203689
140,0.07090127128932021,0.07162326247076303
141,0.07091995092372386,0.07051679796606138
142,0.07102581365800781,0.0732724811226106
143,0.07091298431819149,0.07063275384815923
144,0.07095395252674365,0.07059896802610549
145,0.0709444532285539,0.07086991032419378
146,0.07093048741300996,0.07069554935843811
147,0.07093194068121396,0.07073036687714714
148,0.07099382668662128,0.07064249508829688
149,0.07096932796414473,0.07067949861146938
150,0.0709587922833449,0.07073625607596859
151,0.07090154217241956,0.07059150372632583
152,0.0709232337501862,0.07084455793898409
153,0.0710123321376473,0.07060102882023957
154,0.07090918035011926,0.0705844573470769
155,0.07095450950826672,0.07081425256421459
156,0.07098648551074292,0.07087220430327101
157,0.07091742449348493,0.070654195992845
158,0.07098746160529167,0.07149634303579484
159,0.07086851520777987,0.0707418647019197
160,0.0709450727508818,0.07077508891661428
161,0.07090041536739547,0.07083662763978894
162,0.07101295727322236,0.07058246397863906
163,0.07087896768745187,0.0706815978992898
164,0.07093627231685426,0.07128011516127045
165,0.07092531405085568,0.07076927030425234
166,0.07091375229080661,0.07055131650008643
167,0.07097100302856936,0.07059456563856814
168,0.07087884213980868,0.07066834126117667
169,0.07093037061428994,0.07080846349249323
170,0.07093370856819965,0.07053866731069082
171,0.07097594147558502,0.07053539926081825
172,0.07089106333281973,0.07065950120904357
173,0.07090312122649474,0.07085254055983736
174,0.07093352108276624,0.07089068005839105
175,0.07097986546589984,0.07073455128374774
176,0.0709390324696029,0.0707409223416657
177,0.07087201926616027,0.07057257193039983
178,0.07096153875138406,0.07063671603104968
179,0.07092538726278584,0.0716201009665452
180,0.07096708114806125,0.07057066011553499
181,0.07089747543142234,0.0707441037072379
182,0.07092834455962423,0.07077916787133126
183,0.07090186302533015,0.07086474697187178
184,0.07089732608480229,0.07059262433598713
185,0.07092281744825087,0.07060701003108517
186,0.0708990547460594,0.07063326184309272
187,0.07100008736602027,0.07060253150296569
188,0.07089271919160105,0.07071795165774007
189,0.07091587436177747,0.07071505893307026
190,0.0709177702844,0.07066302474561693
191,0.0709007236701574,0.07065990917978554
192,0.0710232845581264,0.07066900260458335
193,0.07087110465081285,0.07089459393599792
194,0.07087284019090337,0.0705701690652329
195,0.07089443275962563,0.0705533223557444
196,0.07098520085584822,0.07055734638962674
197,0.07090551810983797,0.07079924537778935
198,0.0708946216729381,0.07063583929706203
199,0.07090182284520065,0.07062406980836118
200,0.07090483424510602,0.07075175774396171
201,0.07093939197649488,0.07061833048558366
202,0.07086799270975933,0.07054893696870311
203,0.07092503011881782,0.07129321136492016
204,0.0709008861565404,0.07055562656687392
205,0.07091330511452291,0.07061168779019963
206,0.07089642251132251,0.07069267526904052
207,0.07089726492125306,0.0708506089630048
208,0.07090249646463984,0.07059865544572907
209,0.0709146196968097,0.07052691072378463
210,0.0709175424639889,0.07067482631532997
211,0.07089924592849353,0.07057765539332742
212,0.07092883464077013,0.07065316615736475
213,0.07093026389559205,0.07068105998736436
214,0.07089274073783443,0.07055983321054676
215,0.07091826375582808,0.07088460213406969
216,0.07089775337351502,0.07104372441909779
217,0.07090853316505416,0.07068724835904545
218,0.07087873918660205,0.07089167698076981
219,0.07086549654936523,0.07086778848763517
220,0.07092943685434515,0.07058362889779113
221,0.07086460977244816,0.0706190892040212
222,0.07087000108641876,0.07069124565434061
223,0.07093370921439308,0.07058374841286615
224,0.07084813209877407,0.0706211627735194
225,0.07090116600892384,0.07060450128181864
226,0.0708796408453243,0.07055339669101617
227,0.0709435495880725,0.07089601109876065
228,0.07091498769652976,0.07058544621024436
229,0.07089628925998148,0.07069841044901296
230,0.07090931526905626,0.07129369229489928
231,0.07084685132252894,0.07066027911845962
232,0.07093118095128752,0.07059259027913037
233,0.07092961954692904,0.07076791291960884
234,0.07094703951059915,0.07057765723392073
235,0.07084144009120888,0.07088476543233163
236,0.07097824256596186,0.07061035600038805
237,0.07086936080996557,0.07057163213109914
238,0.07090602503817002,0.07059877627803382
239,0.07093195493320385,0.07073707013569579
240,0.07089135724065496,0.07061936998564894
241,0.07087609917372108,0.07074903680604089
242,0.07094549940233465,0.07117816964906788
243,0.07088212909654891,0.07061645966361335
244,0.07089297841195104,0.07095119593798785
245,0.0709018375587573,0.07089766180517641
246,0.07091809895565565,0.07054025396093103
247,0.07088386546597063,0.07074075260132716
248,0.07091475499095581,0.07058042648594588
249,0.07088105388277535,0.07059190682802223
250,0.07090603804690757,0.07061305591261754
251,0.07098388795455773,0.07099446028635646
252,0.07079501655384553,0.07075573245523573
253,0.07093716827299383,0.0706696107236767
254,0.07096110502604863,0.07054854312583793
255,0.07082792385656246,0.0706210865829531
256,0.07091852615354396,0.07061866803451984
257,0.07089614922956501,0.07064418364154512
258,0.07093082664669942,0.0705776177317304
259,0.0708838717879461,0.07053870832710729
260,0.07096152412269613,0.07062483808259468
261,0.07090207121277646,0.07092770938809312
262,0.07088053356156312,0.07062588724430471
263,0.0710052544434222,0.07056072219653495
264,0.07087301124307177,0.07058883117013497
265,0.07087732153943926,0.07074010155171791
266,0.07087211423128438,0.07085171426281087
267,0.07094917749371127,0.07059657730415005
268,0.07088640219212579,0.0705371152877149
269,0.07090344192455712,0.07070943720832808
270,0.07091379934083596,0.07054284666595068
271,0.07091453643016916,0.0706209270717266
272,0.07087957901175884,0.07061277398135404
273,0.0708896823534124,0.07069167117540442
274,0.07095507821060723,0.07074554128412101
275,0.07089880650653113,0.07117911040982865
276,0.07091410443794241,0.0704728910065864
277,0.07086170084482665,0.07070082828002645
278,0.070925634809964,0.07064000898479662
279,0.07090471873877288,0.07079289184373104
280,0.0708865440077633,0.07052968182816408
281,0.07088268091299123,0.07079788348281016
282,0.07096127289489543,0.07064536009527796
283,0.07082573253420188,0.07059856078748451
284,0.07094005123525263,0.07050517811818488
285,0.07091000127784021,0.07058484911118894
286,0.0708740598765566,0.07063728032873293
287,0.07095749899417424,0.07064992481079643
288,0.07093639816079352,0.07080186081972288
289,0.07087934875546648,0.0709055703906629
290,0.07089634012165878,0.07088155320006839
291,0.07094057260169019,0.0706310792728353
292,0.07090831898319588,0.0712734565032968
293,0.07093190968477374,0.07073865417793876
294,0.07082000807326713,0.07077395722222968
295,0.07089467877321107,0.07057920998607739
296,0.07090974428194413,0.07077913645187418
297,0.07089209529034478,0.07060678022742366
298,0.07086840222517458,0.07064937442929235
299,0.07090059034139228,0.07050521068433747
300,0.07086735596205834,0.07076210203715075
301,0.07086862986244791,0.07061963157041767
302,0.07090811407436236,0.07054825693415956
303,0.07090625502050019,0.07091168853753461
304,0.07091562567110495,0.07061080961255173
305,0.07088892326223478,0.07080536774391251
306,0.07093578722956274,0.0705623374347764
307,0.07088727448478067,0.07070220150376928
308,0.07087808940038502,0.07056615412258782
309,0.07090342500292474,0.07069804532646004
310,0.0709025984783348,0.07056721443958704
311,0.07089196450317459,0.07069587803077491
312,0.07089332192481088,0.07069628763041255
313,0.07088841916137129,0.07056918895811477
314,0.07085140016701201,0.07064926416128756
315,0.07092502007750776,0.0708505543067922
316,0.07087577152833474,0.07054087389686867
317,0.07096884438662315,0.07119313822125674
318,0.07085694348831162,0.07069412934363782
319,0.07087640123044273,0.0711526898483451
320,0.07091405950069761,0.07056393125333368
321,0.07092355397477043,0.07093024776032711
322,0.07094430541552657,0.07073123928309427
323,0.07084422574626456,0.07093703657412209
324,0.07089198805647884,0.07166924647804594
325,0.07083824431027869,0.07072141524566
326,0.07091462869140551,0.07059983778583223
327,0.07089694117387231,0.07061446360779167
328,0.07087523950863894,0.07065296692931003
329,0.07093031830835543,0.07063654253895864
330,0.0708728990183293,0.07069072089707089
331,0.07088035188144821,0.07055188721926454
332,0.07088805130458803,0.07060820955103932
333,0.07086157131430915,0.07196030230059243
334,0.07091959011402252,0.07072802215238302
335,0.0709077704051654,0.07052903682075812
336,0.07088428801990194,0.07073861122978138
337,0.0709505859646294,0.07061040893361713
338,0.07088014065659494,0.0706840595840561
339,0.07089585587263203,0.07051039251315848
340,0.07092726338121721,0.07073581607713884
341,0.07094661454312044,0.07115024381450244
342,0.0708587338640202,0.07049505938294372
343,0.0710277687802875,0.07069220963421542
344,0.07080546154720273,0.07059464457238294
345,0.07090131275588088,0.0705948773574528
346,0.07087185610678318,0.0707228551776793
347,0.07095315140619171,0.07066050282993369
348,0.07084438119152134,0.07072649670922107
349,0.0708879652372796,0.0705753052526322
350,0.07090075646224116,0.07062441347594701
351,0.07094647384715452,0.07061620307432072
352,0.07087554054544698,0.07054983631905459
353,0.0709152871893226,0.07058473244521123
354,0.07088302122019559,0.07077939005975847
355,0.07087216567959811,0.07059061332902009
356,0.0709416070486978,0.07115306019571323
357,0.07086565984870127,0.07066461688235413
358,0.07088358125103701,0.07055890937971618
359,0.07088944908800267,0.07060376348322361
360,0.0708245545935383,0.07094514344090444
361,0.07094162325415727,0.07065138032905399
362,0.07090831861394248,0.07055424234073465
363,0.07085714947066005,0.07063833068712264
364,0.07087573917697278,0.07056487567469936
365,0.07090639218920283,0.07067501991869618
366,0.07088270838216816,0.07066652357237209
367,0.07090525812418055,0.07063471565894847
368,0.07085296629424051,0.07097349583149991
369,0.0708925236570392,0.07073063148742788
370,0.07086372376232744,0.07068436771584197
371,0.07090263088180912,0.07058921792406968
372,0.07090095493594091,0.07054150184791391
373,0.07091721604249888,0.07052250370536155
374,0.07088815626784337,0.07059371024487804
375,0.07089675053042903,0.07076041881162629
376,0.07092522094390995,0.07078284938726354
377,0.0709240004051027,0.07080745084862494
378,0.0708739418330953,0.07063971558363774
379,0.07090113721609259,0.07106682654961226
380,0.0708889229882726,0.07060534396188976
381,0.07087808893881828,0.07059543202583396
382,0.07097406371635832,0.07060739727604079
383,0.07079066439784117,0.071222289743956
384,0.07097323041715972,0.07067154364949996
385,0.0709028181870826,0.0705959580091858
386,0.07089913084501509,0.07085211797901844
387,0.07084263740278643,0.07059622893217236
388,0.07093158793106354,0.07057776331501676
389,0.07088933861721382,0.07060289531710963
390,0.07087018930440327,0.07092443195589904
391,0.0708472751554468,0.07064388038762555
392,0.07090373488394715,0.07055640025997877
393,0.07091028651566528,0.07060061386935619
394,0.07084998742734595,0.07085890168854828
395,0.07088855449720728,0.07062589316007746
396,0.07096380436961218,0.07135183330634116
397,0.07085821068853879,0.07067885767336238
398,0.0709270926983022,0.07059929807741716
399,0.07082511951698721,0.07069848106193467
400,0.07091320660129058,0.0706535731578259
401,0.07091621026920852,0.07051050815299072
402,0.07084989124874798,0.07062625518361225
403,0.07092385244318287,0.07054269293818591
404,0.0708589054164674,0.07060257478043049
405,0.07091059217856323,0.07062334948952215
406,0.0708712438638095,0.07059544261365588
407,0.07091124400907427,0.07059254418491094
408,0.07089986885152608,0.07142669875424681
409,0.07084569357317701,0.07056787956414866
410,0.07089342700420238,0.0708459090462047
411,0.07091179087186317,0.07110980558837598
412,0.0708500361762387,0.0708803344273906
413,0.07092070686135837,0.07059106569746017
414,0.07095522656709218,0.0709811757600204
415,0.0708422301118251,0.07057000378818613
416,0.07089966778560794,0.07050937573530586
417,0.07086667287752306,0.07061755693655082
418,0.0709905179647757,0.07049583150301755
419,0.07085141869370552,0.0707416946175725
420,0.07089380266593039,0.07062725235297158
421,0.07092013241325637,0.07091569468884742
422,0.07084418279375676,0.07052930938734157
423,0.07089070000236841,0.07050942269395728
424,0.07093388722430792,0.07069178261950718
425,0.07082089947925198,0.07077612716119498
426,0.07094457406523845,0.07073390729072626
427,0.07090392575221811,0.07070165118695058
428,0.07083264761697426,0.07054818913505222
429,0.0709076305638424,0.0706099570532577
430,0.07090855359608274,0.07066957462040947
431,0.07093271966740715,0.0705916234413375
432,0.07093206342074464,0.07070875827049589
433,0.07086335844862804,0.07059307270275389
434,0.07085923842049474,0.07053978930814772
435,0.07088766670186553,0.07058659025659783
436,0.07087836295312686,0.07062140646983811
437,0.07099240736739575,0.07069090951378174
438,0.07086182580136662,0.07063329906365301
439,0.07086184854022891,0.07055346829774066
440,0.07086620021233266,0.07059224188951121
441,0.07092424364333197,0.0718338813576862
442,0.07089238038374414,0.07056819283548263
443,0.0708907586719683,0.07073291453761478
444,0.07090430568567188,0.07081321862121219
445,0.07085167079848304,0.07100225429931963
446,0.07091471521432499,0.07057589140809607
447,0.07085179989423444,0.0707137035477933
448,0.07093286004176529,0.07061243873462963
449,0.07091726721685043,0.07068114410483094
450,0.07091061366672853,0.07051213223842909
451,0.07084469885366569,0.07062223115267016
452,0.07094668319298447,0.07058083976677015
453,0.07091299990425817,0.07049808542419816
454,0.07088292492248362,0.07054879224396825
455,0.0709240337361773,0.07065504021948496
456,0.07083671686978792,0.07064329943639515
457,0.07086405929752725,0.0705474290817435
458,0.07095330631543549,0.0705237703217045
459,0.07089948526127257,0.07069909785769074
460,0.07089455582523088,0.07060691469070379
461,0.07085395224398369,0.07059424593103807
462,0.0708612619082538,0.0706789540957539
463,0.07092374783875845,0.07068578414354347
464,0.07090056635481086,0.07077929429598181
465,0.07082831566568187,0.07063969500486364
466,0.0709315180230579,0.07058450635801927
467,0.07085749751878538,0.0705970204255199
468,0.07091964403544065,0.07053954883727767
469,0.0708743287957639,0.0706550935555276
470,0.07096403717643304,0.07066502908704878
471,0.07083736743322379,0.07060253061501172
472,0.07089518314208106,0.07080472313637985
473,0.07095342368143592,0.07066251901761227
474,0.0708570365088997,0.07060233059897136
475,0.07089588363661611,0.07069546409721626
476,0.0708669823550468,0.0705847891360733
477,0.07088886783849135,0.07083599427281258
478,0.07087768359983758,0.07057270372687782
479,0.07092417571410763,0.0705220221050066
480,0.07082878472618491,0.07065764875184295
481,0.07089281240574938,0.07056858711938456
482,0.07095799381456834,0.07057048638822436
483,0.07084686956632671,0.07078210364118653
484,0.07088074516907013,0.0706561154523466
485,0.07091542767237226,0.07059038161713962
486,0.07087454585869202,0.07106357831699037
487,0.07091047841427232,0.07066457059995904
488,0.07082456632031144,0.07138766071978947
489,0.07089374177038765,0.07059127972082727
490,0.07092948067936299,0.07059014087576704
491,0.07087342036987761,0.07060726664095952
492,0.07089862605031255,0.0705322007830207
493,0.07087214056887835,0.07056698245132355
494,0.07092786534614176,0.07079537424840321
495,0.07089004521634129,0.07062897603038548
496,0.0708559075151559,0.0706831000704133
497,0.07096873468114175,0.07060231144915628
498,0.07083507134712382,0.07056637567004163
499,0.07086356003864777,0.07055521242161765
500,0.07092954173868747,0.07062143228224817
