epoch,loss,val_loss
0,1.3868192490861357,1.1786043836832627
1,1.099685939409143,1.0104885921667768
2,1.0134070812462805,0.9049435935654683
3,0.9609202855200267,0.8877193203130971
4,0.9718088889666039,0.9789327133601019
5,0.9569737062967711,0.8903437706869207
6,0.9532310771550819,0.9000635209938229
7,0.9749759194896734,0.8973654089956291
8,0.9598865911805983,0.895631732393452
9,0.9677624078251248,0.9345586927847851
10,0.9611122671416323,0.8896832409566336
11,0.9556772472192231,0.9218807524041441
12,0.9604401845660947,0.9452558865125645
13,0.9559275749638331,0.8609413263378158
14,0.959876892111414,0.9254893739341432
15,0.9590417370498419,0.941862424843116
16,0.9593385679899358,0.8864905895107854
17,0.9623891454014041,0.8910696926584886
18,0.966689784494374,0.9380847103500985
19,0.968162114163033,0.9330784946269169
20,0.9692038444636629,0.9160082210686181
21,0.9336281006244587,0.8414718946207855
22,0.862335270838894,0.7774153720143357
23,0.8493695182739209,0.763417735490389
24,0.8539884729181126,0.7815762390862223
25,0.8642765973643173,0.795047317543169
26,0.8582729213804698,0.8241674849296718
27,0.8578449748486304,0.7750303163725675
28,0.8543776516393244,0.792086369654848
29,0.8534803952428224,0.7780479695965193
30,0.8582741074365459,0.8039116259038883
31,0.8542840640672786,0.7727651188069983
32,0.8464456225892274,0.788589861101961
33,0.8443217374879518,0.8300060910223368
34,0.8428222765867189,0.740563472160361
35,0.8404210965999896,0.7827884476066893
36,0.8367584814206422,0.745919020409905
37,0.8243425931569764,0.7532316646436705
38,0.8357828024199144,0.7768521172093455
39,0.8306991861069842,0.7814657627231013
40,0.8091137414817527,0.7459335048945087
41,0.8043417964724181,0.7531827255563821
42,0.8170092267165479,0.8030966437646072
43,0.8011332191735673,0.6812278230985006
44,0.8055520035010323,0.7314454545021444
45,0.8066259913438792,0.752339565889292
46,0.8065651566673031,0.7199133294970643
47,0.8051274104462899,0.7898549921901267
48,0.8165232268116587,0.7196868103109331
49,0.8174902476173482,0.768485745930227
50,0.8030827601997255,0.7386323977850939
51,0.7982295553167884,0.7253790882575444
52,0.8144892457726481,0.7359873403742946
53,0.8007428828862498,0.7183653323126342
54,0.8004370892496467,0.7197800669260171
55,0.8025877108041337,0.720166444174178
56,0.796759510238329,0.6987436896209686
57,0.7936048706690725,0.6995434427735095
58,0.8002475959191425,0.7150232456171309
59,0.8079951950986448,0.7551297465911844
60,0.7993980755297254,0.7747913211801626
61,0.7899905200883615,0.748781824343976
62,0.7923799852569929,0.7180501203274011
63,0.7909993330438773,0.7301209727778052
64,0.7993481904984093,0.6965727896005858
65,0.787418116763938,0.7386676913727036
66,0.7866280071491046,0.7241944983202756
67,0.7855260392085756,0.697176473225797
68,0.7926875074998773,0.7104228586562745
69,0.8010468673620156,0.7467730402801449
70,0.8027063449255651,0.7273992011436871
71,0.8019468036291597,0.7202720949539593
72,0.7883243894009135,0.7115090850495944
73,0.8065946715010749,0.7329172951509966
74,0.7993703929661178,0.7164482979492163
75,0.7917972630362591,0.7377874228834429
76,0.7847701088130904,0.7599822249919151
77,0.8040357945536116,0.7532549721384474
78,0.7979121869616359,0.7198287538416678
79,0.795911028885765,0.7584172478315797
80,0.8066683499167879,0.7094976274539858
81,0.8065407708871832,0.7347968971207194
82,0.8074675602875679,0.7063644812393266
83,0.8045801876472224,0.734559158774188
84,0.7975682951002907,0.6694512667930522
85,0.793914005697203,0.7203590233250546
86,0.8129114123871081,0.7440725465132179
87,0.8090268790817338,0.7113817550743486
88,0.8094595042679957,0.7141430403581017
89,0.803143314605622,0.7567858633140384
90,0.8075680471211075,0.7264308582595569
91,0.812404952841916,0.815400026817198
92,0.8194998742772447,0.7320604739107934
93,0.8131642867747644,0.7364073875756739
94,0.8076479895244703,0.7395120673274375
95,0.8025483542365776,0.7334313965481853
96,0.7949198486926176,0.7523396913829318
97,0.801593186427728,0.7352034247269595
98,0.8025376134342532,0.720928733438761
99,0.8027910915873736,0.7782208304142236
100,0.8097528834358227,0.7253457258024162
101,0.7959724955075831,0.6963081565313193
102,0.8043035691838154,0.7158868090224673
103,0.8048710653169142,0.6761712499585272
104,0.8048126250386143,0.7541752176514894
105,0.8070389253077648,0.7210842195266838
106,0.7965096649978521,0.7151724644192621
107,0.8059308539160354,0.7305128818252468
108,0.803588006833346,0.7276883950730406
109,0.8033172726464138,0.7141970231681941
110,0.7941218237098071,0.6963248745948439
111,0.8016312604097484,0.7053168547752903
112,0.8129343201008866,0.7430829323604643
113,0.8051082609509161,0.7284739975608275
114,0.8108212739778003,0.72729733279345
115,0.7983903566105448,0.7602265716952612
116,0.8090589314794617,0.7433771019724453
117,0.8009359055370975,0.7260645410923675
118,0.8096269561205987,0.7425224724477225
119,0.7996732331066727,0.7400606820134737
120,0.8053128545264228,0.6695961382508955
121,0.7978215907529604,0.7338763578384752
122,0.7957541986619883,0.6720775471213187
123,0.7966376418848816,0.7738263649323658
124,0.7985456038036759,0.7562926534173552
125,0.8027932260087054,0.6944417579330667
126,0.8016609049039044,0.6840044832384305
127,0.7988093474967848,0.7086773506771329
128,0.7960626219061492,0.7023239787380964
129,0.7906360869244445,0.8101322257895829
130,0.8027993803672355,0.6999124248435801
131,0.8022767224008317,0.7278891335100249
132,0.798752853818375,0.7405230761879552
133,0.7955628613575255,0.7089540393779844
134,0.7856357846620848,0.7264271618047576
135,0.7909651860845289,0.7263893159008181
136,0.8022895377573727,0.7126111278472059
137,0.7898562797744146,0.6929782215696182
138,0.7934880869640552,0.7530832733454399
139,0.8114866666000685,0.7209462414451082
140,0.8030893661982542,0.7125280993746629
141,0.7942135708035232,0.6889028001730749
142,0.8060079851300359,0.732697481173185
143,0.8011373859868229,0.7114400328269164
144,0.7922387457996297,0.7723629132867923
145,0.8015176878870727,0.7640691766725356
146,0.8177746611179783,0.6962354699480563
147,0.8033910994772151,0.7490931858594884
148,0.7889865860044718,0.7134559641789345
149,0.8155881865583867,0.707993175644074
150,0.8059115260481549,0.7214398693235928
151,0.7980250234218289,0.7286159676550272
152,0.7916500184944479,0.7037198696306636
153,0.7917734066828238,0.7493032369783809
154,0.7933524090280716,0.6874090117211276
155,0.7957320812346937,0.7357476509787257
156,0.7877099851759268,0.7492178595849197
157,0.794618824799601,0.7570987994943512
158,0.7913031017689632,0.6912444440311082
159,0.7996869507291204,0.722269308731407
160,0.7845569185083441,0.7129591212027071
161,0.7868745506191559,0.7064425498126293
162,0.7907053303060004,0.7483746664415795
163,0.8022702823671176,0.7222694376572688
164,0.7742459242156833,0.7215421620124931
165,0.7928882882273417,0.7329973744021522
166,0.7827774986827536,0.7078414623658056
167,0.7820347288997771,0.6753072907116388
168,0.7778695408490489,0.6983313441324891
169,0.7914909485987036,0.7077395693857498
170,0.7911329556217759,0.7061173525749912
171,0.7778373765792724,0.708418075789887
172,0.7687967841247256,0.6986317198061885
173,0.7807440672209971,0.6782176721318408
174,0.7899120769517912,0.7574737636132252
175,0.7863521134142307,0.6900672543271228
176,0.7839026854122229,0.744605519644922
177,0.7828759138015292,0.691019100477709
178,0.7898433071623047,0.7499883868591822
179,0.7917952902251191,0.72180187076161
180,0.785146782799565,0.7061494773998555
181,0.7841554745566472,0.7157869876301202
182,0.772128564272049,0.7275870561793096
183,0.7744785577559872,0.740549478338486
184,0.7744208407149112,0.668607935055619
185,0.7663092548199135,0.7464963720034316
186,0.7760666216178548,0.685390491893595
187,0.7617829257221199,0.6790835362377925
188,0.760670805783917,0.6396491503870206
189,0.7657408884303678,0.6966111180942811
190,0.7592999956386389,0.691361700362146
191,0.7569719342063006,0.6701049368650277
192,0.7600212909633203,0.6883990988679176
193,0.7725980038448178,0.6910944302345038
194,0.7934475981349273,0.7061671398803652
195,0.7901350807151001,0.7498608673382656
196,0.7925933494245271,0.7385137796595342
197,0.8085430466336571,0.7187381438965345
198,0.796603567558255,0.7580700385212802
199,0.799334847862669,0.7275425942564823
200,0.7951223587660526,0.7248663934912994
201,0.8174194388145252,0.7220728783131806
202,0.8084843721482351,0.7378643659779626
203,0.8109490832058881,0.7086735271576063
204,0.8122045510620761,0.7274500056678265
205,0.8091342809130613,0.7714936518127707
206,0.8021752968657198,0.7962830949632114
207,0.8127339263860467,0.7337757821549078
208,0.8124774833194154,0.7500365184799791
209,0.8201842761163811,0.8046403500913897
210,0.8168368331664462,0.7162093286435003
211,0.811567030781455,0.7519877373882163
212,0.8051813136848858,0.7058676726578312
213,0.8057094143690158,0.7602579444284276
214,0.8151270745275878,0.7745516419845776
215,0.821906247622877,0.7283642404174185
216,0.800563094554375,0.6873870100901558
217,0.7998560618480938,0.7798013491352109
218,0.7875005086724333,0.7329432602491402
219,0.7980567183945062,0.6927250889337653
220,0.7813330998985742,0.7152099204034411
221,0.7860865784321335,0.7711369013602619
222,0.7907937131613326,0.7403940168320408
223,0.7839749011041833,0.7553861201389572
224,0.7743010239137278,0.7104780628540027
225,0.7715932798562191,0.7002142173723777
226,0.7574721963836061,0.6646879099291316
227,0.7504276690767516,0.7283264979635519
228,0.7519137965048476,0.6982839378707311
229,0.7444240711301303,0.6325135435501155
230,0.7321636310403494,0.6701663269662123
231,0.7300589381216811,0.6271659651618611
232,0.7269228375296863,0.6955876717553908
233,0.7231021774254196,0.6986645184342491
234,0.7411079766442052,0.6717630051203308
235,0.7592707757858204,0.6551926601542174
236,0.7723579225514391,0.7313498277927161
237,0.797139704215517,0.7218250828792869
238,0.8074029916949612,0.7176092297974778
239,0.8100680849545473,0.7139548489163778
240,0.8269219092720503,0.7897211719313387
241,0.8235485559110168,0.738490267415793
242,0.8326380846617792,0.734452907645596
243,0.8346065417874613,0.7730712632724935
244,0.8471625958613341,0.7706779427191927
245,0.8482712397010351,0.7861579474354796
246,0.8560458206720024,0.7491244196843444
247,0.8484668216531615,0.7831477538319206
248,0.8500322612931578,0.7883056771049438
249,0.8588261590946952,0.7662374419307477
250,0.8665098976716697,0.8218535425599184
251,0.8607298342870463,0.8088868478643924
252,0.8608338246591765,0.8171086238345188
253,0.8624645896774945,0.8308032297643335
254,0.8664204673207789,0.8124456752729146
255,0.8669901328195659,0.7927633937741332
256,0.8730842683365863,0.8062088503067995
257,0.8711690676985405,0.819672389863858
258,0.8815377179482539,0.8239351626536948
259,0.8783856902817329,0.8315078075204743
260,0.8790388576644625,0.7860546116411251
261,0.8886927355280678,0.8570230906800536
262,0.8947304764253985,0.861984201204651
263,0.9191198878234821,0.8540368146366544
264,0.9078684511234323,0.8229824209348612
265,0.8949421086819102,0.819862729586534
266,0.8977021641665406,0.866798021642541
267,0.8974427134156513,0.8450442358235083
268,0.8941485703325539,0.7939028797938585
269,0.8864490077961341,0.8525366722232234
270,0.9002298671689579,0.852434626605969
271,0.8926849695231267,0.8891564644359518
272,0.8933223841236151,0.8454252084579684
273,0.9009635109153149,0.8847468706136395
274,0.8927088942739656,0.855755780396767
275,0.8999858326774487,0.8365416678585662
276,0.8967707479973618,0.8247858407240231
277,0.8953207053118843,0.8535373490318862
278,0.9047028785280651,0.8890645247789678
279,0.906731266489594,0.8078577624330265
280,0.9096903795237729,0.8159992742229069
281,0.9046208314460407,0.8662493872333134
282,0.9147363050972775,0.8674596009076561
283,0.9017135553163371,0.8507294255548247
284,0.915048204249053,0.8450533148242706
285,0.9103438898121671,0.8628216801575307
286,0.9068821720880351,0.8732752745362288
287,0.913917131334233,0.8610885105573928
288,0.9151076617910922,0.8928117454777089
289,0.9138478633878324,0.8841770178210127
290,0.9123626126586388,0.8901476035346273
291,0.9086803512825213,0.8781012185008567
292,0.9075757509665646,0.8845150035179831
293,0.9103706774948309,0.8297591549249944
294,0.905018795934842,0.8447169354555574
295,0.9108219973510318,0.8636308007383385
296,0.9122701261022551,0.8406698834286989
297,0.9061155613657949,0.851338546738234
298,0.9182488072911102,0.8508750085703067
299,0.9056718101302942,0.859684069564646
300,0.9047215252613621,0.8401449692993752
301,0.9053462380834156,0.8851777493035223
302,0.907991469574509,0.8243863788060996
303,0.9027095129482263,0.9096967455631142
304,0.9076234801852102,0.8624653582735363
305,0.9125692154570901,0.8912382060110521
306,0.9051268715635121,0.8452094553064159
307,0.9101838174584009,0.845030553197822
308,0.9152648329400749,0.8784039158794035
309,0.932767147799317,0.8768839626803402
310,0.932493124941619,0.9193656926027469
311,0.9428727422550833,0.882532453063244
312,0.9334013524343722,0.9085917634782227
313,0.9376136999878528,0.9298163946817681
314,0.9269997648137202,0.8819971553020524
315,0.9295764606508663,0.8372655866693309
316,0.921778429642594,0.9154501645331061
317,0.9309548801713413,0.8360541300471972
318,0.9271120154160896,0.8581459518863433
319,0.9149558137568404,0.8577036286212522
320,0.9137675086434504,0.8491731126039664
321,0.9005336374211445,0.848498519803099
322,0.889065305741908,0.8727148999939677
323,0.8919373667173333,0.8092617589771892
324,0.8844048180181184,0.8754052425533025
325,0.8834947886898386,0.8505453812283225
326,0.8801356916717762,0.8386476671705377
327,0.8722994408433775,0.8208809137247678
328,0.8756417718956813,0.8253330844548884
329,0.8631384909940396,0.8154602332610187
330,0.8705699778347611,0.9003213551696103
331,0.8588421516317286,0.7641334000488461
332,0.8520687199097046,0.7736713681777898
333,0.8477996229361877,0.7715112817838534
334,0.8475861185259396,0.7403873759416285
335,0.8452431387763867,0.7633096862400052
336,0.8357970608507184,0.8009429126131951
337,0.8345870808232203,0.8026810781025635
338,0.8271231864384406,0.7678686890385543
339,0.8245931924749509,0.7083004985944295
340,0.8279918417680541,0.7716787422177082
341,0.8167236753112321,0.8147211341188868
342,0.8224739361109974,0.7121841362212986
343,0.8086015326891831,0.7116424680626305
344,0.8118865101980725,0.6864442242564753
345,0.8040948234933963,0.6847777735964612
346,0.8146889883580448,0.7329057590659808
347,0.8141661536894005,0.661033589716182
348,0.7995195961695275,0.7655611490681223
349,0.8045480503522462,0.7224773474079946
350,0.7900429483744695,0.8516428491398269
351,0.7849294838784121,0.6548148402815801
352,0.7763972801623867,0.7273909615870907
353,0.7749687366551452,0.6626791216112788
354,0.7371716328722845,0.7037593185514912
355,0.7321260721923066,0.6639590824849221
356,0.7176633487709815,0.7055877841108713
357,0.7022964736287168,0.6147417531009621
358,0.724921785002713,0.5964048454554605
359,0.7167630426472335,0.734187947161683
360,0.7274756103610878,0.6768098442852255
361,0.6975106564853744,0.6866469604642238
362,0.7094684863467519,0.7669113457009546
363,0.7039268438080198,0.6418987642867915
364,0.7120114250646963,0.6566661138990887
365,0.7174447445128802,0.7066141208157922
366,0.7397178827857284,0.7298570268297234
367,0.7644725938717588,0.7022385333286295
368,0.7583890915680542,0.7076318594419366
369,0.7314802681664833,0.6657815200472303
370,0.7207491117849457,0.6533739587831381
371,0.7224052146351557,0.7072808222855771
372,0.7265942454982319,0.6782033909701373
373,0.6996965951519646,0.6670594940752105
374,0.7386421601924064,0.7018005948963923
375,0.7118451607952698,0.5230939143427193
376,0.6975897530181776,0.6937486550378683
377,0.7157513892846264,0.6557680056381303
378,0.7195820638520705,0.720923914115601
379,0.7093875664200565,0.5313094494938367
380,0.7044874580146028,0.7229074442763688
381,0.7030871129088444,0.7232432245289709
382,0.7145576434339687,0.6658531045971706
383,0.7061779003700702,0.603950663422146
384,0.6817997254974084,0.6414898085284794
385,0.723093478965034,0.563798445443844
386,0.7082031354415502,0.7038503648155797
387,0.7330673582750478,0.782050845783509
388,0.7216129792843751,0.5431606328690429
389,0.7174520057449348,0.7030868344401694
390,0.7273949482996431,0.6327557904586885
391,0.7003161794453072,0.6627591117696847
392,0.7098560639029985,0.5802069651529447
393,0.7092717285271737,0.7215853025298339
394,0.7054238324527076,0.7037988925308883
395,0.7353225477200875,0.7806820428816168
396,0.7186222979433542,0.4926762771335735
397,0.7030732570837935,0.6064152715656685
398,0.731116221166306,0.5944894921073852
399,0.7179221917596982,0.5031809590013648
400,0.7259678108941278,0.7336090027995933
401,0.7005754070366927,0.6529745233803383
402,0.7290059138265393,0.6854481824461465
403,0.7022596331502649,0.747576571922426
404,0.7221657239717899,0.8243579621829352
405,0.7181316933887686,0.6772958453554306
406,0.7263819045596738,0.666759628231508
407,0.7261431803099149,0.6521177676665715
408,0.6952148630463476,0.605905539024582
409,0.7136962362964026,0.766283440473886
410,0.7069285957931614,0.6251780650814858
411,0.7170277310310124,0.6130712488175212
412,0.6897491561092312,0.6200531705645943
413,0.6972204784782912,0.6963063714858099
414,0.7093462469913752,0.610949843203451
415,0.7370812762513744,0.5537140968120494
416,0.6959263729729397,0.6463116794848771
417,0.717549601908299,0.7437059941179658
418,0.7132005391715526,0.5527584340788926
419,0.7124455642160938,0.6372434917931042
420,0.7070423189977153,0.6374383073266888
421,0.7189670841964938,0.7264644327148227
422,0.7314151342483975,0.718700031681169
423,0.7069477659163235,0.7170219155510363
424,0.7289849322399585,0.7216558820671506
425,0.699485329733647,0.5005435474210895
426,0.7050930327348847,0.7041789517350441
427,0.7203777129646298,0.6283354716192681
428,0.7245746747649509,0.6766865931674898
429,0.7190486624347773,0.718520404576095
430,0.7279034749067145,0.6885573124121769
431,0.7265891249390771,0.6564143607022795
432,0.7120115815805759,0.7064560746286134
433,0.7025607401628892,0.5963728648080926
434,0.7243592710352784,0.6665747021864994
435,0.7097809671687545,0.6238304838260208
436,0.7080614274864296,0.5222792318340056
437,0.7347382913597876,0.6455801439449639
438,0.6990441271335817,0.7034270984558003
439,0.7121476310076381,0.6613249997007876
440,0.704178673611153,0.7046503523502133
441,0.72146190118322,0.6269394223369048
442,0.7234541537692014,0.7243647449691414
443,0.732401896575339,0.5548201788032529
444,0.6993456661844368,0.6344098527791147
445,0.7033353861543634,0.5536558588925939
446,0.7074670519133965,0.6564846608518877
447,0.7250105637350113,0.5342033651188343
448,0.7371008512232187,0.6125301295001625
449,0.7271977964761832,0.6903402916996438
450,0.7362695713822034,0.7654021393933725
451,0.7041288973857538,0.6700731785869753
452,0.6966840170377536,0.552520134854104
453,0.7137357726681223,0.5219388750154413
454,0.7065268083154153,0.6018751254191944
455,0.7431922847982213,0.6356844085556457
456,0.7178390546619081,0.6987928788012252
457,0.7319575732617115,0.5263909400234548
458,0.7209144796582582,0.6234548680925408
459,0.7289863960732451,0.6601018827085271
460,0.7135960011719894,0.6294923976776761
461,0.7322243265956759,0.6100676421556449
462,0.7220940855238512,0.8130020855020336
463,0.7133371079440495,0.5180145394773089
464,0.7283401981389838,0.7039080836477071
465,0.7285438747263795,0.7447959851271141
466,0.7457798841096956,0.6605881789256574
467,0.7114806979823055,0.7080918541306513
468,0.7234932061693399,0.6933935237723642
469,0.7161732242167521,0.6184296283602038
470,0.7026741667997369,0.5721899599489504
471,0.6991808535553533,0.6104887045454611
472,0.7106026864295201,0.5494840616437351
473,0.7089890480590305,0.5964020394447462
474,0.7110327803033939,0.7148873449967146
475,0.7230854473584551,0.7036906303860555
476,0.7110814897297286,0.6127584297436577
477,0.7282854901661007,0.6739590818429515
478,0.6958886247047718,0.7521224569858619
479,0.7074305731311047,0.5296872105911701
480,0.7284292318851495,0.570343529172574
481,0.6953363155989384,0.6657889462638849
482,0.70884180731111,0.5570729029729709
483,0.7199583308543083,0.5306477229332208
484,0.7308113896030727,0.6595191648841774
485,0.72241979973425,0.7386289263583737
486,0.7150800824642564,0.5855171105190689
487,0.7335322060472398,0.5565078608987782
488,0.7277858777820253,0.7198066411468911
489,0.7141508303636356,0.6336183911499123
490,0.7128369973076163,0.6944061766430699
491,0.7503476258728197,0.7110248376031475
492,0.7289629111154448,0.5706982672794602
493,0.7013004626914727,0.6945549972107617
494,0.7162455840526913,0.7548038967479465
495,0.7078299944977268,0.6919798062568937
496,0.7124483025341247,0.7247404524541345
497,0.7168806155172703,0.5095221098128703
498,0.7169843022946456,0.6609644373548001
499,0.7299148314613834,0.6623285070049598
500,0.7079302655805866,0.5389990747119968
