epoch,loss,val_loss
0,0.6695750850741745,0.667690116329761
1,0.6668765126410129,0.6672854563438567
2,0.6668457684451781,0.6668871623706581
3,0.666815495699594,0.6668387060721518
4,0.6667855024610703,0.6666960563316534
5,0.6667616277074482,0.6667046438375714
6,0.6667573778949346,0.6667563036416956
7,0.6667464110189335,0.6667057107459227
8,0.6667392593292714,0.6668035050183905
9,0.6667275237055176,0.6667804547338273
10,0.6667286392047762,0.6667115248758207
11,0.6667238274208251,0.666683747129464
12,0.6667214937547449,0.6668210707882202
13,0.6667191437946302,0.666711080370115
14,0.666713034250307,0.6666875484267772
15,0.6667189410744696,0.6667338118068042
16,0.6667107879011939,0.6666935076192946
17,0.6667110411844508,0.6667502846670506
18,0.666706937021958,0.6666754775544255
19,0.6667104191106179,0.6667078335882712
20,0.666706289461876,0.6667747044681616
21,0.6667030925061991,0.6666754011184939
22,0.6667021553594104,0.6667032233834562
23,0.6666997982556678,0.6666915855987492
24,0.666699071737042,0.6666814640201351
25,0.6666975694169621,0.6666764816042803
26,0.666697741310507,0.6667529485657553
27,0.6666981474323758,0.6666868694071143
28,0.6666965215100222,0.6666886232922745
29,0.6666943014438745,0.66668105930016
30,0.6666981812005317,0.6667474100666662
31,0.6666952568409916,0.6666861086270354
32,0.6666933104090788,0.6667394428927609
33,0.6666954354719179,0.6666778923855822
34,0.6666924468228825,0.6666753266644537
35,0.6666944890863736,0.6666893520071252
36,0.6666915100279112,0.6666870319517907
37,0.666693132492042,0.6666813815793683
38,0.666691692310323,0.6666772312916833
39,0.6666909725322337,0.6667362453032368
40,0.6666882418386847,0.666685040328402
41,0.6666918912993264,0.666706767685656
42,0.6666869370143566,0.6666759755416188
43,0.6666906509443462,0.6666766519582006
44,0.6666885028280041,0.6666780799257548
45,0.6666876728482541,0.6666731149919571
46,0.6666864200037577,0.6667602996672354
47,0.6666884077237255,0.6666811444623298
48,0.6666861923629378,0.6666819286997205
49,0.666685288401361,0.6666822506535438
50,0.6666873323789757,0.6666814178450232
51,0.666684740166577,0.6666725828689026
52,0.6666848806403073,0.666701154880429
53,0.6666857725478009,0.6666723822541627
54,0.6666842162284892,0.6666861300432948
55,0.6666844988971729,0.6666852742507499
56,0.6666827480181279,0.6666739642176379
57,0.666687166259653,0.6666865709697638
58,0.666682667017308,0.6666726635052608
59,0.6666828391151594,0.6666708358168306
60,0.6666851802979831,0.6666723913945276
61,0.6666829861669278,0.6666722147991284
62,0.6666833933900006,0.666734976478605
63,0.6666836430225609,0.6666955568654366
64,0.6666827307175486,0.6666848180311785
65,0.6666849352816453,0.6666887864285604
66,0.6666833005086398,0.6666763506515446
67,0.6666824375329967,0.6666720373754762
68,0.6666822454730599,0.6666856614295069
69,0.6666813035846251,0.6666732699048726
70,0.6666828987174377,0.6666738250415319
71,0.6666816546865183,0.6666789131779824
72,0.6666820968270698,0.6667126305937471
73,0.6666836202554025,0.6666773483120182
74,0.6666818288077139,0.6667705119691475
75,0.6666829045658097,0.6666734662896054
76,0.6666804204741431,0.666672217609273
77,0.6666815651308571,0.6666981601537605
78,0.6666833346096813,0.6666770355873013
79,0.6666814781246884,0.666688966336972
