epoch,loss,val_loss
0,0.7796531548370504,0.7781508927013975
1,0.7780245704354343,0.7780084436347999
2,0.7778907398798535,0.7778242622652362
3,0.7778710909134054,0.7778239962776601
4,0.7778487845836631,0.7780369340929737
5,0.7778383400586275,0.777790561917402
6,0.7778250235396206,0.7777891096642828
7,0.7778284926686225,0.7778069859107138
8,0.7778128697825116,0.7777921670423844
9,0.7778122700285715,0.7777968744486201
10,0.7778133653322515,0.7777916970974754
11,0.7778104680208403,0.7777901251913596
12,0.7778107840782537,0.7778130482207457
13,0.7778031053551421,0.7777998835513964
14,0.7778088420945427,0.7777866547220103
15,0.7266568426578754,0.6666858566014405
16,0.6667007893330603,0.6667085937175798
17,0.6667057014709414,0.6667763205379174
18,0.6667043930676999,0.6667008523905543
19,0.6667038469651184,0.6667781836933296
20,0.6667058992451494,0.6666761343295757
21,0.6666966118063932,0.6667470270587552
22,0.6667006834462896,0.6667115028975323
23,0.6666994571845134,0.6667155814525803
24,0.6666948637505641,0.6666808845979109
25,0.6666980947173561,0.6667762265903482
26,0.6666978568115153,0.6667136910239757
27,0.6666943745130273,0.6666867613496614
28,0.6666948549141111,0.6666780260301406
29,0.6666938801299642,0.6666805258459844
30,0.6666930925008206,0.6666922069956588
31,0.6666908947348451,0.6666944247617319
32,0.6666908208524106,0.666679372118957
33,0.6666902112728269,0.6668191002852863
34,0.6666903185376805,0.6666903439289878
35,0.6666897052190512,0.6666869788548491
36,0.6666868778593438,0.666678945893981
37,0.6666897117655362,0.6666887119745203
38,0.6666867465178772,0.6666767553419393
39,0.6666907442358977,0.6666750268072408
40,0.6666858207097044,0.6666758840788091
41,0.6666882148347303,0.6666844547238598
42,0.6666862608813408,0.6666830990509715
43,0.6666848303627667,0.6666841829680923
44,0.6666864374273941,0.6666714726251645
45,0.6666843976376682,0.6666714730392911
46,0.6666848512588247,0.6666810590930967
47,0.666685337345782,0.6666980438137764
48,0.6666852709146183,0.6666971764552682
49,0.6666859809601455,0.6666742326308125
50,0.666686807246602,0.6667118555854626
51,0.6666860479829304,0.6666841513761516
52,0.6666850648845347,0.6667024886933509
53,0.6666858187549882,0.6666823510792356
54,0.6666920134170253,0.6666746044573062
55,0.6666830608878866,0.6666878264536041
56,0.666683596253728,0.6666851511664189
57,0.6666853618743936,0.6666867634794552
58,0.6666836783273541,0.6666954043781196
59,0.6666837482885238,0.6666785196098441
60,0.6666859727602769,0.6666751869263188
61,0.6666821376244735,0.66667234486445
62,0.6666844207093142,0.6667123264769467
63,0.6666836109417084,0.6666743254247434
64,0.6666853361743722,0.6666733292137127
