epoch,loss,val_loss
0,0.6691246623010734,0.6668529073594521
1,0.6669622826899021,0.6667403000755878
2,0.6668707310512094,0.6667583375651547
3,0.6667960751052096,0.6667318740198689
4,0.6667766771896348,0.6668504192870545
5,0.6667543150274241,0.6668059921442131
6,0.6225788012817256,0.5556491016454199
7,0.5556192429198449,0.5555904752859111
8,0.5556483763632806,0.5557357194110123
9,0.5556455986768714,0.55561533216803
10,0.5556308637722563,0.5556933852638264
11,0.5556380007849816,0.5556285495497748
12,0.55562633464279,0.5556452555336964
13,0.5556134843512025,0.5561738875012836
14,0.5556153740821471,0.5555786399924134
15,0.5556112377646519,0.5555803386804188
16,0.5556140192106162,0.5555700916214558
17,0.5556045777839255,0.555611178656074
18,0.5556070453094119,0.5555793722273398
19,0.5556036532473437,0.555577700960429
20,0.5556016301744642,0.5555745384237607
21,0.5556006669718924,0.5556048583747731
22,0.5556007774843514,0.5555723136175359
23,0.5556021046112183,0.5555927509113814
24,0.5555950501525155,0.5555757120584436
25,0.5555940647957047,0.5556388045067231
26,0.5555966306470439,0.555576729833636
27,0.5555920386306188,0.5556047798977892
28,0.5555886941680197,0.555570259017329
29,0.5555911729003877,0.5555741918589874
30,0.555592543374151,0.5557021059114348
31,0.555588232559978,0.5555888842116514
32,0.5555876042559802,0.5556269367042901
33,0.5555879648451097,0.5555658864324206
34,0.5555881823100464,0.5555769542902338
35,0.5555857270035083,0.5556028889367362
36,0.5555857642409305,0.5555748372160767
37,0.555586099591503,0.555603124308527
38,0.5555919052224223,0.555574176063017
39,0.5555846397214218,0.5556665706279555
40,0.5555858643171929,0.5555627082181036
41,0.5555826888389405,0.555582298416062
42,0.5555849576672898,0.5555701855690248
43,0.5555901635253372,0.5555666873236152
44,0.5555836638368598,0.5556124731565527
45,0.5555855308866282,0.5556357169861238
46,0.5555874318347093,0.5555701192200332
47,0.5555802527648217,0.5555643102075563
48,0.5555830988008247,0.5555642451305247
49,0.5555836934565683,0.5555637656015439
50,0.5555839598327952,0.5555977903879605
51,0.5555819406622485,0.5555754692323747
52,0.5555834373532507,0.5555917186417592
53,0.5555821828719358,0.5556047178379655
54,0.55558389103988,0.555577727198305
55,0.5555822599538573,0.5555631066965998
56,0.5555849155375553,0.5556174235367598
57,0.5555821065457117,0.5555743626566146
58,0.5555827263832168,0.555566250922958
59,0.5555827306073916,0.5555700730449212
60,0.5555803882910217,0.5555748894847652
