epoch,loss,val_loss
0,0.6696719168753721,0.6668219283851737
1,0.6668761809245717,0.6673559525468509
2,0.6668175947271596,0.667059844066724
3,0.6667841035027222,0.6667664080932182
4,0.6667748820407645,0.666708535621539
5,0.6667433633616076,0.6666846796537451
6,0.6667490343151059,0.6666950879262635
7,0.666739325664987,0.6667030626431883
8,0.666726904370496,0.666679352625428
9,0.6667244743088255,0.66668175769503
10,0.6667221766180426,0.6666929110699789
11,0.6667197363276374,0.6666883134368632
12,0.6667164055512068,0.6668033879980556
13,0.6667059383347402,0.6667509790981377
14,0.6667096535481534,0.6666850571301084
15,0.6667125737639791,0.6666855802015395
16,0.6667051482239433,0.6667072163622078
17,0.6667078638587627,0.666694725831744
18,0.6667053333279934,0.6666787716945999
19,0.6667020116972365,0.6668310378680454
20,0.6667046575152419,0.6666848041579386
21,0.6667016157520399,0.6666814240865021
22,0.6667004292708679,0.6666811071909391
23,0.6667003399652652,0.6667319172073535
24,0.6667010618345378,0.6667212642451965
25,0.6666952310944293,0.6666824796951143
26,0.6666988017053854,0.6667231385524456
27,0.666699492722011,0.6667223203862571
28,0.6666951443604063,0.6666794936651036
29,0.6666962521117947,0.6667148422366632
30,0.6666964284488086,0.6666793060953504
31,0.6666950749514163,0.6667136185222465
32,0.6666970326304412,0.6666788161540446
33,0.666694678247367,0.666693594142166
34,0.6666933494024324,0.6666885469450844
35,0.6666957385862387,0.6667069696315169
36,0.6666954245150947,0.6667114556575235
37,0.666694491090786,0.6666930958295875
38,0.6666919723593083,0.6666835983988665
