epoch,loss,val_loss
0,0.6699191028014684,0.6667417947175189
1,0.6668720977906601,0.6667997067974459
2,0.6668282848238681,0.6668598693298643
3,0.6667823648197494,0.6667598251077732
4,0.6667667334308597,0.6668246614725951
5,0.6667544715388197,0.6667366462369119
6,0.6667396760648231,0.6666951825837639
7,0.6667359598566976,0.6667156935033964
8,0.6667254238623036,0.6667303755324768
9,0.6667277706576398,0.6666854863131313
10,0.6667217419192959,0.6667132775186013
11,0.6667152139513289,0.6666839047637826
12,0.666707272751957,0.6666740417776273
13,0.6667136543118394,0.6666827712402155
14,0.6667073314857355,0.6668018539253595
15,0.6667077927806123,0.6666852088779137
16,0.6667048847695359,0.666686344117148
17,0.6667053191622172,0.6666808822018928
18,0.6667003978360657,0.6666803689511774
19,0.6667022463609936,0.6667415061600451
20,0.6667014915786548,0.6666731650421105
21,0.6666993411281701,0.666691776866061
22,0.6666995399523084,0.6667208211001924
23,0.6666957321833205,0.6667725099819174
24,0.6666970040496192,0.6666729473002792
25,0.6666960217731824,0.6666734792458509
26,0.6666944441681316,0.6667703492174077
27,0.6666937659305223,0.6666854380082256
28,0.6666923325327254,0.6666733018221985
29,0.666688916826322,0.6667249765644594
30,0.6666909973558672,0.6666764464626833
31,0.6666943249627862,0.6666755718273797
32,0.6666916290076518,0.6666793946296938
33,0.6666892320949072,0.6666913239003411
34,0.6666876332033284,0.666727297566369
35,0.6666878230963542,0.6666768344696935
36,0.6666895082470814,0.6666779924858889
37,0.666688496847109,0.6666767458170283
38,0.6666883911678,0.6666998510029416
39,0.6666869279948954,0.6666987652222512
40,0.6666904588773099,0.6666757131924405
41,0.6666898534856149,0.66667090580422
42,0.6666867574833775,0.6667125105562044
43,0.6666872849633037,0.6666776326099045
44,0.666687768373767,0.6666720432619895
45,0.66668887752217,0.6666725892582839
46,0.6666853983711063,0.6666745603824076
47,0.6666882409370541,0.6666808669679514
48,0.6666859641620498,0.6666729700476597
49,0.6666860063312258,0.6666732863516133
50,0.6666887646605807,0.6666784055475562
51,0.666684423878037,0.6667523357767621
52,0.6666856267597353,0.6666724134615574
53,0.6666858463182218,0.6666945333220526
54,0.6666840117823726,0.6666723006712296
55,0.666685814799015,0.6666764579694857
56,0.666685053594826,0.6666732063956059
57,0.6666847105697443,0.6666743761552475
58,0.6666869535963134,0.6666729063017492
59,0.6666826761448387,0.6666760922365685
60,0.6666842401236719,0.6666727980668137
61,0.6666854494082883,0.6667775828252656
