epoch,loss,val_loss
0,0.5188821907476079,0.5437484305960604
1,0.5216030839869349,0.5030432156953835
2,0.5083446424070308,0.5017483623693944
3,0.5019909324262926,0.49850371665811577
4,0.5010915820618613,0.4983596383066938
5,0.49995874014975644,0.4974385726705911
6,0.5003504228653858,0.5000663286555727
7,0.49940210814289243,0.49841912684707823
8,0.4997882802995275,0.4971734219963567
9,0.49882467883191617,0.4926796223624259
10,0.49645060468777763,0.5022912513061876
11,0.4972772446158026,0.4926114072457203
12,0.3970586112339338,0.2147283374604599
13,0.25170596450757826,0.26790832508805235
14,0.2731529545131252,0.2795774216551242
15,0.27808664345460166,0.2671450137409904
16,0.28158661444410144,0.27720417733867997
17,0.29142258347248096,0.2851344002050589
18,0.2925200901514621,0.30294642222849705
19,0.292168723551823,0.27831494764681397
20,0.29218886436508906,0.2805977856421339
21,0.2964671714533624,0.29433866667295877
22,0.29711780730459236,0.29859990363715666
23,0.2961646898401727,0.28262345690424273
24,0.29734436236173034,0.29395252543824246
25,0.2978237461474397,0.28895954363159804
26,0.29977696434223206,0.2874664222878928
27,0.3016224136467365,0.29437308477997876
28,0.30015257102765625,0.30001511994599356
29,0.29796640482618747,0.28758205259373176
30,0.2997930364833652,0.2875373749607834
31,0.2980512864500594,0.29143719757365355
32,0.3045713719930485,0.2947468847483279
33,0.3094880585249761,0.29536861518799273
34,0.31006117679661127,0.302996081541915
35,0.3085894376801835,0.29876083709540663
36,0.3089979948947946,0.29683643254879993
37,0.30927813666568194,0.3022984319205536
38,0.3091961113121107,0.30870703065028415
39,0.31226956670423395,0.30489558056761357
40,0.31100660835286315,0.3039665016821264
41,0.30657193809747696,0.303349283024751
42,0.30829594400432186,0.3001737661524466
43,0.31149264925913656,0.3010379837880289
44,0.3122986784751276,0.3038787293617614
45,0.3111731585243242,0.29906987555871917
46,0.3158295609944349,0.31138492324452
47,0.31490305690861625,0.31416781494818813
48,0.3196854948354282,0.3119368055907402
49,0.3194697591469442,0.31028390652849247
50,0.31781128563469263,0.31216053265987087
51,0.3062655511531803,0.2918054034320407
52,0.3026593732092973,0.29202006157449406
53,0.30209941638530874,0.3009824259081692
54,0.3003670437146815,0.28193880926932324
55,0.3006037310611525,0.28965737174934725
56,0.29643727093339445,0.29945809581708793
57,0.29467487722921143,0.2861589927346855
58,0.2920723979016669,0.27802412850516184
59,0.2910638587604419,0.2832853825970155
60,0.2908507211388444,0.28433874883375115
61,0.2905742957425727,0.27955362924037247
62,0.2879700152446135,0.2791688130917094
63,0.28687633060032036,0.2716499981841612
64,0.28429588311605697,0.2732159173573296
65,0.28295446344488245,0.2756008842773294
66,0.27899556430123695,0.2686665936093116
67,0.27700190340205255,0.26641356445196207
68,0.2794749029903865,0.2732940124496288
69,0.27789094442014783,0.2634045875909861
70,0.27539414025062947,0.2609864418301511
71,0.27462002162119564,0.2628551285710971
72,0.2737538799059858,0.26476320152736216
73,0.27128305628621796,0.2745133889596483
74,0.27056878468663476,0.2603781004072459
75,0.26972642138326386,0.26546417277867906
76,0.2680464705153049,0.26416636523573817
77,0.27287356439325733,0.2723481142106918
78,0.27365348580405774,0.2674971879257776
79,0.2686604315178286,0.2584377505126297
80,0.2647724235646254,0.25986966929430083
81,0.26294703986480844,0.24954900241970734
82,0.2639700531494989,0.26985748248629055
83,0.2643746104743555,0.25405012339282995
84,0.2627891302227879,0.25237312671840895
85,0.26267721060273364,0.2536261113214982
86,0.26022077023053913,0.24498026463443498
87,0.2582382125605782,0.25729697352332587
88,0.2574583859168749,0.2516403833570307
89,0.25713760466527025,0.24763634216390262
90,0.2568891295176044,0.24523338860146343
91,0.25442990771443436,0.24670837437344426
92,0.2539130099933687,0.2542415591399314
93,0.25037507728325853,0.2448260165639251
94,0.24943020397262702,0.2391931969487206
95,0.24981100611287435,0.24502052637236083
96,0.24853480588212953,0.2322713441282346
97,0.2482195445637909,0.23359055138518703
98,0.24745251629635584,0.23623549751202327
99,0.2453933068030744,0.23236886111412258
100,0.2430552484915792,0.2362749880119488
101,0.24112482910319197,0.2391687309826653
102,0.2406961004987514,0.23259315619152554
103,0.23870802976244646,0.22416280158269847
104,0.2367356823061963,0.21950510181868838
105,0.2330408424532099,0.2298681516297332
106,0.2295268251003026,0.21907668127351232
107,0.22051736124628168,0.21750341208788385
108,0.2117763148258916,0.20987995731002623
109,0.2083847065814298,0.2081080079313894
110,0.21028323880702757,0.20822442802229357
111,0.2097858462354643,0.19967102237639694
112,0.20241769858234696,0.1847009045360779
113,0.1953659536217233,0.1979258713777741
114,0.19853982544369358,0.19561510463116577
115,0.20629035891126768,0.2041010876857303
116,0.20620560047509287,0.19293407444278368
117,0.20494492119438737,0.18571065650883864
118,0.20646087188633988,0.1845562842739974
119,0.2088903509062543,0.19143352760465104
120,0.21229602124908273,0.19307623633081367
121,0.2072426189990829,0.19912862319031754
122,0.2041982975449684,0.18414805714267393
123,0.19526195729212414,0.167664728211952
124,0.18751943909781252,0.1785807212036994
125,0.18288846400311048,0.16957987056370316
126,0.18179994210791436,0.18803865904166364
127,0.17638128129936617,0.15611600962297692
128,0.1747806938521439,0.15689970965143632
129,0.17398091737660382,0.15951670489282052
130,0.1736391937191919,0.15439298985953773
131,0.16963291120269505,0.16551266975800824
132,0.17324435743663333,0.1533337409572048
133,0.1728521003145918,0.16395296618024854
134,0.1718327249262592,0.163067237542385
135,0.17056294935617705,0.15785262129771588
136,0.1698465306225488,0.1858380117469071
137,0.1681088766307949,0.15255789121211563
138,0.168570286629321,0.15377495803626956
139,0.1665372575382344,0.14587753861201685
140,0.16176005284325015,0.15679912219719333
141,0.16269852499143303,0.13830202031695382
142,0.16644749161805944,0.1569505641450069
143,0.16689468735901952,0.169743906903568
144,0.17032671851112688,0.152728502974561
145,0.16964818371964588,0.18079571910467127
146,0.17343594356894873,0.1686567228460933
147,0.17152653725670397,0.16899491751297496
148,0.17072321525771172,0.1664724597191378
149,0.16950621783471317,0.15950094499781833
150,0.16788455597657284,0.14660815567648494
151,0.16471392503507037,0.15758373320761307
152,0.1652731101343529,0.15082640069718425
153,0.1653287035943888,0.1556916881496735
154,0.16595176942676282,0.16513736641303517
155,0.164070083791737,0.14703850567505505
156,0.16766322547678564,0.1664566863813359
157,0.16953044239101078,0.18808447676045553
158,0.1721955973723476,0.1605512401722695
159,0.16953431186284856,0.1550930150929359
160,0.1653624641255652,0.1644306555331553
161,0.16424227125948662,0.14068713969453264
162,0.15900060863231869,0.1555825024196362
163,0.14944332068284258,0.13095546991291626
164,0.14603968528653982,0.14660594615300246
165,0.1440080059387034,0.12145485694284221
166,0.1363467354890254,0.1257989917894283
167,0.13388471175536074,0.1290620762881277
168,0.13137396655196576,0.11646914346865433
169,0.13353913758012603,0.12352839523328038
170,0.13171317562055912,0.11517337807869478
171,0.13673165328294443,0.1407024142785908
172,0.13329805539166042,0.11681240622392298
173,0.13514088799984908,0.1223786958297031
174,0.13569223241125652,0.1308904959810655
175,0.13600655051646568,0.1162469372882463
176,0.14118051408625526,0.12641814857980072
177,0.13936976101591908,0.1282116080668844
178,0.13959749458100107,0.1290837745193242
179,0.13944108461399826,0.13229997374923003
180,0.14031877726328362,0.12305866169501405
181,0.1355743765842905,0.1188043102727881
182,0.13359514813569429,0.12439156656507065
183,0.13915115136870568,0.1219916013852291
184,0.13909667135059214,0.14170291558813652
185,0.13680664387693126,0.132348997863899
186,0.13921761144694092,0.12498422849691093
187,0.13605190069376707,0.12980531119604044
188,0.13123994835501285,0.11897404714183912
189,0.1329692079366254,0.1162572858095075
190,0.1323434388656601,0.11840961597736369
191,0.13146626616684462,0.12814051580880698
192,0.13365004822719012,0.12214181849757987
193,0.13666014268184357,0.12383333035548465
194,0.13968698918628844,0.13069429813686467
195,0.13929294466936618,0.11700551874565156
196,0.14129495124319952,0.13877420423768502
197,0.14012605138569714,0.1482652944425193
198,0.13762948034907416,0.11576455262884344
199,0.1406894726581949,0.1152228763548991
200,0.1393236157169445,0.12926221395465645
201,0.14316068806772608,0.1298860591301884
202,0.1428372752365115,0.14261481749230515
203,0.14159615492696861,0.12924072087022764
204,0.14386440872205056,0.12220413346599196
205,0.14339627773701238,0.14167725749390278
206,0.14013013228488197,0.13305331293225947
207,0.14058187858556673,0.13002670947359413
208,0.14130127831376332,0.12288324199705117
209,0.1425244005934464,0.14971211730798775
210,0.14623461212876507,0.1493807241391176
211,0.14180831926510773,0.14300073431576907
212,0.1495571127809066,0.1420546033446866
213,0.1468643167232581,0.14097297562090733
214,0.14621809233935903,0.14009238078002395
215,0.14647965765089915,0.143083109763681
216,0.15050590132697403,0.1252641033119542
217,0.14755194019273127,0.13346951741257707
218,0.14955823937897011,0.12948407081044747
219,0.15389465081760828,0.1588366976112198
220,0.15419869139480838,0.14895400375527665
221,0.1513011687421065,0.13503740574420675
222,0.15409841263692062,0.15602139829883635
223,0.15792292089973517,0.14617955719944803
224,0.15929935647131538,0.14046543452009594
225,0.16024189479619289,0.17052503398839375
226,0.16368613421595354,0.1478765240114038
227,0.1650851494569382,0.14341303896697
228,0.16524678549106173,0.154931677121672
229,0.16743683865923675,0.16318327620707823
230,0.16926516348616683,0.164650231446915
231,0.17108836250720647,0.15172273655669746
232,0.16840724767648058,0.17478920473484139
233,0.16666251656522663,0.15871240353857144
234,0.16251029570599634,0.15157412004898924
235,0.15911050071473792,0.14819966172527496
236,0.16389321267521448,0.13936820528642718
237,0.16226460312684474,0.14810876680013224
238,0.1624981151829711,0.14933167944861475
239,0.16641837287006334,0.16374282000237972
240,0.16870872585250318,0.16388162661817193
241,0.1723775648229795,0.1645197681876836
242,0.1719828011761371,0.1663967676125555
243,0.17444256478421788,0.16055163838727887
244,0.17619056374930459,0.17826380582427828
245,0.17967583527632183,0.162146781554303
246,0.1805778291942976,0.17096591236888656
247,0.18456429621274714,0.16735166222468642
248,0.19009439506047635,0.17751093503990414
249,0.19666195691799185,0.18341709626360775
250,0.19868105685980106,0.1711781392992719
251,0.19416016583546078,0.18470080508523412
252,0.19550922331061485,0.17484710661910516
253,0.19498337299632226,0.19702135753283467
254,0.1940776941885384,0.19177797948316785
255,0.19135542665954403,0.17854845594400107
256,0.18991560508593094,0.16975762571583794
257,0.19052784633841352,0.17424559170393467
258,0.19246105311943187,0.19061098759957157
259,0.18992512210381687,0.18723171916455852
260,0.18912947885721898,0.18597998344813546
261,0.18974278774931372,0.18276351849065584
262,0.18862097269649222,0.17299897388952779
263,0.1899885196003506,0.18070863742431317
264,0.19212239629906908,0.17244017044201365
265,0.1934034310513549,0.1835728290166644
266,0.19137624055028057,0.1780728061801821
267,0.1878650766506279,0.17415610608522028
268,0.18603683606707316,0.1707567294858155
269,0.18492693000202842,0.17008622736914852
270,0.18616344422387848,0.17949684411169697
271,0.18662750338919634,0.17540589277209875
272,0.18818632117230638,0.18029705326248552
273,0.18691363674309328,0.16878114317285797
274,0.18337200103486948,0.17592990363124045
275,0.18667785797735675,0.16267652894887005
276,0.18662091740351214,0.17509078230317784
277,0.1884709962849899,0.18222521301932285
278,0.18741654882209002,0.1756922019073694
279,0.1885642113028575,0.1865586770879253
280,0.18656460512920822,0.1929927073718999
281,0.18622788162730772,0.18118924993930507
282,0.18875789993422495,0.18627976119847586
283,0.1896607128800534,0.16630488646458524
284,0.18555146972123954,0.1778829937716968
285,0.18353909338049465,0.17924826865061683
286,0.18141691958149084,0.1739889119517267
287,0.18195278874392226,0.1823519619083254
288,0.17952370952120977,0.1712331457126771
289,0.17840837227771703,0.17209312085712059
290,0.172758596588215,0.15493193667473149
291,0.1680375600038625,0.14981968295131975
292,0.17214718607249116,0.1684417484391366
293,0.16815730075625113,0.18052034808033174
294,0.16166816866821904,0.15704413181745638
295,0.15913997329086613,0.15493649416018773
296,0.1585109573301318,0.16849726049821961
297,0.1567964251104781,0.14046838997195063
298,0.1497494535420915,0.14079768659918912
299,0.15191426894052043,0.13614937123837392
300,0.15168351808683478,0.14473677438925642
301,0.15230011884912217,0.1424875054405539
302,0.15366638554550474,0.15150238019609039
303,0.1488182253057627,0.12692358277755736
304,0.1479640219399302,0.13531225502208732
305,0.1458810975315045,0.14105949502059015
306,0.14240370136049155,0.13611658046870317
307,0.14220697477424174,0.1401059629767545
308,0.14429430183854033,0.1249178156092022
309,0.1415058212499205,0.1290158195319661
310,0.14094072416853562,0.1331320971238773
311,0.1426869956292599,0.13246373028950892
312,0.14177987765041378,0.13858498801677926
313,0.143337291183708,0.11401426809786244
314,0.1400567323183842,0.13698505380888482
315,0.1430359033050297,0.11830804876295148
316,0.14370239935189985,0.12652424897560474
317,0.1430424160892062,0.1250141280002733
318,0.1457515058102463,0.14252480614604024
319,0.14658964070961247,0.13369967661439291
320,0.14759449283782242,0.1356353706017948
321,0.1485134582969544,0.14443913044521164
322,0.14666607676685858,0.12984700812631078
323,0.14655654639196244,0.13708975533024947
324,0.14464659493961493,0.13489317476467155
325,0.14301491634165356,0.14174689853530092
326,0.14277655325478597,0.1220168341906784
327,0.14335811200092355,0.12907637746882608
328,0.13911569095868095,0.11091021136119786
329,0.1399923736344186,0.12596133120810787
330,0.1374468744652782,0.11964695910087418
331,0.13542233050453195,0.1506260434766877
332,0.13802239725546395,0.13888729821181994
333,0.13967578366196318,0.15275052663794444
334,0.1420598247294708,0.13292934923728997
335,0.14279122126819513,0.13992636251515447
336,0.14313730583500137,0.12517666146335588
337,0.1406744802378112,0.13776854899048147
338,0.14297640518688087,0.1373099332532736
339,0.14064353731848733,0.11885527138551955
340,0.1378995812029766,0.12898963419889595
341,0.1356276050150442,0.12389927939603718
342,0.13471406359645388,0.1356511849971766
343,0.1378408826881652,0.1314759905543399
344,0.13620098463172536,0.1237824374446741
345,0.13137317072751997,0.11680098003821761
346,0.1323811565097764,0.11733081508736584
347,0.13272567747605982,0.13147182640896693
348,0.13330765414259416,0.1178687918922425
349,0.1324731622942441,0.12188527386138641
350,0.13658837933572743,0.12287925208471098
351,0.13688015843705117,0.12403116680405323
352,0.13404233375792024,0.13899343466090705
353,0.1332693597812542,0.13145567618469226
354,0.13148019510171682,0.11374165272985562
355,0.13306474897096293,0.12602510325604757
356,0.13353610332671115,0.12442378303434497
357,0.13531038456623978,0.12137709456865677
358,0.13625546415849366,0.11993557590500238
359,0.13364954567331966,0.14014668862064147
360,0.138496193853166,0.10640889490295229
361,0.1352713844485039,0.13206025081868236
362,0.136104915568011,0.12450339719241495
363,0.13716521090883718,0.12147032678268421
364,0.1346409411685501,0.11026507911831729
365,0.1350659409330951,0.11883949881806181
366,0.13469530586346828,0.12822005036856682
367,0.13488984420347652,0.11430458034129244
368,0.13485318619748957,0.11785871287971006
369,0.1368044817375003,0.12978675350511554
370,0.1353667230962468,0.12375588317555335
371,0.1351226486092944,0.11073360810881068
372,0.13194989374906516,0.12542428798391392
373,0.13357471113653777,0.13027897324845278
374,0.13193283016852242,0.1064600825497929
375,0.13009143966160042,0.11771129695044415
376,0.13251616409142242,0.11792918970336477
377,0.13116804647633878,0.1040290606273566
378,0.13353295248749253,0.11450323186691294
379,0.13138964356218788,0.1148809922922288
380,0.13380509975859872,0.11720724130415408
381,0.1331123449384785,0.13314539048270907
382,0.13364684353653286,0.11237892241532538
383,0.1333249530000843,0.12847554970653205
384,0.13566681616705098,0.134375235464221
385,0.13685695361569344,0.1173434739766294
386,0.13592691110561697,0.1298719717229363
387,0.13380377619660538,0.12347370721311576
388,0.13126119236044176,0.12802124759086775
389,0.13234219396655128,0.13224379358417704
390,0.1321861905088242,0.11738249287303264
391,0.13190485577253128,0.11621228237978191
392,0.13099444581628988,0.11480957126772677
393,0.12779594879808853,0.12063380563668406
394,0.1313531852180628,0.11438937107690601
395,0.13403652606905697,0.13253310053435102
396,0.13554090415711978,0.12519160024792356
397,0.1341247671364928,0.11539821681914221
398,0.13130013298966903,0.12120204875811688
399,0.12910338391443427,0.10433742872659107
400,0.1329496469643476,0.11926070868898397
401,0.1338495385321639,0.12668344644857563
402,0.1346143083475667,0.1166724322132925
403,0.1343500063472467,0.11799720525976796
404,0.13622380948240617,0.11806471559388862
405,0.1343005402006215,0.11023775411691832
406,0.1348417236519565,0.13002506238367958
407,0.13263221189296312,0.11196206912880538
408,0.1330029237404954,0.12757527180186576
409,0.13417019515776996,0.11260591003376381
410,0.13312128202008497,0.1176147050420506
411,0.1337015929875328,0.12790951713766746
412,0.13434426151186252,0.12689478915322927
413,0.13207136267881028,0.1127059587998567
414,0.13201382895894379,0.12825797237720468
415,0.12951585794869755,0.11949921588118657
416,0.13332733864204394,0.1273295824205019
417,0.13607391357112178,0.11859847915130238
418,0.13827273500956697,0.11881654720162442
419,0.13741086234005806,0.14533951943233056
420,0.13358067195537945,0.12428951723870087
421,0.1332363820255851,0.12239093506957192
422,0.13482095851755732,0.10963478315130594
423,0.13684579450413764,0.1264280023166488
424,0.13749494212422725,0.12870655452278343
425,0.13305577053595408,0.12479598714948735
426,0.13625529149381949,0.12274878919595042
427,0.13365771500564974,0.13231387786161458
428,0.13459163343460917,0.13385483488475797
429,0.13261765350314447,0.12326471496964404
430,0.13155654885119003,0.10648094304052975
431,0.13276863653811333,0.11542616085970411
432,0.13499821138848886,0.13363956497142704
433,0.1350157925372215,0.10581804334458725
434,0.12839165896618013,0.10733574208374934
435,0.13118996213284803,0.11064939189117164
436,0.12776146740388336,0.1116391213018309
437,0.12753311174807788,0.11306821225591786
438,0.12854724551002375,0.09493269280610633
439,0.12754096914169125,0.12466738276013072
440,0.12604533122788422,0.12314229549718073
441,0.1262880564986659,0.11295874036948514
442,0.12641621517429916,0.11520074437289325
443,0.1231954041138875,0.1299298275159209
444,0.12698775980707935,0.11028176708104297
445,0.12608638607995878,0.10443946912637732
446,0.13130475589625842,0.13217264887801097
447,0.1274699390047698,0.111510348448202
448,0.12709496013349672,0.12248145608965016
449,0.13156418083049506,0.11076699258449423
450,0.12908540046115002,0.11513198873332474
451,0.13315382071560045,0.10856590206545925
452,0.1224454217236772,0.10585572004859242
453,0.12424321295462733,0.1338666552044128
454,0.12707158688196746,0.11759845791318423
455,0.12987363971859145,0.11042547989827775
456,0.12812871845672838,0.12045620568243649
457,0.13171165323050188,0.14140985696190628
458,0.14150121489422118,0.10955232639974181
459,0.13960186320600465,0.11898951357099703
460,0.13018955559812956,0.11994422552923377
461,0.13269771141209286,0.16437356190457528
462,0.13607560929586943,0.12534652217552242
463,0.1453000046848822,0.12758052154446364
464,0.1458743025603102,0.140423982770968
465,0.15488731082406737,0.15304785802219453
466,0.1589264245294362,0.14283873127286795
467,0.1661004659375079,0.1679665853564158
468,0.1701210705722741,0.15759711242747665
469,0.1727570047725638,0.1930542969760127
470,0.18214007003082455,0.16314361287367654
471,0.1896615050208988,0.19836077088197573
472,0.19153378655513129,0.1775570124528873
473,0.19206078621528322,0.17766602577284366
474,0.19306543626063924,0.17140768270795517
475,0.19518917261791838,0.18748109979994576
476,0.19665868744718656,0.20175222084573055
477,0.1993505824521053,0.19105540761090492
478,0.20119645258934377,0.18575760683349107
479,0.20095762924300872,0.19214430360833584
480,0.20328229490063077,0.19608579805354576
481,0.201843825092228,0.1807442567389879
482,0.2027872170475747,0.20012215434940386
483,0.2015419022844945,0.20028450594657787
484,0.20140239113955188,0.1874301971392831
485,0.20248261575909446,0.19115861698738118
486,0.20033914541049921,0.2049527039961638
487,0.20103254683798166,0.18618627593521067
488,0.20261658021776702,0.19083517705161646
489,0.2021525144207773,0.1918072316034064
490,0.20224484707787932,0.18290356040330222
491,0.2007993969509451,0.1862529789898089
492,0.20050949655729328,0.18306655661388938
493,0.19956107600796805,0.1871849250962815
494,0.19897183880722114,0.19201291443658045
495,0.197864766071121,0.1802818713373054
496,0.1943291724204636,0.18958908059555618
497,0.19470577453561633,0.17560900124444112
498,0.19333196251536255,0.17378673096787958
499,0.18993751289580557,0.18032826784330744
500,0.18998133705900633,0.1726608804435173
501,0.19004120305478334,0.17792854680964207
502,0.18851815667643632,0.17320207371166962
503,0.1858967274939604,0.1723035341680003
504,0.182782333981481,0.16441666382499445
505,0.18067140206635046,0.16073714278420784
506,0.1784709786428965,0.16013126872074163
507,0.17253911731650026,0.16894748816362215
508,0.16725630780382694,0.15596749998729062
509,0.1604559383303713,0.16063580643782582
510,0.15506504564512547,0.1622302846214201
511,0.15711867214916803,0.14364956250530392
512,0.16239727744095617,0.13719531030474258
513,0.15891376412589012,0.1514475408650423
514,0.15953105480241167,0.13557903914938033
515,0.15441639049590636,0.14648721675258408
516,0.15323246205203253,0.13150532754768796
517,0.15395501487963587,0.1541629635097478
518,0.15475649551617252,0.1536202596260886
519,0.15301506298122933,0.14339190781492836
520,0.15034457276479232,0.14266116873029658
521,0.15033599549084067,0.13393891451037956
522,0.1500899570731284,0.1513424947234525
523,0.15184875725389574,0.1371382329886413
524,0.15183891336635338,0.15502650196639778
525,0.14940729203948871,0.13458106272222492
526,0.15200354570714975,0.14415585372564638
527,0.15555897810690694,0.133986920059527
528,0.15562431563099893,0.14498002292630988
529,0.15715736201960595,0.15498748468712925
530,0.15710375923737824,0.13246529877491606
531,0.15768644270553386,0.14482150328563909
532,0.15508337773019365,0.14408824918607888
533,0.15524047605699295,0.13988573638091617
534,0.15997997531109004,0.15196168487384362
535,0.16099705707004888,0.161542231988841
536,0.16064804530651164,0.13795418023545628
537,0.16054660089903597,0.15461262337857565
538,0.162292940936667,0.15572119844105645
