epoch,loss,val_loss
0,0.5626464823022751,0.5585025350154186
1,0.5580005829162389,0.5575891135052475
2,0.5577303458985456,0.5578264133805968
3,0.5575842720144181,0.5573599072011469
4,0.5574513056650524,0.5578466555320891
5,0.5573626687479972,0.5582046662903305
6,0.5573326263560131,0.5571811764175187
7,0.5572160884133135,0.5577493058540685
8,0.5571709174157338,0.5571128548522741
9,0.557145233636965,0.5569679511687892
10,0.5570791472282546,0.5569916851763098
11,0.5570580225772984,0.5569610772594329
12,0.5570521287569681,0.5570006110827916
13,0.5570208486943861,0.5570600394575531
14,0.5569748615893885,0.5567878621091914
15,0.5569549764611987,0.5569742680779166
16,0.556955959474401,0.556849902054808
17,0.5569107349595634,0.5574361728379508
18,0.5568972533443439,0.5568488320405075
19,0.5568750725005969,0.556839576518861
20,0.5569024565235309,0.5573835862481564
21,0.5568576590739498,0.5567926341487516
22,0.5568920572930083,0.5571039292711774
23,0.5568406913525686,0.5568345579260928
24,0.5568058211563223,0.5567364344525869
25,0.5568176484419085,0.556716949324454
26,0.5568027956769,0.5567179459496112
27,0.5568052520215361,0.5571398802785661
28,0.5568060512369877,0.5570435321952214
29,0.5567853270882884,0.5567592489216523
30,0.5567871670078899,0.5566997127556623
31,0.5567982196705313,0.5568938525971349
32,0.556759053258166,0.5568318531471802
33,0.5567674855606535,0.5568196175707777
34,0.5567811581022637,0.5567350787205376
35,0.5567655550291498,0.5566982637268142
36,0.5567747025116471,0.5567667488424712
37,0.5567630133356731,0.5567074017844188
38,0.556756111504965,0.557058717240175
39,0.5567415976402558,0.5569379369023421
40,0.5567562528432509,0.5566544289624424
41,0.5567486661109132,0.5567078256133768
42,0.5567351254171973,0.5572615718427426
43,0.5567718389376276,0.5567622730217264
44,0.5567198460286762,0.5577196899477956
45,0.5567598534793735,0.5567670929816462
46,0.5567284185911215,0.5566477508166292
47,0.5567406028648368,0.5567095539410121
48,0.5567423634527788,0.5566631585729329
49,0.5567270396800523,0.5566869418023538
50,0.5567149697580228,0.5567337402930627
51,0.5567263584007216,0.5566945581223178
52,0.5567249945247172,0.5566677882121159
53,0.5567131037660729,0.5566962909757647
54,0.5567185655720388,0.5568635829329195
55,0.5567577610929522,0.5567534130796901
56,0.5567130085955327,0.5566526950440986
57,0.556715347131838,0.556647319592554
58,0.556737658090424,0.5567134908943555
59,0.5567238238122202,0.5568383241113894
60,0.5567083685781251,0.5567519085283019
61,0.5567164772125852,0.5566423722591353
62,0.5567173903190469,0.5567872304182786
63,0.5567111792414956,0.5566610087236163
64,0.5567231427805815,0.5566565821543521
65,0.5567227612212441,0.5567251931349042
66,0.5567027656886647,0.5566817025688683
67,0.5567187624146407,0.5574813004758754
68,0.5569198801970557,0.5570582264114551
69,0.556816676520419,0.5573847947286317
70,0.556741364412166,0.5567818563274355
71,0.5567318183521525,0.5566965885552816
72,0.5567188299580521,0.5567471998796866
73,0.5566951223863041,0.5568100710956394
74,0.5566940242452093,0.5566724000734372
75,0.5567077476638695,0.5569004326245329
76,0.5567107150050785,0.5566528300493586
77,0.556721693278069,0.5567393840690404
78,0.5488338341536854,0.44659921436688443
79,0.4461944939319936,0.44599247463879454
80,0.44590138680907043,0.4460270000302762
81,0.4458844213681915,0.4458127570803053
82,0.44587664764019375,0.446358298870825
83,0.4458821606734493,0.4458066677041444
84,0.4458760140751065,0.4458774269514581
85,0.4458897479272025,0.4469312392600417
86,0.4458791243862925,0.44802560296011323
87,0.44589140482683787,0.4458538002175078
88,0.44586114284560285,0.4458151894378899
89,0.4458714862038211,0.44608994444309924
90,0.4458701150224791,0.44601979947859244
91,0.44586059918996634,0.445802344710892
92,0.4458693054485305,0.4459954157804437
93,0.44587051093493935,0.4458746491975287
94,0.4458735598177098,0.4458108923571281
95,0.445874400044732,0.4457816716902901
96,0.44588172005375853,0.4459718662367269
97,0.445867248540839,0.445805115631733
98,0.4458743198536443,0.4459757981466005
99,0.44586667469043806,0.44583300925957653
100,0.44584529952264523,0.4458496681661819
101,0.44586973126388874,0.4458550516340336
102,0.44587473304301894,0.4458581839986238
103,0.44584452911598693,0.4457902029637367
104,0.4458773767935056,0.4458770879592848
105,0.4458506930807762,0.4459278611628057
106,0.4458406712019816,0.4458512236107668
107,0.4458538782702922,0.44582303107228527
108,0.44589301641933893,0.44604450411003815
109,0.44586112871650724,0.44591824827951476
110,0.44587357222045504,0.4461316429799603
111,0.44586172965447846,0.4460574876433862
112,0.4458543180049178,0.4466038140410525
113,0.4458529987249191,0.4458071040456407
114,0.4458705856815351,0.4464063742468434
115,0.4458585459349437,0.44620963027400357
