epoch,loss,val_loss
0,0.07568215549785323,0.07039262030467798
1,0.0641706878187328,0.06239651436397515
2,0.06218504325926775,0.06280384299255186
3,0.06100529935781118,0.059950759067724714
4,0.05991611548731571,0.06007155796360437
5,0.05886598736581387,0.05939522683805331
6,0.057558942439806624,0.05798791634940332
7,0.05707917394339932,0.05613840851313423
8,0.056490235382616355,0.05597829442498997
9,0.0559890435793888,0.05687594269182782
10,0.05575556616275547,0.05575504544429093
11,0.055344912226488324,0.057191012777554485
12,0.05519787069784828,0.056277876195703486
13,0.05497870869016856,0.054773970149808726
14,0.05478395723856877,0.0545129114988424
15,0.054457335222369854,0.05462604115160168
16,0.05421700058025356,0.057177024617532345
17,0.05408419672194615,0.055140375007618744
18,0.05391337263954649,0.054050164762191086
19,0.053786901347842524,0.054472203462132746
20,0.05369844247462822,0.05357231544723582
21,0.05357637846728102,0.0534502010154665
22,0.05350932823533888,0.05465168702986933
23,0.05340799970110803,0.053861349943110134
24,0.053301342632936316,0.05363550708807136
25,0.05322167740230346,0.05402287937904114
26,0.05325844787380986,0.05341749410734283
27,0.053009861881554966,0.05395514460525501
28,0.05304244472475933,0.0530309859580053
29,0.05304140861760415,0.05372986227791599
30,0.052971586928086505,0.05365590145880768
31,0.05285640627960627,0.053801349663261146
32,0.05286532400673113,0.05309397561970183
33,0.052766445140198896,0.05293377856388873
34,0.052695278210569615,0.05351238748423811
35,0.0526549245964624,0.05423965676324835
36,0.05259498582296001,0.05267125312285151
37,0.052552673040939406,0.05273155339117677
38,0.05242903012672836,0.05274281496778315
39,0.05247337634648545,0.05326040395473133
40,0.05239529806284749,0.052664108811034165
41,0.052439129931490566,0.05263784055970147
42,0.05233916198996413,0.05327053151044893
43,0.052404186885484316,0.05276067997733357
44,0.052310836187108495,0.053131992155431816
45,0.05223500176185886,0.05257720756471601
46,0.05223878919722319,0.05264645459745126
47,0.05218204562218439,0.05232966809392567
48,0.052160870902579176,0.0529762271930355
49,0.05209425311343369,0.053803949912191916
50,0.05197597819064401,0.05312744830145729
51,0.05190566919010503,0.052010813969240594
52,0.051824643899818404,0.051844046660525625
53,0.05168327991163839,0.05302384095289571
54,0.05167289823042247,0.052906966923040435
55,0.051608646658548495,0.05180677266851548
56,0.051568935510246425,0.05159816000767736
57,0.051564347946509805,0.052822806715743416
58,0.05148938351998832,0.05283577329208774
59,0.051476085414153466,0.051836325592423786
60,0.05148568381843732,0.052204887188102116
61,0.05143720039897939,0.05166880539052244
62,0.05144317029473574,0.05141723799720296
63,0.05142361308083541,0.0525193191713494
64,0.05137219773884884,0.05307007309225002
65,0.051321750322493365,0.051532807853766176
66,0.05132044709100644,0.05236516089430518
67,0.05129825076266116,0.05178678525107966
68,0.05130151809980531,0.0515200883834149
69,0.05122947012048298,0.051400817076562355
70,0.05118153764341241,0.05190952279542575
71,0.05116622177129296,0.05105182589505505
72,0.05125573828203692,0.05150582151436628
73,0.05117464752088628,0.052033697904339496
74,0.0511637924293296,0.05192195202776279
75,0.05117434542336494,0.051301817925041425
76,0.051081936935857476,0.05179324012721147
77,0.05108030560569254,0.051715532590452556
78,0.05104576546121337,0.051226465866228484
79,0.051041219187700874,0.051756946480007976
80,0.05105557759863572,0.050917198013505034
81,0.050966626084584,0.05118751664537354
82,0.05097853501329345,0.052008825144903834
83,0.05101347711610773,0.05186788730563656
84,0.05095186811256282,0.05175654312258323
85,0.051028529171402624,0.05284312621276668
86,0.05092882658757795,0.05178531342678271
87,0.0509303137814341,0.05198774511738687
88,0.05092309695384282,0.050980088545504045
89,0.05095561884547832,0.050718973144408194
90,0.050985240977475844,0.05084702336869524
91,0.05083246531449089,0.051140769828046224
92,0.05090948786354854,0.05119884351901618
93,0.050910021677715606,0.05091980276791097
94,0.050819550075821264,0.05311550655894481
95,0.05080879996708752,0.05099552817476299
96,0.0508067640576566,0.054019279844559745
97,0.05082247138594882,0.05124388448616707
98,0.05078700013956972,0.05140598123112033
99,0.0507660276296547,0.05177218460711297
100,0.050815162673533205,0.05084490477669032
101,0.05076189070880461,0.05161139525232777
102,0.050764440629759024,0.050844645392953906
103,0.050736998161757675,0.05085144582997185
104,0.05082229300833507,0.05170093180228108
105,0.05074065511542872,0.05097102502328586
106,0.050664548895540895,0.05139528291840707
107,0.05073771477994912,0.0515552662091131
108,0.05073703066670395,0.05107968857433305
109,0.05066471199276431,0.05123154683496165
