epoch,loss,val_loss
0,0.452282675871458,0.4532804422579687
1,0.4473924432640818,0.44670788450513227
2,0.44701520806096534,0.4474132554702664
3,0.4469273447102197,0.4466764593834321
4,0.44675214103532523,0.4466793489219533
5,0.44667107246302334,0.4476864481978026
6,0.4466375935738863,0.4465699523021802
7,0.44657546051476754,0.4464998395951747
8,0.44651789778955414,0.4463922771863251
9,0.4464610066292526,0.4464097057767305
10,0.4464773559523456,0.4467638466701318
11,0.44643435542925913,0.44627925380879535
12,0.44639032459443934,0.4464741114055548
13,0.4463758660987621,0.4462281941923847
14,0.446319203398873,0.44661374623071465
15,0.4463027225655041,0.44643073244662795
16,0.44627952848499813,0.4462299603386493
17,0.44630537591563507,0.446406020671499
18,0.44625625551812625,0.4464294234665097
19,0.4462600858026364,0.4463086683016557
20,0.4462308554461391,0.44644567469509305
21,0.44621571723103887,0.4461400977583144
22,0.4462190869743974,0.4463394220650344
23,0.4372479432374876,0.3354206167142977
24,0.3354201691022023,0.33535432759348865
25,0.3354296656218351,0.3353971754794677
26,0.3354165802365792,0.335604992619815
27,0.33539576834770674,0.33534405999088995
28,0.33540427255464206,0.33565355107447054
29,0.335373283390588,0.3355718584421551
30,0.3353673309540146,0.33525908923622394
31,0.3353412106688996,0.33550997272910316
32,0.3353319227820889,0.3353282745511597
33,0.33535523481725316,0.3354902741778873
34,0.33532844086105507,0.3360295424538274
35,0.33533016464464155,0.3352415875376898
36,0.33532145233734306,0.33523875877224185
37,0.3353166365800645,0.335621229191276
38,0.33531772152248657,0.3352190519237045
39,0.33533100646154684,0.3352953408403373
40,0.33531199521415517,0.335204814222847
41,0.3352902914035901,0.33526757365420795
42,0.33530226881658576,0.3367189216998316
43,0.3352998415205468,0.3357722699937986
44,0.33531299261755515,0.3355747762300241
45,0.33529507831933897,0.33525275026006673
46,0.33527445077684714,0.33524828112450783
47,0.33529558709181095,0.3353769625091079
48,0.3352897209818308,0.33531637283471916
49,0.3352711371814884,0.33608454789772224
50,0.3352807990611968,0.3352812279394779
51,0.3352569082785864,0.3353726227881003
52,0.3352413658557089,0.33544264645789457
53,0.3352787186270998,0.3353231016518756
54,0.33526032962432234,0.3351890501402152
55,0.3352370191727306,0.3351636576593366
56,0.3352800887044768,0.33519203361151534
57,0.3352429307578655,0.3356169595611894
58,0.3352416706664047,0.335217654350082
59,0.33523209640105145,0.3353476535445703
60,0.33526317829974434,0.33512916479158045
61,0.33524996286078373,0.33521320247472663
62,0.3352362098598841,0.3356515419542346
63,0.33525637145499054,0.33545247372563364
64,0.33522534853066877,0.33516083600799146
65,0.33523684780572854,0.33513711220573256
66,0.33523342388170774,0.3351368778840484
67,0.3352189367468352,0.3352097777663626
68,0.3352507662558413,0.33557324007190487
69,0.3352372318640736,0.3355659998380221
70,0.3352005480946919,0.33526887878886524
71,0.33523211774240297,0.3355449429220952
72,0.3352081528742348,0.3351912145431225
73,0.3351926559572763,0.33539707984581185
74,0.3352323728494307,0.3353430993207927
75,0.3352054062574004,0.33510888853380755
76,0.33520415198670267,0.33520952608094323
77,0.3351999879415032,0.3356204801398531
78,0.3352208110652608,0.3350889357976227
79,0.33521458123292563,0.33517545205783605
80,0.33518205464791045,0.3354030168381873
81,0.3351996122616965,0.335173782033305
82,0.3351774384172217,0.33514900324362384
83,0.3352109113862034,0.33563089110419414
84,0.33519870815142555,0.33506177996583375
85,0.335190270446254,0.3351266521378131
86,0.3352046607749512,0.33554979502119436
87,0.3351968300655567,0.33520644465392047
88,0.3351983607558414,0.3352713750550528
89,0.3352029748010818,0.3354197418867211
90,0.3351649482513272,0.33527146660660395
91,0.33520806961026695,0.33561902004790956
92,0.3351951495629994,0.33530014565505695
93,0.335177627252429,0.3357512186833706
94,0.33518595137068374,0.33513902733402867
95,0.3351876265340576,0.3352789351425455
96,0.33515652410847824,0.3353194283936219
97,0.3351944485444272,0.33562213192802504
98,0.33519943867098784,0.33544963768339037
99,0.3351645694911465,0.3350913322593083
100,0.33518412954206733,0.3353917480994099
101,0.33518463218376676,0.33510914331038594
102,0.33515369745161677,0.3351914716269775
103,0.3351618303823786,0.33513210792991127
104,0.3351817095344062,0.3351417100163311
