epoch,loss,val_loss
0,0.04637627070840845,0.025171572642011295
1,0.02231717094493271,0.021301817901731863
2,0.02233030557120908,0.020667531691229524
3,0.019863435271751845,0.0192443019822441
4,0.01958025526286798,0.02106764253816951
5,0.01940308753504448,0.0178053983020862
6,0.019438164481119034,0.01767731877546701
7,0.018440396839747086,0.01727229366482738
8,0.01849569587616281,0.01703212364998714
9,0.018192656380434272,0.01796212466795998
10,0.017884443063267162,0.018848968483418892
11,0.017916509198747228,0.01936616749273918
12,0.017680533771151783,0.017622047985569815
13,0.017273630067779367,0.018077068759016934
14,0.017299440690525004,0.01747561753510823
15,0.017102650068476246,0.02542003077626872
16,0.017271314613282535,0.01700781933724885
17,0.016941896984144198,0.016901351942974947
18,0.017586706949851816,0.017092568054440305
19,0.016709039042478918,0.016745425099339847
20,0.016580449052732964,0.015843882585441015
21,0.016548504143607926,0.016330616058740626
22,0.016499727428866268,0.017528083084758422
23,0.01638275354168021,0.016541732146307216
24,0.01638712962101853,0.016094688249138733
25,0.016252643669580177,0.01692534746023595
26,0.016120754707175562,0.01701932911583182
27,0.01624324890675738,0.016626498243084206
28,0.017121217957947556,0.016518108715117334
29,0.016270754623116702,0.018236909357764917
30,0.016212687090936418,0.016682961002233005
31,0.016077434518695848,0.01568008466167158
32,0.016109252395648487,0.017535257357240257
33,0.016037668014795267,0.01615283837710839
34,0.01608857793218575,0.016155724750016205
35,0.016011917454316692,0.01606900399276886
36,0.0159790211008988,0.01623537324869445
37,0.01614791133418359,0.01596627829845463
38,0.016618733938100084,0.015592222635163775
39,0.01579782296348959,0.0157773291468218
40,0.015839855557396674,0.015977170519878042
41,0.01586801760291634,0.01548157161269121
42,0.015785948962150277,0.01599304160546604
43,0.015872595607239037,0.016189004260705298
44,0.01583695117772015,0.016715126513872205
45,0.01583879359476762,0.015652901469940597
46,0.015774580044287043,0.016424703573781747
47,0.015738278722489417,0.016223740297117786
48,0.01574711883282422,0.015753218474267982
49,0.01569844461752476,0.015960777936095384
50,0.015616219398156233,0.01579532601878139
51,0.015674314202077124,0.015361975200802007
52,0.015607006552649256,0.015317610936937152
53,0.015703433098400617,0.015736935704982604
54,0.015637801511177527,0.015506209904922248
55,0.015594332572432019,0.016082958034917827
56,0.015582622932786649,0.016261448951611704
57,0.015576772419434996,0.015630182037205426
58,0.015511263024954225,0.015881828276098263
59,0.015481307412344296,0.015317178949978742
60,0.015517810402895044,0.015967261489055966
61,0.015481936646387908,0.015627843967041543
62,0.015456864204525007,0.01627000676811437
63,0.015428480853992349,0.01575347736264285
64,0.015417635183923443,0.01509005859769598
65,0.015373550369546579,0.015601357929935071
66,0.015375939318907099,0.015352449859942835
67,0.015368062443034144,0.01644984157026827
68,0.015345376204890489,0.015496105677939978
69,0.015300860805214317,0.01541650865343233
70,0.015357014135643296,0.015379837625100203
71,0.015352587146927318,0.015674723228843453
72,0.015307970906456326,0.01572371827598501
73,0.015283880002757308,0.01555479837843889
74,0.015311441280442139,0.015824663478390687
75,0.015302223674299018,0.01514823237374574
76,0.015210094944602884,0.015610355061220237
77,0.015296701197411906,0.015305282339088089
78,0.01518086215576225,0.015405114977289986
79,0.015202785594972939,0.015407174479731618
80,0.015215054877992538,0.01587253748395622
81,0.015151602605178524,0.01511878899627093
82,0.015142771375510134,0.015664231719865352
83,0.015236971603856758,0.015346013516917108
84,0.01519104642405729,0.015937496480062114
