epoch,loss,val_loss
0,0.04162673617378523,0.028210373791915256
1,0.022127525719536512,0.020926163880142953
2,0.020784084674048117,0.01960109287586873
3,0.020011506843016467,0.02009840997026774
4,0.019632008049891198,0.019198861541201363
5,0.0189004005386532,0.018477106343911025
6,0.02102920522188711,0.017436098416816703
7,0.018392329228117444,0.019949603899683328
8,0.01828310837772119,0.018609539544150976
9,0.017960798244436294,0.018388841448510586
10,0.018021016171249526,0.018806471155191157
11,0.017717126981172795,0.017308092013291917
12,0.017624380099639864,0.017018469209888233
13,0.017428444688186197,0.01924297411436396
14,0.017406133179959562,0.017186191475853898
15,0.017345024416940743,0.018305418486308324
16,0.017275529802537232,0.017067361368809698
17,0.017141146301475126,0.01790204132752242
18,0.017136030019289396,0.017291725210742532
19,0.017393774298534233,0.018327413830161923
20,0.01692332886002892,0.017618729320956858
21,0.016816466186314844,0.01718357850609494
22,0.016771629091039637,0.017757344055652845
23,0.017003732877243116,0.017060732341917077
24,0.01694112201734779,0.01927379750727552
25,0.01655746041840085,0.016293188088483446
26,0.016663279238088812,0.01712053180622682
27,0.01658027311968865,0.017279888729835352
28,0.01654861254097862,0.01662207084641509
29,0.016475360124166505,0.01632754667074184
30,0.018881786383475818,0.01646507188736356
31,0.016390616101923442,0.015957261934774095
32,0.01642633762923956,0.017492414428027958
33,0.016414186832652528,0.01654814926847373
34,0.016479566478985984,0.01686672003344009
35,0.01636719868912326,0.016838488041451213
36,0.016365134934857486,0.01635293066077146
37,0.016271365835239332,0.016264460755123736
38,0.01621459595239299,0.016736978249396902
39,0.016208579950592942,0.016845472219341098
40,0.01640840780144982,0.01636984032846908
41,0.01613033411549705,0.016743754442782394
42,0.016119510319408545,0.01643194631999218
43,0.016084441867604483,0.015839784458481936
44,0.015958825524364215,0.01582123803890909
45,0.016047599405750883,0.016327455641244215
46,0.016721934019151966,0.017222860648418197
47,0.031206568697490628,0.016145458104636426
48,0.01615416221460395,0.01635205990071214
49,0.016071505131935032,0.015965077563057192
50,0.016005575093193194,0.016254651755031227
51,0.016014894577412012,0.016409578941684357
52,0.015969242059007467,0.01627912746550986
53,0.01604058545821718,0.01616836912168034
54,0.016069576212875036,0.015844464344510117
55,0.015919003241126793,0.015754020890676235
56,0.01603322958656363,0.015710502923495104
57,0.015934823651293662,0.015946948853934714
58,0.015853853171881142,0.0167492634892033
59,0.01585143455700609,0.01565245723742882
60,0.01578855912181208,0.01564865021200131
61,0.015782274228813665,0.016366279439011797
62,0.01574711423064485,0.01625610264563927
63,0.01570846688042552,0.016001976021707925
64,0.015735356040645323,0.01592691126652979
65,0.015796877618010928,0.015604952249835128
66,0.015621387230781525,0.016019848528678538
67,0.01571822279515182,0.016823513122526605
68,0.01569682291459126,0.016327002022962035
69,0.01561010107649587,0.016227363468568883
70,0.01574857215877163,0.016147886100820446
71,0.015647389782830267,0.015496059116691928
72,0.015594452742944673,0.015461365564754246
73,0.015618183820069397,0.016138714510055337
74,0.015530783848420394,0.016097478135356558
75,0.015579965076371608,0.015506666689582864
76,0.01565566053524972,0.015862034694246543
77,0.015545253763668557,0.01590167796211156
78,0.01547993397325031,0.015375462945252515
79,0.015521058864071225,0.01543328799357632
80,0.015563407360688935,0.016020751590782097
81,0.015457409042398782,0.01598142629991569
82,0.015462457029195907,0.016090837405553497
83,0.015424024460115824,0.01577799638487163
84,0.015453951458924715,0.015253618867008606
85,0.015371782760403942,0.01626001240606308
86,0.015376260295913616,0.015716882642123085
87,0.015374846031173272,0.015449974745806625
88,0.015425755181355144,0.015846644215033165
89,0.015361352059516517,0.015577910269131537
90,0.01538411746247007,0.016012591065219826
91,0.015364142382487988,0.01625402103992685
92,0.015375108348162463,0.015649807481093715
93,0.015407598586018008,0.015306426282739599
94,0.015257378638449231,0.01539675685804416
95,0.015319569285983433,0.01584607200545911
96,0.01535290265728903,0.01575661141366803
97,0.015325724527401158,0.015425080298012034
98,0.015263128855390412,0.0155194944935622
99,0.015310362158065081,0.015314376558274343
100,0.015291805235253404,0.015699910429244655
101,0.015252706539074528,0.015651560013950207
102,0.01528371229744234,0.015290594664922172
103,0.015269568485742398,0.01562578963715987
104,0.015303173218940817,0.01561639847530282
