epoch,loss,val_loss
0,0.5606492513663003,0.5562867522428996
1,0.5590080047899739,0.555795780757088
2,0.5557953106128624,0.5558623913424118
3,0.555883540632524,0.5557640828896235
4,0.5558919340615234,0.5557770453664411
5,0.5560236460684853,0.5558096930226087
6,0.5558003414606977,0.5558509435685112
7,0.5558261511107764,0.5557242080732548
8,0.5558038845745958,0.55579013912114
9,0.5558027826607075,0.5561762601066169
10,0.5557876299284489,0.5558015079901145
11,0.5557872389468738,0.5557967651234896
12,0.5557799713758493,0.5558673531569545
13,0.555780394441554,0.5558444878847538
14,0.5562613417101007,0.5557182200734571
15,0.5561128384384972,0.555748233160784
16,0.5557594849079893,0.5557310784196255
17,0.5557659869024375,0.5557998173697252
18,0.5558201670335091,0.5557338783707678
19,0.5557625268533407,0.5557195023636942
20,0.5557518893238809,0.555780022200543
21,0.5557587103079119,0.5558883275458675
22,0.5557588700072001,0.5557467308530206
23,0.5557592868500454,0.5557229219116028
24,0.5557873599826345,0.555709762891853
25,0.555753912122767,0.5557506418529155
26,0.5557442956179103,0.5557631203034804
27,0.555747517208199,0.5557282910908103
28,0.5557470020159349,0.5559621538427949
29,0.5557399268136194,0.5558281887688863
30,0.5557860038796474,0.5557122755773828
31,0.5557374875430194,0.5558523100501908
32,0.555738202656378,0.5557014500316749
33,0.5557383501166134,0.5557263118133708
34,0.5557325732245187,0.5557104317947326
35,0.5557387073717731,0.5557242578242494
36,0.5280760142384291,0.4446991617426487
37,0.4446961354748927,0.4446365067636813
38,0.44465167848249054,0.44463276406148133
39,0.44467218464397734,0.44460622358127155
40,0.4446658080998206,0.44468903025218526
41,0.4446698413595454,0.44467791891512615
42,0.44467353853457187,0.4446833177949013
43,0.44465864714249437,0.44466034680656996
44,0.44465234576486395,0.44462333492282763
45,0.44466035169820173,0.4446409653226818
46,0.44471654056401577,0.4446550204566647
47,0.4446532992398106,0.44460722105037753
48,0.4446484295247142,0.4446322680612926
49,0.44467171398254773,0.4446134714568553
50,0.4446420343963808,0.44474419375459445
51,0.44465527255063564,0.4453496079142366
52,0.44465285903678947,0.4447510721277619
53,0.44464990291093337,0.44459706544166183
54,0.44466638195588587,0.44464730079853293
55,0.4446577888710268,0.4446731370267214
56,0.4446434644446314,0.4450468327651918
57,0.44463913467953514,0.4446778322271417
58,0.4446419401518878,0.4446307127416484
59,0.44464938420613365,0.44512649453384867
60,0.4446446166793586,0.4446388614618799
61,0.4446431725206223,0.4446287677721389
62,0.44464452394167475,0.4446658256869099
63,0.4446404371475315,0.44462488800149996
64,0.44463125232564754,0.4446814665604872
65,0.44463404593343114,0.4447023105896786
66,0.44464503532185573,0.4446127547978484
67,0.4446329847862139,0.444759662179828
68,0.4446350250688978,0.44461281791421675
69,0.4446320237853067,0.44464142401909024
70,0.44463293947683175,0.4446059949406181
71,0.44463489157440284,0.4446688656563113
72,0.44463067320314525,0.4447207425617312
73,0.44463075223006887,0.4446323520255615
