epoch,loss,val_loss
0,0.05870761582533298,0.02869820313024435
1,0.02363280729286861,0.019650686596003632
2,0.022415513009574603,0.02195543846220774
3,0.021584317068881597,0.020887834449089107
4,0.020637582345184726,0.019416873863451117
5,0.019934196125286345,0.019637506084621063
6,0.01935644386644222,0.018400313150760614
7,0.019217428484520682,0.018383354652520376
8,0.018869919510756446,0.01786130230466508
9,0.018560293133158705,0.018559738513932982
10,0.018441662308144507,0.018529626080946462
11,0.01808636589425343,0.020398756031852705
12,0.01806564661362101,0.017256962301229386
13,0.018218787920687332,0.017999857504968513
14,0.017759978185462558,0.017866518434606835
15,0.017634116052275575,0.017854939389332587
16,0.01745560973014697,0.01715288067075924
17,0.01734115995688905,0.01815504879522545
18,0.017248119724798467,0.01845190234250678
19,0.017098839832317667,0.017690000864290373
20,0.016944105474844137,0.017039023919588014
21,0.01703705843453373,0.017161986312660502
22,0.016960082319909756,0.01766767378213771
23,0.01690636526334775,0.017448656713539443
24,0.0169632255301111,0.017265107610308927
25,0.01738193724802985,0.017549446563663695
26,0.016832269327916,0.016170027538082755
27,0.0166527997759043,0.01656171536855181
28,0.016905823280758733,0.01684665768072293
29,0.016591012113140076,0.016611910162531152
30,0.016589768111485506,0.017248149316317768
31,0.016699727321779427,0.017589858980109594
32,0.016676736853802967,0.016595442161290573
33,0.016520799561898017,0.017206986883114766
34,0.016513648822430255,0.01712907246514097
35,0.01645097144152575,0.01722553283828347
36,0.016454142990273188,0.016609182724028435
37,0.016426705067470293,0.016055832076412507
38,0.01635660018207129,0.016711892886242592
39,0.01632408861985167,0.01607908275783268
40,0.01629487827602867,0.016258279617112063
41,0.01629384562569721,0.01742698602804023
42,0.016304897610144344,0.016238504038167928
43,0.016284449151543683,0.016298009301861902
44,0.016184335791027717,0.01645189735281793
45,0.016189462611837038,0.01672260486125196
46,0.01620399292751417,0.01637000691689041
47,0.01622025159303279,0.017049250748450415
48,0.016140491406878583,0.016140491647753205
49,0.01618117177308451,0.01676984682845711
50,0.01614887442194058,0.01606194902157001
51,0.01610924366068244,0.016386092377494388
52,0.016373495233073267,0.01644580803401277
53,0.016089862698360678,0.016446478008867206
54,0.016117066723603503,0.01636246709216357
55,0.01614312544299959,0.016526492459932304
56,0.016128268804696786,0.01729561725806765
57,0.016128848026957864,0.015824032881753738
58,0.01603543973770424,0.016139500445145116
59,0.01612741599258378,0.016639454845041486
60,0.016210332404173397,0.01678172700543105
61,0.016060081943177172,0.015886551391570573
62,0.015993103034398402,0.01635315541300153
63,0.016018252271848738,0.01655605300612853
64,0.01598876054010742,0.01687995096661502
65,0.016014727782322245,0.016270297137765715
66,0.01602419846087616,0.017180005256684103
67,0.01600516387602268,0.01650017872186517
68,0.01595608538056154,0.016676368678427318
69,0.0159720230576052,0.01619043135592542
70,0.015959386604270254,0.015758150808908942
71,0.016010699593574856,0.016248915290641316
72,0.015935746738152314,0.01613360695085079
73,0.015918855373863287,0.016546665549003758
74,0.01593594125829429,0.015974380729720884
75,0.01608248621489014,0.017155419405516042
76,0.015998270781333906,0.01660064808025717
77,0.01589343424093867,0.01601839081073801
78,0.01611793874471681,0.01587304366117721
79,0.015951954793606685,0.016052765072330333
80,0.015875829322592565,0.016076680643749328
81,0.015855198890960775,0.015765537320961146
82,0.01591037877046217,0.016083832394257154
83,0.016774804424379265,0.01608992413328823
84,0.015899864667036682,0.015683602551964115
85,0.01581592831579196,0.01618405421932531
86,0.01584786857717198,0.016205883251995023
87,0.015783801935622028,0.01589382607052042
88,0.015880618146943207,0.01656608587778408
89,0.015803948217352017,0.016123126180405033
90,0.015804896097294848,0.016079145190166243
91,0.01601968152320589,0.016184193638107674
92,0.015932340976065152,0.016220235593240706
93,0.015896369518115298,0.016071214562180507
94,0.01579993116917971,0.01574418337735258
95,0.01579591661644436,0.015836013210808707
96,0.01580226642462966,0.016159508677031763
97,0.01572321181509994,0.01622388830737678
98,0.015726067642604362,0.0157730016315778
99,0.015739946586181337,0.016450383185518603
100,0.0157305099884461,0.01564456904503714
101,0.015696473515092853,0.01570000067561491
102,0.015687755487172845,0.01557301169785492
103,0.015649072217884006,0.015660659877125782
104,0.0156739496011366,0.015556255108485321
105,0.01571138621153705,0.015764127342139556
106,0.015697295175951826,0.01578965833042647
107,0.015612102626286891,0.015530357692832604
108,0.015662199393678383,0.015815482966555112
109,0.01561734820946777,0.01538337175630072
110,0.0156293805152037,0.016196401923337597
111,0.015813579881098747,0.01568684765562647
112,0.01577070742252504,0.015928257976202963
113,0.0157382670993924,0.01562634282139773
114,0.015668499532673904,0.015793310453630457
115,0.015609683953299317,0.015757342513647105
116,0.01562291517420586,0.015743705880932768
117,0.015647659323231224,0.015900840809604553
118,0.01557529515687606,0.0159693302159837
119,0.015594237248488022,0.01585908738175389
120,0.015578058120229448,0.016859591512309147
121,0.015587734320615797,0.01568043847033381
122,0.015558654884084748,0.015604340513478636
123,0.015574359557355028,0.015654210677204485
124,0.015592858373537162,0.016345366569079443
125,0.015555112018782511,0.015670101792439616
126,0.015705828985361568,0.015622241985956785
127,0.015641156858182445,0.01572276320986122
128,0.015594102993279773,0.0156132477473622
129,0.015554318057053122,0.015601925739871476
