epoch,loss,val_loss
0,0.04347396977744232,0.02190367861221828
1,0.022060830678133612,0.024177318227243543
2,0.02105958154079616,0.020617765737574727
3,0.02091838223894609,0.020113700019423145
4,0.01937195163387566,0.0188444817705828
5,0.01907289268251958,0.019367618372994264
6,0.01896781791073167,0.019773907520421817
7,0.018454393008264933,0.0177813756347829
8,0.018974155680004174,0.018568869435540623
9,0.017964391993295244,0.018107238247823777
10,0.017884910520607467,0.017943268218689284
11,0.01791239481442767,0.017129820032683873
12,0.017721273677850695,0.019006669805224703
13,0.017434824627112856,0.018064793264598356
14,0.017344692844880476,0.018409084411622235
15,0.017374153146452284,0.017371740782071703
16,0.017186455207396794,0.01766776997509948
17,0.01694789463164179,0.017359752759659255
18,0.01693183448984851,0.017952544296984733
19,0.017029892859387667,0.017121083613225386
20,0.01685368077731878,0.016546616608793724
21,0.016733446654218494,0.017116338068364097
22,0.016822506548997165,0.01676348795728604
23,0.01661072820808835,0.01713789157242255
24,0.01677826381310697,0.01603433834915374
25,0.0165965833755368,0.016416399281712155
26,0.016578070147602018,0.017104469378737205
27,0.016457740014786774,0.01637576690349803
28,0.01653976667233945,0.017255644967484607
29,0.016475270270737374,0.016766528161034067
30,0.016364218337146807,0.015759631458578796
31,0.016331991507471017,0.01607488115098193
32,0.01641854819044851,0.016623390894040066
33,0.016353047661258675,0.017009256744015728
34,0.016343511470539536,0.017148401369606197
35,0.01630059389599423,0.01622888507306391
36,0.016187132023051026,0.01604829504853743
37,0.01619298303190595,0.016429121530253474
38,0.016250725750118468,0.016608918895517525
39,0.016205729924696887,0.01616108291330606
40,0.016115280384737925,0.016454760760645108
41,0.01619493007883291,0.016912473087243845
42,0.016143596926250055,0.01610882238817545
43,0.016049528943465872,0.017356938864930466
44,0.0161426061948631,0.016004630654434426
45,0.016078128288444765,0.016287347288307986
46,0.0161196894113463,0.016640353167412705
47,0.01605444046044365,0.016401520181268014
48,0.01608581755639893,0.016126182468139773
49,0.016004191359652996,0.015849425551851738
50,0.016440660146666203,0.015782352348640786
