epoch,loss,val_loss
0,0.04831850482710161,0.02515633877843609
1,0.024039926461752337,0.021299722463875174
2,0.021129321917957366,0.02257216273948529
3,0.020840083010553328,0.019309553993182255
4,0.01993767496393176,0.0193749813151312
5,0.019607848646226528,0.020327751202325706
6,0.01912915715884458,0.021602877351084605
7,0.023730831503100205,0.018900742491966622
8,0.018656496787548334,0.019463824459504085
9,0.01842711299096515,0.01846092548907603
10,0.018001454061852506,0.01881561518349647
11,0.017899546207163514,0.01771805618111827
12,0.01755444173722781,0.02114475152502746
13,0.017513063650409926,0.01691901374261306
14,0.017388834012626395,0.01780694443525441
15,0.01717233707687972,0.017151574043230783
16,0.017136025472893123,0.016411546210135585
17,0.017017813488642675,0.01978597660184117
18,0.017026755670790355,0.017312140897734567
19,0.017140510864594043,0.016961934068990814
20,0.01693473162270187,0.017745490646179383
21,0.01682264293976375,0.018681381976982374
22,0.016829166421358923,0.0174032409600878
23,0.016758524131085084,0.016620000196942947
24,0.01665624532807628,0.016427707499357843
25,0.01659244354699545,0.017501151908221005
26,0.01663506927211041,0.01702608404497987
27,0.01643864408278779,0.015982995681096106
28,0.01643321233083284,0.016196176085230073
29,0.01643432679548022,0.016251976345395835
30,0.016395398464709537,0.01632531188147097
31,0.016277209684661734,0.01691486241335275
32,0.01628179260601907,0.01659588047908316
33,0.016196013183976354,0.016101020500634788
34,0.016246813082829183,0.01694053869602182
35,0.016141059898350327,0.01624041922731813
36,0.016118611035071232,0.0170590706278755
37,0.016104227845189827,0.016358156665439064
38,0.01610218052958372,0.01625385336444487
39,0.01603914177434586,0.016138191449229483
40,0.016022614300699588,0.016584081236067173
41,0.016157000342610233,0.01656321207943186
42,0.01597445612576826,0.017455983193665484
43,0.015970527132747415,0.01659306265496289
44,0.015887958061143324,0.01576298116202714
45,0.01594818805464381,0.016520139285846443
46,0.0158769627374269,0.016274047185241943
47,0.015907902417642433,0.016100970325168894
48,0.01581937589969621,0.01566440455585349
49,0.015964300339501178,0.01599828437889462
50,0.015914991707531342,0.015804534582771704
51,0.01579315252475892,0.016102701758399986
52,0.01579920313517558,0.016148528179184267
53,0.015760230072234805,0.015636165431637494
54,0.01584364838769484,0.01604573561540632
55,0.015985983179489457,0.017364221114333382
56,0.01575241098731034,0.01607027128290007
57,0.015789526625813,0.015784574167725135
58,0.01581013404407062,0.016158574278371304
59,0.01571145970524218,0.015671708003826508
60,0.015750072517621394,0.015491253981975803
61,0.01565922116934143,0.016328934416584867
62,0.01570267663953203,0.015675081429378616
63,0.015671951992305453,0.015794204837144634
64,0.015617247543004366,0.01574750422858434
65,0.015634309485037242,0.016363431371607055
66,0.015613405920929309,0.015866681696763963
67,0.015592449382624902,0.01536903346638623
68,0.015627390236174,0.015518318447974352
69,0.015566556447065092,0.015603604685155474
70,0.01553526057309701,0.016433803047020534
71,0.015607995086051584,0.016093664124566035
72,0.01559411033778498,0.015714937974180453
73,0.01571406170575112,0.015548983558495356
74,0.015738981040467816,0.0161308683552604
75,0.01555515291939588,0.016274710807077288
76,0.015555660348374899,0.015981196466971194
77,0.015612513725907409,0.015515697494161632
78,0.015521196795824269,0.016192071414091923
79,0.0155277114580639,0.015613101905752231
80,0.015541452927972306,0.015916784546192046
81,0.015680972865445657,0.01580568658923341
82,0.0156568194137794,0.01605095762819494
83,0.015556070205552051,0.015665192342865713
84,0.015511529912244087,0.015680187338469462
85,0.01556164013269792,0.015847402230412127
86,0.015576364858565415,0.015778664309692363
87,0.015432625321373877,0.015783265753276026
