epoch,loss,val_loss
0,0.45551091540735894,0.44894404795949033
1,0.4474600542980094,0.46418634816419707
2,0.4554052298925576,0.44541044843723154
3,0.4495906900386413,0.4451507017742893
4,0.4461699863190227,0.44556174831332074
5,0.4464726084289206,0.4449528805652421
6,0.44701956993799463,0.44507280633395413
7,0.4462251165686882,0.44580076988185985
8,0.4464963707749911,0.44501690050666626
9,0.4464569533135574,0.44529193326208505
10,0.44635793428170434,0.44503600792230186
11,0.4463871357311617,0.4451859621338491
12,0.4462124723965861,0.44491095462071817
13,0.4461593548108835,0.44489009651623584
14,0.446182896748698,0.4450772491493584
15,0.4461783689631259,0.4452391154561248
16,0.4460183923221538,0.44494220901003184
17,0.446229119902643,0.44485398686147976
18,0.4460360138861585,0.4448662350267498
19,0.44606406995321213,0.4450981310171344
20,0.44563874790782343,0.44488610479639357
21,0.4460035030673355,0.44481908021341227
22,0.44579758434507466,0.44496013541931156
23,0.44604705465675515,0.44491691230468683
24,0.44583134891173165,0.4448394700376045
25,0.4457615674809233,0.44486028835596275
26,0.44592970363913637,0.44482845943542404
27,0.4458197609629471,0.4448859038590741
28,0.44588824736219057,0.44507155010714233
29,0.44564413737012154,0.44481872670779593
30,0.44583206398249486,0.44495946503270517
31,0.4457695271744869,0.4448294869127284
32,0.445702838958009,0.4448479426764715
33,0.4457496452449232,0.4448191876546417
34,0.44573248606406773,0.4448096860973385
35,0.44610459610276626,0.444854175297158
36,0.4458108167473848,0.4448042782442104
37,0.4458095905247988,0.44484068745087874
38,0.4459582786977193,0.44479859835555935
39,0.44575540190582263,0.4448518955496468
40,0.4457780447238575,0.4448285265415268
41,0.4457501558497118,0.4450368329004691
42,0.4455750446688203,0.44491140381370214
43,0.4457505980967163,0.44481004819768527
44,0.4456071224646929,0.4448012674453051
45,0.4456807974808613,0.4809180010907022
46,0.44580710349282543,0.4448180475063848
47,0.44570487529727415,0.44480606281976953
48,0.4456801958007892,0.444864529576191
49,0.445676269511104,0.44482490250434653
50,0.44566563942931603,0.44479335703716516
51,0.44566637031930745,0.4448073868034415
52,0.4455588187991587,0.4447880145887051
53,0.4457935428350719,0.4447808915023598
54,0.44564426339821056,0.44479322810437694
55,0.4457023521594639,0.4448625299714568
56,0.4455856229470187,0.4447684735604008
57,0.44569542686148717,0.4448347653597901
58,0.4455866445565185,0.4447931847355376
59,0.4455661480783658,0.44479544199050675
60,0.4457594574326409,0.44479308542759244
61,0.4456613294420511,0.4447771304582667
62,0.44552201944592335,0.44485568206320114
63,0.4456501389511039,0.4447734356612767
64,0.4456586600283917,0.44481075106063533
65,0.44561656503159536,0.4448824728767664
66,0.4456828096711485,0.44590324976765316
67,0.44576278326824964,0.44480684122263825
68,0.4456753694157734,0.44483890115495367
69,0.44558078085024894,0.4447734749007645
70,0.4464537261531428,0.44485022013095027
71,0.4456430229251264,0.4448453986954269
72,0.4454886451850353,0.444790707347089
73,0.44564611560169104,0.4447757693506601
74,0.44561021310259863,0.44478949453171157
75,0.4455727685159796,0.4448236908485005
76,0.445635258029585,0.44480273885510735
