epoch,loss,val_loss
0,0.6714931187561894,0.6672095199397619
1,0.5834565387918869,0.44531993009948684
2,0.4477496656151986,0.44508258137027856
3,0.4473887894138955,0.4449986806625939
4,0.4467550419547615,0.4453042441911313
5,0.44639933288696476,0.4449714874703486
6,0.4465767811213435,0.44814046674045815
7,0.44643732014909226,0.4451720428448812
8,0.4467527042367085,0.4450035656096728
9,0.44909401518531666,0.44621508628986595
10,0.446450159061634,0.4477138612380913
11,0.4462383850336483,0.44494190288428676
12,0.445840695450068,0.444928055072145
13,0.4463984681652655,0.4449302696397953
14,0.4463210546189532,0.44490376889601535
15,0.44595608162386313,0.44494880598623526
16,0.44599292967793513,0.4452404105509011
17,0.44587631361480756,0.44500392358540086
18,0.4460753792172414,0.44483352377383656
19,0.44605781107051806,0.44495313113996937
20,0.44738953634397965,0.44503558711417235
21,0.44587948172155556,0.4449398308088425
22,0.44584655217642527,0.4448635153293761
23,0.4459939438228038,0.4448766274496319
24,0.445791287777362,0.4448444352692151
25,0.44601324669218056,0.44490803515265553
26,0.4457488800073347,0.44498382567441214
27,0.44587669261724017,0.4453140141894103
28,0.44583090536044295,0.4448039971572436
29,0.4456845761689183,0.4448247012191677
30,0.4459435243775513,0.44485244807107344
31,0.4456491840567079,0.4448515174856295
32,0.44580825811131247,0.44485049912129504
33,0.44576586024745596,0.4448366871599699
34,0.44591621333483605,0.44488807165264915
35,0.4456399687992907,0.4448078636098366
36,0.4458642011647113,0.4448065543664113
37,0.44572863565299986,0.4454750823694429
38,0.44573708011414037,0.4448299750967292
39,0.4456616949896897,0.4448120474285297
40,0.44574018967323836,0.44483347827997854
41,0.4456149337392321,0.4448470453553793
42,0.44570884819490697,0.4448105778266499
43,0.4456835484385117,0.4448088432339916
44,0.4457628926668135,0.4448530071805314
45,0.44569620492992723,0.4448057742526423
46,0.4458742922428644,0.44482600669766564
47,0.44565758917634546,0.44495430521753376
48,0.445544689001193,0.44483271549292097
