epoch,loss,val_loss
0,0.34792222318460614,0.30859210228675354
1,0.3041832862164286,0.30446432962507924
2,0.30654743572266746,0.30564797230376534
3,0.30511852904713505,0.3057404335738169
4,0.3055492148077269,0.3061255791004756
5,0.30589540479042165,0.3063151237526181
6,0.30609341645888766,0.3066327101429711
7,0.3062947247144606,0.30690342686547006
8,0.3064741254638997,0.30764823676849223
9,0.3063648415031098,0.307014951672061
10,0.30638990082519707,0.30762254081566504
11,0.30648848016580327,0.30704409443871095
12,0.3062284496976889,0.30664315659790975
13,0.30672386908035676,0.30711576518997397
14,0.30654528930032854,0.3063838981274271
15,0.30644797212738306,0.30700392370724544
16,0.30660497308444445,0.3082374258829838
17,0.30668269199051923,0.3069938695280215
18,0.30678948631389535,0.30714485157448757
19,0.3069479544695428,0.3076900903314893
20,0.30697103763084044,0.307153676143291
21,0.3070974831434367,0.3076830035179924
22,0.3071763829218684,0.30745756456771045
23,0.30708835385352684,0.30720432016825056
24,0.30718028831253236,0.30750405931905583
25,0.30720451741005117,0.30812522157403366
26,0.3073169104486918,0.30728864735661293
27,0.3070736095535574,0.30780415983772125
28,0.3073138333172154,0.30831957853677805
29,0.30746396931765274,0.30793250129273675
30,0.3071616830871545,0.3082610720146709
31,0.30730966759099665,0.3087400864124674
32,0.3073311973151734,0.3075813630385576
33,0.30737962718490214,0.30881332887752655
34,0.3075604669862895,0.30841439094426787
35,0.3075049398519057,0.30821978667164374
36,0.30767338229216734,0.3079707256996829
37,0.30780640339775145,0.30814615776431586
38,0.3078442839838618,0.30803978116190517
39,0.30783924136421,0.30834260446496525
40,0.3078216594352806,0.3087884056681051
41,0.3078378154743585,0.30861456227660083
42,0.30787403951827097,0.30837610199306553
43,0.3079336329305963,0.3088296774389618
44,0.30812447806961724,0.309231169598255
45,0.30807109292653156,0.30847879383351356
46,0.30816440356911706,0.30921531156375825
47,0.30840902082878147,0.30854345311211523
48,0.30837259024119584,0.3090588626376079
49,0.30836781934439705,0.30869445138873314
50,0.3084371273132632,0.3088502797820762
51,0.3084038550452553,0.30906090629599464
52,0.3086336302123577,0.30993397615044344
53,0.30867270161684374,0.3091831518235692
54,0.3088783955068992,0.30910997098604337
55,0.30887092835754515,0.30925421055697416
56,0.3089113791736005,0.309230406240111
57,0.3090073199366494,0.31011048476810804
58,0.30904394134486035,0.309318779087857
59,0.30902723832239065,0.30934486781035997
60,0.30911335303819626,0.30933459847577466
61,0.3091977933208815,0.30984633963411023
62,0.3091590833797348,0.3096207474147417
63,0.309265167402516,0.31003924460983123
64,0.3093588989939716,0.30949669702371085
65,0.3091486438834886,0.30967212233754154
66,0.309206802067425,0.3093577003563683
67,0.30929124199276825,0.3098992606552925
68,0.3092747940410146,0.3095150583121564
69,0.309388164981759,0.30966096210874905
70,0.30943706394623605,0.3094750235846594
71,0.309324074873059,0.3098063953015027
72,0.30942252679742116,0.309774933481367
73,0.30943279496009213,0.3095844059406347
74,0.30951923472608783,0.30969165222044526
75,0.30944430714936183,0.3105696638503598
76,0.3095492622573122,0.3101144126059977
77,0.30956895551759656,0.31019924088265827
78,0.30957870084128314,0.3102596906243861
79,0.3097883222176493,0.3105276088923475
80,0.30973647095316603,0.31036172599047307
81,0.3099847105648115,0.3103767952395878
82,0.31006134642685634,0.3099984091948409
83,0.30998586841243253,0.310911838121083
84,0.31009513370805886,0.31054983942548214
85,0.3100679950009909,0.3102697291379852
86,0.3100564834668482,0.31072267299575324
87,0.3100988978771664,0.31064139799330304
88,0.3102048103162329,0.31058807533466637
89,0.31033077404844006,0.31015702388186855
90,0.3102140722634028,0.31142909823672077
91,0.31042526425312844,0.3104156462950507
92,0.3104953242244004,0.31045457215034405
93,0.3104407878087865,0.3111290735763739
94,0.31058940098440047,0.31171830481869456
95,0.3106743081105794,0.3109658056812768
96,0.3107751668643037,0.311558807775931
97,0.31094139359361356,0.3104942466390349
98,0.3106874724943861,0.31091824202153656
99,0.3108867761209238,0.3111772681891495
100,0.310781807386332,0.311261416845841
101,0.31089223737863425,0.31240270270921155
102,0.3110861320504182,0.3114437447491836
103,0.31095057549617655,0.31194124759513747
104,0.3108042276067604,0.31086718170494193
105,0.3108665800923638,0.3117248659399239
106,0.31080945168467733,0.31134730144664824
107,0.3107831767089457,0.3111627556577666
108,0.3106450838484257,0.3110889775506511
109,0.3106129364811069,0.31146354487587735
110,0.31072344062187307,0.3111151663355688
111,0.310666837673679,0.31089580230761815
112,0.3105808710999531,0.31085762343918516
113,0.31075520998091816,0.3104948466136499
114,0.31082478201360725,0.31148401817752325
115,0.3110440628920242,0.3113742977639494
116,0.3109361361280429,0.3114222782563298
117,0.3109425557650727,0.31135635815366763
118,0.31075050443005886,0.31202133864329007
119,0.3108827574171132,0.31119334450742814
120,0.3108380922405935,0.3123621530625043
121,0.31107073672097935,0.3122710427526611
122,0.31118794069063366,0.3120565652941378
123,0.3110796748448333,0.31165430493117696
124,0.3113373340152913,0.3116070137968568
125,0.3113090758867782,0.3118752161865641
126,0.3114586945393865,0.31190359665355816
127,0.31136814980722255,0.31203411196100495
128,0.3113579888114159,0.3119728441725778
129,0.3115142574556154,0.3121211614162788
130,0.3114191870585525,0.31165316428080636
131,0.31149831664362115,0.31197394455335414
132,0.3112954069479859,0.31189355595241686
133,0.31149080443344146,0.31265220264797616
134,0.31156253041647414,0.31176465196974557
135,0.3116506530845956,0.31246143214892663
136,0.3121119617558212,0.3120071104218288
137,0.3119504371707102,0.3125191764654658
138,0.3119429122987125,0.3125557468082365
139,0.31195010337755263,0.3127906547584398
140,0.31200943220195343,0.31288485994655124
141,0.3120011152456895,0.312120933794279
142,0.3120501949299249,0.3131695604032669
143,0.3120606896355093,0.31151875467778384
144,0.3116077760950648,0.311615817101809
145,0.3119824089997297,0.311900010378039
146,0.3119323828475748,0.3117779476866538
147,0.3119544559817234,0.3129001941234932
148,0.3119616796501535,0.3119353134282104
149,0.31203040849867103,0.31157246203806427
150,0.3120293930161009,0.31231945388507165
151,0.31203786011555973,0.31320623913522583
152,0.31223464039542215,0.31334808076001947
153,0.3120539149315618,0.311602063953359
154,0.3121369851412152,0.3120271984808259
155,0.31208688411400093,0.31160201067612125
156,0.31199861757999225,0.31262486387447
157,0.3120810596657981,0.3117984508611879
158,0.31205305049745297,0.3127981298018744
159,0.31223813119790345,0.31288979929925514
160,0.3120956135977753,0.3120070255781217
161,0.31238450512563964,0.3120783187313727
162,0.3123116163398436,0.3130155836350351
163,0.31222676189778614,0.31239191059908156
164,0.3119084694021516,0.3139492021880944
165,0.31250191669908167,0.31255834819579936
166,0.3121687432439874,0.3118869567726575
167,0.3118206480805346,0.3127648686459428
168,0.31200532587788565,0.31353450705897834
169,0.31211303985662026,0.31211418310958
170,0.312183793023717,0.31272708238253183
171,0.31213186226255124,0.3124595289636806
172,0.3120995695761544,0.3119274857200406
173,0.3121213194468229,0.3123728912838256
174,0.31219641989369473,0.31313761231366727
175,0.3124141359834267,0.31278905291301395
176,0.3122757448257207,0.3138869111238734
177,0.3125710599094653,0.31304927855941755
178,0.31276483097665314,0.31277861746635227
179,0.3126309419826543,0.3128949923598117
180,0.312785240064422,0.3134013498356329
181,0.3129197731554556,0.31435538055676593
182,0.3138626287166449,0.3132181497380408
183,0.3119819950547626,0.3122321747849095
184,0.31107552665219507,0.3108302202625546
185,0.31069536053305336,0.3114684741141388
186,0.3111889235121455,0.3121034965189593
187,0.31142891069157996,0.3116016523661158
188,0.31127896671481936,0.3118384307354759
189,0.31131850471265976,0.3117071327583566
190,0.31124670865486187,0.31155132856910966
191,0.31143851747377505,0.3121787644128867
192,0.31136609096940665,0.3114622689036751
193,0.3113080450504137,0.3126508056082496
194,0.31150200784349324,0.3116286501888224
195,0.31142594016713204,0.31255635235755574
196,0.3117224817915405,0.3131070979815726
197,0.3117997628583801,0.3125626000251559
198,0.3120601916556164,0.3122806310559599
199,0.3121390874794633,0.3123619583006816
200,0.3124016753608565,0.3131174946875674
201,0.31255329129316634,0.31193156033495606
202,0.31209228169336783,0.31221866224258077
203,0.31238961840371526,0.3127265624296223
204,0.3125459769075151,0.31381137016352084
205,0.3129305496371145,0.31340843789579365
206,0.3127689840529653,0.3112450192175988
207,0.31060403772442935,0.31101411437555476
208,0.31066407293057463,0.3113552942789721
209,0.3110861317288104,0.31012502863074065
210,0.31097681248645415,0.3121904081825958
211,0.3107955555716674,0.3131954056499695
212,0.3109820242241609,0.31219812378510775
213,0.3108932725626597,0.31029725545207254
214,0.31070588819748113,0.3106282709758867
215,0.3105923780601183,0.3119704582461618
216,0.3105948314154081,0.31063407066777265
217,0.3107457377379842,0.31130969272698583
218,0.3108731078253471,0.3121405323613038
219,0.31065778994112375,0.3107703612983556
220,0.3107000278483192,0.3125368318128699
221,0.3108713211868402,0.31182440635531367
222,0.3108446644388324,0.31197115882419657
223,0.3109838722063769,0.3116691947077425
224,0.3107923355867727,0.31189818796720103
225,0.310820276538531,0.3115107005001902
226,0.3106315117254913,0.31084146818121117
227,0.3106367861767181,0.31163891079676087
228,0.31075255727644063,0.31091224298104586
229,0.31087967201912525,0.31212751152201157
230,0.31100420350079344,0.31122130767134293
231,0.3109707944660926,0.3118686339426154
232,0.3107784816996752,0.31288873086129954
233,0.3107735172188063,0.3099060902091209
234,0.31086670867592503,0.3108094270387407
235,0.3108806404874003,0.31121575888819647
236,0.3107873766327933,0.31076286419132326
237,0.3111059074159816,0.31289041183459637
238,0.31099182719902263,0.312214530069431
239,0.311468155478402,0.31157532270818405
240,0.310880748738202,0.31139749556709295
241,0.3109439562836425,0.31051459299266665
242,0.3109111199490458,0.3113883445370169
243,0.31086377814995775,0.3120859335422892
244,0.31106707944477396,0.31179620493747345
245,0.31105716988670645,0.31201065995604765
246,0.3109053157621341,0.30999666991060704
247,0.31103260737719485,0.31218486168107934
248,0.3111319060472371,0.31242230085284106
249,0.31123718981453175,0.3113296260114909
250,0.3112016416472687,0.31102348585343303
251,0.31122547862150496,0.31153313118167625
252,0.3111234941928507,0.31169768902101946
253,0.31113603707554816,0.31184376615092996
254,0.31099414625327937,0.3114690365006628
255,0.3110211674662993,0.3110138373809625
256,0.3108982600325303,0.3114720126165587
257,0.31091810901054473,0.31150733257901886
258,0.3109281873650593,0.31161272172957966
259,0.3110373461251255,0.3113750661557927
260,0.31106031705721393,0.31079655109471754
261,0.31110360307230367,0.3111578493063715
262,0.3108971122976878,0.31205064117108733
263,0.3111682303732248,0.31239573000073906
264,0.3111353613061013,0.3113435554570256
265,0.31113957987128976,0.31063263669857005
266,0.3112947212444316,0.3105277158702182
267,0.3112490769151113,0.3120653999068178
268,0.31137166249094533,0.31184854595418415
269,0.31146221110622563,0.31189191990606224
270,0.31159868687510395,0.31060055810914045
271,0.31138907528990845,0.31217606747912535
272,0.31160344869541606,0.3120926818277484
273,0.31284466695537766,0.31182466862515945
274,0.3115715147684709,0.3136888994367083
275,0.3117515707163693,0.3129219254030425
276,0.31196999515322665,0.3112611693713076
277,0.3115668384958324,0.31138769657760507
278,0.31141349695902837,0.3117576228320928
279,0.31150645427376056,0.3115030048442997
280,0.3114288288721745,0.3123396457699969
281,0.31137226769725956,0.3111853677406025
282,0.3111070842622853,0.31203697721790685
283,0.31147867061203716,0.3122467220111823
284,0.31154762513393597,0.3126535007308201
285,0.3115448916939904,0.31311950456842064
286,0.3116956197267337,0.31240519528419086
287,0.3116843283867283,0.3129127269997405
288,0.31161794791833386,0.31177565676543123
289,0.3115628764188166,0.3121830641329524
290,0.31148953447572525,0.31283528450067905
291,0.31131986420836855,0.3121178242618302
292,0.31132217970111675,0.3130578552773362
293,0.31148132111290566,0.31194379013075824
294,0.311940897949975,0.31164480655232846
295,0.31138958178645226,0.31129514291329746
296,0.3117773094051462,0.3132319143887289
297,0.3118223308516349,0.3134405386429089
298,0.3120470002567549,0.31230200169682976
299,0.3116332255154967,0.31229631044117595
300,0.3117977529168605,0.31353652536069304
301,0.31218260571920425,0.3129712432364168
302,0.31193858254060663,0.3130264212131124
303,0.3122995093548231,0.31369190213241815
304,0.31226896201010995,0.3113395185948547
305,0.31265777211299806,0.3131736302197027
306,0.30811386631070664,0.30305254511129415
307,0.2990513161170206,0.2972882248890522
308,0.2960962816703615,0.29540330308012447
309,0.294987566632142,0.2942645576824423
310,0.29375837140565486,0.29393692104103253
311,0.29305580196430164,0.2937299967894144
312,0.2935718353227269,0.2931206823336203
313,0.2945257601596945,0.2974793175213339
314,0.2949935541474085,0.2959180259996262
315,0.29531942374652903,0.296759701165611
316,0.295919182632181,0.29717778336277323
317,0.2955563388449206,0.29687662946020604
318,0.29638929112399703,0.2964224567917641
319,0.29744099845274463,0.2963461480981831
320,0.29661590741168586,0.298615563287449
321,0.29687452144760024,0.2967360847186365
322,0.2970825060427808,0.2962026445764016
323,0.2969191768329492,0.29449368990963615
324,0.29692341425388363,0.29912318099928165
325,0.2974321923548464,0.29705999258849786
326,0.2969127154702858,0.29519146452668904
327,0.2975599942780989,0.2954040363301606
328,0.2973761110783195,0.2968594563600108
329,0.2977090698780773,0.2969018016025224
330,0.2965472628958791,0.29400267957135645
331,0.2961113150361821,0.29923287746750094
332,0.29574068356379807,0.29334904235841347
333,0.2939520842499203,0.2945268363254505
334,0.29313026342412934,0.29075464989693034
335,0.2871528844372165,0.2789036494215925
336,0.1282099726096951,0.09011013428338795
337,0.0933244098171437,0.09559788993003336
338,0.09470933636458372,0.09490110688117327
339,0.09412927524768096,0.09329817162998662
340,0.09316894487380314,0.09363808859824758
341,0.09366938301163326,0.09304624905290806
342,0.09407244937763892,0.09300292556151313
343,0.09275855391705445,0.09031277677395631
344,0.09300010836274504,0.0885815920856588
345,0.0928309957245938,0.09314165613081103
346,0.092124848557319,0.08858402588514239
347,0.09220790889688867,0.09120804833537871
348,0.09183808708850809,0.08942468881889319
349,0.0920706648486767,0.09362150951279084
350,0.09224607050418854,0.09086534113938544
351,0.09214999093759736,0.08964826000799979
352,0.09187618070255986,0.09388706866642953
353,0.09193786302154108,0.09052353098271114
354,0.0922199671434389,0.09175925888856189
355,0.09268249894122331,0.0935569098417742
356,0.09208217413603163,0.08822638686414111
357,0.09205152260677087,0.09016582238081411
358,0.09250439936779052,0.09370752999701647
359,0.09289754338139634,0.09311438664123592
360,0.09227612657214908,0.09203942866015359
361,0.09225889232804735,0.08996303714723594
362,0.09164266647706977,0.09126056163279955
363,0.09234241621611979,0.08996252729112743
364,0.09168067235323928,0.09531037395359873
365,0.09178824961888228,0.08935725745387028
366,0.0922372692244516,0.0914752665780714
367,0.09207985751765618,0.09316622660199111
368,0.09151884522303927,0.09835105185891665
369,0.0919746010766017,0.08787812695389388
370,0.09184522882139654,0.09182314824639293
371,0.09177369181867794,0.09293204981130977
372,0.09117268605513586,0.08862839937915742
373,0.09200661120672735,0.0919649875307516
374,0.09128377327232433,0.08876665954455298
375,0.09115908340179472,0.08893504240142142
376,0.09168771961383777,0.09060580111105045
377,0.09134749843508934,0.08974411153332304
378,0.0910996381062374,0.0904674287459092
379,0.09100685671543618,0.09300129818300046
380,0.09148978550942967,0.09302727310626452
381,0.09105463250935507,0.09002968267300229
382,0.09040377090285293,0.0914692026110926
383,0.09101074077873875,0.0895338077348052
384,0.09026536687636832,0.08866188455234857
385,0.09085237980186701,0.08838859202829796
386,0.091164463251043,0.09137866850104404
387,0.09001778860053093,0.09274041988455412
388,0.0898168480573155,0.08840800016154053
389,0.09045833817197026,0.0944644065122484
390,0.09000019533492679,0.08717358226710732
391,0.09053304977863907,0.09315625971569823
392,0.09063301643998407,0.09040798416218611
393,0.09069349221903071,0.08927109923387194
394,0.09154821134103144,0.08847526602605806
395,0.09036465813156416,0.08886229175700855
396,0.09003289077999733,0.08653960959146412
397,0.0898989896304149,0.09202452017480968
398,0.08846444139431278,0.08749415581397589
399,0.08973639970905871,0.09258188664819089
400,0.08949600629282178,0.08392118960442559
401,0.08964561307572012,0.08128374830864506
402,0.08915078832353238,0.09230520169602761
403,0.08805242913673154,0.08731782204091502
404,0.08827110344349004,0.0952797405063024
405,0.08982791944736723,0.08694657297612365
406,0.08981249439898584,0.08903076492349934
407,0.09004666767925096,0.08812243210911845
408,0.08945111475354857,0.08520875324295935
409,0.08861503472550214,0.0933345649935358
410,0.09014094502424641,0.09020967380494327
411,0.08998833897022558,0.08361231662103673
412,0.08887247367502212,0.09306196388571679
413,0.08890489103506319,0.08707673991747324
414,0.08889570405228818,0.08735444174451723
415,0.08839304319364752,0.0952875096095107
416,0.08934114595426977,0.12373377519770692
417,0.10176434551479577,0.09330454688657432
418,0.0891529838148829,0.08771248432883336
419,0.10981995414355866,0.099229675959487
420,0.09324218357036963,0.09109410732372972
421,0.09235643791101819,0.08756391860503518
422,0.09295409790081657,0.12317345488372523
423,0.13970066238638404,0.2244041167264297
424,0.132880394020193,0.09210922514347929
425,0.09052794198278519,0.08942619320696137
426,0.08842786298327737,0.08791462871251185
427,0.08690308918245881,0.08428803700792009
428,0.08514190672916903,0.0848475308425801
429,0.08466755962527865,0.08122475947464369
430,0.08337973718413061,0.08219096722888401
431,0.08531361527973227,0.08558709711871376
432,0.08631477570332449,0.0870708930023138
433,0.08787341940877058,0.08604794714214675
434,0.09041677208708154,0.07538609680643962
435,0.07133961593558033,0.06416033664402195
436,0.06828138056240207,0.06386524462674016
437,0.06778934069847364,0.06411466813677864
438,0.06827183801540844,0.06447783819360815
439,0.06764788932050113,0.06944581672502204
440,0.06745632985185424,0.06653402198838171
441,0.06808700776256198,0.06304502715933671
442,0.0681840132945757,0.06318656600653043
443,0.06819010576863083,0.08007132399888987
444,0.06830918039682862,0.06791223949901966
445,0.06818633772385159,0.06171478023245378
446,0.06743063532608114,0.06863252849457013
447,0.06882634583553918,0.06745992568281098
448,0.06785514535937759,0.06842260103857978
449,0.06880289696597701,0.06559482958952836
450,0.0692427851524737,0.06887965725518722
451,0.06940168742802169,0.0652479633200846
452,0.06942283239313882,0.07143344871564558
453,0.07092512969067581,0.06725245364298478
454,0.06984939514476952,0.07007860447314657
455,0.07157098463953113,0.06962460298870338
456,0.0710964827172214,0.07302628122358315
457,0.07226421073567477,0.06690952055679594
458,0.07368384398591461,0.06945478996142875
459,0.07474753642670638,0.0745602408137346
460,0.07892472703727506,0.08108004370458782
461,0.08310121845462912,0.08751970667159736
462,0.09839605184035193,0.09405097952840266
463,0.09177561846973417,0.08947769484255572
464,0.09244402356558948,0.09154920509318809
465,0.09449407003885456,0.09442409096196024
466,0.09570935038294343,0.0992235880824366
467,0.09653745739044045,0.09439069938852548
468,0.09775079742109746,0.09264432399547655
469,0.09576651586783971,0.09325937766231884
470,0.09399279788267507,0.09142565359115225
471,0.08298591794006878,0.0698963631600165
472,0.06747425585943494,0.06503658224523491
473,0.06722925503482874,0.06822906167855768
474,0.06901773172828982,0.06998421051837181
475,0.0699626826684919,0.06689860713216104
476,0.06710975673153913,0.06411578076073478
477,0.06573321247588006,0.06326913695426653
478,0.06401901666989192,0.06108069388694244
479,0.06328031091953067,0.060555882504961106
480,0.06249954753952156,0.05998826763153829
481,0.06274882813455533,0.06061530824465458
482,0.0628092498537138,0.0615442920426214
483,0.06280011982083035,0.062209530894504164
484,0.06224495881675578,0.06323058169626211
485,0.06231255069982519,0.06140429143747572
486,0.06295214728158202,0.0649577775365881
487,0.06206729909558471,0.06085367454914192
488,0.0622476755866973,0.064036950336706
489,0.061754501373361914,0.0653048640450767
490,0.0614581302785092,0.06042496315493956
491,0.061504650161230114,0.05709623063502108
492,0.061939753569680435,0.062356936412362854
493,0.06376515472416493,0.06076243882315217
494,0.06301788551707586,0.06051059166335551
495,0.06264808835487047,0.06867439181329983
496,0.061725112756224366,0.06189259971126667
497,0.06274514413810224,0.060292568387082926
498,0.09024632596027413,0.0859246400744311
499,0.09014248046919787,0.08773673793275995
500,0.09013213212791678,0.08608580350393655
501,0.08818559542590146,0.08517050165932952
502,0.08935235833211673,0.09038222505877878
503,0.08643709778559389,0.07706171034849245
504,0.08338807024460712,0.08299473095347115
505,0.08946820616507702,0.09564391840558026
506,0.09155806728142152,0.0952128982840322
507,0.09301002215829303,0.09161068288272728
508,0.09156675660888926,0.07896743102944452
509,0.09170665535971606,0.08688390206754348
510,0.09149687866465174,0.0989936392845464
511,0.09362997087559921,0.09369643885809883
512,0.1508749646174131,0.18554810488092308
513,0.13018038453494044,0.10132659696507096
514,0.09955008451541741,0.09736005543204114
515,0.09876289399717447,0.09697022637162701
516,0.0965590879148383,0.09911715863794442
517,0.09642111548750425,0.09537856270218799
518,0.0966332970108155,0.09607593174185824
519,0.09630083769774266,0.09441942459923504
520,0.09531138532703443,0.09497473564736938
521,0.09444918462352977,0.09340088598683018
522,0.09355057463300027,0.09250393644528024
523,0.09252154610926012,0.08988280978344892
524,0.09096644451613907,0.0895530264633513
525,0.09036136716961575,0.09240138119684962
526,0.08981090594681619,0.08801454807842635
527,0.08924314615091117,0.08724234120269037
528,0.08869961156345291,0.08665249237368779
529,0.08845678578427942,0.08946975759262162
530,0.08809055662829336,0.08635883051799147
531,0.08839367767520469,0.08626637207057501
532,0.08800007766343469,0.08735858286777254
533,0.0874559339478338,0.08795420660239651
534,0.08745388211094314,0.08475865004400428
535,0.08658828671208674,0.08714034525940714
536,0.08662901883967203,0.08498164390132196
537,0.0863393490804995,0.08583916496153224
538,0.08658902417960689,0.08619049040346326
539,0.08612264426265784,0.08461462013605738
540,0.08579261243927012,0.08435778234568561
541,0.0855801439316248,0.08656553674162892
542,0.08564957883283436,0.0881161896016481
543,0.08614064714939093,0.08322232040769958
544,0.08568093671257214,0.08482704231046558
545,0.08521843892481211,0.08444930197290294
546,0.08474774555646354,0.08389424451501142
547,0.08448571811387721,0.08322421219949658
548,0.08412372556438358,0.08374282926168138
549,0.08367891351638032,0.0838841496663199
550,0.08320739838651282,0.0837644682792857
551,0.08310420410208803,0.08876537226416882
552,0.08258126177590527,0.08072902245157426
553,0.08238382546229661,0.08241937687031002
554,0.08214346382567446,0.08291840869360019
555,0.08188111742557906,0.08324967119504639
556,0.08194539069885211,0.08254649929978665
557,0.08243605594554965,0.08081690120586468
558,0.08180541213569072,0.08089465911675836
559,0.08190083515187867,0.0802183248390809
560,0.08206069367758329,0.08003169597782953
561,0.08142149356081427,0.08158135043064628
562,0.08111711953588717,0.08229138445176755
563,0.08100191396262815,0.08135096762320519
564,0.08136810256029776,0.07993443229698062
565,0.0807553189222237,0.07980604682649885
566,0.0813927901141959,0.08418929518068881
567,0.08081356711167512,0.08041753543756944
568,0.08166066662584849,0.07915617981315506
569,0.08167771685668986,0.08134214762060211
570,0.08234025186879172,0.0799306911058377
571,0.08119662274881233,0.08183570997679243
572,0.08059498581061546,0.08052754348060139
573,0.08076223297168215,0.08336429190899126
574,0.0806777760026147,0.07844675177356909
575,0.08020291118313083,0.07913426743804139
576,0.080371651356276,0.07827948644792554
577,0.08031688494344266,0.07976969220067633
578,0.07981924044726182,0.07820726455069472
579,0.08086751894556361,0.07892298413809586
580,0.08011500266857809,0.07790146051555424
581,0.08018654217715744,0.07833931720341485
582,0.08013433520700768,0.07820307787422505
583,0.07997026001896075,0.07776733602808043
584,0.07989434938845065,0.07925417391258427
585,0.08085952071453646,0.07789615591680712
586,0.07981457865888553,0.07878557120427054
587,0.0807933326956513,0.07959079249646595
588,0.08028434319414204,0.07954835315729655
589,0.0805946537714115,0.07938370586394229
590,0.08051741241420106,0.07860713029881584
591,0.08027540121248347,0.07989037854871886
