epoch,loss,val_loss
0,0.5613616591096938,0.5557455657937705
1,0.5557393165659738,0.5561225720913009
2,0.5559351094816902,0.55579056421007
3,0.5559077495772228,0.5558373330083181
4,0.5558529997902597,0.5560289122849319
5,0.5558343529539529,0.5557002973439146
6,0.5558016050060449,0.5557521347850396
7,0.5557907355052797,0.5557481879721904
8,0.5557857312779364,0.5557370900880615
9,0.5557735124006937,0.5558150583635308
10,0.5557701674046884,0.5557381251330827
11,0.5557671308551374,0.5557529928855751
12,0.555765684191363,0.5557342821763814
13,0.5557690438823564,0.555800371024653
14,0.5557485140489196,0.5558058269604702
15,0.5557509740105865,0.5559000816158932
16,0.5557479653980383,0.5557865369020804
17,0.5557453989271894,0.5558335799933881
18,0.5557481960181258,0.5557685967369724
19,0.5557403489647081,0.55573888260996
20,0.5557424672670154,0.5558685846833817
21,0.5557330466686449,0.555706082189085
22,0.4893885460741207,0.44495374554250855
23,0.44466322273459874,0.44460799128446615
24,0.4446681945932521,0.44461328746999124
25,0.44466392897097606,0.4446525269720277
26,0.4446620754377725,0.44464008881872713
27,0.44466353727376023,0.44469707575992723
28,0.4446542618453384,0.4446083155438619
29,0.4446632552772195,0.4447269044155088
30,0.44466158228384917,0.44462100389799997
31,0.44465235268246084,0.4447337380899254
32,0.4446574317980804,0.4446517503912797
33,0.44465122266158297,0.4446264530257117
34,0.4446516128764425,0.4446055273797108
35,0.444656283611091,0.4446116735821814
36,0.4446530092351541,0.44462419509632123
37,0.44465512954930103,0.4446873595568042
38,0.4446474524385553,0.444731441907832
39,0.4446543095696381,0.44465338428218876
40,0.44465102385900995,0.4446681091875164
41,0.44465083562796215,0.4446282283818133
42,0.4446434588186979,0.444617159235131
43,0.44465284295074897,0.4446542301981794
44,0.4446451853415567,0.4446359964610282
45,0.4446416275514046,0.444701596907591
46,0.4446482351011758,0.4446401192718069
47,0.4446437229250106,0.4446881530406798
48,0.44464578817544903,0.44601186254733666
49,0.44465322165955,0.4446245951748697
50,0.4446473580124406,0.4446540349070678
51,0.4446479875171111,0.444605796374422
52,0.444640566737259,0.4446611050548905
53,0.4446397052064613,0.4446818167697215
54,0.44464325527167764,0.4446026814496004
55,0.44464584438962534,0.4446219526147282
56,0.4446484385162689,0.4446147829720155
57,0.44464144805712846,0.4447268036806301
58,0.4446380004267342,0.4446068089884274
59,0.444639298092898,0.44459688760741317
60,0.4446375629267405,0.44462873896370053
61,0.4446399281063458,0.4446076963541147
62,0.44463856630189735,0.44476834702239976
63,0.4446409519128565,0.4446328880106511
64,0.44464049480087714,0.4446285142820185
65,0.44464107065359765,0.4445973269443806
66,0.444636639090637,0.44460481257832046
67,0.4446400016666739,0.44461738148652996
68,0.44463402506054533,0.4446158134025753
69,0.4446447162650276,0.4446685424120971
70,0.4446284238119922,0.4446037429532343
71,0.44463911039724957,0.444964016411008
72,0.44463885664455555,0.4447114221965848
73,0.4446348309660074,0.4446161810544742
74,0.44464074936288206,0.4446396108693654
75,0.44463693265496,0.44459206509044935
76,0.4446328262922151,0.4447364320480693
77,0.4446367710483483,0.4446054691073439
78,0.4446410762130746,0.4446062197855811
79,0.4446414805609007,0.4446776750349177
80,0.44464039890739343,0.44466402771994673
81,0.4446337450298965,0.44464842156605133
82,0.4446347635019361,0.4446108761724639
83,0.444633543827196,0.4446316787424931
84,0.44463774591521255,0.444603523681121
85,0.4446329343508015,0.44465140963577554
86,0.44463574617025,0.4446282302323307
87,0.44464126498543777,0.4446282330554346
88,0.44463448142592354,0.44460764414207393
89,0.4446371253979556,0.4447412810236457
90,0.4446412666068204,0.4446639710046648
91,0.4446354056091,0.4446049556597577
92,0.4446352791302106,0.4447727094586168
93,0.4446330072686503,0.4446012135988496
94,0.44462815817638945,0.444639859070603
95,0.444629333085232,0.4446872723576794
