epoch,loss,val_loss
0,0.7792626852871728,0.777899887891389
1,0.7780163262709141,0.7780343578015885
2,0.7779879864151614,0.7779128207031348
3,0.7779203196591568,0.7778648813508778
4,0.7779299756845746,0.7778570705109861
5,0.7778985231705207,0.7780185868451571
6,0.7779019266479166,0.7778564571993529
7,0.7778900017524704,0.7779233444062645
8,0.7778868770992504,0.7778798802581991
9,0.7778848420699883,0.7779088333208863
10,0.7778832705696104,0.7778567512281096
11,0.7778752939735961,0.7778497296267887
12,0.7778786644550073,0.7778755918190141
13,0.7778723627448968,0.777861889816758
14,0.7778730417697721,0.7779142187193346
15,0.777871386211491,0.7778772228773537
16,0.7778718125775435,0.7778523576170637
17,0.7778703933483048,0.7778450798113724
18,0.7778706658486547,0.7778459257202639
19,0.7778663233382919,0.7778560349027638
20,0.7778671763721137,0.777845452162923
21,0.7778662666364387,0.7778524684635291
22,0.7778659445713167,0.7778449069607423
23,0.7778645437728327,0.77785545816133
24,0.7778623106450033,0.777890543630431
25,0.7778685510947735,0.7779076645132736
26,0.777860420858654,0.7778459849841485
27,0.7778633835644998,0.7779366335443643
28,0.7778639699067101,0.7778455724465538
29,0.7778613936065988,0.777881301252051
30,0.777860348763723,0.7778572806606638
31,0.777860183539665,0.777850019684742
32,0.7778584259995315,0.7778545383074671
33,0.7778578696306163,0.7778762585968749
34,0.7778582496829445,0.7778578716761653
35,0.7778566905975222,0.7778535269784117
36,0.7778561017709797,0.777845720005202
37,0.77785670900974,0.7778613288260195
38,0.7778562690265974,0.7778419142339614
39,0.777855348295416,0.77785192236212
40,0.7778558224924537,0.7779062278491837
41,0.7778549318031933,0.7778581497696481
42,0.777856601649835,0.7779010293103976
43,0.7778547216024304,0.777876196531184
44,0.7778574245648276,0.7778590140417301
45,0.7778566891070807,0.7778887453676689
46,0.7778592896932244,0.7778740163566538
47,0.7778565958126997,0.7778497631301459
48,0.7778555390423479,0.7778389374566529
49,0.7778558659889715,0.7778394884612232
50,0.7778537996131097,0.7778557438603919
51,0.7778578988857073,0.7778668555453105
52,0.7778549748256411,0.7778438982583804
53,0.7778549162298741,0.7778661686815268
54,0.777858196395421,0.7778397980560968
55,0.7778532035938757,0.777878020540275
56,0.7778541107442519,0.7778835786568356
57,0.7778570477513208,0.7778676883822606
58,0.7778543329391446,0.777858236436335
59,0.7778540585385705,0.7778633610064858
60,0.7778533049880706,0.7778417737224244
61,0.7778557958928649,0.7778626193844251
62,0.7778529776040564,0.7778554711859434
63,0.7778523139726533,0.7779135145004428
64,0.7778543105000922,0.7778410887233564
65,0.7778533176499214,0.777887822295515
66,0.7778524189405159,0.7778745678203038
67,0.7778540223250622,0.7778621596610034
68,0.7778532553377134,0.7778399241563155
