epoch,loss,val_loss
0,0.13514771631402936,0.07592061846777973
1,0.07179830544780817,0.07156681277345933
2,0.05640399843665788,0.031702889845469095
3,0.03563437890112519,0.03337549023777129
4,0.03591897417839578,0.04101498652875847
5,0.03554625568954612,0.03235698678187479
6,0.034697403957089076,0.03095368519660612
7,0.03463806208226082,0.03436436176876337
8,0.034494154508874046,0.030062460916112425
9,0.03423284225502341,0.037094900887327205
10,0.035351620719795654,0.034434656788254685
11,0.03584088842056209,0.034118829721374686
12,0.0357525792303417,0.03246689681184273
13,0.035914607006583,0.034668565885808494
14,0.036190461776078604,0.035129896633403455
15,0.03565803918910088,0.03216599678031177
16,0.0355277846632101,0.03205008029161519
17,0.03553999587893486,0.03621354410549789
18,0.03561421071918462,0.03562782859046015
19,0.03551473822682905,0.03359015574847843
20,0.035460865028279956,0.034241318540984285
21,0.035607822494005126,0.0331625384561594
22,0.035389290490507076,0.03330636226616935
23,0.03521787519116315,0.032593275107966696
24,0.03552767195828932,0.03102569965955867
25,0.03529876660180392,0.03180522089728523
26,0.0355739258438182,0.03478710331175632
27,0.03586449535365561,0.0362564165015788
28,0.035548200425085164,0.03307677051838967
29,0.03491993578631791,0.03246144926573878
30,0.03514036128995754,0.030180408770031787
31,0.03565561501152938,0.032892373641151655
32,0.035204021962914916,0.03338964856079035
33,0.03530980245791655,0.03434779574681476
34,0.035324481315910816,0.03171178830115694
35,0.03516917087831538,0.03463556116186641
36,0.03511226280621416,0.03430806065232573
37,0.034851115224488395,0.03428161425785042
38,0.0350354456764867,0.03950595525964424
39,0.035172164415587764,0.03375844363837658
40,0.03549168052019285,0.03268665921210584
41,0.03594385117566366,0.03765050761384012
42,0.036531780885129,0.0312461274725274
43,0.03678631424668619,0.03161973798472578
44,0.0369054079614133,0.03327471648961094
45,0.036680544853853664,0.031932687657372914
46,0.03686022674806303,0.03405276173468453
47,0.037059989976707834,0.03396896581476423
48,0.03647217680316725,0.03194538501533073
49,0.03557405819733747,0.031868108612174297
50,0.035078489190365054,0.03380046957617165
51,0.03446586963107927,0.032321429109434585
52,0.03371898142500318,0.03036908297443023
53,0.033863181585548734,0.027977016527314495
54,0.033592734676447036,0.028544864898816562
55,0.03340873115812894,0.03202309479588538
56,0.03261318636148406,0.030706549223568275
57,0.03221434020444,0.02680431785034023
58,0.03165709360656764,0.028648963747891557
59,0.031445356526618284,0.03448487477760759
60,0.031169452529540547,0.025304443831390157
61,0.030145026817113806,0.027171763764207723
62,0.029364304675859848,0.02599661700845047
63,0.029512491073462363,0.029037698874016304
64,0.02846427765904928,0.026030303260580517
65,0.028683372883410524,0.02308092208765888
66,0.028282573408663844,0.02217294063327956
67,0.027500291228395618,0.023363834835042046
68,0.028011323439685418,0.024117619234365843
69,0.028006911564389055,0.0256769112484043
70,0.029960891426943664,0.04395803288742606
71,0.04343324824110519,0.03884319078997542
72,0.03932362796513916,0.03874898447869044
73,0.03597580850702062,0.038455219912888874
74,0.03962713405177248,0.03935911119478184
75,0.04132192394138574,0.04040621012602157
76,0.0401824459881722,0.042268073805199896
77,0.04195740963403079,0.03996882314522528
78,0.0416975107630618,0.03976090846622941
79,0.04037161588335304,0.03424488950664826
80,0.03811165407228527,0.03927882806630989
81,0.039899753424510964,0.031173495615478945
82,0.039593322364111644,0.04023720977949927
83,0.03822413671889799,0.03905911274671837
84,0.03900631185886052,0.04174265310744554
85,0.03492636604831635,0.027895100802865287
86,0.041843513939544545,0.025154881401321223
87,0.03196062298259325,0.03534668301479875
88,0.0376053212290938,0.03520343988992703
89,0.0339541722291546,0.02085279712002157
90,0.03381624993466907,0.03138437812182032
91,0.03572827203870772,0.030655522571307707
92,0.03798012724957711,0.050947938020316844
93,0.03758859621817998,0.030653209399781833
94,0.03749766895885495,0.045803857927564195
95,0.038981234421022984,0.03732509773309859
96,0.03703414187725666,0.04030043887152339
97,0.03816009792599746,0.045468316721452816
98,0.042627395801454616,0.05203744407446251
99,0.04671339562042154,0.03321032362219002
100,0.046089309681620866,0.04881841639070033
101,0.04335841967416801,0.039771344333346094
102,0.04575041317783719,0.045572372034321455
103,0.04564143157080947,0.038361591046592244
104,0.04696519289249115,0.044676606429427654
105,0.04551121930284299,0.04693816203238838
106,0.044451550165151094,0.041401181587598035
107,0.045336917242248184,0.044061532183811244
108,0.046094578422820394,0.02420630825399741
109,0.04714673664569736,0.049387525399557326
110,0.046829502332767996,0.044114806460717956
111,0.045968774694958324,0.039788173271994375
112,0.04652561597097263,0.04208820866863372
113,0.043701972816880943,0.03585552762320593
114,0.04590658271546773,0.039828913812632157
115,0.04512962371670752,0.04314873445758503
116,0.04597590448071273,0.041849641201410506
117,0.04539412316560245,0.026210740812846123
118,0.04680608280842825,0.041734856818732825
119,0.047854267661537914,0.04201297788647751
120,0.046918280159147806,0.04749738312699048
121,0.04740279309040637,0.043820150390608444
122,0.046261745682217,0.04974995031894053
123,0.043452191831384726,0.045488719341081243
124,0.0459773534109338,0.04174397578837839
125,0.04674487640049389,0.04245972199969717
126,0.04702157417846788,0.05178281926530125
127,0.046459777920181564,0.05296524097200633
128,0.04429957118751905,0.046590343391156704
129,0.04269954023568583,0.03501627033968892
130,0.043744368087813006,0.03585568968215465
131,0.04474231705656179,0.04364751912976873
132,0.043144405765874354,0.052168559338882765
133,0.044804445282518146,0.04212114380726969
134,0.04324127529278028,0.03976655150627704
135,0.044238083322140145,0.04521664834471791
136,0.045221184403430835,0.04229254611630372
137,0.046875268028085705,0.04624666901042166
138,0.046277469980696456,0.04189189981254613
139,0.046078783089963556,0.04255576486439806
140,0.0468709737086277,0.044984755662711665
141,0.046105807298700584,0.03893194787333636
142,0.046053557638093816,0.043364572490917574
143,0.04712890264400237,0.04619313469237479
144,0.0453514320229431,0.04297187722096221
145,0.044085055219678045,0.04643353192692868
146,0.045890409238100484,0.034272960952432395
147,0.045943941108042674,0.04904135882313457
148,0.04622417528235869,0.04380711944716458
149,0.04334935299057564,0.049650766325919006
150,0.045411622593198704,0.05573061018029629
151,0.0463270325664815,0.04422823293244829
152,0.0464585513207052,0.04703385222941378
153,0.04585838859542001,0.04307260720063686
154,0.04551263098313892,0.044578138491890046
155,0.047106095384225714,0.04030102042697411
156,0.04633803978684447,0.04751662720632817
157,0.04554270904773264,0.025018639833134935
158,0.04478221701355361,0.05315142646490728
159,0.04546310152667913,0.04258971140023847
160,0.04553047038888712,0.04907032582194389
161,0.045784713764437476,0.04704883273605672
162,0.04683830677349266,0.04788365424996582
163,0.04676533409942993,0.046419610455338184
164,0.04699521270289505,0.048414146349763154
165,0.04719109444482197,0.04983647117992509
166,0.04504903433375436,0.045898816504919254
167,0.04601607480116909,0.04074456890120267
168,0.04563819738827068,0.047317417289976446
169,0.04484324136616396,0.044789778120115975
170,0.046920922412116414,0.048328147294042424
171,0.044718301051008186,0.03537026443757593
172,0.04568810574040353,0.03784782674542871
173,0.04398779729254645,0.038773854582878485
174,0.043780134194236486,0.05101222008607852
175,0.04332923967552056,0.03189987364359606
176,0.04559140889306101,0.05155537826403823
177,0.04604936484470785,0.04062434922148133
178,0.046659438133084895,0.04131145926446734
179,0.045435802929168885,0.04381338336990871
180,0.04589254503249288,0.042105275117325425
181,0.04500397671011093,0.02818991727950588
182,0.04421803237666353,0.04814906044618389
183,0.04723882278521284,0.04294566809984061
184,0.04524726872231892,0.04982250263795386
185,0.047179132420792996,0.041002017843530414
186,0.04741771965340483,0.03796988713019178
187,0.0469178217995486,0.04456348348505965
188,0.04582951563245935,0.04766183560559763
189,0.047177789486396754,0.04876507482334866
190,0.04652478191391122,0.04574646920718447
191,0.04630508012905848,0.050033805978608674
192,0.044841110678784234,0.029237153546645026
193,0.045549616991109744,0.04324970834821627
194,0.044507342602887884,0.04869767210513189
195,0.045763328164476424,0.04449685393952439
196,0.04710388925152836,0.045202997937245734
197,0.04468062237131414,0.039219823715166025
198,0.044671193768026876,0.04761339613510665
199,0.04630627084395392,0.04401324959596782
200,0.04647679232897685,0.05435364434367668
201,0.04373524036871896,0.04208831834564928
202,0.046777925525548505,0.04540798773117299
203,0.047204883770643476,0.047482093394790564
204,0.04458219219567917,0.039762639666259904
205,0.047788780354570855,0.042672740208792144
206,0.04553369953364825,0.04747489437566748
207,0.047430262635860275,0.05167093992103906
208,0.04599360993011392,0.04305748655310088
209,0.04616246913536656,0.04450554030505616
210,0.04481299906644485,0.044271129879574184
211,0.04552064953575865,0.04472327659578425
212,0.04582954291924298,0.04951810481904432
213,0.04548219116709882,0.041854210430204916
214,0.04390092162664036,0.04732882354964209
215,0.04538450056804622,0.023278613626992222
216,0.0468164231340817,0.047280171621464424
217,0.043491055678239736,0.04376439025130155
218,0.0457061613864488,0.03961544964336088
219,0.04525131824240982,0.04692735711455157
220,0.04595130206726724,0.03597165608003841
221,0.045321651656987615,0.0381035329472647
222,0.045936678834021284,0.04375102128995246
223,0.04532627160806093,0.0496953779150862
224,0.04725178439381549,0.04200075475033005
225,0.046444294960807556,0.03601605882507991
226,0.04831360667559812,0.0502295560088088
227,0.047295370956601426,0.04286274739821172
228,0.04453015331101479,0.052439843743286835
229,0.04589031518568738,0.04501783572895939
230,0.047055850485912994,0.033928583598833155
231,0.04570037827824803,0.04626938768301597
232,0.04679862003651359,0.046803610950661344
233,0.04635612838279953,0.04631950563347612
234,0.04654756878881598,0.04047720727011644
235,0.04739804382396521,0.05004561144414622
236,0.046348365625257876,0.045458878542648684
237,0.04577417027124827,0.046211809537358046
238,0.04555490713337247,0.044081828788499144
239,0.046420504272782166,0.04095621090220624
240,0.04482412179462987,0.04374272700901942
241,0.0449497976618038,0.027273570204296257
242,0.0448191331194745,0.04654791388416629
243,0.045780589138503844,0.025566683971891276
244,0.04721947675712294,0.044371788523026874
245,0.04574560290120608,0.029666126115451955
246,0.047454756453817935,0.04527163028352451
247,0.044553672104216305,0.04277562571141131
248,0.04612245641836374,0.049422657742049625
249,0.04491210304689017,0.043151336392033446
250,0.043474363351462604,0.032071851952488066
251,0.04615702451192599,0.04185891791813564
252,0.0464974216257723,0.04198696853294557
253,0.0434026967802589,0.04764120089920751
254,0.04421594667864098,0.03613780256898834
255,0.045854613446235225,0.04481074874654659
256,0.04511880957343572,0.04876039886954457
257,0.04496578639708192,0.045260992056992265
258,0.045887448792185766,0.042330720883095085
259,0.04579824721477896,0.04766989684271925
260,0.04593145928169183,0.043344461703827365
261,0.045197625889433185,0.04508930554976591
262,0.046961970400991294,0.0451419664121982
263,0.04608713631271768,0.0430537457515404
264,0.046748849124812204,0.044531635751899244
265,0.045446599539604594,0.045708783047351674
266,0.046192602308796085,0.033181045491074895
267,0.0458539100594634,0.04600515335080844
268,0.04512029154960224,0.04588836308601059
269,0.04742648204986593,0.04722608779075584
270,0.04674527607113718,0.05059209296622423
271,0.044034151038784775,0.049362196115851874
272,0.04529334694373426,0.03134882019210868
273,0.04496020767956877,0.04409490601286798
274,0.044843718210766784,0.04695138561626824
275,0.046382748680434925,0.044806013229261164
276,0.044908518848611675,0.04688141237717966
277,0.046646826957865394,0.03939047628821071
278,0.04612892426678436,0.02373825824777607
279,0.04693855364009631,0.04459405869786534
280,0.04553028265629217,0.04937487172334798
281,0.04799713181639961,0.04322909031007453
282,0.04458471798344696,0.04700222807835667
283,0.046016414940124935,0.046605053401148594
284,0.0457740702839802,0.03526010125399153
285,0.04637944599841353,0.03084401119626829
286,0.04504817129030145,0.03611441624616203
287,0.04511193836630463,0.043694446394080336
288,0.04558204490762892,0.046165918444754483
289,0.04598267000543771,0.04247304343198732
290,0.046518120974254645,0.042543313230057826
291,0.04572125991804899,0.04077638620429841
292,0.04656174122769055,0.04239056006091593
293,0.04653221416435272,0.046152359505361146
294,0.046495521738887026,0.04604985242696286
295,0.045858251738647146,0.04564199234993324
296,0.046971473476583724,0.04716916881272336
297,0.04605962996624952,0.05434774243417648
298,0.04649908101330582,0.04220732175043086
299,0.044188407532644455,0.04079393377996564
300,0.04441316406146514,0.04224022732343416
301,0.04422040583102776,0.03245242194793736
302,0.045915202562251296,0.04981103635318842
303,0.04578675840833157,0.0414255295557447
304,0.04581096827117302,0.032540620484734106
305,0.045555161845257625,0.04848142745651028
306,0.045957851006264545,0.042094810506374515
307,0.04594088536869589,0.04682361108751493
308,0.04662188237084807,0.04956368009994231
309,0.04535906510851938,0.04925735697632431
310,0.045335472958217514,0.03220918589663393
311,0.04589463525908075,0.04575670886587795
312,0.04604539892105438,0.041711835306793475
313,0.0449389317597774,0.04526483278424606
314,0.04348086592310267,0.031561136513289824
315,0.046295668972249654,0.026900379810461682
316,0.04651746123457412,0.029241147320996898
317,0.04486360078637334,0.05071589502122991
318,0.045203128287629735,0.04602954183258969
319,0.044955545596385316,0.047017180967279186
320,0.04572631609212938,0.051577185107881666
321,0.04516331898234636,0.03623717779994905
322,0.04597636119207199,0.031197906107933576
323,0.045469456798970985,0.04257422462458581
324,0.045051241172946614,0.04762292893246204
325,0.04751828544103889,0.043122440029667794
326,0.04701238639241786,0.047464931044130694
327,0.044735801902761184,0.02186021660752271
328,0.04401700577209536,0.042024731230293565
329,0.04583624321118676,0.04149243098572661
330,0.04636104015051294,0.040505065971540015
331,0.04523553073162036,0.04303980387906061
332,0.04482099171698117,0.046458571955220566
333,0.04367180454651181,0.026209668361456166
334,0.04457255096943806,0.028622601262125427
335,0.04319567822342773,0.04478377997934019
336,0.04116008242519258,0.0327435169124942
337,0.042418901039530145,0.04052258709676405
338,0.04459312440325721,0.03323626986189489
339,0.04528361245644369,0.03337371615867918
340,0.044976785194596275,0.040730739787115104
341,0.04610026621302183,0.050201041049132124
342,0.04779775945587362,0.0498979027605753
343,0.04585573253937238,0.033957725082066174
344,0.04469900794675667,0.05007697114369581
345,0.046404174465736706,0.04547342754776965
346,0.04549265193189386,0.05060571254816879
347,0.045888829500608734,0.04159720666594833
348,0.046383944966887636,0.051217385430268256
349,0.04706190814964658,0.04620673579193987
350,0.04547869181744367,0.03777908566889324
351,0.046486265315628834,0.04547925471918453
352,0.04608106359446363,0.039419026063327346
353,0.044505984341497905,0.047834952983008466
354,0.047536433283552275,0.04403553387089893
355,0.04512104446397459,0.04429432610674646
356,0.0468416497875139,0.04913701441935789
357,0.0453195857497559,0.04936770930145327
358,0.04771009883095177,0.04694761292040113
359,0.04545889696259674,0.043139742863759246
360,0.04611412189799628,0.041308362107509315
361,0.04603747386175642,0.04657935399059339
362,0.046912845819712064,0.046073107026817293
363,0.04578817814147825,0.03366868523697074
364,0.04560335846521038,0.04165180544673973
365,0.04475213190411135,0.042960758946524326
366,0.04293883121538934,0.039869220878843634
367,0.04568714333279766,0.041134248613346816
368,0.046645961853740314,0.04086091436575084
369,0.0434940606378001,0.04870162520560582
370,0.04376706590267013,0.04341873755618259
371,0.043316303683127715,0.04037164793082975
372,0.04206420487905149,0.048990493756443286
373,0.043823364247336426,0.04921886454547308
374,0.043987937601391885,0.03268500313533274
375,0.043338750672193886,0.051096166092270266
376,0.04286327731194828,0.037052184999012625
377,0.04404272078249833,0.04730625473545025
378,0.040830797602167186,0.04629029483543951
379,0.043429587975138434,0.042680962494888355
380,0.043322214462178696,0.03664651824471606
381,0.04406328348042391,0.04668166394027181
382,0.045678133762878576,0.04588443003506668
383,0.04592743545374591,0.048005839805364985
384,0.04472895481472583,0.046941539818081406
385,0.04407603358127755,0.04828313808967583
386,0.04552322217329539,0.04955465916688271
387,0.04635331769221478,0.03224293566981497
388,0.04467904039671262,0.04179751020492346
389,0.046155713971326055,0.05571164360715351
390,0.04730375431445267,0.04772852237711954
391,0.046207731528629024,0.028098138190376636
392,0.046796277996233045,0.047844231593251324
393,0.04836200705195645,0.044050038348951014
394,0.0444124980266098,0.0449712512148772
395,0.04733348157343199,0.04704557617666125
396,0.04659074006139113,0.039836042853926425
397,0.046955804521445745,0.03333664108611696
398,0.04837076119009515,0.04991101704379095
399,0.04688664441846377,0.05174861073011757
400,0.04782534623630256,0.05087310772303907
401,0.04518556601399903,0.04411362832516502
402,0.04650618248640729,0.04376548714200718
403,0.045570197161569966,0.04655590718398907
404,0.045617085174291874,0.05727879736563683
405,0.04677250720917893,0.04584260631849565
406,0.047768058323060913,0.04376524508928538
407,0.04500384427618971,0.04060887784389125
408,0.04615099945937177,0.03331196433831456
409,0.04728978973099415,0.04556315319043685
410,0.045815374941187655,0.026839382983244304
411,0.04579827355832862,0.050919625311266654
412,0.04515879233252349,0.040829391636971704
413,0.046055747547464596,0.04166468683315622
414,0.04582996244842319,0.04125531662134976
415,0.04668171357119279,0.0457819265643489
416,0.0455847686703066,0.035982126955181104
417,0.04185557256428172,0.038286661339634126
418,0.04436118765581521,0.04870424703669153
419,0.043164596001771714,0.03858567362808532
420,0.04671663461293248,0.04326638893092723
421,0.045354212074429634,0.039041387522923916
422,0.04518985273919517,0.04353836174957284
423,0.04577731029566029,0.04467352973657418
424,0.0435717820958923,0.04210178566113079
425,0.045655617251438345,0.043676156186055456
426,0.04605820180429853,0.04825887263656227
427,0.04526107658227856,0.03230585890286253
428,0.04625193617990811,0.04781354706213996
429,0.04449320945897691,0.03864324779412176
430,0.045361289503626064,0.039311786094752464
431,0.043191961862212365,0.05045269175646525
432,0.04583817208446354,0.04413667179779359
433,0.046771996131212974,0.04595949039474753
434,0.04468624053938355,0.04185812970904167
435,0.04376355040785696,0.04834052398742045
436,0.04427119156793891,0.042208927615171546
437,0.04573369829161324,0.04348560747850007
438,0.0434456259394876,0.03388253954733886
439,0.04439051248964003,0.04860207733081473
440,0.04391733084028836,0.04856101596976418
441,0.04618458064953439,0.04529077668204586
442,0.04600256069047417,0.031244773350085624
443,0.04585563860383989,0.05138534546227745
444,0.046461344869296664,0.028856562331448225
445,0.04502360467805708,0.050026564528811324
446,0.04473625714008471,0.031098379041255696
447,0.04570913887757668,0.04284524612699142
448,0.04664674818852275,0.04082413902469479
449,0.0463943554194187,0.043748236351720725
450,0.045327541020830614,0.035839107197774805
451,0.0453370717122591,0.05056249493499299
452,0.046665259186538764,0.04375218893177131
453,0.04569231362999986,0.04373835612620626
454,0.04691044379287748,0.046966863559425205
455,0.04511371172508962,0.04379424410442151
456,0.04642947559221852,0.04777109583850065
457,0.04446846740893561,0.04135083455383636
458,0.04484384825421895,0.03784094985365726
459,0.043280850143747315,0.05080391992333374
460,0.046156426477018925,0.041940855453321574
461,0.04459360316485095,0.04001496911736906
462,0.043511090202362754,0.044194373289665655
463,0.04592536308904656,0.043279690519504505
464,0.04575560526843432,0.040174851127868574
465,0.044976423898016475,0.04482426140648508
466,0.04449360862710803,0.03218810496544546
467,0.041158569813650146,0.046555213571394534
468,0.04500781254415556,0.038605717947999135
469,0.04429224929024132,0.0487293089903897
470,0.04321084198632019,0.03385343011424545
471,0.044143264175211784,0.047578612229277416
472,0.04598378082461876,0.03812752304644263
473,0.045559785265526134,0.051014796581527994
474,0.0467687120354421,0.04356981359051736
475,0.04617798153153188,0.04807265163726381
476,0.046680808546755624,0.052504020048439175
477,0.04674617429490951,0.04977947529390654
478,0.04629779503726178,0.042886594361857155
479,0.04607321934210216,0.04046303917813367
480,0.04230977262077715,0.03671318323931406
481,0.04517887678402338,0.049104110062145864
482,0.045760568542529544,0.04269255739478681
483,0.04252670641369123,0.025897804046404013
484,0.043427330371049004,0.04396047366411082
485,0.043389474102061426,0.04785478402637739
486,0.04252511942066806,0.05446498696975287
487,0.04101897812009954,0.03605832443987891
488,0.0446897003677585,0.03394458157722651
489,0.04190085191416631,0.03779997692929306
490,0.042379010647392384,0.05229387432042783
491,0.04130532046620675,0.05042400580978619
492,0.04485828506661286,0.0483378685463952
493,0.04451562100046163,0.0411186363627427
494,0.041304047645287785,0.050618833702736794
495,0.04239958114132916,0.052123972824124155
496,0.042941845010975,0.04267960084688974
497,0.04316794512410768,0.04888384732187688
498,0.04276109469770122,0.03053922480929293
499,0.04133763444646419,0.03946191429409721
500,0.04483579130669078,0.038176414817748056
