epoch,loss,val_loss
0,0.3714840860425425,0.31688415112698654
1,0.2991616558685577,0.2483090957789884
2,0.1920425153012089,0.1551327722025087
3,0.15925634303967728,0.1624282803077724
4,0.1578557766962061,0.16128961413792955
5,0.1582359059525432,0.1432625507052338
6,0.15952900753949853,0.15705587820171274
7,0.16119455030377058,0.13955285440139537
8,0.15969393535150136,0.16519781561375793
9,0.1599778379592821,0.15818800326751364
10,0.16299373623159388,0.15920683342284261
11,0.1602671788327938,0.151842219124371
12,0.16122826167659984,0.15460906090727922
13,0.1623388782179327,0.14837507282008125
14,0.16030672569271567,0.15393469413270514
15,0.16135855890411457,0.15344295367280988
16,0.16056686865804579,0.15979979308976278
17,0.16162392970540826,0.14341926749945627
18,0.16085461272502974,0.17386406268439333
19,0.16320463127905516,0.16868395361264296
20,0.16286283011714237,0.1470782441493556
21,0.16265810370671568,0.1708223673661299
22,0.16467190784015814,0.1632968356102211
23,0.1622413230224622,0.15649379487572077
24,0.16251888664530145,0.1625988160766479
25,0.1644479043567352,0.15547668368753337
26,0.16347651528738005,0.17327226736033724
27,0.16371982624169162,0.15717794352755737
28,0.1627245807646514,0.1554446164004052
29,0.16393098331017078,0.147077499032491
30,0.16521746145306732,0.1600985310107305
31,0.16479181745450655,0.15526289583405078
32,0.16365727781356096,0.14692758600026862
33,0.16473051145386924,0.1644697950266437
34,0.16574233759352439,0.15270247787307734
35,0.16279065232280251,0.1511140325427902
36,0.16331671637525375,0.14371532956233812
37,0.1615574348339741,0.1500068993822928
38,0.16243053121651582,0.1408908162398327
39,0.15999167498281533,0.16444102020224155
40,0.1571800278173648,0.153852869086879
41,0.15792546462085988,0.1464671664757341
42,0.15733341281291105,0.13873846864808517
43,0.15477152971876898,0.1443180882011047
44,0.15745720862865828,0.15087464347117138
45,0.156327259426804,0.15042522975964723
46,0.15608082753982094,0.14783726873695144
47,0.1562725897077367,0.14980776979049173
48,0.15414109789758182,0.15026558863312217
49,0.15356467642503485,0.1513846966349053
50,0.1539794263257969,0.14900057542342884
51,0.15269860117841397,0.14861199110393555
52,0.15436614344088578,0.16103465802197203
53,0.15455998119404563,0.15077184635819463
54,0.1557011598293825,0.15051831087448886
55,0.15838052182913206,0.14510095929219766
56,0.17952930392752545,0.15922652088523193
57,0.16032281724347486,0.11761293465590608
58,0.14046101223567217,0.1280721697923981
59,0.14603687289783612,0.12238967630956336
60,0.12980999215710745,0.1908390375814197
61,0.13363209533558,0.12942409525377693
62,0.13095640027515895,0.15355831966827305
63,0.12109897515887647,0.13019342325927707
64,0.1388769995504551,0.11082844128031004
65,0.12980215869349637,0.16489215898485568
66,0.13183699316269964,0.13859673040230253
67,0.130340004978563,0.16105064154612142
68,0.135134744418444,0.12552177469115983
69,0.12420155735556884,0.1227366829433588
70,0.1341114795754115,0.11736107356522905
71,0.1408517205183931,0.17685709135120276
72,0.1419161515597769,0.090835745963132
73,0.13352138097349592,0.14939043838486676
74,0.13118597321498165,0.10479825887984898
75,0.13805381962054258,0.0967497831797073
76,0.1393850442203734,0.17064759533943485
77,0.1263482440501261,0.09288390597068331
78,0.13498728370054258,0.08433400055697891
79,0.13906484904835265,0.12750614901979607
80,0.14146840751623746,0.11437627090980618
81,0.1397027726963365,0.10652488730583214
82,0.14656174495268307,0.18817612699335168
83,0.12487412081788675,0.10562083156281037
84,0.13980078834185689,0.1811430428968044
85,0.147768158641317,0.24762319210672717
86,0.14531187686643346,0.12984705839273775
87,0.13288700053219696,0.14860732710516725
88,0.13853104122810894,0.13312514325649416
89,0.14303686215484934,0.13088860979631556
90,0.15591429849024965,0.13004849708823585
91,0.14047034932888575,0.12796553208447858
92,0.15664827183401175,0.1308890454406426
93,0.1424284066787536,0.18218087504346633
94,0.14221286194787608,0.09025757983856156
95,0.13590541150239255,0.07924675542182026
96,0.147583301348104,0.0799836105598694
97,0.14150549569647375,0.09805274554825996
98,0.12257167163024323,0.10090012019228163
99,0.1219680517298474,0.08403949236060657
100,0.13418598016716546,0.08593294701311846
101,0.12032629731301066,0.1334293550078852
102,0.14163640338918573,0.10043554835391967
103,0.1360035557642305,0.11987149811863616
104,0.1337031929580261,0.11558931570826503
105,0.12495756055191934,0.08133496116220527
106,0.13298917526035287,0.14975940156213485
107,0.13617307326490644,0.11293905685878496
108,0.12777962788439198,0.1111349511212407
109,0.1305957496624818,0.0968195502988071
110,0.13866482661972993,0.1844465671887808
111,0.14599673962778897,0.17133715317158973
112,0.13841693606570088,0.1057640411659499
113,0.1291336364564683,0.09888374903654619
114,0.13901122412878833,0.1478404215733273
115,0.13634462370801506,0.09673370811985342
116,0.13552485283562463,0.125709851990559
117,0.13972999148672338,0.1324135575152422
118,0.14892001851624864,0.1788060334999917
119,0.15000043244664665,0.148459712156604
120,0.1577123530197153,0.1314264805406779
121,0.14889473270931594,0.17369578916347206
122,0.14664552178826454,0.16327785909317005
123,0.13977162858588899,0.08383320256385543
124,0.14616547535053737,0.1707697628799535
125,0.1440178799531538,0.10959807521095404
126,0.1447634100884223,0.13573046794841867
127,0.13566467560809864,0.0901391528952564
128,0.13087208909120301,0.10746506302255106
129,0.13406187021653715,0.08323741121174975
130,0.12201892582775592,0.0779440274319502
131,0.12928059377032314,0.10960821075851558
132,0.135588579677897,0.11336619108797719
133,0.13070426022352502,0.08813440673282603
134,0.12894256605947618,0.10085582880754591
135,0.1195234046366027,0.17913344554197347
136,0.12115204057914557,0.06852877304404856
137,0.12366908697856606,0.08924218084907193
138,0.13562865052178658,0.09727000542743618
139,0.12918067489453644,0.15430308963100836
140,0.1302349584982645,0.1657904239096506
141,0.12935478884658272,0.1327947918340364
142,0.1353585731214304,0.08452930549584511
143,0.12920317545288998,0.10214164947183846
144,0.1299111062584878,0.14788604915824197
145,0.1342354771806944,0.1825658105543117
146,0.1299959292842282,0.12721271616507443
147,0.1291426831914438,0.08352895457394592
148,0.12619455541066416,0.10318310245365822
149,0.12424782257702806,0.08692332530054599
150,0.12168699051651785,0.1154774162027435
151,0.12253818704004435,0.09971392371095629
152,0.13292959894981982,0.14261451028375619
153,0.14090538106495432,0.08693359480860578
154,0.12508799628519135,0.08599509308798255
155,0.13989230119835416,0.13805486527054725
156,0.1252225571684986,0.21828085672177944
157,0.1255612924656303,0.18335212409590396
158,0.1303511631774078,0.17113089168645682
159,0.14475016410110428,0.09019152898026811
160,0.1183857537826879,0.11427162310083551
161,0.12294217604372522,0.09455299535038533
162,0.12958965633067487,0.17379522527073346
163,0.1390796740093439,0.09501798442714122
164,0.12932082492378738,0.11160347664812557
165,0.13244282622649658,0.09064971647374538
166,0.11803130496540468,0.10474110612882435
167,0.12554627548245123,0.07979002433234345
168,0.12214797760228173,0.09751539355130674
169,0.12023258559572564,0.15816891156342808
170,0.12227601993927281,0.14434924355951367
171,0.11716311671238819,0.08584647865608723
172,0.11490479662871475,0.09380217326985821
173,0.11778141539409864,0.10154880132252717
174,0.12150579927672299,0.12416740784446555
175,0.13155121619044113,0.10890968149820461
176,0.12672993697696547,0.10677561746070774
177,0.11958848685175061,0.18846830937367495
178,0.12512346939127936,0.1586346204415399
179,0.13335615467968032,0.08421953979823753
180,0.13724816657549185,0.08778634463931598
181,0.1381242138733395,0.382740333782187
182,0.1375650807047824,0.08857762691253927
183,0.12743657247738824,0.08107797311649796
184,0.1347913103108164,0.16660087310430471
185,0.12081775004021841,0.10747167119357938
186,0.12302064346812136,0.1241861187456721
187,0.12304004553041394,0.22008817141321388
188,0.12249856226021151,0.08304909155972379
189,0.11609475728984979,0.09625048001591578
190,0.12079581947063657,0.11446199927775993
191,0.11342399070809166,0.10607589178534126
192,0.11190276448544172,0.10003062813368574
193,0.1274899327584046,0.08678172629888169
194,0.12514758292886374,0.10426623718232364
195,0.12259858598609527,0.11423643226805125
196,0.12058035848583344,0.2006637885308021
197,0.12318619632487483,0.14879774035857998
198,0.12189456050118191,0.10672100575753997
199,0.12134796401841653,0.06818130843770627
200,0.10729678356491452,0.16376214692605792
201,0.11610380368981715,0.07136805971236142
202,0.1334267530328245,0.1732585618203328
203,0.1211027693462005,0.10549422769256718
204,0.11611756304208991,0.10854546351750817
205,0.12391416198290367,0.12534075672572864
206,0.13708391494090133,0.15997301988838786
207,0.11639461102043029,0.18536015579384335
208,0.12133329421829739,0.09198398161870622
209,0.12152452355207537,0.08199928195789845
210,0.11816343385353982,0.11608244606897224
211,0.12864255946841266,0.18449612214702646
212,0.1265380218860319,0.15672675065619793
213,0.12980856740479466,0.17643521335666915
214,0.12604289081730813,0.17769065821556568
215,0.12286158175401979,0.10745233572554946
216,0.12131041869354381,0.08760379113098159
217,0.11776852537896469,0.12252964709180494
218,0.11620000844819844,0.06211381270928748
219,0.119211246756067,0.12187120435434529
220,0.11959848883036944,0.07752734846961055
221,0.11614956814858267,0.10076537288448993
222,0.115271873758744,0.3587388765557883
223,0.11077799995412692,0.11043251012382116
224,0.12406550791653559,0.14934192196228604
225,0.12017349856380793,0.07562613501062804
226,0.12442831826849664,0.15561348297460492
227,0.13008959474061413,0.07192508322381559
228,0.12975355241742495,0.12163863572767615
229,0.11762180548462031,0.08852520458629588
230,0.12726414221957577,0.10230334632939585
231,0.12649497692491846,0.11674336185818501
232,0.120469163777195,0.10638956785578378
233,0.126980411664521,0.17201398551793387
234,0.1361605205910383,0.0719973579631279
235,0.11978929397388757,0.11604495235404916
236,0.11297892505000773,0.10139925720871389
237,0.12125120431387262,0.10653560215220644
238,0.12702122112984757,0.08921605874890874
239,0.13586509994400156,0.12233812968234142
240,0.11595746397162132,0.09225103608975753
241,0.11386985200599467,0.16039978098285979
242,0.12356959689977311,0.12269137176995966
243,0.13615810314713003,0.11528726620709887
244,0.13792491731472867,0.09707267391300615
245,0.14149509093535842,0.1689501359835326
246,0.12707958635922484,0.12569072903167006
247,0.12155618709768895,0.07970925894196144
248,0.11648699743665761,0.07413734136635898
249,0.1521852264980332,0.1938948175195831
250,0.13308904824002707,0.16519301310005202
251,0.14273395733855707,0.10628664614698881
252,0.13477531467362655,0.09461837138424921
253,0.11943908826672106,0.10016563471815393
254,0.11956036077301613,0.09781826522139554
255,0.12842186147884593,0.10239109561588224
256,0.12383028417736364,0.08649423885458364
257,0.1406994548698457,0.08866168873791819
258,0.12400414896525926,0.09428893758282476
259,0.13281495497821807,0.10329860781673005
260,0.1168678368104519,0.1078173525766679
261,0.12084882182599925,0.1051293240938021
262,0.11885570057874008,0.11791404900629876
263,0.11909216258237117,0.11656266793714515
264,0.1275985411924424,0.08582378401999503
265,0.11667235362694132,0.11588809322845117
266,0.1320462287675372,0.09025618667407777
267,0.11654374776460188,0.09558761213342318
268,0.12008136153507004,0.11741171754314472
269,0.12380717695503832,0.194890999873981
270,0.12222543076204834,0.194584817646899
271,0.12222515940993763,0.07532461344513633
272,0.1255448311061072,0.2471549556941241
273,0.1352764927654815,0.10761955942026535
274,0.11444364980363446,0.15677955746062647
275,0.12945699690879106,0.0954317931194614
276,0.1194653056835909,0.10932657782402957
277,0.1268134102177658,0.0903070036736453
278,0.15543627039455682,0.1561356368456286
279,0.15515854240035554,0.15864125081141728
280,0.1522626865276997,0.11535327920385864
281,0.11989358853813793,0.09180906491138
282,0.1234418601557005,0.13029194990174453
283,0.11642912586333512,0.10161379909388363
284,0.1318287666288497,0.10605530571942265
285,0.1365895950072389,0.1064489207273877
286,0.13826048203247437,0.11351371685891239
287,0.11138821942962522,0.14049065444139203
288,0.12606863217274966,0.13197712093920996
289,0.12431545004838233,0.07960337267831356
290,0.11656550836446379,0.1124454194352019
291,0.1188907544333324,0.10059893911597102
292,0.1394574424173001,0.1354633571011115
293,0.12225600535557758,0.09394034037062195
294,0.1234354368767602,0.1697086852570171
295,0.13340383641523043,0.1527760611125213
296,0.1420242226958799,0.07695988624782288
297,0.1283077408494852,0.11812389821355138
298,0.1288631629767559,0.10224025017319463
299,0.13503644718743152,0.09463624051686056
300,0.12631898472974484,0.07707071238753828
301,0.13054829624464376,0.08704247639088905
302,0.12272563706532562,0.10854964502208705
303,0.11718332647032541,0.17624294354441417
304,0.12910429044045227,0.18100500756017598
305,0.11456575189723814,0.12090691477765977
306,0.127185114907275,0.09961144382688317
307,0.11856464827827794,0.11739209900009603
308,0.12662221368947188,0.07910241378616797
309,0.13562153278292416,0.10144757558815858
310,0.1261224738321454,0.19591543978137488
311,0.12994447659900624,0.11878210878339261
312,0.11839360862428383,0.12038134609443894
313,0.11705654140094296,0.11502912064871641
314,0.11880700177938151,0.09393424634257921
315,0.12149726448477886,0.11896526388347667
316,0.1346106607851079,0.09295476734308906
317,0.1430091896711541,0.13058696704274947
318,0.13857535124837542,0.11377658502102463
319,0.12207869218467332,0.16861653475542188
320,0.13805389849783228,0.09484464816907869
321,0.1248657728607158,0.08825638258113763
322,0.11941267813829114,0.10911419367286852
323,0.11857478315238472,0.07220170173820493
324,0.12378575309044976,0.11879457224633812
325,0.1267162214511995,0.0962069531183781
326,0.12092992042799552,0.16842684219719956
327,0.13535403101582177,0.13553953932887847
328,0.13009480619840294,0.20146971160065216
329,0.12851170519237323,0.1725568994703308
330,0.12482790416069359,0.19513445593940054
331,0.12338742860953966,0.10876236297337201
332,0.12910285012589562,0.13612003627379485
333,0.1195237372803102,0.20379319838773763
334,0.13756587600214876,0.11161045716000807
335,0.11872220921704618,0.07705940913347249
336,0.13473831529436495,0.17348989833737322
337,0.1307862184161572,0.17712379589782706
338,0.12415293125595026,0.1252119292893933
339,0.12514830684418873,0.17083129429073907
340,0.12144192903906369,0.17941269124457473
341,0.12777532442219014,0.10291836585999475
342,0.11574945999063747,0.10335380185304331
343,0.12365711338335661,0.09050543688020089
344,0.12277739568442987,0.12430744746960141
345,0.1337359958230782,0.10799871309827234
346,0.12039697196760434,0.10984105430396411
347,0.13273734121853642,0.14925203047216457
348,0.1440277993172812,0.17556629219954656
349,0.1257981117189431,0.09535850325765437
350,0.1303949586966698,0.09060217511282254
351,0.12807920943501946,0.13027276265146043
352,0.12247702656395668,0.09487172418465836
353,0.12925303993905954,0.10722722396572086
354,0.14277270404572825,0.09597578748249123
355,0.1254947629498897,0.12563422723910708
356,0.12301194159497174,0.1561252373228792
357,0.12493506440078374,0.0713381832928618
358,0.12728129523835308,0.10825961750021297
359,0.1231861889427848,0.08719182011231062
360,0.1212843698736051,0.09989249923258385
361,0.12007952531089457,0.09324358351934399
362,0.11685859386345371,0.15894478590072567
363,0.12965671452347466,0.0997069431931933
364,0.13042051422534037,0.07236129957844445
365,0.13396421153482488,0.1101144115075222
366,0.12089875215094248,0.0928920229871911
367,0.13380558951367005,0.10626614094368567
368,0.12185095076700099,0.11516912574361607
369,0.12007169484151163,0.09598622251163812
370,0.11358624111881835,0.2001936033826789
371,0.12334716264798726,0.09368388794344903
372,0.12235166423386044,0.11526640315246846
373,0.11875487325324428,0.11412741327930269
374,0.13219006823972881,0.15102437569597338
375,0.1195751968279874,0.08914069998377218
376,0.11456377513938956,0.10151161798573707
377,0.12172161580341087,0.08390402105866969
378,0.12658313886939193,0.13751728299361285
379,0.1350403932644595,0.07659956410927103
380,0.12741410819222507,0.11224500465647104
381,0.1252840217083788,0.18377082550864382
382,0.13128372119794743,0.0868505628833925
383,0.12204939193970007,0.12240900192777285
384,0.12720647554615325,0.09068820301528606
385,0.12709430046230674,0.10800489136433168
386,0.12168223683615859,0.16878914267953776
387,0.12896712543033392,0.07878879089299487
388,0.1346199671483988,0.08447343966061427
389,0.11680615249184444,0.07786206720836443
390,0.1327796915678574,0.08304054336218074
391,0.11988409906387519,0.09353367200425598
392,0.12579064914654436,0.14802813128918857
393,0.1385454938238521,0.11259447617401923
394,0.11433518082826591,0.09272844871857454
395,0.12438457475738417,0.11630626670257634
396,0.12329616722204893,0.10327187937338143
397,0.12377580611867536,0.10793986863617645
398,0.134000425384068,0.09819347426683393
399,0.13148584863622126,0.09611746915796185
400,0.12330082952261542,0.1641010271816058
401,0.1277354011218325,0.08057281533410536
402,0.12567808396137542,0.0933269979321966
403,0.12280211703543611,0.0935621002208274
404,0.13383392655818488,0.11295506297577622
405,0.11268347735069305,0.09957573679294188
406,0.11842925590183809,0.21940178388248963
407,0.12087008360025885,0.182972405979082
408,0.12686084945508236,0.15493928185342895
409,0.12055331097393156,0.12126211732649483
410,0.12733988765534832,0.09931387906363373
411,0.12838177597053427,0.08745902974302597
412,0.11371434589387845,0.08071295625949904
413,0.12322054468512202,0.11207867853031821
414,0.1165939901205752,0.10861438945606175
415,0.12226641295458392,0.19330466355784445
416,0.12580042009909662,0.1081347847629365
417,0.12788745119042105,0.08780462173678881
418,0.12537705766068374,0.16690596228946167
419,0.12962078298036334,0.16983013226699906
420,0.12055468638475945,0.09359750058134428
421,0.1256000125776235,0.19723876879124916
422,0.12322371760063129,0.11073022966744303
423,0.12579542738225438,0.09624804558133929
424,0.11716972933047348,0.1280632255556269
425,0.13298589759152665,0.21369723965073534
426,0.11806825743161803,0.09699652232847161
427,0.12391653812254409,0.10616422024715012
428,0.12489510978535592,0.10564896055653797
429,0.12851243789086667,0.09930080512939896
430,0.12547524084153172,0.08394708918685413
431,0.12418234115131467,0.13237311781605304
432,0.12262738934106869,0.09431910233156081
433,0.12437641936585866,0.11547771896564217
434,0.11879314692746058,0.06587949107623796
435,0.11821851745057259,0.19475729570627778
436,0.1274313055407658,0.1107747556954834
437,0.12716405287527924,0.12281249431803552
438,0.12651748872912236,0.17128754377764985
439,0.13501645331617168,0.11824924351196169
440,0.1479680047919162,0.11797517720365863
441,0.12872747177456162,0.09611497561270173
442,0.12802530985048635,0.18482215482603404
443,0.13803435440103023,0.08436002534091613
444,0.122826401643056,0.07739324522834645
445,0.11937358030687562,0.08470761566625022
446,0.11398431732297706,0.09762031083960371
447,0.12774777457975656,0.17327173796336107
448,0.11508682983027374,0.08025680329494808
449,0.12568219168652162,0.1450990309502162
450,0.11898185805433231,0.10617209824526884
451,0.12479090061244204,0.10167285476553224
452,0.13867133393657388,0.18363811401466545
453,0.1344959273380484,0.1749773737757622
454,0.12876715399116445,0.08943701804201717
455,0.11921579662046368,0.07761096056394909
456,0.11932863357017556,0.08341054808004408
457,0.12252762744710934,0.1273726530449543
458,0.12567315276840227,0.10295653519615378
459,0.13127550229334908,0.17163730915503514
460,0.11995915401068856,0.08604407661257057
461,0.12033455780328368,0.10230719869119874
462,0.12374134138107395,0.09629651842949045
463,0.12436184667193775,0.07579771535149125
464,0.12454129803738148,0.0687657088958662
465,0.12679388834763583,0.11074628327527004
466,0.13146446455719707,0.10429801401441834
467,0.11696149331988763,0.10943830851832995
468,0.13680499493420648,0.07152253803345003
469,0.12565227368657442,0.10134682222765642
470,0.12533011255885582,0.1491031365347078
471,0.13526591845750094,0.10997790129944952
472,0.134049090990822,0.13177468082569863
473,0.12406134072968142,0.11343948181421623
474,0.13492678609981143,0.1424704420820596
475,0.1351484464977285,0.15197964137289216
476,0.12395652648445657,0.09916574784922806
477,0.1257146817016349,0.0920094279565017
478,0.12478773437625022,0.07595816336942642
479,0.11923426347259852,0.19453004752921607
480,0.12781970635455528,0.11416015039538434
481,0.11306307274553416,0.10797511166418831
482,0.12235841226967262,0.07919293323027495
483,0.12020757582655056,0.1605861250666906
484,0.11772785921968955,0.20401847348405136
485,0.12520763046181888,0.12029806586848343
486,0.13427925443233585,0.10814141782019772
487,0.12907596076909397,0.11257060157942227
488,0.1257058586076581,0.12150992962348715
489,0.11930139585555219,0.10143120222281732
490,0.13105106348846313,0.1281360134941062
491,0.13048164874648782,0.0903370714678055
492,0.11352906336815809,0.18312654624845254
493,0.13085017915812136,0.09302520392655197
494,0.11730294165720376,0.17483564326282364
495,0.12157261808165352,0.07190949179014543
496,0.13370146251601472,0.09880875289181414
497,0.13116197292800907,0.170600992316511
498,0.12032364354246287,0.09552939400229758
499,0.13166255858852613,0.13611356569446723
500,0.12068486822952183,0.10139908388715704
