epoch,loss,val_loss
0,0.6550255229199201,0.6517398604979882
1,0.6519386999373057,0.6517529707392747
2,0.6516589632284959,0.6518351810150051
3,0.651463794867753,0.6521809257585417
4,0.6513643397782712,0.6511945331067068
5,0.6513191170935151,0.651793760312698
6,0.651239692166169,0.6510833692018211
7,0.6511812269095243,0.6511899476607443
8,0.6511948541077142,0.6510558334828607
9,0.6511393532751918,0.6514337023197865
10,0.6511167461778924,0.6516207899704168
11,0.6511194658893759,0.6510380340864877
12,0.6510860522627535,0.6510129226644341
13,0.6511020877304471,0.6511435583862418
14,0.6510926788823594,0.651020323461102
15,0.6510466606036617,0.6510328761105502
16,0.6510486163019391,0.6509806556973801
17,0.65104499642472,0.6509411751484456
18,0.6510484625183112,0.6517156051938646
19,0.6510448608433019,0.6513032014849168
20,0.6510152304089374,0.6509562177930222
21,0.6510044062090747,0.6510199448311004
22,0.6510786992452126,0.6509841934327156
23,0.650980063323802,0.650966818959778
24,0.6509849453355467,0.6509464859962464
25,0.6509874889332545,0.6510140760660763
26,0.6509810883610357,0.6512684213612275
27,0.6509725745718102,0.6509583853906201
28,0.6509967576073665,0.650920324290065
29,0.6509582128799418,0.6511163163717568
30,0.6509403042892918,0.6509849689142876
31,0.6509537404080583,0.6510930439082919
32,0.6509413871121327,0.6509513590531077
33,0.6509427587935918,0.6509711351938934
34,0.6509240694878771,0.6509429282645138
35,0.6509285818744657,0.6510420898645747
36,0.650939156244561,0.6509298042683093
37,0.6509224244285524,0.6510630772072388
38,0.6509289561324096,0.6510415139920067
39,0.6509110089309875,0.6509077052620446
40,0.6509114836714405,0.6510356799544531
41,0.6509186138631686,0.6509165819762066
42,0.6509211945634091,0.6509626662169141
43,0.6509134172004912,0.6509130483525563
44,0.6509164582994998,0.6512801257019895
45,0.6509050822267777,0.6510631750594298
46,0.6508984595213372,0.6509857291027571
47,0.6509177244404837,0.6510011938014634
48,0.6509000672872328,0.6508970118929671
49,0.6509164044114927,0.6508979326146412
50,0.6508954025124534,0.650911978160773
51,0.650895893931889,0.6511301645570002
52,0.6508910591819947,0.6509408799353663
53,0.650906507919301,0.6511770946216346
54,0.6508868433829628,0.6512744680527718
55,0.6508913837453422,0.6509015401007224
56,0.6508929565953369,0.6512931110249559
57,0.6508845263201377,0.6509074201063246
58,0.6508915463875103,0.6509044464409499
59,0.6508771014032763,0.6512222696474704
60,0.6508866844056902,0.6510645854266051
61,0.650875822708881,0.6510728713300624
62,0.6508943358637452,0.6511169159086999
63,0.6508694448825222,0.6509776604382631
64,0.6508763127833646,0.6512574025182511
65,0.6508891625827233,0.6509351991542219
66,0.6508790104297466,0.6511932880943525
67,0.6508710774057896,0.6514799262098876
68,0.6508793240670351,0.6509650638322381
