epoch,loss,val_loss
0,0.4179987563949942,0.4048949578559724
1,0.4030548313840932,0.40277918804963825
2,0.40279992820181293,0.4027799366129835
3,0.4025762933983864,0.4022690623480984
4,0.4024980282014716,0.4024704527026666
5,0.4023587064158457,0.40203695391898714
6,0.4022690603118755,0.4025673347282646
7,0.40214546478276936,0.4022330512036165
8,0.4021065732557202,0.4022734783275547
9,0.4020872081179277,0.4018802193790748
10,0.4020445421830113,0.40179702507946685
11,0.40199277217323376,0.40225566865196893
12,0.40194707851428463,0.40276871433033246
13,0.401950495198835,0.40258656984227464
14,0.40191937859367505,0.4021076963054335
15,0.40187978333882335,0.4017032876056122
16,0.4018857795245954,0.4021177353545395
17,0.4018725437989465,0.4022918692741441
18,0.40182332715769686,0.40198977110403644
19,0.40180914968165804,0.40183402894448406
20,0.40179276736582714,0.4024957245543932
21,0.40180250342378065,0.4017292301353095
22,0.40176817280492916,0.40168188984873276
23,0.4017465647797958,0.4021189515850976
24,0.40174506997803716,0.40175198650833394
25,0.4017118012453438,0.4016893242783937
26,0.40174372507216677,0.40204137349247043
27,0.4017003266006545,0.40239885573647455
28,0.4017191068870486,0.4017203061959288
29,0.4016995595820132,0.40162009703314333
30,0.40169401158513257,0.40167484304153594
31,0.4016888326099546,0.4016371552169175
32,0.4016991660549693,0.4016988946693411
33,0.4016641583233775,0.4016870184512647
34,0.40165970346287144,0.40163469888436293
35,0.4016808563724133,0.40164719893973755
36,0.4016808590642894,0.40222403704380577
37,0.40166686641147786,0.40217892026191315
38,0.40165363623050215,0.4017358152653384
39,0.40166753595580645,0.40177682715077556
40,0.40165103774810285,0.40181443031609204
41,0.4016528857666031,0.4016300063718933
42,0.40166232424859827,0.401822903123742
43,0.4016476668664653,0.4020166413216082
44,0.40163614130922876,0.40171080759677935
45,0.4016403236891612,0.4023258502814669
46,0.4016546298522599,0.4015866465219493
47,0.40162497024190247,0.4026044017180024
48,0.40163871477473173,0.40171901959343526
49,0.4016127563816093,0.4015974149070958
50,0.40161290099629304,0.40161505190669455
51,0.4016146593719665,0.40246718157609696
52,0.40160823426719183,0.40167418327875826
53,0.4016300604877167,0.401990819672497
54,0.4015958156744374,0.40161879146956925
55,0.401614155805366,0.4016378945955272
56,0.40160923739906196,0.4017480984515055
57,0.40160169124365047,0.4016661458660296
58,0.4015974962633714,0.40158157838189573
59,0.4016155452587292,0.40163560798091275
60,0.401603531355726,0.4017860782797224
61,0.40158568718117815,0.40159638936703024
62,0.4015787248694372,0.4018248414874964
63,0.40161057169401027,0.4016347716523163
64,0.4015770308510982,0.40169036846894485
65,0.4015790633488966,0.40159846362345863
66,0.4015806712753188,0.4016425424858595
67,0.4015585475088111,0.40170642794213873
68,0.40156451484832045,0.401879882561066
69,0.40154885899629184,0.4018072094869969
70,0.4015645355444106,0.4015696061456174
71,0.40157034754393406,0.40185167357584384
72,0.4015663877918186,0.4016026802749255
73,0.40158828991654455,0.40174077747773296
74,0.4015754567153136,0.40166072980050116
75,0.4015517573241081,0.4018895102937523
76,0.4015648018311054,0.4016317487798317
77,0.40155279290915763,0.4016474410262948
78,0.4015642326146755,0.4016313863155564
79,0.40156251970469087,0.40168572423180043
80,0.40156094028454636,0.40185423514091645
81,0.4015457083633655,0.4018195762971495
82,0.40155922737101196,0.40186722485658255
83,0.4015556076606301,0.40160788716216833
84,0.4015538456922388,0.40172636344770046
85,0.40155102491688005,0.40169322444842415
86,0.40155628134867294,0.40164082470366147
87,0.4015412985903052,0.4018593234992205
88,0.4015551931274866,0.4016824654550765
89,0.40155248927933757,0.40174141912247346
90,0.4015551197672564,0.40162786811812046
