epoch,loss,val_loss
0,0.41628090845883975,0.4039812403488396
1,0.40316373217374224,0.4026400898437642
2,0.40284660857909016,0.4025315980905339
3,0.40255284062050134,0.4022533820225642
4,0.40244717363703125,0.4023402392864227
5,0.4023867140413616,0.40202664042229097
6,0.4022207569549683,0.4021660430999311
7,0.40213821977118597,0.4020476211537203
8,0.40211354141701644,0.4022795138672623
9,0.4019938774331084,0.40290752011848147
10,0.40197147813720624,0.40217191840223876
11,0.40195198199753757,0.4017660665452924
12,0.40188999137672565,0.40238525877815323
13,0.401875027932421,0.402127674820997
14,0.4018353414566918,0.40262286145397214
15,0.4018435027044126,0.4017644351528537
16,0.40182674900276105,0.4018565174367824
17,0.40179447506323535,0.40167311390043786
18,0.4017920194581257,0.4016329847257723
19,0.4017782981129003,0.4017891142859352
20,0.40175821980266563,0.4025716880710782
21,0.4017648223070058,0.40171045700906227
22,0.4017509271478333,0.4016399935072764
23,0.40187170488611207,0.40167466054483325
24,0.40170939977041153,0.4016257226762937
25,0.40172957511873697,0.40173524554550794
26,0.4017418086539822,0.401934363558038
27,0.40171406373743096,0.40233094985076867
28,0.4017154548362897,0.4025027349184524
29,0.401726077613614,0.4023698289400295
30,0.4017080789431264,0.40199156334027464
31,0.4017500776083003,0.40185222004542576
32,0.40168889773245237,0.4017636602628911
33,0.40171377425918814,0.401685412483239
34,0.40164790881623363,0.4016393505757855
35,0.40167342195529987,0.4015707659514311
36,0.40165855320784405,0.40159078855668345
37,0.40167614742325675,0.4015927819253197
38,0.4017011642841003,0.40163842262168675
39,0.401646990125263,0.401641851885443
40,0.40164910657330977,0.4016113334494844
41,0.40163781875980986,0.4018100008923126
42,0.4016603061701842,0.402486346155479
43,0.4016070498807531,0.40192752797017917
44,0.40164135795252914,0.4016270834222325
45,0.4016451633428057,0.4031812919280665
46,0.40161113012834243,0.4015912475420287
47,0.40162898453162504,0.4016039530633401
48,0.40161088346690343,0.40165706951328306
49,0.4016120402573722,0.40159190765977204
50,0.4016083319213574,0.40174927696696583
51,0.40162753679174895,0.4017054662219348
52,0.40160056453435483,0.40178008005577637
53,0.4016061715131004,0.40153059699103494
54,0.40162443500779543,0.4017805305367368
55,0.40160235097219577,0.40160219154641885
56,0.40158961498535867,0.4015899658646832
57,0.4015887915694479,0.40177228231879675
58,0.40159653108517945,0.4022585160974829
59,0.4015626270275232,0.40219726121751015
60,0.4016150478004196,0.4019237490357004
61,0.4015813219761202,0.40159927088924435
62,0.40162313964822194,0.40160077785144077
63,0.4015827288606137,0.40152003836099326
64,0.4015802080233592,0.4021749857193779
65,0.4015953538534121,0.40223983396075796
66,0.4015694601903454,0.4018393871506154
67,0.38153913437833453,0.3534954723294261
68,0.3517055082241653,0.3517197645183828
69,0.3517204669587714,0.3517470248135976
70,0.3516878850891289,0.351697815529466
71,0.35169616997107084,0.3518202607300382
72,0.35170988204204356,0.35210006898153506
73,0.3517135364080131,0.3520089265282633
74,0.3516978130322938,0.3518565047615515
75,0.3517258005876548,0.3516964804297937
76,0.3517231478094242,0.3517236388498737
77,0.35169676299078495,0.35169967751644976
78,0.3516716512149816,0.3521223850936511
79,0.35170079284132627,0.35183141800960893
80,0.3516940069289166,0.3520163925942357
81,0.3517023612975481,0.35197158945405455
82,0.3516955684300405,0.35174561021641526
83,0.35172839461514704,0.35177307040164846
84,0.35167630600674626,0.3517567628666426
85,0.3516914340234816,0.35171762338051427
86,0.35168677381759483,0.35179411458318344
87,0.35167658100565374,0.35185487851611436
88,0.3516786779526851,0.35364053611719876
89,0.35166748585125585,0.3519864890179031
90,0.3516718453597913,0.35173562055190205
91,0.3516810899383582,0.35240572769351985
92,0.35167384804304047,0.35217277483076376
93,0.35167507462113673,0.35228353941411
94,0.3516821990335154,0.35196377006417173
95,0.351663256459137,0.3517019335448594
