epoch,loss,val_loss
0,0.3473301915218123,0.309207891796928
1,0.30605290067805757,0.3243050599954405
2,0.31095304440775456,0.31031231646850155
3,0.3085738509345493,0.3086515266121892
4,0.3083348227300042,0.30882704133298705
5,0.3086442188035956,0.3097877299211678
6,0.3089106503984244,0.3094599540062372
7,0.30920184132673567,0.30970950861003516
8,0.3093191251265917,0.31017206619834
9,0.30951925489208776,0.3096880098450532
10,0.3094355203241086,0.31006062522401184
11,0.30955342413614884,0.3095844951829481
12,0.30952310645513587,0.31095764142091387
13,0.30965577414948686,0.30974987069263926
14,0.309585201571123,0.31035569985268524
15,0.3095932781672497,0.3100715419064381
16,0.3097283125257225,0.309923359255388
17,0.30949522307117305,0.30984533806908476
18,0.3095178539327961,0.3108095357572364
19,0.3094836175441742,0.3096414088685398
20,0.3093603840715689,0.30953036435683506
21,0.309279536088403,0.3106945372512233
22,0.30982452521411824,0.3094219979613243
23,0.30918867371493963,0.3099927186918898
24,0.30911034589810527,0.3099197869048687
25,0.3091605801185925,0.30971086349841076
26,0.30920654784241836,0.30948735793557053
27,0.3091435573226828,0.30954592860206054
28,0.3091589978916182,0.3092055655222007
29,0.3090872564118543,0.3094188481592812
30,0.30901979878366137,0.3105588930276029
31,0.3090028388322972,0.3093734933056037
32,0.3090568334340668,0.3091122019027478
33,0.3088900370301484,0.3100356872428
34,0.3090602310298444,0.31016388250883864
35,0.3091134456255072,0.30952503075257193
36,0.3089829807658847,0.31028936331725626
37,0.30897225241819254,0.309847488846474
38,0.3090408587698742,0.31054895314157904
39,0.3088532565809268,0.3093989459472843
40,0.30897653098110195,0.3093435939316121
41,0.3088582803567441,0.30985959670443936
42,0.3088807335121931,0.3093808926318514
43,0.3087063872580715,0.30882442355061857
44,0.30880545550208394,0.30913782630177494
45,0.3086569139973627,0.3091572301540209
46,0.3086221437517116,0.30890139495187985
47,0.3085933878219766,0.3088601123609219
48,0.3085614479393315,0.3086672111016705
49,0.30849713974481197,0.30942520842650034
50,0.30855462642358267,0.30864265062438284
51,0.3085042140681109,0.3085506374946992
52,0.3084204550936735,0.3089132270383948
53,0.30831684318663694,0.3084494160824906
54,0.3084151479099199,0.3084904097767448
55,0.30835605378774145,0.309070722926952
56,0.30829496531606576,0.3088908542209285
57,0.30833916182664756,0.3084756051496718
58,0.30836776639822483,0.30941463563511856
59,0.3083183457978147,0.3088852724364732
60,0.30830799155145716,0.30849346800780053
61,0.3081966728853474,0.30893856397555775
62,0.30818155447213197,0.3084992092476177
63,0.3082021041025075,0.30831579183064395
64,0.3081734177829932,0.3080334308444748
65,0.30807123052702245,0.30922938686896234
66,0.308214524786154,0.3087079883938995
67,0.30804223873965936,0.3083900033298589
68,0.3081300281387248,0.30863982970637416
69,0.3081723736177722,0.30778820317564937
70,0.30921089408590163,0.30867865681648254
71,0.31300775904497274,0.31731728965970785
72,0.315181959828408,0.3132751854555571
73,0.3023492191478217,0.29852436799276694
74,0.2962394537185308,0.29767865932825144
75,0.298764674080838,0.2984281247444951
76,0.2993623756056876,0.30045607483753933
77,0.30063763618183365,0.30065077308039073
78,0.3017246583930785,0.3052649011081283
79,0.22843907007889497,0.14029382348013564
80,0.1322563459678329,0.12747851974421254
81,0.12691742029014252,0.1256696460114376
82,0.12540925231923777,0.1244677757666444
83,0.12787974613318911,0.1285368021174783
84,0.13123169531532042,0.1327255435799555
85,0.1343259801961583,0.13651763433744893
86,0.1398501306277909,0.14380129065067634
87,0.14984013106551863,0.16119451778510846
88,0.15695540245762354,0.1575922198599497
89,0.15972869315271754,0.16370280141094679
90,0.16036680255600397,0.1664502387123966
91,0.15574166092643443,0.15228796184015914
92,0.15783619817843636,0.15885570676498934
93,0.15687783571074812,0.15655664802068034
94,0.15909879295517215,0.15672260972699878
95,0.15635249830728812,0.1505568104295535
96,0.15549622023169943,0.1515484267835459
97,0.15470073053197894,0.1503349286228442
98,0.1528703874315051,0.15134020863599257
99,0.15147211567329752,0.15178120650215796
100,0.15348612005821616,0.1572269342469247
101,0.15359663280496877,0.14869503196455308
102,0.15146875790328526,0.147595580411456
103,0.15112467193834597,0.1493329934146617
104,0.15001371526996865,0.14826117973442424
105,0.15252301748171984,0.1488112768403827
106,0.1609679654919558,0.16476358207502795
107,0.16174172535300446,0.1677749872607515
