epoch,loss,val_loss
0,0.24402052206363228,0.2302120043216207
1,0.23023465298396126,0.23110575520013765
2,0.22949284089983796,0.2283855248786562
3,0.22924581621524145,0.22971382025620463
4,0.2288211751684582,0.22795123693363442
5,0.22857822617180915,0.22796829618754685
6,0.22865369993981888,0.22978011673373694
7,0.2285433955770507,0.22876253480645928
8,0.22835761328919424,0.22848134983592647
9,0.2282923806330664,0.22827472461897647
10,0.22820131612314784,0.2275927873253352
11,0.228042827712165,0.2292042742376734
12,0.22817545499113634,0.22747865253390528
13,0.2279358271190779,0.22778122212911273
14,0.227963322530881,0.22794715323924267
15,0.22790047485265227,0.22895637379213873
16,0.2278387241964813,0.2277785827300637
17,0.22777712587520277,0.22760389865197436
18,0.22786690764647308,0.22745781266604623
19,0.22786672245398415,0.22708268896415654
20,0.2277716381741847,0.2275869851636435
21,0.2277891217328185,0.22830913526953536
22,0.22766594498825493,0.22678635286456877
23,0.22765347135843608,0.22720912202381202
24,0.22769470574806253,0.22767471639114567
25,0.22766869933270723,0.22688933294310565
26,0.22755947866909604,0.22695786793493528
27,0.22774536418709918,0.2285309035945522
28,0.22791927507955678,0.22898468623362664
29,0.22781856126374572,0.2278162978630698
30,0.22767807727308867,0.2276709072568234
31,0.22766858728812467,0.22760559810177022
32,0.2275181207582533,0.22691619678473227
33,0.22753411987059408,0.22776659533981272
34,0.22759358968427904,0.2269148978550978
35,0.22756625804231226,0.2275097148453239
36,0.2276278531772913,0.22813622622905796
37,0.2275029357007558,0.22676594489516474
38,0.2276016227025494,0.22715794196868375
39,0.2275224384679783,0.2269423777015546
40,0.22757137023049484,0.22718098538544768
41,0.2274927652532534,0.22705381247784645
42,0.2274788504155229,0.22687025396440005
43,0.2275273076636042,0.22664238480761376
44,0.22738508350081105,0.22708044756841922
45,0.22731889928464027,0.22760025133697084
46,0.22741702646850873,0.22771702819719217
47,0.2273570062409488,0.2269532351204045
48,0.22753690541100255,0.22792257901336982
49,0.22744267728093334,0.22704797061108753
50,0.22730958942982027,0.2293683731871133
51,0.2273460903244434,0.22772567757444298
52,0.22732716864890617,0.22712208087178978
53,0.22731354051856972,0.22726015529015353
54,0.22733600519234232,0.2269360366400152
55,0.227314301799956,0.22680002744967484
56,0.22724878140609803,0.22700104908907423
57,0.22733547457521386,0.22726418787132782
58,0.2273936598397178,0.22684330472630032
59,0.2273530373089224,0.22689440660619697
60,0.22717198008279815,0.22687859921447856
61,0.227163057801106,0.226807952526995
62,0.2273319586813688,0.2272517403445097
63,0.22726269502291005,0.22699760849680972
64,0.22731724918650972,0.226992480792017
65,0.22729889494028213,0.22713436826110922
66,0.22743692947067706,0.2272108205327295
67,0.22737453914851213,0.22763137799270905
68,0.22730805421714112,0.227212693433453
69,0.2272686759511725,0.22816252969528805
70,0.2272722840392523,0.22667028288626728
71,0.22728824149742782,0.22716184508499426
72,0.2272722752009936,0.22700816155326772
73,0.22725198924136486,0.22740398313270938
74,0.22729848313936704,0.2270590186989392
75,0.2272290723572532,0.22765135518095111
76,0.2272661751229986,0.22706711620398176
77,0.2271746524410854,0.22693067116349724
78,0.22720220696321017,0.22716048143468887
79,0.2271903435782277,0.22696801940098277
80,0.2273995944266792,0.22753219307645062
81,0.2272039903141707,0.22682632690541088
82,0.2274770447485548,0.22738022407209582
83,0.2272868835799795,0.22695070762707667
84,0.22719327299643477,0.2269226316753672
85,0.22737796830949927,0.22708832093271197
86,0.22730536823221248,0.22720737554185863
87,0.2271951650270074,0.22679270186476944
88,0.2272596185525163,0.22725605503630242
89,0.2272978782487049,0.22688520302806395
90,0.22727536785897973,0.22654022348143496
91,0.22741479122286126,0.22683736092713092
92,0.22731135562836505,0.22682862218995686
93,0.22719468537280313,0.22678093939149296
94,0.22722564519142552,0.22748616443625
95,0.2272172540866976,0.22694698312476383
96,0.22727978947780114,0.22695114700551475
97,0.22718947140766468,0.2272058212460734
98,0.22724210179085544,0.2266604520010026
99,0.22724099516225377,0.22732083860493685
100,0.22729738324666196,0.22736559887052807
101,0.22711716747160057,0.22697567446973255
102,0.2272839702362065,0.22680213534653235
103,0.22721012373217386,0.2270370497064696
104,0.2271933016254843,0.22740808208109173
105,0.2272152092626436,0.22731012859820568
106,0.22732908192941612,0.22661888853432913
107,0.22717293410850087,0.22671518103758367
108,0.2271734433089324,0.22724360487502487
109,0.22716205810114062,0.22707521971888492
110,0.22715766065650517,0.2270985208539955
111,0.22728086691156185,0.22713086869929283
112,0.227141626304288,0.22756561896842392
113,0.22720622667948975,0.2268186784110487
114,0.22721625472620713,0.22802864407919107
115,0.2273296256848186,0.2271296643749785
