epoch,loss,val_loss
0,0.5154236960675487,0.5171168832861756
1,0.5105009129330393,0.5099571013864749
2,0.5100675168241374,0.5093912941646339
3,0.43294942931177516,0.31353723118382115
4,0.31358724421003137,0.31559693971579483
5,0.3133500535445122,0.31801304598304236
6,0.31316070918334116,0.314474495158302
7,0.31296027667172727,0.3125483863702779
8,0.31296488840017933,0.31502158896207216
9,0.3127631101173506,0.31466921647784135
10,0.31279776385047214,0.312633710300952
11,0.3126937566423105,0.3154167266992422
12,0.3125497062917381,0.3126744247991453
13,0.3125156389446802,0.3120947937367868
14,0.31245136085905917,0.31226909515579643
15,0.3123863332383842,0.31357726185552537
16,0.31237779234107893,0.31197783850854444
17,0.31231462924671116,0.31217697790775345
18,0.3123736841756776,0.31195646378006
19,0.31224663205481,0.31193372364671296
20,0.3121819746229089,0.3120257150298608
21,0.3121988956689333,0.31222668387753794
22,0.31210704053176047,0.31240356314566825
23,0.3121296853283409,0.3119593608172301
24,0.31213889655130905,0.3118966249910833
25,0.31200043657386056,0.3116881960674788
26,0.31203863880274635,0.3118055068825374
27,0.3119837201644548,0.3118504196923069
28,0.3120525443476304,0.3122347591384765
29,0.3119509632258397,0.31238454623198686
30,0.3119086702090426,0.3122383526329959
31,0.3119386551960293,0.3119386353504569
32,0.3117035011771503,0.31159633559269584
33,0.31182751996186725,0.31418531883147455
34,0.3117531976550772,0.31441194980079423
35,0.31174164643686614,0.31289452521440114
36,0.3117137656253377,0.31196848469099986
37,0.3117689262130032,0.31425746213413647
38,0.3117343155053305,0.31147339385437317
39,0.31178882014254317,0.31176334594378696
40,0.311721803401336,0.3120077224286555
41,0.31170550559345495,0.3133287587769274
42,0.3116450743948103,0.3123585409916956
43,0.31176392851408663,0.31148971227499156
44,0.3116903232110771,0.31207808460254527
45,0.3116902967486531,0.31183949497438246
46,0.31164814498770954,0.3115805801327708
47,0.31167885535662065,0.31221892583754757
48,0.311683801130529,0.312496445522119
49,0.3116758617537445,0.3124770671203178
50,0.3116574161935655,0.31279389495885107
51,0.31160926215394114,0.31148870329998857
52,0.3117119820387162,0.31170896089106576
53,0.31160823084512906,0.3116261682498544
54,0.3116886389308217,0.3116024583652061
55,0.3116344808565851,0.31367333643785483
56,0.311559062768874,0.3114838810327923
57,0.3117359457287695,0.312352700076683
58,0.3116339303590475,0.31158164417181655
