epoch,loss,val_loss
0,0.4321342825198726,0.4092777257089833
1,0.39551114248667213,0.420673167190405
2,0.39181357745429596,0.3792722527916825
3,0.378606350194636,0.366975845964574
4,0.3706556147725271,0.36748133204589234
5,0.3657960990350023,0.3586960352939607
6,0.3644499579469839,0.35920605495066366
7,0.3629102716319186,0.35547335853986883
8,0.3613049873023582,0.3580312117663724
9,0.3590794393925263,0.35647571893686747
10,0.35893195732344063,0.3527501968883019
11,0.358392886585183,0.35959562796867073
12,0.3580346487933021,0.351285470912752
13,0.3577680214703512,0.3498036702293623
14,0.3567365656058184,0.3537995755413713
15,0.3571577994621915,0.35245380379500685
16,0.35646376436610494,0.3514798239473292
17,0.35605830378788744,0.35329329063079445
18,0.35610902368974723,0.36013823542993845
19,0.3568634508217839,0.34997396789720514
20,0.3563389778613663,0.3510335686410047
21,0.3889719698068907,0.37746430338369924
22,0.37029240400694924,0.36345178393416266
23,0.36311460613346785,0.3632491819719301
24,0.3596129364830603,0.3512123471747822
25,0.35653988856205837,0.35077181590196177
26,0.35558334474774195,0.35440750923463465
27,0.3547491364770656,0.3493640482449212
28,0.35391188030548804,0.35125514510916084
29,0.3494085692387405,0.3390453004211352
30,0.3400627524673129,0.32895591291698206
31,0.325528889030909,0.3173400502601946
32,0.32152715565965806,0.3139289063949141
33,0.32028333106034285,0.3164413867793219
34,0.3187676707415177,0.3132923980256
35,0.3187440826381139,0.3125825805887992
36,0.31932233475583444,0.30952436505172226
37,0.31599007691327424,0.3096788598852263
38,0.3159760161638736,0.3129850839747626
39,0.3167646542000923,0.3109153648095989
40,0.30956672973555627,0.3086844066947393
41,0.3111401694736702,0.30242794546891877
42,0.31499209650140775,0.3778949015330591
43,0.3215216006115853,0.3035271891408204
44,0.31188475450487446,0.3074292247054985
45,0.31148075029480277,0.3020339755851543
46,0.30991151575728665,0.30499164860669137
47,0.3156086192946497,0.31457159218349695
48,0.31477669735761477,0.3211077643821535
49,0.31489565795202623,0.31610685812152084
50,0.3134672637674496,0.30965623788788454
51,0.3137176302786497,0.3181643490550926
52,0.31614470720100557,0.30741420230036565
53,0.3166106084017731,0.3114075769377018
54,0.3155189307360388,0.3077409672297261
55,0.315838976193675,0.30865818997749495
56,0.31317464458189614,0.30329926872380436
57,0.31172131996551194,0.3090242733318879
58,0.3116619884699797,0.3129883703041378
59,0.3106878443355326,0.30520103287889716
60,0.30612441249114336,0.30488626243165845
61,0.30427256427544486,0.2935435150609585
62,0.29989812048159536,0.30378923866230384
63,0.3028208948344254,0.29742823207740626
64,0.3131246791689468,0.3151426471258207
65,0.3204213310566118,0.3160557228933664
66,0.32437711317750284,0.32943281958257487
67,0.33957249974961473,0.32439412144854396
68,0.3234952604599136,0.3155240509556143
69,0.3346001575056979,0.32282262940574274
70,0.32464177138823497,0.3251443457714008
71,0.32157796261002786,0.31299395975087135
72,0.3190335026241654,0.3194325748469384
73,0.3176378081206509,0.314268238477897
74,0.3175208235560037,0.32045607199420495
75,0.316725154821988,0.3141854516309175
76,0.3176876078936741,0.31888439077604636
77,0.31702404710457477,0.3066191351968845
78,0.31769897908472616,0.3151244305915125
79,0.31718221662951696,0.31848503163506314
80,0.3174467573938467,0.32454255219745937
81,0.31659934127764355,0.3151665820424822
82,0.3159951079520676,0.316109324487157
83,0.3167671192523768,0.30896072254913853
84,0.31657180860698175,0.3130976858989122
85,0.3169026699581211,0.3154466521603532
86,0.3160970218592792,0.3107036168509896
87,0.3150400046309788,0.3141196537189533
88,0.3159607655996327,0.31013881272820853
89,0.31564134055023474,0.3074294632534484
90,0.31605547887208363,0.3109109464036073
91,0.3146202421660046,0.31330679508180437
92,0.31577517212533074,0.30753260138779054
93,0.3153477194700405,0.3120188642801877
94,0.315132875671442,0.3047583711163774
95,0.31806248537213394,0.30692324554510914
96,0.31523880515274383,0.30723247513022117
97,0.31680543948229933,0.31737525343612694
98,0.3171050274561492,0.31529085184046857
99,0.31950271670683494,0.3144129868640896
100,0.31868095379724776,0.31387458839869065
101,0.3176708019447984,0.31511465136635086
102,0.3183094000430416,0.3092682397356161
103,0.31805332209304465,0.30787436651755434
104,0.3183194946834176,0.31882906168252345
105,0.3186459322210601,0.3158035991858947
106,0.3221379848603579,0.32385060539279475
107,0.3274605768225748,0.3238938598766417
108,0.3333953576330706,0.33299018053342344
109,0.3361176726796168,0.31893460214396774
110,0.3307096581998394,0.33311680020454276
111,0.3354625490357836,0.3212817727743215
112,0.3289719378705219,0.32642552198955366
113,0.33268501880548174,0.33542544548212305
114,0.3415056217750676,0.3399196782611728
115,0.3506942462506626,0.35202120265672787
116,0.3498197643817376,0.34213396421124265
117,0.33545445853309763,0.32717576811138627
118,0.31969640356935947,0.3181926018801748
119,0.31988271557801157,0.31269437121705174
120,0.3206815099497017,0.3145231113908041
121,0.32004270704982757,0.3226818119388165
122,0.3222355944164794,0.3179741757433059
123,0.3211297476641852,0.3105079972765158
124,0.3223056340639254,0.3183330343455523
125,0.32299982262350957,0.3288237331839368
126,0.3258448576303028,0.3232947658885626
127,0.3270619034582524,0.32613947822902745
128,0.3279514872758604,0.32372827184016817
129,0.32635081439114494,0.3254541231006172
130,0.33431652371141074,0.32756559903591564
131,0.33729135557163437,0.3216225572500816
132,0.33746477077714354,0.3333274930151034
133,0.33284639420626544,0.31611266331166477
134,0.32925697016737443,0.3218058255437141
135,0.3178770926823433,0.3158155123467227
136,0.32168458996833466,0.3137441200351941
137,0.3191601169897879,0.3238856311073055
138,0.3186438374852629,0.3164965264975507
139,0.3169629085335514,0.31118124408240194
140,0.3109074465328936,0.3023792586709066
141,0.30918842839072647,0.3078736919900895
142,0.30887792794574365,0.30259179724373025
143,0.3090103012558034,0.3016278840477954
144,0.30726446798570056,0.3018619248374485
145,0.3070149916908343,0.3028162469544934
146,0.3112792183758972,0.3039055752914161
147,0.3117586299360132,0.30482556098144453
148,0.31149268734881536,0.3050701122057654
149,0.3285177025190599,0.31237957346669876
150,0.3164764899138114,0.3182449583096493
151,0.31298797959379915,0.30408067376174225
152,0.312249840887116,0.30944424886447575
153,0.31043992401193754,0.2996432058507284
154,0.3095454401183996,0.3030412697072281
155,0.31077522235058197,0.30718593536960676
156,0.3110607459807663,0.3080410581925956
157,0.3126399693943614,0.30178064091429524
158,0.31119413713185334,0.30035951234923636
159,0.3105385117500806,0.3069756406270432
160,0.3104904514017532,0.30109002783412336
161,0.31076086123141167,0.30720081413789535
162,0.3108583582039598,0.3034252430170469
163,0.31040861959354005,0.3078685946991901
164,0.3111016095298038,0.3066643438851071
165,0.3125361233538718,0.3021531453107696
166,0.312377138055867,0.30623191633888747
167,0.3111782841217651,0.3054610690735604
168,0.3104238400308729,0.31366245494457146
169,0.3109006238319605,0.30539473721900134
170,0.3125225127660494,0.29962467372817325
171,0.31170368572171453,0.3026181004923822
172,0.31173397115856816,0.31621956727640216
173,0.3122229938932079,0.3113438035607714
174,0.31161034031273077,0.31474094045802
175,0.3135567574972491,0.30803797337584543
176,0.31379202094605024,0.3151457637971842
177,0.3121665515761962,0.3093114775659159
178,0.3116568320785924,0.3099880253377164
179,0.31272524368348453,0.31042658179504434
180,0.31347247236650244,0.3005253243500451
181,0.31403901424113034,0.30967701387598273
182,0.3145561029823373,0.3049856366820475
183,0.3170112579417743,0.31674981881124165
184,0.31797716556359634,0.3089264890071719
185,0.3161358160408233,0.30935037856437886
186,0.3154142029571543,0.31951003773953845
187,0.31629475735300644,0.31326138853274094
188,0.3145924513842419,0.31347445283899555
189,0.3154621725406149,0.3137344552502448
190,0.3171026887093707,0.3172248979558508
191,0.31779642743494013,0.3115142597430977
192,0.31834188930029206,0.31739240818919395
193,0.3197599535973238,0.3149559510711525
194,0.3230657732630853,0.3252679135682739
195,0.3306446647782215,0.3275113226088747
196,0.3356417420444538,0.3354374019880415
197,0.33581700008645426,0.3297977715424882
198,0.3366131924158282,0.3340161995522696
199,0.33511660931755505,0.32987099420205757
200,0.33159062070407264,0.32530725017578094
