epoch,loss,val_loss
0,0.6897696866263017,0.6008748033899158
1,0.455113295778382,0.3485258235269018
2,0.3743930637574405,0.3584208779430992
3,0.3742324906906826,0.337293198542418
4,0.3748684548955265,0.36977389014980977
5,0.3675686017476874,0.3763393974953405
6,0.36776689977811683,0.33443652477994523
7,0.3707531321820595,0.3568903044771753
8,0.36869452387499485,0.34705573809645546
9,0.3645410351425433,0.3551089538300988
10,0.3637024105119286,0.3600992672115964
11,0.3647476124653904,0.3726952039028776
12,0.36833288120947105,0.32866028445201684
13,0.3642539601865337,0.3236520275673531
14,0.3606730389366333,0.38531007123162825
15,0.3596257244487651,0.3419839056251363
16,0.359222304698327,0.38292984282208314
17,0.36719692313223246,0.3494286206451663
18,0.36464333319835524,0.33427654948870594
19,0.3568662912201443,0.35853611858416096
20,0.3531528744075319,0.35925079001247556
21,0.3564310708015466,0.3192561698317434
22,0.35365144666626774,0.37073351886202804
23,0.3502722239489559,0.339100134118674
24,0.3534413604058331,0.35550261639946545
25,0.3580920765940234,0.32356037920445274
26,0.357189721793389,0.31581668836823956
27,0.354492735948494,0.33088695083251596
28,0.35196162927017316,0.3407234468136421
29,0.3525692274768671,0.31596396570612145
30,0.3554735461489664,0.33023680674813355
31,0.3482168908003899,0.31131264103992584
32,0.35510418602197674,0.28441514886309993
33,0.35160795492615154,0.33027041261837814
34,0.3515767961097278,0.32803074320470993
35,0.35372527655985336,0.3277028010130493
36,0.35173687949883853,0.3391274641184893
37,0.35617602246699576,0.35155715404670823
38,0.3501193029679459,0.2998631587156463
39,0.35279407047277256,0.33565616727628006
40,0.35010004678456713,0.34284102987283405
41,0.3579040002718056,0.3570040931312137
42,0.35467491365022225,0.3144046494174211
43,0.3552179167644202,0.3183709888262549
44,0.3544782952701064,0.32916613921652466
45,0.3535548463451872,0.3307414778170853
46,0.35438519136773217,0.3208093384682144
47,0.3539141385460929,0.3297137945255334
48,0.3523922427047452,0.3438310503442173
49,0.355212191061722,0.33801756101794944
50,0.3539915187753362,0.30971903493297126
51,0.3553570389366455,0.29663352301342805
52,0.35858605747266736,0.30089365624497044
53,0.3543444273116396,0.2905478075017304
54,0.3522424277165334,0.31737131694215626
55,0.3580724305743508,0.3084804435931705
56,0.3541253775382023,0.29164629039702306
57,0.35326976083117806,0.30319537713994354
58,0.353510725698311,0.3119624855251132
59,0.3448059893221402,0.31793587049726624
60,0.3439415480188138,0.28594967881665984
61,0.3468548650030705,0.33757831129203564
62,0.3509705510380552,0.31418422683073766
63,0.34327783370070414,0.34714182804396704
64,0.34472089858173277,0.32940721794104333
65,0.3448236676262056,0.32039440071008857
66,0.34305959358680355,0.3287279487785243
67,0.34694237259032723,0.307697341822223
68,0.3454133255495061,0.30176231396791026
69,0.342239560400077,0.31946246644692244
70,0.3417094859549944,0.2857877779472693
71,0.3354198224157643,0.349528802621995
72,0.3397645821733822,0.2924838372239374
73,0.33599531037106123,0.30045938343632944
74,0.33451316749258675,0.31121304612415646
75,0.33753195645616685,0.31277200198587507
76,0.3316362469578437,0.30547052902928845
77,0.3332694229319227,0.2924077938698179
78,0.33501081708237995,0.31324489754584234
79,0.3388865148718599,0.32670496793459414
80,0.3362225736621663,0.3029337089741051
81,0.33534802706073896,0.30323662048451244
82,0.33066678684440065,0.32667234563507613
83,0.33576944729478525,0.326587803526572
84,0.32833172274317196,0.32677458891176103
85,0.3292386035184018,0.30952894406565173
86,0.3317355957153223,0.3164784002111197
87,0.3269330083573465,0.3166432259773399
88,0.3286678672349043,0.28852607463887103
89,0.3282871361044671,0.30744896707990177
90,0.3278948637685902,0.30881549654368257
91,0.33039370678859553,0.2681502761479523
92,0.3276423118073496,0.2940102153955338
93,0.3224963575458641,0.30969490509571385
94,0.32338614791012305,0.2692460482315276
95,0.3243725070957657,0.3066896045640781
96,0.32684795075445344,0.29526332805216926
97,0.3211670433707851,0.2715961747430118
98,0.32139467198452315,0.27979864668168697
99,0.31865648987243694,0.2877843599904684
100,0.31354408446761917,0.31019101762922147
101,0.3173407946916507,0.2839974068287516
102,0.32093315437543307,0.26420973782334256
103,0.32167456893445395,0.2886582659211983
104,0.3184488875676783,0.2803180136356941
105,0.3130846050181549,0.3064668776839384
106,0.31519741928882355,0.2672675765445125
107,0.3130730406271754,0.2692765282803666
108,0.3107412866741824,0.2570707814822351
109,0.31371222101717733,0.2888728986599357
110,0.30723171756803086,0.2775158510258937
111,0.3115262246484474,0.26957233896995025
112,0.3072414510756088,0.2887969594610518
113,0.3164928743212248,0.2784356780779484
114,0.30975501948623635,0.28205996276641704
115,0.3042606583280529,0.2663427111005444
116,0.3026261829453216,0.270463382964917
117,0.30461328302165397,0.26443764819060145
118,0.306518549130832,0.27541681069178003
119,0.3092356849726823,0.2626770762778119
120,0.30505277389149776,0.2583953532395442
121,0.30826268399910006,0.2746309717762818
122,0.31067871606702524,0.295520742107021
123,0.30635613375168436,0.2753603681275105
124,0.30548059970712205,0.2759141268674652
125,0.30840289110331226,0.3528558996453846
126,0.30922420813644724,0.29686305711329597
127,0.3096996974482906,0.2945371739913275
128,0.30599114184471055,0.29821452601932597
129,0.31150300481574805,0.28148112324343577
130,0.3119335781505925,0.3060919679142682
131,0.3169070787185864,0.3035891587186631
132,0.3195986476638239,0.32070126416839384
133,0.3165851648834398,0.2904892866077062
134,0.31428695408750973,0.28295690029412623
135,0.3199179759390539,0.295182736162699
136,0.32740304782260043,0.3001338517632932
137,0.3200685805637392,0.3239442928625828
138,0.3248593218499522,0.30118117620837714
139,0.3213851406491346,0.3043383429181228
140,0.32191564709686643,0.27024786734119965
141,0.31607401437110466,0.2559337471659577
142,0.26778192282747404,0.2196602172732071
143,0.24974113268007953,0.21542791309512876
144,0.24579012152149998,0.2523380660032229
145,0.24291563660001678,0.20641064926123373
146,0.2429199576747122,0.19031342848747287
147,0.24508039057135678,0.19337385266007828
148,0.24262070444395406,0.19619590928447275
149,0.24450689727525346,0.1898908705554238
150,0.24385970445583574,0.17981194980566015
151,0.24642118404237487,0.19504839424176204
152,0.24085723929148878,0.18785547631503846
153,0.2430666903619,0.1949416405470614
154,0.24513018022862365,0.19202330603831005
155,0.24326430982370362,0.20094926560028575
156,0.24724974189635565,0.21964081396196616
157,0.24733690099774314,0.19717477058555163
158,0.24080595808277885,0.19974576482503736
159,0.2466448720910852,0.18720857380362319
160,0.24722586875315383,0.22825846285357096
161,0.23845998681992364,0.22443778108402604
162,0.24284698845123312,0.22430562780142396
163,0.23982307810386974,0.21833881702870953
164,0.24095313869815746,0.22893179955450493
165,0.23139750389910813,0.19932681163324553
166,0.24021240377383266,0.21612149631073838
167,0.23867146936442546,0.17416750375643056
168,0.23248866865698764,0.25666361246272723
169,0.23714694077019496,0.24179298987563613
170,0.2350902123798093,0.20396520960679088
171,0.2310032627279524,0.2208872563201984
172,0.23705068624300732,0.21064231141919496
173,0.24052918117514235,0.18962842567096852
174,0.23452735785767137,0.22843949240356706
175,0.23747010798238927,0.22668636036888296
176,0.24474385113334007,0.20285273299220988
177,0.24023857017119915,0.19336376213942727
178,0.24181176978144808,0.19539658986355435
179,0.24050129638563433,0.24911552887548116
180,0.2450651506559073,0.20348076318885364
181,0.24349061444366008,0.1711132655298042
182,0.2454975589002065,0.2492253765546156
183,0.24403833565737704,0.2411888524972273
184,0.24029320202690424,0.1993873203798082
185,0.24281754465602476,0.23075962098405037
186,0.245425759697799,0.21186655990326603
187,0.24146069593423847,0.23741223730717292
188,0.24007900586898187,0.2218109258371916
189,0.2307352755340836,0.23243209178652835
190,0.22900285290108977,0.1970879956080204
191,0.22875953586600858,0.17015295198750288
192,0.22991948759408115,0.15871731940459904
193,0.2306907870036235,0.19639198010421308
194,0.23762693227552395,0.1720906290818879
195,0.2283243456904551,0.1719402262401468
196,0.23076807485996104,0.1936585352048219
197,0.23550656533760608,0.24393353584768646
198,0.23067937547163808,0.1885151803822807
199,0.22877997760888008,0.25791147363025935
200,0.23926237892570923,0.20393875130726394
201,0.24253149543830055,0.19609622916040595
202,0.23529233169450844,0.2070773729985402
203,0.24130137608372432,0.18894331281873872
204,0.22974629787732656,0.18273264758918073
205,0.2372588309035789,0.24080281996924574
206,0.23437026410484962,0.19336377848718894
207,0.22845577113896157,0.20302665052492974
208,0.23569943816613237,0.21017097699990306
209,0.2362083170077593,0.19012657591180718
210,0.23934690880594398,0.20030286455352003
211,0.23519596715363192,0.2630361538989015
212,0.23602464387742736,0.17261750973766962
213,0.2355511991454543,0.21904034449203616
214,0.23322360212806698,0.1834080439316728
215,0.22755307970430066,0.24066869143011443
216,0.2332266227756854,0.18472641734693027
217,0.23678725243782064,0.2059964011787145
218,0.23960795436950802,0.1975627969406492
219,0.23444602139990964,0.17262658722634003
220,0.23702488548392586,0.18996169506891938
221,0.2356149879136055,0.1811898953701063
222,0.2395344003022527,0.19182169091635645
223,0.23586823438092483,0.20380806750026198
224,0.23644545702315825,0.1987121795563596
225,0.2394047909908348,0.17953976231385332
226,0.2378593606533383,0.1945901122987976
227,0.2338274415138719,0.19879088090363692
228,0.2330397067191027,0.17993630729939114
229,0.22865153482253794,0.21553401022138047
230,0.22735382044772737,0.1810803320596984
231,0.23162089088718762,0.22027076016332375
232,0.22928557264433205,0.20412621005558082
233,0.23070097642003012,0.21145445368331345
234,0.23209556436343348,0.1818880860553356
235,0.23126508831549034,0.20742146372089446
236,0.23639872501031767,0.18006763231500267
237,0.2360564215148953,0.18833095706769962
238,0.23207252544703053,0.20236868341324737
239,0.23233414318659704,0.20540674096642278
240,0.23410883254046252,0.17359811165197309
241,0.22837992147695152,0.21665376952857415
242,0.22879399492038335,0.18998899799495958
243,0.23334674728955393,0.1986104589376096
244,0.22907646894931413,0.1831232484697637
245,0.22523829129209622,0.16955676246743176
246,0.23056723658653566,0.23924439631537744
247,0.22743182282725113,0.19059560456752025
248,0.23597666198949066,0.21874300425176837
249,0.23024339106776637,0.21264357289744815
250,0.2285237928493608,0.178805507866529
251,0.23443861387902312,0.18058530922799762
252,0.23200754354373634,0.1781183222474879
253,0.22489115669072676,0.18804949993633716
254,0.23032540280065186,0.17046258529764324
255,0.22918327240873393,0.1866448325793764
256,0.2263280086808925,0.166198337240396
257,0.22733637846583465,0.19320296629639996
258,0.22669946234956156,0.1616826917161693
259,0.22881963231461608,0.1615967260586905
260,0.2282028583159073,0.1715304614430633
261,0.2275470287429629,0.18199445049689336
262,0.23034638676235525,0.21536457298680753
263,0.23040187671530446,0.16700035446538827
264,0.23097689650494227,0.20790138031519956
265,0.22513544374852063,0.2202344149845081
266,0.22889013209645984,0.21216850976541274
267,0.2255742656205484,0.1751915975029109
268,0.22429739373574537,0.17758477611530457
269,0.2235470724274977,0.2080814524744097
270,0.22730788670116953,0.18588614993050237
271,0.2264482354243501,0.160918555442235
272,0.23093996721682408,0.18173412424707
273,0.22492048975756224,0.17437348155497376
274,0.21723112937429254,0.15424048163190826
275,0.22371459000116345,0.15926155260960323
276,0.22343991539604086,0.15888298953859092
277,0.22003962945261543,0.15505259311754307
278,0.22137145371698172,0.17167872011708574
279,0.22347461098699356,0.21631461303113667
280,0.22367289489645847,0.17764853235060715
281,0.22350294674209933,0.15687680917173835
282,0.22211566465578492,0.20319315352445524
283,0.22545567937463307,0.1715674184868443
284,0.2232650984510434,0.15364731837655016
285,0.21864677471317928,0.17212581351081876
286,0.21875875755894383,0.1678513979573088
287,0.2199145826004106,0.19039589377162772
288,0.2180039731385134,0.2165258304989987
289,0.2195235660179056,0.16814396876750637
290,0.21961489031545456,0.1944834123870568
291,0.221505261588392,0.15522463753784183
292,0.2203639798688231,0.18728562587344375
293,0.22481779153827283,0.21035426556358397
294,0.21951273211138808,0.1706825855240261
295,0.22589207344132362,0.23674184160384967
296,0.22501555679263258,0.18821834095980863
297,0.22623741194951258,0.1838169289957188
298,0.2284466447077876,0.17510910128737964
299,0.22635025992024715,0.19393279727463095
300,0.221335537999654,0.19109867277960185
301,0.225360851529405,0.1910443763353736
302,0.22637309685504312,0.20370545497586057
303,0.2275686178395121,0.19686672520759826
304,0.23041170131531266,0.18530032028103777
305,0.22737151057385713,0.18372948446561713
306,0.22566086181300246,0.20082364000244787
307,0.229571276788803,0.21588728432826573
308,0.23033980106850035,0.19809189414121828
309,0.2277775946066534,0.1903735798061035
310,0.2251562832130326,0.24500925348514446
311,0.22790045288803099,0.20006789418779777
312,0.22576099457881815,0.19064917625313965
313,0.22816433559814325,0.24047210744354983
314,0.2292895011192889,0.19144209390234176
315,0.2304159186774497,0.18192316507060602
316,0.2278999404953443,0.17780803448587493
317,0.2262018554740482,0.17770688442752977
318,0.2332664505242825,0.177729137153633
319,0.23459983119170824,0.2007110218011025
320,0.23389676452088032,0.215695150073062
321,0.2289315369441736,0.19254046290430762
322,0.23339037395876755,0.2062744365236189
323,0.23106650456631309,0.1707390846468467
324,0.2317526580916225,0.21320630459448628
325,0.22913961086889728,0.20162373509525594
326,0.2333178348082909,0.178735543950957
327,0.2315432415079537,0.20313115608485177
328,0.22615553902016935,0.1923738770604416
329,0.23271548420452862,0.23788595787633943
330,0.2319735805098292,0.18691285503785632
331,0.23097824179035106,0.23220493593315675
332,0.23812915114380664,0.2391339191415692
333,0.233977232083714,0.25515945245171495
334,0.23412135852683935,0.16202210622597796
335,0.23490953138716025,0.19431524520891336
336,0.23509440492454478,0.1810324635083222
337,0.22985633930189908,0.18283034477679863
338,0.22800588043783304,0.23507733461935876
339,0.2369383753751584,0.21043649240563775
340,0.22166284372647413,0.19532933326668878
341,0.22942727564764823,0.16006823461546893
342,0.22970838472544908,0.17988108187890373
343,0.23200117096864728,0.17593131930035874
344,0.23125881814270569,0.19990355516148064
345,0.2315499977075415,0.21551582600624428
346,0.23510186731529464,0.18790267050360354
347,0.226389347762465,0.19164402310125642
348,0.23403147477016364,0.2322326992780276
349,0.23496703275864264,0.1885316416139008
350,0.23567594741459943,0.20365229186667358
351,0.233899022011067,0.20169728805017734
352,0.22983687186984422,0.19452812036333259
353,0.23029375231737714,0.21222385871146923
354,0.2323510901724025,0.20213619701346733
355,0.22845972546165605,0.21781221911863916
356,0.229328338726819,0.24185911614827124
357,0.22835072267541495,0.20315366064881188
358,0.2308721932814085,0.20864673493975433
359,0.23215523667091564,0.18133325198549122
360,0.23063867259249507,0.20444404209751543
361,0.23226067763890962,0.2019507102050834
362,0.23516227945768767,0.22227239124212286
363,0.23184828444136132,0.21276628521830432
364,0.2327332663045322,0.24070760298405658
365,0.23309141475495865,0.2219168586390359
366,0.23900589704227676,0.20059886887587236
367,0.24001448922496524,0.20847948011960585
368,0.23878719929835016,0.20495495229559615
369,0.235655502693878,0.1955554338544019
370,0.23878608130031734,0.20022141814655267
371,0.238139424041259,0.19385889468930703
372,0.23304358502919917,0.20265096370733526
373,0.23327760474025297,0.17957961695723018
374,0.23074162111198493,0.23249874385727987
375,0.23640825066992419,0.17832649692646046
376,0.23516082471842578,0.1839984131663826
377,0.23486763730252103,0.16951069033512847
378,0.22752292937249968,0.16107518948620478
379,0.23616149528421088,0.17456448661500107
380,0.23479710743843699,0.22189275033613218
381,0.23834346036473625,0.1768112030312501
382,0.23400221635207094,0.2457421509623998
383,0.22808083689374795,0.1896986575722224
384,0.23753437793535961,0.20953387356030254
385,0.2308482980068258,0.2052761104719415
386,0.2347972363912516,0.18649828599820292
387,0.22801216611926028,0.20908581590737144
388,0.23292196933314097,0.22354283145589912
389,0.24342317040041864,0.20195760550278796
390,0.23282077613708785,0.20584929506893504
391,0.2266750573861799,0.20897615727422364
392,0.23352939450292945,0.19595814841463516
393,0.23817859749070747,0.1848294777059141
394,0.23260353851042015,0.18467994814043262
395,0.2312919509043987,0.20986870568666105
396,0.2331608169429975,0.2110141860093295
397,0.2286201869841102,0.1759550608135907
398,0.2323213297066738,0.190473652194124
399,0.2269173778659053,0.20204022222131654
400,0.22630155587391698,0.14638562133534272
401,0.23450044136372306,0.20387771924415157
402,0.23009554356884518,0.17650136989030485
403,0.230232797860861,0.21671294557972978
404,0.2318878318372962,0.20048174158550194
405,0.23120251837537156,0.16108172447453734
406,0.23732589341277222,0.207090060331733
407,0.2302673572509123,0.22663324989007982
408,0.22983901564189665,0.20146418985599782
409,0.23632651255976,0.17743455084083395
410,0.2320393786001072,0.21696192263710093
411,0.2320706498601454,0.20925558028535385
412,0.22956947345051357,0.17082484115882474
413,0.2314651387510635,0.19005800086208094
414,0.2286225454293662,0.20066024158399878
415,0.23440459222911741,0.22588307462814952
416,0.23308736249077902,0.20999028402562206
417,0.23297143270143217,0.23466885055767428
418,0.23289017588328972,0.18413579895586693
419,0.23127193021164427,0.16631119007328504
420,0.23098751160500053,0.19282780076070574
421,0.23117238005323948,0.17272882862126818
422,0.2266976670395556,0.23926994015169406
423,0.23848713644974523,0.19728955981669316
424,0.23328575957640946,0.19005108554718902
425,0.2344302018697885,0.18562052371281756
426,0.23313621280909919,0.17694186319868302
427,0.23245639225347436,0.17416418444338802
428,0.23406350926505767,0.22264339343807127
429,0.2354872139761869,0.21159586883146367
430,0.2319839958140223,0.16239086019305987
431,0.22898290334321517,0.18394532960846185
432,0.2301454607495587,0.19842832870105165
433,0.23492439199599335,0.1934146182736545
434,0.2316563987820078,0.16656870025062334
435,0.22965061805731388,0.18095360102386293
436,0.2316582996865733,0.2433602664775517
437,0.23071448324467067,0.18839840708563624
438,0.22948796274683936,0.19717949330101073
439,0.23332638912897508,0.2069365638583875
440,0.23088222979117545,0.17306797373407737
441,0.22669385621945062,0.18195389828629258
442,0.23213010186033187,0.19140746369781508
443,0.23434025072436823,0.20162702181862394
444,0.23591649706820123,0.24116836738755784
445,0.2385359791566809,0.21379557784702613
446,0.2322615102934037,0.18654953506675967
447,0.23291189368846987,0.17136852497318739
448,0.23193148752267984,0.17994559782644662
449,0.23134592298766693,0.26198583827210675
450,0.22818895649138116,0.2217219596362622
451,0.2306901068865157,0.20885073678787053
452,0.2269449032467904,0.22536894136888358
453,0.23591194828923087,0.22172772596224896
454,0.2325192032981929,0.15987534950992302
455,0.23578262181995774,0.20165685239088468
456,0.23270917258602825,0.17745894764056805
457,0.2328055555955302,0.18038332659895248
458,0.22823047698092022,0.24518659394513742
459,0.23879130649790584,0.18752572537879825
460,0.23686760598473508,0.1813907528967959
461,0.23231129541838294,0.2287761145510256
462,0.22742296602847956,0.1944464392307337
463,0.2360117371908004,0.20230716102313318
464,0.23325115413093073,0.186307270882538
465,0.238891623771305,0.18260257558833923
466,0.2287516858902195,0.21363693038214823
467,0.2325164855455609,0.1809606985516123
468,0.23310162282461744,0.22610518132831134
469,0.2329611078821879,0.20569816051784612
470,0.23919222205519963,0.25174188468055453
471,0.23439938678062983,0.18012821587315675
472,0.23304568840969475,0.22462777772237677
473,0.2343510013761566,0.1760719436990434
474,0.23247789963186502,0.18176557328302087
475,0.23368258023266789,0.18763058956627218
476,0.2367660905555379,0.160829612669177
477,0.2367085410917787,0.21139467391755135
478,0.23444523266274675,0.2314267458648501
479,0.23781529557314232,0.22176987176206794
480,0.23020990520453663,0.18440256716467399
481,0.23078133947224164,0.1945372736044728
482,0.23306133523047398,0.1970029141527513
483,0.23728262184025478,0.2278598483119692
484,0.2324069411241465,0.2142206022093968
485,0.23092802641965407,0.24635035828661522
486,0.23219383488908754,0.1869084571959376
487,0.22852538467692338,0.20818631175755514
488,0.2366986138691052,0.20177122460121044
489,0.2319308252667161,0.2122944968487206
490,0.2371920067891419,0.2098937714038727
491,0.23519159161406075,0.21815984046355702
492,0.23202446836242668,0.1881555831963939
493,0.2298613111559245,0.1804337790728368
494,0.23287600473605757,0.189262066627452
495,0.23330815279369446,0.2154973681954389
496,0.23518862813520583,0.17850216058830437
497,0.2328662008737965,0.1648792443001656
498,0.2366715814772365,0.1816219255481071
499,0.2342772220464633,0.18242625369974827
500,0.2334372384501971,0.2220515960087998
