epoch,loss,val_loss
0,0.03667261420151504,0.025144349108854536
1,0.02412690163579451,0.023288154833148195
2,0.019655583460029418,0.016629801171995865
3,0.01705271986497639,0.016914556709767572
4,0.016513015953946317,0.017370441092395456
5,0.016145351848273877,0.015483534734039833
6,0.015618709273840648,0.016707531748242473
7,0.015561949900792333,0.015130817574025976
8,0.01519905813930218,0.01622030946470002
9,0.014211847528897011,0.013755183229246003
10,0.013181734339650182,0.01278093779695315
11,0.012436723365320342,0.011641544223330896
12,0.012109018738500048,0.01174379330331797
13,0.011952099074297486,0.01108988213905182
14,0.011733248519314477,0.011175978373246217
15,0.011593959415960944,0.011206173177614402
16,0.011469806302608273,0.011275546420042035
17,0.011402345601947457,0.010771414555757128
18,0.011273379590719699,0.012050034310992244
19,0.011169850473731192,0.010613138078903737
20,0.011120035842459795,0.01065324908237969
21,0.011094135743886454,0.01046498912772529
22,0.011075011997938936,0.010277599698538076
23,0.01102044322999504,0.010819855471033021
24,0.010946523839966332,0.010904159668657383
25,0.010898563033783927,0.011777935761764238
26,0.010914003820330986,0.010712729062117803
27,0.010844622094575025,0.010495365391630984
28,0.010756959523306306,0.011827250319549227
29,0.010783882324317635,0.010539142847079646
30,0.010746642790392712,0.010624066747669546
31,0.010670717250017822,0.011426614209658306
32,0.010704315488646306,0.010917219362006738
33,0.010678854422641488,0.01067187451011046
34,0.010604649226512972,0.010984713256488515
35,0.010556634589661433,0.010096260076550486
36,0.010598007335551309,0.010870138195253188
37,0.010603129855739803,0.010970318670992373
38,0.010557841430488263,0.010253270908210325
39,0.010498368954611,0.010137306969085935
40,0.01044596506105965,0.010328962155629328
41,0.010516974136695386,0.010540662071766984
42,0.010438559568389108,0.010081524450433609
43,0.010391951293148915,0.01039777387756272
44,0.01044202014790501,0.01050892649934842
45,0.010371781519928127,0.009728654322882295
46,0.010392022813868888,0.011203516432299063
47,0.01040004745314202,0.010296872410248438
48,0.01033884655030294,0.010385521356635738
49,0.010359840882335596,0.009877121270571838
50,0.010315537551578597,0.010179126308884278
51,0.010282849134515621,0.009896195703474966
52,0.010244967565707587,0.010046394069496515
53,0.010339414979026277,0.0104865523572854
54,0.010281270352976848,0.009753108828816165
55,0.010248239864741106,0.010485207174833004
56,0.01022905565732736,0.010531269600869112
57,0.010266767464848522,0.01000712837044048
58,0.01024196981773668,0.010709403666018257
59,0.010227038764072176,0.01024978201531299
60,0.01023166672596687,0.010860383668198035
61,0.010223811400154235,0.010441031668418395
62,0.010100779401345763,0.010180339038316576
63,0.010186050885852728,0.009777148543549679
64,0.010134743659729679,0.010513898547248863
65,0.010178751892576575,0.010612956367470047
