epoch,loss,val_loss
0,0.03204822746093401,0.02030970864645009
1,0.019148880391716944,0.01838053252742101
2,0.01758644763234898,0.017898764305981453
3,0.016978043480574422,0.01783699461862112
4,0.01673470668493124,0.01784450067923619
5,0.016381654870975648,0.01824818444126297
6,0.01618509573942787,0.016617612314246428
7,0.015922951651377807,0.015510431978916264
8,0.015860928963517845,0.016322652885584026
9,0.015632295411244446,0.0152469204752602
10,0.015466479989194246,0.015876342286413568
11,0.015176752710081187,0.015007405635662765
12,0.014975668581996655,0.014511454535218385
13,0.01468191318736982,0.014799089908193123
14,0.01471312771444092,0.014725380124196077
15,0.014652685282032826,0.015126549018542317
16,0.014613809814674597,0.014178105026354122
17,0.014521303242412275,0.014776821749714704
18,0.014469304718446452,0.01455799619766604
19,0.014494431942105873,0.014672667794761528
20,0.014457714357115261,0.014668940063612189
21,0.014378559926107148,0.014342732044403665
22,0.014318885967826937,0.013969056687731452
23,0.014242328123664076,0.01596442687720356
24,0.01417088526361986,0.014179164940311063
25,0.014144876495031211,0.01397168636553119
26,0.014098683974311629,0.014271511459173103
27,0.014086777584457944,0.014687713900715039
28,0.01405275514436433,0.014437757255440166
29,0.013985501388421025,0.01383743492086827
30,0.01391400772407157,0.013581024504107222
31,0.013723221774676218,0.0136571826575042
32,0.013497982895627729,0.013382591414854633
33,0.01342456744262828,0.01287345627771122
34,0.013245773741608893,0.012861507755262827
35,0.012199707463632846,0.012204729653802463
36,0.01176615293177035,0.012148342703563847
37,0.011473501874471291,0.011447630823582928
38,0.011097123849024698,0.010700969208059624
39,0.010992268897085017,0.010523999048854519
40,0.010789717902284689,0.010785474575982052
41,0.01068145762389716,0.010459881580940843
42,0.010596161166680556,0.010550645152314868
43,0.010578981906631556,0.010714917384531746
44,0.010524592739293197,0.010196905295658053
45,0.010566722081962292,0.011067641157166982
46,0.010514986215305255,0.010807422982071232
47,0.010516972046633542,0.011418484343636421
48,0.010454851129798758,0.009939975462040446
49,0.010403358846548565,0.01005042158899177
50,0.010425716414044849,0.010178233206586418
51,0.01041444188790546,0.010017562388135098
52,0.010398009913055376,0.011888969227874989
53,0.010375340278241984,0.010176837732714992
54,0.010330458621285395,0.010688147411471413
55,0.010351448630601346,0.009784950808651986
56,0.010337908790150995,0.01063924453708877
57,0.010288237912193821,0.009998768164080662
58,0.010289546285922116,0.010801632010444961
59,0.010271270265930063,0.010923854409539078
60,0.010240402535155561,0.010368912222866828
61,0.010249004634889375,0.010329065880467815
62,0.01024413643429936,0.010206212299799653
63,0.010181454287999953,0.010658694843925702
64,0.010190858089115684,0.010570297394382302
65,0.010218628733587063,0.009757764373094805
66,0.010160915867141313,0.010685397434064532
67,0.010183510617788542,0.010417548826347954
68,0.010173568429052612,0.009934463657013537
69,0.010103838806085586,0.010374558711928262
70,0.010197317609889971,0.010778820802626331
71,0.010163997904809352,0.010153469263527441
72,0.010106339130936014,0.01011429633298154
73,0.010141868926446182,0.010180465740708649
74,0.010095498589887921,0.009952584056243781
75,0.010095083194949698,0.010019676153901641
76,0.010045125037891702,0.009817172946505451
77,0.010047656124439796,0.010053358231174295
78,0.010115564851006573,0.010076958218834389
79,0.010064398387152397,0.009903126783558067
80,0.010044081315278511,0.009767408512773053
81,0.010023065132422276,0.009767972960809324
82,0.010032477408128489,0.009746433563863226
83,0.010018107756244421,0.01057619125196345
84,0.01000106351712642,0.009671112219283066
85,0.009981105247445976,0.009696829694302442
86,0.010038253802820585,0.010180285062280393
87,0.009997041118946724,0.010073067606068575
88,0.009974245294491048,0.009415299531821134
89,0.009976302707254425,0.010168729243203813
90,0.009966810448575525,0.009731545112564901
91,0.009943522349576019,0.009515355946611678
92,0.009966112498273701,0.009981055677898469
93,0.009957209848724058,0.009705714125731594
94,0.009981894208205411,0.01006966128473912
95,0.009915833588592392,0.010063508399311574
96,0.00987206512115008,0.009968853269058924
97,0.009919809894611992,0.010012523513333526
98,0.009860351282710145,0.009733626184518224
99,0.009852714742468058,0.010479902917006175
100,0.009875644840655746,0.009599777945217956
101,0.009855924589187133,0.009402157560397615
102,0.00987528320513329,0.009988799180474973
103,0.009907289750523409,0.01004694691921582
104,0.00986257258109371,0.00957148947219177
105,0.00983394726186726,0.011067342182283958
106,0.009869569173741308,0.009772077627553982
107,0.009813760088138708,0.009430742959628256
108,0.009829217391447152,0.010384526825221094
109,0.00983346535256246,0.009430643304184116
110,0.009823750657616277,0.009658068190640759
111,0.009801743976281082,0.009720185821963746
112,0.009819177556205884,0.009622190704120891
113,0.009849046619347674,0.009765621559421714
114,0.009811344503018038,0.009577583472149691
115,0.009808364623126623,0.009458298794925213
116,0.009773563581349884,0.009817618364583766
117,0.00979211665878278,0.009889531661998989
118,0.0098165965175951,0.009594460476014218
119,0.009775902354882888,0.009985246397000241
120,0.009767723789364184,0.009709948321189685
121,0.009804996212185165,0.009937879190810265
