epoch,loss,val_loss
0,0.5611482799069758,0.556968156131858
1,0.5560609453608986,0.5561220880181854
2,0.5558616268687017,0.5557685203646904
3,0.5558225078041691,0.5562122063068835
4,0.5557956621761766,0.5559047339571913
5,0.5557816655263728,0.556020894920264
6,0.5557679371562382,0.5557088125432396
7,0.5557389662918644,0.556894016384191
8,0.5557353093089573,0.5558269977273775
9,0.5557215064568788,0.555773067711009
10,0.5557221652175319,0.5556977337406528
11,0.5557128536540439,0.5557868613498679
12,0.5557011554081238,0.5557181625449036
13,0.5556956841985373,0.5556560289179421
14,0.5556867073506152,0.5557318046726009
15,0.5556854826933155,0.5557808270821205
16,0.5556829002111122,0.5556473473165526
17,0.5556769481665864,0.5556807843982138
18,0.5556755936168974,0.5556889327229104
19,0.5556753768997699,0.555632202146071
20,0.5556705257035973,0.5556497699865336
21,0.5556737828437077,0.5556337713307837
22,0.5556645365092092,0.5556617260275053
23,0.5556682524325677,0.5556445250144372
24,0.5556638623648292,0.5556301610641384
25,0.5556690653949277,0.5557465064614345
26,0.5556654970857721,0.5556284612816558
27,0.555665831025131,0.5556590322525271
28,0.5556629793277084,0.5557890699459956
29,0.5556625528895702,0.555694974947804
30,0.5556593521325304,0.5556322832261362
31,0.5556668854509468,0.5556810775702408
32,0.5556554596686404,0.5556253831676454
33,0.555659702470838,0.5556234873553956
34,0.5556603208734647,0.555625756177358
35,0.5556604041082459,0.5556358401591961
36,0.5556563917140774,0.5557655776404861
37,0.5556576478606086,0.555633209479358
38,0.5556586734586991,0.5556235251296543
39,0.5556562129908583,0.5556239506446989
40,0.5556586007737058,0.5556337084722874
41,0.5556542106136745,0.5556290519740387
42,0.5556580699026072,0.5556270004206201
43,0.5556509401171256,0.5556322138599368
44,0.5556557328264229,0.5556250890490435
45,0.5556523844772674,0.5556457893428377
46,0.5556548519577906,0.5556240337066556
47,0.5556512206188984,0.5556266519626968
48,0.555651159290664,0.5556707995701072
49,0.5556516501697524,0.5556999847847534
50,0.5556494705010725,0.5556284905367395
51,0.555652402616371,0.5556242258318009
52,0.5556469148682134,0.5556823721003
53,0.5556486334999631,0.555636733430195
