epoch,loss,val_loss
0,0.5589553363306394,0.5560115850297156
1,0.5562360291918912,0.5558924056460189
2,0.555989743824367,0.5558145037064186
3,0.5558119138656136,0.5556991432795749
4,0.5557726222117897,0.5558890193331034
5,0.555792949191031,0.5556625013611749
6,0.5557570372399155,0.5558956829549065
7,0.5557271494211763,0.555925714910474
8,0.5557479122232444,0.5556862644758769
9,0.5557250083356595,0.5559427815690525
10,0.5557029374892667,0.555799526286776
11,0.5556792626751859,0.5556748954297295
12,0.5556795847056061,0.5556558397212632
13,0.5556649805587249,0.5556357592270333
14,0.5556596592817072,0.5556984387615478
15,0.5556603056120063,0.5556170047364815
16,0.5556485550139274,0.5557774957001357
17,0.5556509319732637,0.555681056390625
18,0.555650872028634,0.55563098825237
19,0.5556463917907372,0.5555986441098727
20,0.5556417977391354,0.5556190682404094
21,0.5556391149779407,0.555714919933906
22,0.5556439051061923,0.5559170874413426
23,0.5556508559349618,0.5557850903671965
24,0.555640334404521,0.5556107865373786
25,0.5556395129701465,0.5556101225741744
26,0.5556383478204657,0.5556150289682241
27,0.5556367776083123,0.5556015367839235
28,0.5556365412895938,0.55563896140153
29,0.5556363951915188,0.55577948389219
30,0.5556389084201312,0.5556033629637498
31,0.5556325617942927,0.5556168417185176
32,0.5556354653973973,0.5556075575629772
33,0.555627090879728,0.5556471381530572
34,0.5556345166587787,0.5556407226818075
35,0.5556334923488445,0.5556031958341007
36,0.5556307486175436,0.5556077442157358
37,0.555627081864211,0.5557060363274946
38,0.5556266610251751,0.5556776248491727
39,0.5556307004201428,0.5556559620069215
