epoch,loss,lr,val_loss
0,0.42195064152220935,0.003,0.4105700451671936
1,0.3881595122466366,0.003,0.37880926680969457
2,0.38032964347220727,0.003,0.37083047729547136
3,0.3587529940082491,0.003,0.34990877361164
4,0.3700390710926456,0.003,0.36823401124390825
5,0.3538958270677464,0.003,0.34111934049964987
6,0.34365082064049424,0.003,0.33733544426351997
7,0.3405820986540388,0.003,0.3351601452552717
8,0.3390102288920245,0.003,0.3386413034789658
9,0.33775796307672223,0.003,0.3316602052998712
10,0.3371589290325066,0.003,0.3289623096961625
11,0.33756867003478974,0.003,0.3310263108435633
12,0.33659943400753395,0.003,0.34145685768118034
13,0.33696348999711057,0.003,0.347978397509952
14,0.3369505856391623,0.003,0.33008533422177294
15,0.3350314468705206,0.003,0.3393083282738289
16,0.3358965585474297,0.003,0.3261151153479586
17,0.3353003372760604,0.003,0.3338869720603315
18,0.3359648938432967,0.003,0.33420543520231366
19,0.34470293514257805,0.003,0.35341716500700415
20,0.34116740215668,0.003,0.33554694996213197
21,0.3330279100242612,0.003,0.32693651350304753
22,0.33227744716987145,0.003,0.3266259320521317
23,0.33002072583130604,0.003,0.3296298760076913
24,0.32860047491393884,0.003,0.3190408408606532
25,0.3296206644434723,0.003,0.3242595119441506
26,0.32869215189910334,0.003,0.3165780408594584
27,0.32764977261090544,0.003,0.319714160343513
28,0.3274204150128136,0.003,0.33694956394613684
29,0.3278405282714908,0.003,0.323521579462144
30,0.3270546115375013,0.003,0.31858332834449826
31,0.3268017175255252,0.003,0.3259810213978684
32,0.3261879091199449,0.003,0.3302319968014885
33,0.3261737501550969,0.003,0.32674884652658626
34,0.32602454210035237,0.003,0.32431974323156226
35,0.32570269468019336,0.003,0.31598162118289636
36,0.3249988218279575,0.003,0.31652850044954456
37,0.3251122317666249,0.003,0.31283142451776136
38,0.3252492053724593,0.003,0.32037171618549865
39,0.32466399248281447,0.003,0.320917984457494
40,0.3266400949006601,0.003,0.32278738508402316
41,0.32573581579253735,0.003,0.31499868661353414
42,0.3254654912097896,0.003,0.32167169831593206
43,0.32453712294820686,0.003,0.315513037303911
44,0.3237562644497144,0.003,0.3205116638750567
45,0.32386625799045954,0.003,0.3154672383674036
46,0.32428849232997253,0.003,0.32518840346547123
47,0.32448704095540953,0.003,0.32140012039569954
48,0.3247827272221958,0.003,0.33789547759195715
49,0.3195315622400752,0.003,0.3260066428684116
50,0.3167192423634297,0.003,0.31235543365025015
51,0.3176158624950597,0.003,0.3223869426333255
52,0.3164761258746318,0.003,0.3087738340201581
53,0.31758654110139606,0.003,0.3266049780968897
54,0.31904403927276653,0.003,0.3132895698687084
55,0.31823074835524573,0.003,0.31962799822474997
56,0.33309265221361156,0.003,0.34774332629382937
57,0.3497194018033292,0.003,0.33843216362343875
58,0.3438220273235814,0.003,0.34248158320396455
59,0.3451288010028722,0.003,0.3393893056176456
60,0.3458281722631481,0.003,0.33703362339579784
61,0.3457081294793496,0.003,0.33956861737071764
62,0.34477144398754067,0.003,0.3406722532686702
63,0.3460417961914667,0.003,0.3404741760375656
64,0.34564306352921814,0.003,0.34086103612687896
65,0.34525720471386717,0.003,0.33716309735082506
66,0.34516164067861654,0.003,0.34208517441057085
67,0.347431718511023,0.003,0.33768801166490015
68,0.3454147627670988,0.003,0.33669023483921057
69,0.34504648811406463,0.003,0.3456393374569696
70,0.3443281925994334,0.003,0.34014941253879455
71,0.3436164655190387,0.003,0.33749622013640385
72,0.34426227050552743,0.003,0.3546476432937473
73,0.3439727154352682,0.003,0.3367252571900811
74,0.3442803227084337,0.003,0.3367137251379176
75,0.3440603146688353,0.003,0.3440821436134585
76,0.3440142484794227,0.003,0.3383687248522594
77,0.3446491918475222,0.003,0.35373847991016405
78,0.34616192569025606,0.003,0.339466372788564
79,0.3457333977393014,0.003,0.34005221671585784
80,0.34575207675580116,0.003,0.3367721938367142
81,0.34615581099697346,0.003,0.33960326987406164
82,0.3463625536083603,0.003,0.3371331741020448
83,0.3461476830031565,0.003,0.3488578691714
84,0.34677495240426653,0.003,0.3341047660915891
85,0.3462667560322489,0.003,0.3389475711848478
86,0.3453754086276705,0.003,0.34206839109276255
87,0.34516733051608983,0.003,0.3395383491018389
88,0.3457554081897084,0.003,0.34119775759581045
89,0.34703219683764935,0.003,0.34442929822389967
90,0.34790784508275757,0.003,0.34395832334951615
91,0.3470088230798856,0.003,0.348008047221868
92,0.34512460213318336,0.003,0.3452264498375303
93,0.34622163042652426,0.003,0.34708884545405644
94,0.34660849106206976,0.003,0.33846392553673077
95,0.34441737014707996,0.003,0.32924923708261045
96,0.3305523199804252,0.003,0.326792956903965
97,0.3305036533358905,0.003,0.32362762735693495
98,0.3324349087675651,0.003,0.3257550432419532
99,0.33107220351124267,0.003,0.3233362518739023
100,0.3296022912045177,0.003,0.31882732249237744
101,0.3269243569706651,0.003,0.34007683735055627
102,0.3451612839798371,0.003,0.34064613796635324
103,0.337621675573474,0.003,0.33067068113006753
104,0.33474830869766925,0.003,0.330529590679043
105,0.333692713437392,0.003,0.3248347759764309
106,0.3334206021268019,0.003,0.33870497751678175
107,0.3341576097299346,0.003,0.3325370263893395
108,0.3338853981581142,0.003,0.3273538450909677
109,0.33336326226198987,0.003,0.32460451691213704
110,0.3329930311138872,0.003,0.3302704203218198
111,0.33318333344446194,0.003,0.32926505554729124
112,0.33296474068165777,0.003,0.3283366939051469
113,0.33295992062651186,0.003,0.32983597415633903
114,0.3322500399560284,0.003,0.32437515197631966
115,0.33277791649770205,0.003,0.32648068874627467
116,0.33223974705338,0.003,0.32547245516302836
117,0.3312666260724445,0.003,0.32736397871560907
118,0.3316651994316317,0.003,0.33044900630483875
119,0.3325577219672721,0.003,0.3284158170481978
120,0.33227198291644394,0.003,0.3301236811428439
121,0.3320750072836685,0.003,0.32684900135907397
122,0.3325407843855169,0.003,0.3326401153627868
123,0.33242758734227656,0.003,0.3295507504065957
124,0.3321860436793807,0.003,0.32539861382888635
125,0.3320519087864436,0.003,0.3276317530938651
126,0.33205469083383404,0.003,0.3299191531555429
127,0.3314822451602355,0.003,0.32466210677761115
128,0.3310073663493236,0.003,0.3235695194732324
129,0.3313993780339936,0.003,0.329021881674817
130,0.3315583544252492,0.003,0.3417425357340449
131,0.33197906187219584,0.003,0.32925837127684415
132,0.3315649159032283,0.003,0.3310883308760087
133,0.33207568005739835,0.003,0.326912907476301
134,0.33186047197841434,0.003,0.33344807637518753
135,0.33484321328209077,0.003,0.33074419819047907
136,0.33382382008919326,0.003,0.33142721674154385
137,0.33350663339729597,0.003,0.3268138810274821
138,0.3322450277789367,0.003,0.32584954355420703
139,0.3318848994424303,0.003,0.3280822693384249
140,0.3293663180179352,0.003,0.31999419756004355
141,0.3267448647595424,0.003,0.3311861781454877
142,0.3268269028583114,0.003,0.32466203321268355
143,0.3264301889520183,0.003,0.3205233818565473
144,0.32789540603506767,0.003,0.32666929627179914
145,0.3258256994539218,0.003,0.32691881541624346
146,0.3269272048791631,0.003,0.31922261599207263
147,0.33189489902685776,0.003,0.3218035035558639
148,0.33132744838984657,0.003,0.32300887871959966
149,0.3321764765651249,0.003,0.33587891269172376
150,0.3310375189234456,0.003,0.3290573863552232
151,0.3312341073374573,0.003,0.32419519793262797
152,0.33129313179879166,0.003,0.32822392737432643
153,0.32295257226526025,9e-05,0.3135474099826888
154,0.3226101137727475,9e-05,0.31351790797691603
155,0.3220844743140548,9e-05,0.3143666173201334
156,0.3217186408309485,9e-05,0.3135944218290257
157,0.32179296242116356,9e-05,0.3136423063753342
158,0.3216356630865142,9e-05,0.3145478572916966
159,0.32195073868826235,9e-05,0.31557623398120516
160,0.3216231029441984,9e-05,0.31551736168675093
161,0.32160664886700735,9e-05,0.31441492438551566
162,0.3219314014478077,9e-05,0.31351003330715455
163,0.3227156031069805,9e-05,0.31370078858161593
164,0.32246426168641595,9e-05,0.31351026807394944
165,0.3223434400876506,9e-05,0.3142568559783504
166,0.32230283914328955,9e-05,0.3142667627278142
167,0.3223566599607134,9e-05,0.313843164348941
168,0.3226628739068167,9e-05,0.3143714570632203
169,0.32290885593000646,9e-05,0.3152426155703032
170,0.32275878042459105,9e-05,0.3137415211644809
171,0.32282803801716947,9e-05,0.3135596555793671
172,0.32255831801240964,9e-05,0.3159514222449925
173,0.3222566309074561,9e-05,0.31366014512933516
174,0.32255545983330713,9e-05,0.3153844301036802
175,0.32181304669399247,9e-05,0.31389368564219766
176,0.322291505890046,9e-05,0.3145546126455045
177,0.322740252825806,9e-05,0.31511051231302795
178,0.3218534922392534,9e-05,0.3142113666084684
179,0.3224338055711141,9e-05,0.31425975458939054
180,0.32279020326910357,9e-05,0.31484735083796417
181,0.3222765656058594,9e-05,0.31473000238237175
182,0.32262841724365543,9e-05,0.3149002673782132
183,0.3227518543446188,9e-05,0.315193119840351
184,0.3222506088312629,9e-05,0.31493795308524825
185,0.3219617198315932,9e-05,0.3141372939299766
186,0.32188582057051424,9e-05,0.3138830888231344
187,0.32191425503836835,9e-05,0.3139959203274869
188,0.3221451109148663,9e-05,0.313141616615566
189,0.32245568924849266,9e-05,0.31349406577205696
190,0.322151587812973,9e-05,0.31430003200470225
191,0.32194422402804035,9e-05,0.31400029345370695
192,0.32237448142193775,9e-05,0.3146359202729122
193,0.322191163111362,9e-05,0.31480800009375964
194,0.32213447162871073,9e-05,0.3140209451282504
195,0.322040254445218,9e-05,0.31476312385902877
196,0.3223563781816611,9e-05,0.3153347917424475
197,0.32223877399492795,9e-05,0.31389001417602247
198,0.3218975625842881,9e-05,0.3137997957541892
199,0.32215132858517836,9e-05,0.31390599472464403
200,0.3226416200715051,9e-05,0.3137951365303786
