epoch,loss,val_loss
0,0.6034628225798119,0.6017060302918957
1,0.6009181248510789,0.6005079138959312
2,0.6007487432253786,0.6005075160682053
3,0.6006292445329181,0.600489063298436
4,0.6005492199825775,0.6004583134840499
5,0.6005227543496762,0.6003988559429462
6,0.6010738759087153,0.6003563312383798
7,0.6004053500235957,0.6005688683270817
8,0.6004392280854198,0.6005263026831463
9,0.6003904530408246,0.60038982440461
10,0.5685809818106258,0.5506332389178407
11,0.5503999425543223,0.5503422084576439
12,0.5503944023135946,0.5506962461743697
13,0.5503959341224377,0.5504263373521658
14,0.5503750267415776,0.5503687204557376
15,0.5512232559261238,0.5507602312724584
16,0.5504418818065367,0.550839856747658
17,0.5503697635909408,0.550438157470883
18,0.5503604060237832,0.5506330809285563
19,0.5503429859804455,0.5504004201581402
20,0.5503319281967316,0.5504496233930659
21,0.5503317029492163,0.550297640659673
22,0.5503191465647473,0.5503465021810224
23,0.5503077562126578,0.5503322162935811
24,0.5503027473644441,0.5502565772006884
25,0.5503012228522615,0.5502758704699002
26,0.5502840979410923,0.55028908311877
27,0.5502976990606232,0.550447668153654
28,0.5502779897787963,0.5502995094353744
29,0.5502799219329194,0.550312178188163
30,0.5502683717879091,0.5502762566725019
31,0.5502924260780322,0.5503171913677055
32,0.5502993633965417,0.5502376740091196
33,0.5502603915904505,0.5503241302653519
34,0.5502608080775213,0.5502582121427834
35,0.5502740356356434,0.5502719445204912
36,0.5502560826615768,0.5503286186873765
37,0.5502581438522108,0.5502689199767101
38,0.5502601288546656,0.5503347058450022
39,0.5502642382928411,0.5502833044854346
40,0.5502456768569604,0.5502786079056505
41,0.550259326517821,0.5502394115954415
42,0.5502473524060711,0.5502569494117282
43,0.5502574812815176,0.5507733279658902
44,0.550243535792742,0.5505197183665803
45,0.5502577346878318,0.5502681566231304
46,0.5502520883276291,0.550224054510481
47,0.5502404457848096,0.5503230007351481
48,0.5502522214179278,0.5503214853573082
49,0.550244260304589,0.550380332209632
50,0.5502507355117844,0.5503101612438931
51,0.5502413855654956,0.5502844041689454
52,0.5502527245711824,0.5502288069973512
53,0.5502384689317386,0.5504164562036027
54,0.550254418791067,0.5504214126478058
55,0.5502457603347006,0.5502797355131239
56,0.5502585215857316,0.5504067388420957
57,0.5502381019980641,0.5502656172286192
58,0.5510624280863923,0.5503899181451158
59,0.5503655484852888,0.5503575719024052
60,0.5502888942703221,0.5502550541615072
61,0.550288237745208,0.5502587037110152
62,0.5502781815610656,0.5503323402357456
63,0.5502746282577881,0.5503625657067406
64,0.5502672064899286,0.5502642457597605
65,0.550266610929399,0.5503544744723488
66,0.5502667794546476,0.5502780897445774
