epoch,loss,val_loss
0,0.5592549849349449,0.5507360311654897
1,0.550867772761343,0.5510452231165789
2,0.550745667542408,0.5505375761547988
3,0.5506928726192427,0.5506606476478482
4,0.5506222602900188,0.5506784185878101
5,0.5506141189302336,0.5511882504517623
6,0.5505786507714758,0.5507095981768284
7,0.5376192458354863,0.5009824989155564
8,0.5007455324136195,0.5017257134021068
9,0.5005826101175815,0.500865495678213
10,0.5005679738448846,0.5007407341346551
11,0.5004967936075023,0.5004929635128371
12,0.5004664281966964,0.5004916731536241
13,0.5004355445108,0.5004393353355729
14,0.5004241709757381,0.5007464026990659
15,0.500437962634345,0.5010549543809063
16,0.5006172984660605,0.5003434536770615
17,0.5003688256583214,0.5008978451156143
18,0.5003758509153945,0.5003461821795101
19,0.5003602568293998,0.5007042088224634
20,0.5003680141907908,0.5003485311941237
21,0.500381967339088,0.5007909210680732
22,0.5003458721629112,0.5004728338854485
23,0.500392405064425,0.5006486650731959
24,0.5003660829051675,0.5003691811123794
25,0.5003573134859212,0.5010419033005575
26,0.5003506584811227,0.5004020600697539
27,0.5003393622654196,0.5003676267474816
28,0.5003218882678133,0.5005245585299604
29,0.5003409042312141,0.5003491806333178
30,0.5026240491057412,0.5005780191634488
31,0.5004016434570014,0.5004273702133973
32,0.5004525051327277,0.5004837296440938
33,0.5003578666224834,0.5003249833364937
34,0.5003450356524529,0.5003177828883415
35,0.5003278693349048,0.5011910229107878
36,0.5003278233020485,0.5008210357897926
37,0.5003332579234183,0.5002773467127798
38,0.5003937475710744,0.5002574113107496
39,0.5002912769879462,0.5002456786318985
40,0.5002925898898748,0.5002546254221913
41,0.5002920413087952,0.5005226187907141
42,0.5002970168968583,0.5003702595866939
43,0.500280113145497,0.5004283552725912
44,0.5002963837518222,0.5003447884069778
45,0.5002700051558538,0.5002572463108943
46,0.5002825673563529,0.500361076211811
47,0.5003745997392697,0.5002951127128034
48,0.5002721607124232,0.5003641984007199
49,0.5002719060360957,0.5009890001701658
50,0.5003293735505387,0.5002543132299229
51,0.5002631363967665,0.5002445125993961
52,0.5003337603201866,0.5006019819758962
53,0.5701402345518503,0.5505709880930614
54,0.5504755798277987,0.5505272649653792
55,0.550390014239225,0.550443076554954
56,0.5507334022544628,0.5506357735203159
57,0.5503567783079787,0.5503341841638532
58,0.5503360790657399,0.5503527484519901
59,0.5504208521257583,0.5504439082689971
60,0.5503132712479593,0.5503037462163504
61,0.5502989208489549,0.5502729058857295
62,0.5502889483113619,0.5502592994320777
63,0.5502706923231557,0.5502739139585282
64,0.5502808365405211,0.5502699901389129
65,0.5502589012913229,0.5503256223042017
66,0.5502506338444555,0.5502660788022555
67,0.5502547815739276,0.5502808834127989
68,0.5502504232612557,0.5503168367274641
69,0.5502411686795589,0.5503171034249715
70,0.5502648450594636,0.5502967754013781
71,0.5502455835938067,0.5502731734410705
