epoch,loss,val_loss
0,0.14728765231851723,0.06338702653446336
1,0.0524891351608394,0.04982301634823222
2,0.0487948905100958,0.04850984891666597
3,0.04852739079229778,0.04787620025273754
4,0.04854999104883071,0.048207040963768474
5,0.04845786042767968,0.04809143999100505
6,0.048524695077987075,0.04796708922679117
7,0.048474212905602325,0.049188613949006685
8,0.0484581768730457,0.04792937256595224
9,0.04843626321525312,0.047989242926953
10,0.048370922470481706,0.04877903505809309
11,0.04834133241656687,0.048188038584258824
12,0.048414289481562074,0.04929615990753495
13,0.04828281950107138,0.04783936383297844
14,0.048353546041789486,0.047931189250747845
15,0.048290181505360345,0.048045948344159685
16,0.048323033183658,0.04852519525458246
17,0.04830114822163641,0.04793704621076874
18,0.04835674582605509,0.048732695075330554
19,0.04825092017131628,0.04771073134155266
20,0.048238421813417094,0.04818611716834975
21,0.04829821945298567,0.048546741321525824
22,0.04824878247059566,0.04815759931880579
23,0.048237216083990564,0.04854829480081482
24,0.048204505747501805,0.047973887763754296
25,0.048328260706962826,0.04805036519094395
26,0.04820932078513028,0.04777317937079814
27,0.048239416958058806,0.04824091588348658
28,0.04821782525452831,0.04829999674882042
29,0.04820711185799254,0.04778388868307352
30,0.04818966741516315,0.047626925497908756
31,0.048139720208185306,0.048059861910652556
32,0.0481489716191665,0.047687865092758235
33,0.048135356737481205,0.048249183354078996
34,0.048092883257709856,0.04771218641637692
35,0.04819235949515342,0.047661574522678385
36,0.04810672208481879,0.04764144170941711
37,0.04811451742030364,0.04774321522941361
38,0.04806488671387025,0.04779564108267511
39,0.04811314878324636,0.047624376045792255
40,0.04814485058910232,0.04753769133224878
41,0.04805835862878898,0.04762245954859576
42,0.04815035782384577,0.047743187100903736
43,0.048067502370230955,0.047715728520887804
44,0.048126515312742195,0.04779358214222118
45,0.04807834437876057,0.04791202726989187
46,0.048087754995943165,0.04792031919808767
47,0.04807951006653597,0.048125078223361685
48,0.048062602263853685,0.04784082803219581
49,0.04810903558852054,0.04817376333226156
50,0.04808616867696074,0.04785077895331653
51,0.04807967790294352,0.04804502162910146
52,0.04799212019046466,0.04775146572923911
53,0.04806597906651738,0.047586094681702294
54,0.04803978857264412,0.047478170208904866
55,0.048011509638974624,0.04791078366647382
56,0.04801649703913397,0.04772176666658097
57,0.04808075705004798,0.04753681045669129
58,0.04799148117194327,0.04748403500321428
59,0.04800876256546753,0.04770590505424497
60,0.048053431510328766,0.047749987946157035
61,0.04798481909124206,0.04762471382961656
62,0.047995106631023486,0.047701758875633195
63,0.04799683080513397,0.047626321680620254
64,0.04800248610003411,0.04755151034042009
65,0.04798175283432532,0.04776246160184187
66,0.047978622273648616,0.04753748960158541
67,0.04797866280295784,0.04760613085495101
68,0.04800583412788743,0.04775354486118945
69,0.04795828558134737,0.04769944580572462
70,0.04795578659606801,0.04880757615066889
71,0.047995435889717865,0.04761619827221393
72,0.04796475426460191,0.047762902896165464
73,0.04792479525139038,0.047406637800943535
74,0.04799390250624563,0.047877073732098235
75,0.047969251022554095,0.04748057467381063
76,0.047921775939394895,0.047680748993680425
77,0.04798003211110425,0.0477019123013969
78,0.047923449207666974,0.04750151954597317
79,0.047958843383171544,0.047470759476526715
80,0.04794674520019152,0.04774608534654272
81,0.04799412013150101,0.047750107569367733
82,0.04792946990463044,0.04764733631209155
83,0.047941712128688946,0.04764664622698967
84,0.047910046135131314,0.04761528054861063
85,0.04794793193033927,0.047582953277029646
86,0.047934901735799805,0.04792046339673331
87,0.0478451983172527,0.047733704735497005
88,0.047930716251353436,0.047642218727023254
89,0.04793032163454353,0.04735878837164204
90,0.04789487136195334,0.047598450046579525
91,0.0479248520165825,0.047459653298471
92,0.04788411498141346,0.04811500059100833
93,0.04790055873640496,0.048278943326593125
94,0.04792718714128455,0.04743927363109898
95,0.047909395151836474,0.04743598459857997
96,0.04787900775307126,0.04747083770158034
97,0.04789790805068323,0.04770060970061984
98,0.047897641717779146,0.04755122873808249
99,0.047921818358192834,0.047526267848890774
100,0.04789251528286619,0.04755524586393692
101,0.0478685765882866,0.04796720502198661
102,0.04793902142517704,0.04755825929144293
103,0.04783418046398531,0.049547174798939546
104,0.04793692015266542,0.047519849083066855
105,0.047879864019546824,0.04859296376578999
106,0.047841981596188896,0.0474696249790967
107,0.04791155615277153,0.0481550278956341
108,0.04789399805279662,0.04744261474819176
109,0.04791069539596406,0.04735312101771845
110,0.04788757287252178,0.04768058668220807
111,0.047875576908345985,0.04751311966489218
112,0.04786441144827989,0.04740880490171165
113,0.04791050931786279,0.04764166553500988
114,0.04795978015797247,0.047433839810276456
115,0.047828137252727346,0.04764754147799829
116,0.04785014709399594,0.0474249731540825
117,0.04787204146916099,0.04787334263783979
118,0.04784627601629596,0.0476015252389757
119,0.04784556654832953,0.04743976557486829
120,0.047873413404994146,0.04752613862089674
121,0.04782026400826901,0.04759079234528039
122,0.04788180330456544,0.047720868409356736
123,0.04783531315952802,0.04785990943136683
124,0.04788926791390769,0.047625916092282665
125,0.047847347797824444,0.04773601493514947
126,0.0479657831307265,0.04749962725258899
127,0.0478472795763953,0.04751564559903652
128,0.04786241001295175,0.047477380643747534
129,0.047852257281553755,0.04746877043738369
130,0.04782099563708966,0.04749762967216804
131,0.04785263251581843,0.047382606521236735
132,0.04780377018853748,0.04797535003838942
133,0.047871717792436826,0.047853156114533384
134,0.04787289295151675,0.04755868788412791
135,0.04786679935339597,0.047553182657376014
136,0.04785424986148806,0.04756127790958052
137,0.04784033255572554,0.04775206320477228
138,0.04782043673617063,0.047692445015409375
139,0.04785845381579846,0.04740696494064965
140,0.047892951401318905,0.04739106529893086
141,0.04778829990797419,0.047745549904797395
142,0.047828862473392506,0.047525332903750814
143,0.047821325444585804,0.04744421873794565
144,0.04782986520134133,0.048040000390977465
145,0.04782571886226929,0.04741033527997095
146,0.047821677515836505,0.04747963979816108
147,0.047826114860031486,0.04834464024707059
148,0.047828933902627664,0.04745014588026041
149,0.047843699087743,0.04767375056906048
150,0.047791448012411926,0.047401938653896226
151,0.04783412609980095,0.0474688814014849
152,0.04783758878695955,0.047534591295519985
153,0.047815025640163926,0.048135343905831386
154,0.04788095408750831,0.04771459341617203
155,0.04785949202646629,0.047418052791364775
156,0.04778584618243673,0.04749630704002465
157,0.04780624254649166,0.04756559271120677
158,0.04778000726860413,0.04753406410802696
159,0.04780439736457277,0.047667076697894835
160,0.04780933836563002,0.04918889313126519
161,0.047821412007626386,0.047364433627614916
162,0.04779995261006254,0.047457603189341925
163,0.04781835767820036,0.04759683538551555
164,0.04784331801798555,0.04736032686517283
165,0.04773123183692571,0.04768674928522748
166,0.04779872883281248,0.04761262450122485
167,0.04783701045875601,0.04737340937771163
168,0.04777362462643197,0.04769946054071309
169,0.04781713323284379,0.0475457381012956
170,0.04780725757028457,0.04767087761490981
171,0.04785289289989025,0.04763615288184797
172,0.04782336404035576,0.04763057247553525
173,0.04778425867338959,0.04754456269516272
174,0.04782483453382913,0.047360360728152286
175,0.047797311265901435,0.04755550698775251
176,0.047792450349637756,0.04740568286069312
177,0.04782820685212616,0.04741881600152837
178,0.047812477364133986,0.04769409286569795
179,0.04781061265799549,0.05009451132669549
180,0.04782603231905173,0.047383131321885194
181,0.047758209266311365,0.04772431863545888
182,0.04784281724233261,0.047696255038689524
183,0.047802685803955226,0.047850901347079706
184,0.047834692515426866,0.04773812433470581
185,0.047783146435626034,0.0474150586489585
186,0.047790350387986895,0.04746489718689342
187,0.047842606192259336,0.047417058277835905
188,0.047797762694134056,0.0473690907178569
189,0.047781076440341574,0.04756948282067503
190,0.04778340159713315,0.047585102548975335
191,0.047876908733927796,0.04737889190526968
192,0.047775054557787314,0.04755963376947563
193,0.047802611439823624,0.04737317697156375
194,0.047756892334434205,0.04771513864095871
195,0.047823150617609604,0.047543888293744486
196,0.047807884474901606,0.04755050279894981
197,0.04777092852139826,0.04740822076229477
198,0.04782251582993232,0.0488950174304884
199,0.04781803193452169,0.04738640930240752
200,0.04783160620934969,0.04751915107001547
201,0.047804683112830905,0.047352582309923806
202,0.04776606494911295,0.04756304148859545
203,0.04776503876436224,0.047579291014534036
204,0.04779084959179998,0.04753289071711601
205,0.04779761175724198,0.04756925706445736
206,0.047790613222279676,0.047491558189205495
207,0.04785108216870442,0.04744169681007458
208,0.04777092321532025,0.047372627737482485
209,0.04778855017649593,0.047419313326272555
210,0.047780830769525995,0.047914102495272566
211,0.047817747957938854,0.04733975864010232
212,0.04779241278355984,0.047760584297237216
213,0.047774601492097224,0.047464573681837936
214,0.04779473724689266,0.04744679114002574
215,0.0477890365088196,0.04769135487401089
216,0.04781378302171385,0.047521500435067886
217,0.04778584329377087,0.0475820852571982
218,0.04783680570349873,0.04777504706155548
219,0.047742897434364426,0.04753440038421148
220,0.04776439010154447,0.04737944715178216
221,0.04780948938901802,0.04746197779199889
222,0.04773884599027727,0.04756175981953873
223,0.04780305584249876,0.04807946026409823
224,0.047756140555044096,0.04764198181306262
225,0.04787033047374961,0.04745425925033419
226,0.04775341905898051,0.0477673435207556
227,0.04784064259144475,0.04747162615186977
228,0.04778546616852618,0.047573267978473305
229,0.047743238496770854,0.0476169997262742
230,0.047818912102209274,0.047383789365864924
231,0.04775540993882237,0.04768164664361889
232,0.04780033116845535,0.04783859094249845
233,0.047773296747198574,0.04765579591460665
234,0.04776239264950311,0.04752294380528987
235,0.0477856820757934,0.04740207692772899
236,0.04779933699614721,0.047342340737605425
237,0.04776250912522296,0.04768025270827109
238,0.047827792212999376,0.04756728207748399
239,0.04777374640822983,0.047354920015693774
240,0.04778458271399319,0.04752505066391422
241,0.04778097903846597,0.047446665456042675
242,0.047802940197438124,0.04753277787979502
243,0.04779574943868946,0.04777047549286028
244,0.04776160191264364,0.04738370231552909
245,0.047764810722312326,0.04759131294024832
246,0.04779151845440042,0.04735881388972952
247,0.04782919232264531,0.047389272527900636
248,0.04774526899174941,0.04751604509336718
249,0.04781981530614955,0.047497700863583535
250,0.04777806271628154,0.04753742358569488
251,0.04779664476553472,0.04761407697469069
252,0.047775488321462854,0.047578606041509354
253,0.04775153859566936,0.04750515911531758
254,0.047797873923428255,0.04739433308551201
255,0.04776315336481775,0.047461037257412825
256,0.047798728173653826,0.04747114862282877
257,0.04774569168991094,0.04746358554027763
258,0.04778925621445127,0.04731534722669765
259,0.04774397971321813,0.047510805549606114
260,0.04780968200651,0.04738687594864587
261,0.04777429957953904,0.047929727601526424
262,0.04779034157584103,0.04738027263139673
263,0.04775754115831336,0.04767910980854398
264,0.047789509219525336,0.047436139402066604
265,0.04777903761938393,0.047373296404431144
266,0.04780334884746729,0.047532386718271036
267,0.047762979519925565,0.04781011439442925
268,0.04777366740314411,0.04753158643044114
269,0.04776803976606378,0.04749131336844461
270,0.047790235205232096,0.047900240545048524
271,0.047757139413045636,0.04763012567031993
272,0.04784685275774655,0.0476738441031538
273,0.047710022157590515,0.04742867020710348
274,0.04777988511397898,0.04737864094216072
275,0.047793069075915316,0.047724701530645265
276,0.0477452127321111,0.0474261516359214
277,0.047758645396694555,0.04879883732359678
278,0.04776737622445445,0.047423733378679694
279,0.04778316710069716,0.04772315448072995
280,0.04775528702064692,0.047413850165389945
281,0.04778032979702024,0.0473077143244113
282,0.04775705855128,0.04741287030829517
283,0.047834783418177124,0.047424312251931944
284,0.04777150392216191,0.04735521882446143
285,0.04778228402197409,0.04739048871584085
286,0.04774223192720961,0.04737381606883183
287,0.04778073947307012,0.04797514657046576
288,0.047841303069905056,0.04745526589447178
289,0.04777503290099559,0.04737873182957576
290,0.047760982346759025,0.047487009534218014
291,0.04776978429057915,0.047455299724216686
292,0.04778570700750005,0.047519996750190405
293,0.04776260836588277,0.04742382936910798
294,0.047739718133230226,0.047468086298243936
295,0.04779701134424099,0.047518420922180934
296,0.04779893880317791,0.047403331356544565
297,0.04775397809262606,0.0475751423252035
298,0.04775767631864576,0.04738862429113284
299,0.047742247228041663,0.04753155908747504
300,0.04776185832237653,0.047394451053038134
301,0.04774790728170935,0.04761561880980385
302,0.047787869787566946,0.04764461466575771
303,0.04775212282498328,0.047393206186707386
304,0.04776837069502442,0.047614224339682015
305,0.04777059589234517,0.04739295129587954
306,0.047795225468705044,0.047623831108031194
307,0.04777728705208382,0.04751619941646359
308,0.04789357897404244,0.04750015370892202
309,0.0476715601622772,0.0475079240239643
310,0.047749297061056684,0.047333961082297614
311,0.04775822712324733,0.04750139778366634
312,0.04779825728980182,0.04740595431440938
313,0.04777082064904099,0.047403139517690145
314,0.04773171192961182,0.04732489845105911
315,0.04780502378451433,0.04783994528341854
316,0.04777020056567209,0.04753237354530615
317,0.04772082993460952,0.04774321323534095
318,0.047780263207083326,0.047400326911429515
319,0.04777748344258798,0.047436740853659815
320,0.047790863720463025,0.047633250152566815
321,0.047747504513403524,0.047480565437628595
322,0.047770999133396,0.04758914837134822
323,0.04779614114297257,0.04746996298649885
324,0.047703487117043294,0.047431995199399564
325,0.04774676151633311,0.047532727472055086
326,0.047840544000995744,0.04760584397134216
327,0.04774420274446925,0.047492915723663175
328,0.04778554501851575,0.04742471108459305
329,0.047769848759874424,0.04738911598715372
330,0.04772184574879628,0.04828169604118336
331,0.0477566698266326,0.04735628828490931
332,0.04783104155346859,0.047818330309179286
333,0.04775713323902568,0.04753540347225281
334,0.04775986839846385,0.04754553673923354
335,0.04773721856634029,0.047680873318068494
336,0.04775666201962911,0.04767657893453781
337,0.04775957036480081,0.047603702938542165
338,0.04778129250121365,0.047414404762318146
339,0.047769943522132804,0.04734628810415109
340,0.04776548096735636,0.047313684161030364
341,0.047759262182778886,0.047499765547571
342,0.04775258040486621,0.04772200691608133
343,0.04787929155666223,0.04825351951041071
344,0.04775693649806387,0.04756688598818346
345,0.04776823644737323,0.047364107031746795
346,0.04772539208199474,0.04793963432976703
347,0.04773641904716114,0.04742578485948906
348,0.04780374091861246,0.04737613069774267
349,0.047716754695193306,0.04837041296252176
350,0.047786674510726365,0.04772896682488561
351,0.04773505997088692,0.047528346177169396
352,0.04776728908278591,0.047528837716081525
353,0.047760965162403496,0.04729793809614139
354,0.04774722945037558,0.04760386755226206
355,0.047791462783829224,0.04755426081621057
356,0.04774765052897535,0.04740000114944633
357,0.047825952091092486,0.047337935012308256
358,0.04772649566270858,0.047418357540051914
359,0.047758353942687556,0.047593484572999764
360,0.047752784102785294,0.0474891183144033
361,0.04772875017171101,0.04746981597802355
362,0.04780555432818955,0.04732644225003172
363,0.047717123545163435,0.04781445062931533
364,0.04784467888979601,0.047342954108314794
365,0.04774068729628363,0.047576096673274754
366,0.04774603668639095,0.04735706211502051
367,0.04776040283594731,0.04778714402180712
368,0.04777370332878193,0.047449173972264405
369,0.04773096169521801,0.047649922165098176
370,0.047793146527056886,0.04750216079442267
371,0.047759544979736175,0.047368202835853176
372,0.047787893641057066,0.04745300194521987
373,0.047746876102564235,0.04730836342225593
374,0.04776705478916796,0.04734010228227042
375,0.047743427851278365,0.047427452964721804
376,0.04780358513794822,0.04754146625985001
377,0.047739668529304724,0.04736667734005059
378,0.04771782980234123,0.047353934529875706
379,0.04777434589811045,0.04783397885485094
380,0.047745838158840745,0.047430487042965194
381,0.047834138443366925,0.04760052852290293
382,0.04769992957516515,0.047336649382298104
383,0.04775904199545435,0.04760870683729793
384,0.047788722917819326,0.047397118101058115
385,0.047744834649445914,0.047424512765002466
386,0.047736672696480756,0.047532150665387234
387,0.047772355395569815,0.04743904053004699
388,0.0477564595207226,0.04762018456849642
389,0.04777193013533914,0.047457386388323315
390,0.04774768770283895,0.04763281598554234
391,0.04776197476677889,0.04754406388090668
392,0.047751734659576814,0.047451156440031596
393,0.047754518759307904,0.047345066937071856
394,0.04773002313532001,0.04739053951635268
395,0.04775821018644912,0.04735077462866842
396,0.04776172293089121,0.04739216634730256
397,0.047744249522363884,0.047332461690719016
398,0.04777365290761901,0.04771947537738428
399,0.047732596697988176,0.04740910514862868
400,0.04778684618278109,0.047391488963839296
401,0.047775830050484476,0.04747914870640464
402,0.04772655897325664,0.047591703920492966
403,0.04774317269275387,0.0476923382026049
404,0.047761448178055575,0.047330693918108846
405,0.04775529819204389,0.04744701505323686
406,0.0477483018716757,0.04764710017763205
407,0.047745563322491795,0.04788548035874951
408,0.04780595499673206,0.04817058538771797
409,0.047732889688043616,0.04752715307515226
410,0.047746140863284096,0.04734199324627282
411,0.047727076570876985,0.047366236665098045
412,0.047765421282180885,0.047437439298760285
413,0.047710711616661856,0.047451697166069486
414,0.04776487553162609,0.04763474950184691
415,0.04771775975554967,0.047739498737205455
416,0.04775924939331148,0.047349532321397596
417,0.04778070219332357,0.047837337353610454
418,0.047731347452160164,0.04742669804204506
419,0.047769661573730436,0.04870888975427002
420,0.04776806340182276,0.04727340911704645
421,0.04776082184908388,0.04750030470856398
422,0.047731230930209735,0.04835236626046514
423,0.04775079742694397,0.04737034496539314
424,0.04777714021330933,0.047505660331524785
425,0.04777463648268421,0.047641230479716676
426,0.047751181864077515,0.04740818545512329
427,0.04774826940289252,0.04753077934161493
428,0.047756191914240485,0.047572114890847665
429,0.047731478453231294,0.04741444474951774
430,0.04780231602937341,0.04756943090227399
431,0.047708057330919804,0.04818534789439245
432,0.047792359828662645,0.047342285030466315
433,0.04770860402099937,0.04742836793590056
434,0.04776213778924045,0.04738448853004008
435,0.047733973581985154,0.047333506941311936
436,0.04773760570572604,0.04904265044633199
437,0.04779585136221446,0.04785315221098508
438,0.047751520523984875,0.04799160253126643
439,0.04772488035565858,0.04768474408805322
440,0.04779005972437376,0.047328550833831064
441,0.047770027430643076,0.047712311163750104
442,0.047733093836338066,0.04753627707850904
443,0.04773388245404721,0.047369244255409525
444,0.047773627433075824,0.04799606584598645
445,0.04777187238737428,0.04743240741047546
446,0.04777040060242717,0.047719622107897944
447,0.04771511709456257,0.047333387686702554
448,0.047747038713424464,0.04762939340453852
449,0.047756700362679094,0.047645442671197656
450,0.04777034358967773,0.04739846349584312
451,0.047767788798118035,0.047358359038733124
452,0.04775814565153624,0.04745441504783584
453,0.047864981270055944,0.047646896646260636
454,0.04766444107137316,0.04741359556460903
455,0.047787989945329123,0.04751641606339476
456,0.047711955766686444,0.04734336383586382
457,0.04775606919291785,0.047549655671561525
458,0.04773380386801936,0.04751029617280759
459,0.047777949924095335,0.04759853928435265
460,0.0477500392915942,0.04831376102271838
461,0.04777615914513485,0.047625885821655334
462,0.04774087741285014,0.0473737429830473
463,0.047716093477043656,0.0474185836104871
464,0.04780025105980084,0.04736444117487782
465,0.0477263233956215,0.04750937715607838
466,0.047723062033709095,0.04733176112767167
467,0.047743580485280275,0.04776776034236921
468,0.04781067312014303,0.04764116074457849
469,0.047692194630245,0.047365653120881646
470,0.047780443855327925,0.04751028974947655
471,0.047776687234115184,0.04739864740674803
472,0.04775529430718351,0.04750993094329223
473,0.047739494298163467,0.04756164058003596
474,0.04773561740584904,0.04734076526309065
475,0.0477469327439777,0.04744167312895101
476,0.04773784855647599,0.04763191280356289
477,0.047731525632288094,0.047369655974009904
478,0.04779455049024571,0.048333804607270506
479,0.04774347288583258,0.047527379254355046
480,0.047779167472147006,0.047494397071905475
481,0.0477443871910783,0.04751046475050223
482,0.047736454374783986,0.0474543523614424
483,0.047776427844746575,0.047487928043365095
484,0.047762244125549275,0.04749113246979795
485,0.04770588631435239,0.047428261162373274
486,0.04777362852173151,0.04804132106530405
487,0.047765139752836396,0.04751263968253754
488,0.04776366360431867,0.047615422883100465
489,0.04774298663851354,0.04747379900523539
490,0.04778707701357915,0.04730431563300228
491,0.047755605139261824,0.04767227291287394
492,0.04772426224827432,0.04735959640312079
493,0.047782633784678195,0.04777671952353487
494,0.04770552880131454,0.04791284840484508
495,0.047771828899307665,0.04747242899875958
496,0.04776037274580225,0.04764121671457264
497,0.04774692641038767,0.04752339205469722
498,0.04772303643986117,0.04742821309615806
499,0.04774004801827445,0.047445055314876736
500,0.04772901528323288,0.047429835283335685
501,0.04777558603502208,0.04755414975844837
502,0.04774091839551735,0.04737898176241385
503,0.04774226434528828,0.047625123638741294
504,0.0477068444312788,0.04780514754312655
505,0.047773066769429356,0.04738295502471228
506,0.04777150294833703,0.04739592298079775
507,0.0477663731997351,0.047348162015810887
508,0.047717948110880044,0.04773649433741024
509,0.04773089225389797,0.04745899449009675
510,0.04774938207462704,0.04748261405724582
511,0.04773344562722264,0.04781261593139665
512,0.04773864039988686,0.04747166494262576
513,0.04776695742457508,0.04737815831917046
514,0.04777724276169287,0.04736910545888802
515,0.047784764907234094,0.04745174616285194
516,0.047711184339298066,0.047340980967369294
517,0.04774167896617499,0.04746924781233725
518,0.047807378208248305,0.04736772140930652
519,0.04772098416729485,0.047410789587129354
520,0.04776510465338385,0.04771760614273129
