epoch,loss,val_loss
0,0.5580927533748484,0.5519209063674321
1,0.5515994265551502,0.55161120888613
2,0.5512670381964566,0.5509700337355545
3,0.5511462223305631,0.5514083612941335
4,0.5510022378857948,0.5510101561806634
5,0.5509154314350245,0.5507499453151788
6,0.5508335983210018,0.5509998603435071
7,0.5507486030835872,0.5507619385092193
8,0.5507415317794591,0.550755985439859
9,0.5506389309797332,0.5512664579871867
10,0.5021305758069197,0.501231631096776
11,0.5006250775864876,0.5005917460983503
12,0.5006012922315499,0.5005040212837105
13,0.5005548418706486,0.5005015455167879
14,0.5005729911722123,0.5005883555554279
15,0.5005431204710442,0.5006120528535867
16,0.5005228007529662,0.500497158082484
17,0.5005148648900167,0.5010122903523315
18,0.5004981282613675,0.5004955501769376
19,0.5004977170026498,0.5006700014653928
20,0.5005020830852791,0.500430548723519
21,0.5004777182697945,0.500463089369071
22,0.5004827143342592,0.5005080743108139
23,0.500452921589823,0.5010962490999965
24,0.5004749857067228,0.5005819436634149
25,0.500435667991594,0.5004464579279311
26,0.5004475534887545,0.5005361662904915
27,0.5004355972952365,0.5004427991788973
28,0.5004171927375565,0.5004826350780042
29,0.5004082910957225,0.5004369449378835
30,0.5004093356280555,0.5004721470269613
31,0.5003957074659175,0.5003929063936617
32,0.5004062182722395,0.5005078681349459
33,0.5003919332300149,0.5004516424375491
34,0.5003947135100911,0.5003890667896412
35,0.5003971369140519,0.5003669274651975
36,0.50037802843294,0.5004745591071345
37,0.5003789004130565,0.5003873813832664
38,0.5003782855625231,0.500386916585359
39,0.5003751362859867,0.5008279558150999
40,0.50037306830512,0.5003863371335543
41,0.5003695608280258,0.5003774400384491
42,0.5003715782221313,0.5003526391521577
43,0.5003660702523637,0.5004014945799304
44,0.5003614360233772,0.5004086855327521
45,0.5003805592397992,0.5009178363064086
46,0.5003633911103127,0.500376302669421
47,0.5003618898614615,0.5009325825251065
48,0.5003566608923267,0.5003527392228839
49,0.5003492597712554,0.5003284708146126
50,0.5003517878385145,0.5003888094099816
51,0.5003557479089221,0.5003554440017965
52,0.5003502701141983,0.500341299863962
53,0.5003497784076292,0.5003437308164743
54,0.5003503918209178,0.5004017959753277
55,0.5003481156130809,0.5003796037905861
56,0.5003582650666877,0.5005589889533466
57,0.50034280088807,0.5003272837208164
58,0.5003350333200314,0.5003386779399427
59,0.5003441790387089,0.5003208905532401
60,0.5003387492173585,0.5003646275541622
61,0.5003370329023971,0.5004318085261078
62,0.5003390428696856,0.5011913190112812
63,0.5003553739854413,0.5003604360313036
64,0.5003316536465096,0.5003296375570463
65,0.5003305936105479,0.5003763071360718
66,0.5003412444173033,0.5004675611668722
67,0.5003273817184097,0.5004477380818824
68,0.500336311820375,0.5003771518359409
69,0.5003319709068859,0.5003739168567042
70,0.5003230286230472,0.5003012141577955
71,0.5003210477792945,0.5004053552156642
72,0.5003189943467855,0.5003278028284646
73,0.5003134701129589,0.5003353103514641
74,0.50032409313482,0.5003260212264049
75,0.5003232442366042,0.5004188286163671
76,0.5003239239398563,0.5003196469903288
77,0.5003163219468488,0.500318873786453
78,0.5003178006218045,0.5003134582829535
79,0.5003192688952721,0.5003239041226674
80,0.5003201138367258,0.5003001069608456
81,0.500308363826324,0.5003177575970406
82,0.5003167756192792,0.5003661702643553
83,0.5003110494754185,0.5003373539477365
84,0.5003131173000973,0.5004178020261949
85,0.5003147166105439,0.5003072128106584
86,0.5003098959617419,0.5003144351483575
87,0.5003118768488802,0.5002972517060879
88,0.5003186448091386,0.5003058723125505
89,0.5003084023842446,0.5002881689935404
90,0.5003150631325008,0.5002956790012993
91,0.5003073007265537,0.5005112590919949
92,0.5003165013847463,0.5002980202066691
93,0.5003055904729479,0.5002929123992068
94,0.5003094891875123,0.5003004366647517
95,0.5003118610297203,0.5003208710301307
96,0.5003015960569621,0.5004744444532371
97,0.5003055253622826,0.5002914779831104
98,0.5003052269265016,0.5005201907666682
99,0.5003069814412556,0.5003018286328753
100,0.5003029520636167,0.5004334591754317
101,0.5003077777112228,0.5004187415018863
102,0.5003071675755153,0.5003549069683841
103,0.500304326236984,0.5002871680200544
104,0.5003037153897534,0.5002875818212335
105,0.5003022170169696,0.5003003958732851
106,0.500295472217495,0.5003397638093745
107,0.5003111995468211,0.5003737717053435
108,0.5002998973920307,0.500289110687767
109,0.5003044303078723,0.5003113628616995
110,0.5002992260448355,0.5003430940081405
111,0.5002959822840395,0.5003645501420753
112,0.5003071314392972,0.5002909759729731
113,0.5002993345639257,0.5005244648486153
114,0.500296892852841,0.5004446763554519
115,0.5003082415713689,0.5004693366457748
116,0.5002878106797938,0.5003909463622138
117,0.5003083174582158,0.5003548365964487
118,0.5003020256827547,0.5003037818903958
119,0.500301522264454,0.5005594446996305
120,0.5003029650792814,0.5002723991131368
121,0.5002974187740428,0.5008333122759836
122,0.5002990874792804,0.500309293264195
123,0.5002916797281086,0.500317085351305
124,0.5003073931172635,0.5003236820325071
125,0.5002952521470589,0.5003048087172117
126,0.5003054641397512,0.5005746609815592
127,0.500296725651246,0.5005555731782843
128,0.5002984181475412,0.5004470795910648
129,0.5003050947291563,0.5003814766779727
130,0.5002958654041596,0.5002850789881818
131,0.5002902030899072,0.5003059183101796
132,0.5003027669721879,0.5002814745784693
133,0.5002891469673221,0.5005092402545749
134,0.5002965186753575,0.5002983694041041
135,0.5002932810587442,0.5005234557405003
136,0.5002988798249997,0.5003008315640111
137,0.5002867529819188,0.500289670409399
138,0.500308853031519,0.5002978114868808
139,0.5002938552593847,0.5003018525930552
140,0.5002880340262332,0.5005755719416787
