epoch,loss,val_loss
0,0.5567001040404559,0.552167633183245
1,0.5516551171426534,0.5517668799786059
2,0.5512782067008802,0.5511839616387417
3,0.5510531019792794,0.5513685319914712
4,0.5509700573869091,0.550882137531678
5,0.5508346006778482,0.5510305453175055
6,0.5507492401940626,0.5507381223271561
7,0.5507239407071322,0.5526976309698214
8,0.5506307919990536,0.5511748631598045
9,0.5506066177037134,0.5505948721327202
10,0.5505575608684002,0.5504840968264539
11,0.5505316227588107,0.5505392330160211
12,0.5504949565388836,0.5508263822524778
13,0.5504735462713929,0.5504103235216353
14,0.5504552341880384,0.5504782548021738
15,0.5504543191828674,0.5504107640931387
16,0.5504223218640798,0.5504067082263104
17,0.5504063602543671,0.5504110828226908
18,0.5504154679144523,0.5503558299677543
19,0.550392254934018,0.5503852655219085
20,0.5503883016704085,0.5503635566228673
21,0.5503897582092684,0.5503601054399836
22,0.5503835336679981,0.5504872821992444
23,0.5503695586510178,0.5504517033437345
24,0.5503682900378464,0.5503114490591858
25,0.5503676088200443,0.5507350734386491
26,0.5503592240681184,0.5503333339620169
27,0.5503553421879359,0.5503386180394932
28,0.5503489781921013,0.550493288217644
29,0.5503539271422262,0.5503402243476944
30,0.5503512909100607,0.550377937611516
31,0.5503299787057431,0.550430229875645
32,0.5503408395443073,0.5503057610012462
33,0.5503310328838668,0.5506054257045017
34,0.5503361730585595,0.5503374331938126
35,0.550327219747692,0.5503822891055502
36,0.5503263590848931,0.5503309324124906
37,0.5503132515012239,0.5504801897493841
38,0.5503163057113454,0.5506190118363714
39,0.55032650998141,0.5502884853270746
40,0.5503215146410896,0.5504660569704496
41,0.5503040816183733,0.550283487588537
42,0.5503070983205045,0.5504756921574141
43,0.5503073578560135,0.5502829581573051
44,0.5503024486904369,0.5505550898630034
45,0.5503052857472089,0.5504924641353617
46,0.5502961796916003,0.5503431702370087
47,0.550303012427272,0.5502815113174117
48,0.5502991583588039,0.5503946390992063
49,0.550300051875507,0.5503286791794353
50,0.5502986956677012,0.5505071679948281
51,0.5503082295742392,0.5502874465497493
52,0.5502900891398927,0.5502988886004938
53,0.5503012847168989,0.5502860589299545
54,0.5502956860208491,0.5507328600209049
55,0.5502942180155831,0.5504753333463267
56,0.5502849527776066,0.5503115824079395
57,0.5502904432330225,0.5502831480343348
58,0.5502975396928808,0.5502884853270746
59,0.5502864604049224,0.5503513377002688
60,0.5502924900622509,0.5503397301468009
61,0.5502977235269175,0.550305176786986
62,0.550276480840448,0.5502533057191532
63,0.5502980120463397,0.5505907424922025
64,0.5502832827755354,0.5504329011990474
65,0.5502848928803065,0.550248761301301
66,0.5502737529227852,0.550272020216911
67,0.5502776065968392,0.5503299075084052
68,0.5502781588317709,0.5505958374321609
69,0.5502790148949128,0.5502581098831025
70,0.5502759779269973,0.5508553218900714
71,0.550275458903309,0.5505053947640411
72,0.5502760731779979,0.5502450957783398
73,0.5502795488542735,0.550317724496496
74,0.5502761105140236,0.5502576898996056
75,0.5502763943296635,0.5502446091500465
76,0.5502668622816046,0.5502570418802739
77,0.5502732796842612,0.5502592021123351
78,0.5502782087180527,0.5502986994333954
79,0.5502655677601611,0.5502657208785822
80,0.5502704965044527,0.5503094380014292
81,0.5502706694976239,0.550299477991336
82,0.5502627078620809,0.5502877111470433
83,0.5502742569831922,0.5502767821399509
84,0.5502686711355754,0.5505851955626798
85,0.5502665683224235,0.5507007662179156
86,0.5502628428305794,0.5503600794387514
87,0.5502766415168564,0.5502649845319705
88,0.5502711736747775,0.5503682517236279
89,0.5502654941459282,0.550269449792488
90,0.5502643067986228,0.5503102567296466
91,0.5502618939925684,0.5503554965071288
92,0.550268878262919,0.5502390521040034
93,0.5502590584700673,0.5502590330599555
94,0.55026217540386,0.5502573103526094
95,0.5502642434762309,0.5505866286772356
96,0.5502587120806334,0.5502492460068639
97,0.5502679207375435,0.5502446544377443
98,0.5502715461405039,0.5502689133506851
99,0.5502624297473021,0.5502722988057669
100,0.5502652050877364,0.5503030307239694
101,0.5502617858576375,0.5502450495736475
102,0.5502698066955231,0.5503225462608242
103,0.550257127215997,0.5506535940075631
104,0.5502612615172473,0.5503010598364894
105,0.5502567928159624,0.5502907556872214
106,0.550264402685419,0.5502937763855416
107,0.5502540733987119,0.5503010351663784
108,0.5502666637319785,0.5502554100737087
109,0.5502619816850176,0.5502939585124884
110,0.5502541816440788,0.5502477009006529
111,0.5502574214891318,0.5502738517803827
112,0.5502603547624301,0.5502764060834501
