epoch,loss,val_loss
0,0.6535642758066839,0.6514651956392576
1,0.6511621567157649,0.6508049568230697
2,0.650906647674409,0.650738011725783
3,0.650768126516237,0.6509864129440365
4,0.6506850324611856,0.6506976315756293
5,0.6506204120959255,0.650537424880281
6,0.6505491506329073,0.6504649107568613
7,0.65050502626831,0.6504244456220205
8,0.6504510205341457,0.6504182573879327
9,0.6504403987617885,0.6505566253851425
10,0.6504170874223707,0.6503452125909015
11,0.6503793983053006,0.6503844745993318
12,0.6503857373165808,0.6503864967497643
13,0.6503689860362373,0.6503562159632926
14,0.6503481836476167,0.6503341944282759
15,0.6503531598698977,0.6503977432440291
16,0.6503420208408273,0.6505520517713674
17,0.6503191620142624,0.650307815601453
18,0.6503303637480723,0.6503742170097219
19,0.6503080733834232,0.6504005939433948
20,0.650302736653262,0.6504143049344235
21,0.6502934555969143,0.6502693741848096
22,0.6502993145368409,0.6502407915538949
23,0.6502912186317009,0.6503385518384039
24,0.6502832126521826,0.6502625254484323
25,0.6502824256533127,0.6509709785357303
26,0.6502806664655407,0.6506099110205771
27,0.6502835210989818,0.650228250914117
28,0.6502629668149613,0.6503525966154434
29,0.6502763648467377,0.6502732484571395
30,0.6502715780355085,0.6502416513693835
31,0.6502551494781763,0.650414453280475
32,0.6502596256827947,0.6502601411739
33,0.6502578454498761,0.6502737964057449
34,0.6502567581630567,0.6503083036496089
35,0.6502498053716829,0.6502298263994695
36,0.6502553759057785,0.6502444000752925
37,0.6502411902953437,0.6503332496576806
38,0.6502534215548196,0.6502620393821679
39,0.6502484189115282,0.6504848527849164
40,0.650242329299315,0.6502243661998816
41,0.6502401199139006,0.6502409846551956
42,0.6502402117469088,0.6502946196359677
43,0.6502408577632541,0.6502433331669413
44,0.6502348214916014,0.6502038201386521
45,0.6502392039708129,0.6502652233055153
46,0.6502438686446224,0.6502647553424977
47,0.6502411532993029,0.6502271092263404
48,0.6502353688381649,0.6502291447767253
49,0.6502280751365576,0.6502683018632326
50,0.6502236012408392,0.6502935663642126
51,0.650228204578526,0.6502118615891147
52,0.6502284210503281,0.6505280821849927
53,0.6502275321553691,0.6502572758617827
54,0.6502177651619416,0.650202480823763
55,0.6502166089914918,0.6504230563753001
56,0.6502179057184989,0.6502154376311574
57,0.650220654595326,0.6502969274154076
58,0.6502123596932943,0.6502305604092241
59,0.6502118590366809,0.6502044001820662
60,0.6502117923396821,0.6502413634330996
61,0.6502107943190241,0.6502488162026512
62,0.6502085228086589,0.6502152220191199
63,0.6502181790490348,0.6502913325951059
64,0.6502111045872275,0.6504423324878399
65,0.65020617283119,0.6501868482263153
66,0.6502023823044081,0.6502065526048836
67,0.6502097768079997,0.6501849315598348
68,0.6502055356844285,0.6502582356000952
69,0.6502064394693078,0.6502330974077173
70,0.650202758348259,0.6504098703488522
71,0.6502027910822613,0.6502672700077369
72,0.650202214070237,0.6501938578804433
73,0.6502047123584441,0.6501962647840344
74,0.6502012294849003,0.6501966924880338
75,0.6502018560187677,0.6502348581555464
76,0.6501946904875379,0.6501780632116066
77,0.6502035131455857,0.6502577375537408
78,0.6501996810846344,0.6502371953083919
79,0.6502057268498341,0.6501963558327175
80,0.6501945906384579,0.6502122391542193
81,0.6501944731677456,0.6501833094556634
82,0.6501964023629744,0.6503187948361816
83,0.6501992159481644,0.6502659931076372
84,0.6501942025988972,0.6502199396601978
85,0.6501935237980645,0.6502081280310752
86,0.6501941229043767,0.6503333565614952
87,0.6501951676323391,0.6501797825171989
88,0.6501892536684929,0.6501699111006101
89,0.6501944910134051,0.6501837527781503
90,0.6501935771693891,0.650247900391335
91,0.6501921730812915,0.6501744264704418
92,0.6501952576810179,0.6504026111834694
93,0.6501952021033409,0.6502056827024549
94,0.6501909517725674,0.6501818994434536
95,0.6501904128286015,0.6501780882071029
96,0.65019495565528,0.6501856554530691
97,0.6501866672232168,0.6503116212470952
98,0.6501932826209533,0.6502022009925275
99,0.6501911439768597,0.6502663368622659
100,0.6501917392802313,0.6502593026859292
101,0.6501915012607993,0.6501815346571115
102,0.6501930702534243,0.6503893042912259
103,0.650187416160339,0.6501723358708044
104,0.6501939438711482,0.6501767249911949
105,0.6501861691310838,0.6501889344776238
106,0.6501905122919444,0.6502244780436343
107,0.6501937566017647,0.6502030273820862
108,0.6501861118203514,0.6501699164546749
