epoch,loss,val_loss
0,0.33032523419002263,0.32192833634606477
1,0.3234729707646046,0.31461932547184646
2,0.3109662410059421,0.30897913383350845
3,0.3073377508125145,0.30717641435087245
4,0.3067918363020574,0.3079684968999548
5,0.3073569374630968,0.30943506452730535
6,0.31034813574749787,0.310746187710254
7,0.3071196829493669,0.3073477085794439
8,0.30850082989945876,0.31070736461063964
9,0.30984860495161665,0.30729336416806025
10,0.3054527372097988,0.30853879209475527
11,0.30414619696416634,0.305841979200951
12,0.3013137319801951,0.2997335513734686
13,0.30506339508721486,0.3268140229237014
14,0.31948815176574635,0.31720912725838885
15,0.3138258966157953,0.31096036813347566
16,0.31057096024354297,0.3132415471132477
17,0.30900564843968903,nan
18,0.30822893654366285,0.3104804193728913
19,0.30832746515361714,0.3103152777185192
20,0.3092812763558303,0.3090097844106716
21,0.31117827183813407,0.31234459897713485
22,0.30932308816247517,0.30015647186711725
23,0.2999989967599666,0.30337168163404565
24,0.2973656809027437,0.295182378193762
25,0.29419376416434107,0.2923693070871772
26,0.29145415845534783,0.291924218023115
27,0.2956181820437348,0.2961852247190927
28,0.29463472369787314,0.29553620847737405
29,0.29969512118543273,0.299463027031194
30,0.3083175751719353,0.31038829878313673
31,0.3092487628737704,0.3072297142402525
32,0.30687710225915643,0.315394425225145
33,0.3100398561443023,0.30846145493878846
34,0.30937018598036037,0.31115500638356997
35,0.3104712697003576,0.31172927688357394
36,0.3109343171709304,0.31074754489202056
37,0.31074678210569895,0.3125003841665192
38,0.30830388862809405,0.30500192896719514
39,0.30268018781471784,0.3011477008614845
40,0.2963209026169291,0.29916207266540723
41,0.3028407033762152,0.31342703149886986
42,0.31029594347154876,0.3095551317803203
43,0.30914127250178924,0.31145204598967635
44,0.309324851442727,0.31126790484906
45,0.3070657495573032,0.3061165486204408
46,0.3037138909583898,0.30165294541344456
47,0.30000009804630545,0.2981143401025691
48,0.295892804140429,0.2922500209690269
49,0.29310571038120276,0.2961929015456548
50,0.2908255292041649,0.29179631473515666
51,0.2901142411898795,0.29022403671196717
52,0.2918337767424105,0.29084157867867266
53,0.28742746767892446,0.2857953973978922
54,0.28672785456958627,0.28807074294940826
55,0.28657973647641716,0.2869109471623316
56,0.28617429186543114,0.28709888439434383
57,0.28663994507978763,0.285435017171862
58,0.28673111170613697,0.28810193237349474
59,0.286762862212414,0.28747620396521867
60,0.2866974446169145,0.28656839125958034
61,0.28676144022354594,0.29307555513722555
62,0.2866239407413202,0.284964397679
63,0.2863005907814518,0.28711461326976223
64,0.2901892311138501,0.2915995266603125
65,0.28914772735523,0.29059895347353976
66,0.2874319235638654,0.28706009904747415
67,0.29047322984364965,0.2882541843587805
68,0.287449156658517,0.2870799136048899
69,0.28801910357950306,0.29196913985516393
70,0.29050207462944955,0.2902840053943451
71,0.29003757815495385,0.2896230013860241
72,0.29176295682978476,0.28861053776063594
73,0.28741534802910806,0.28827530433789145
74,0.28736285536850004,0.2860587933927704
75,0.2904658908788249,0.29437138404235563
76,0.29390561991601255,0.29221973037780885
