epoch,loss,val_loss
0,0.0886084978177084,0.07480476505259426
1,0.07025701323943256,0.0680800857877465
2,0.0644202606269826,0.06260036319013565
3,0.062466807497244474,0.05998278745535585
4,0.061280792348938865,0.061120809474151126
5,0.0603348680463098,0.059899468361296074
6,0.05964295216404337,0.058386942400382114
7,0.05921828074378808,0.058400884633028775
8,0.05889635664074392,0.05835956998779519
9,0.05870476220452843,0.05774103076597006
10,0.05836379652429065,0.058710000665844524
11,0.05822181773261102,0.05865258928711894
12,0.05792372680213385,0.058104879303694366
13,0.05797025607050225,0.05687798354820933
14,0.057757232954560686,0.057017063795041206
15,0.05747930799258886,0.057334774133585224
16,0.05705524811754148,0.056783011755339854
17,0.05703730807936936,0.05874892783815748
18,0.05718369458881753,0.05637714755779165
19,0.056801396456759606,0.056872381565736485
20,0.05680130347694319,0.05621914115015685
21,0.05673805439103698,0.05605855497251965
22,0.05672796140027104,0.05721903164170812
23,0.056685035683386134,0.057208926374873806
24,0.056498451705925046,0.05629679811725546
25,0.05626651955342326,0.055928284159073464
26,0.05630446751099547,0.055656266885419046
27,0.05627130934681728,0.05639923083279328
28,0.0561800501018763,0.05559771933197679
29,0.05602709448505102,0.05572351213017705
30,0.05604002025886587,0.05547742235749294
31,0.05605750427843544,0.05528997111483188
32,0.05588914229177141,0.05579206622009242
33,0.055889696520170395,0.05523751928810742
34,0.055845728046259605,0.055759774322249454
35,0.05568137710255073,0.05639298340264089
36,0.055650661541326134,0.05613129659562786
37,0.055701769856009775,0.05633095929181901
38,0.05562205807233781,0.05529629190454708
39,0.05549394827597816,0.055884908744256494
40,0.05550597127949465,0.05524140473261069
41,0.05551943965536741,0.05486522519928646
42,0.05544170997826343,0.05532596858574202
43,0.05535620813380889,0.05644479068019254
44,0.05546138359357016,0.055436361886135696
45,0.055186711994713214,0.05480519503022246
46,0.05525890515820394,0.054699859611006
47,0.055188499822814464,0.05494042927810631
48,0.055078008635688236,0.05457404812904209
49,0.05498361667940515,0.05448181119287576
50,0.05497293771488617,0.0545250126005846
51,0.05485315002664989,0.05490823637684877
52,0.05497196099362385,0.054678507905370245
53,0.05483749073035098,0.05454018306051827
54,0.05483141712076201,0.05458364370406118
55,0.05482765064346499,0.05418873491417386
56,0.05461507549993081,0.054343220027667415
57,0.054738668250623915,0.054438119756968384
58,0.054512094092194194,0.05412422064738001
59,0.05460081708534028,0.05456925776438145
60,0.05454782930759239,0.05460730189684011
61,0.05443610425586554,0.05385957329208147
62,0.05443451141800054,0.05447272112218677
63,0.05439337142980004,0.05566164541333248
64,0.054291084710092426,0.0542619808583934
65,0.05442719913451053,0.0544043790354918
66,0.054438371326582524,0.05379092722169815
67,0.05435077822533323,0.05420941456819586
68,0.05419507837477278,0.05412331342918997
69,0.054245179331735234,0.05382185088049981
70,0.05417653811232175,0.053363212954169764
71,0.054166105244588696,0.05452199611193489
72,0.05411929171651949,0.05396185429494079
73,0.05415016010580528,0.05361592191694392
74,0.0542334227891953,0.05406511790181508
75,0.05410508192362063,0.05352189125812083
76,0.05397966194102308,0.05409394197591185
77,0.05400002134021442,0.053978145033786666
78,0.05403885803221899,0.05378469373503927
79,0.05398004527039231,0.053449166736221194
80,0.05387028196774786,0.05360948218416339
81,0.053948468516029725,0.05396851658377399
82,0.05383178033001223,0.0537400252266646
83,0.05396120116158791,0.053614516295585085
84,0.053806206258309036,0.053543443103360185
85,0.05377103641947314,0.05422087583145492
86,0.05380567368760632,0.054324840835616846
87,0.053811423998820114,0.05360295223095281
88,0.053735099190014145,0.053821485506245874
89,0.053787714339684954,0.05335144566432122
90,0.05375944238485268,0.053484261218948344
91,0.05376985283995627,0.053814519381626666
92,0.05376261420856295,0.05350684775755955
93,0.05377949870748834,0.053753234531092584
94,0.05374632287348536,0.053886081117480326
95,0.0537004037977434,0.05314800169679426
96,0.05358594044195199,0.053949771074592034
97,0.05370692079108936,0.05396648368453861
98,0.05357299930284917,0.05401162944234926
99,0.05370100938615242,0.05342595743999883
100,0.0536255843533024,0.05411751956561067
101,0.05362843372856287,0.053210987352186045
102,0.0536361138934551,0.05443247771329678
103,0.05359054865908336,0.053279736584454555
104,0.053553156238230946,0.05320765981843543
105,0.05359601075040783,0.05370722785407201
106,0.05360913809836388,0.053738703909642055
107,0.053527277812366256,0.05318068950517894
108,0.05349864980446215,0.05370966637178923
109,0.053520572927793796,0.05319468528032303
110,0.05344495005905924,0.0530487995677935
111,0.05340587950262706,0.053086040357576116
112,0.05340520761057335,0.053402278402233244
113,0.05339075104355634,0.05380807785922777
114,0.053532237492181174,0.05336996606428629
115,0.053401356677475406,0.05316655818308257
116,0.05347885161585902,0.05333847725768539
117,0.05338273023673088,0.05332037999153729
118,0.05341281113659431,0.05308628227589444
119,0.053371262396029635,0.05327176612526844
120,0.053480427445997215,0.0531987627982058
121,0.05341191097396465,0.0528687835996855
122,0.053344464445600134,0.05332229984161576
123,0.05343627307149244,0.05280446520736141
124,0.053303973718145915,0.05330771345728384
125,0.05344972170718695,0.05323110138327253
126,0.053377888227694785,0.05367386960436038
127,0.053200842928861604,0.0528947685958434
128,0.053270875701917894,0.05304991358858776
129,0.053311466915899185,0.05319014854969517
130,0.053360017162882314,0.052850588281678205
131,0.05325418029747777,0.053749124781591426
132,0.053164876873452276,0.0533458335671768
133,0.05327952235840093,0.0528348973312094
134,0.05315181568801463,0.05370534950908893
135,0.05318742851053606,0.05315395250324872
136,0.05325683794230973,0.053090387536559445
137,0.053250126356222977,0.05314681012525452
138,0.0533458979556571,0.053232327449336536
139,0.05324470653413233,0.052634559209382266
140,0.05320983047312109,0.053866072067477865
141,0.053229650045549214,0.05340290856790306
142,0.053242923380257004,0.05343425611482365
143,0.0532452379520613,0.05258864655757956
144,0.053153239065253384,0.05294526369119105
145,0.05321610898256311,0.053509712583447805
146,0.05320190290484769,0.05269165145182432
147,0.05318540374384525,0.053248423997950614
148,0.05304625389529764,0.05353647985913913
149,0.05317796225429569,0.05296251476365638
150,0.053254267846015085,0.05317103655144535
151,0.05314941456655133,0.05337920516692379
152,0.053143743875190434,0.053284250233072795
153,0.05312794749860135,0.053115965858582526
154,0.053134036761018466,0.05288008776477194
155,0.05309158991814469,0.05327055692007169
156,0.053222656147550944,0.05284812425635293
157,0.05310327094236841,0.05258047267720658
158,0.05313525847327753,0.05259014305568511
159,0.05312695595481415,0.05312777728249062
160,0.053071660876778566,0.05300617100250336
161,0.053190745188092935,0.05269530656246039
162,0.0531129032872658,0.05293528735452787
163,0.05316855242505374,0.05287590790955955
164,0.052935179415990415,0.05260240325228156
165,0.05312204680565504,0.05287763610593143
166,0.053055349761070625,0.05300509936867222
167,0.053016999982518,0.052918688816113155
168,0.053109148099048833,0.05285850989241754
169,0.05304702505341335,0.053430251174470034
170,0.05298575247502212,0.053225664286030726
171,0.052900829927974874,0.052787220953194144
172,0.05313114496908725,0.05318238997540758
173,0.053089111848638786,0.05296075842516594
174,0.05311522124131874,0.053205757891347925
175,0.053045739814160074,0.05300294316140357
176,0.05312277417286275,0.05353242336372584
177,0.05307472286504155,0.05254398492851269
178,0.05302343300204936,0.05308093731811561
179,0.05295551406190193,0.05342661978367245
180,0.05296635491047592,0.052972132267046806
181,0.05299988008198542,0.05270807532311669
182,0.05309614046720443,0.05283182159288054
183,0.05306279352890382,0.05256690636055345
184,0.05290793877327343,0.05292990764709324
185,0.05300130912416898,0.052690406574430894
186,0.053047006823939626,0.05296399234874964
187,0.05299914553442007,0.052588439614468116
188,0.052969235503117905,0.05272240993698537
189,0.052982771235942805,0.052812730053222505
190,0.052932924672611584,0.05250766322053692
191,0.05303327900356891,0.05283811312196568
192,0.05299957060320176,0.05299518699237785
193,0.0529537176225827,0.05327838118333675
194,0.053086140790471546,0.052688032573565066
195,0.052979501083298394,0.0530532993912401
196,0.05289857593854321,0.05256546175860737
197,0.05291768455900653,0.052962883645044666
198,0.05296574674331368,0.053100212232646514
199,0.05295176577524117,0.05273504568906339
200,0.05290141409028264,0.053463820416119794
201,0.052927046933430866,0.05294582136807312
202,0.052917220436772265,0.052957786020658745
203,0.05288800829786701,0.052878651196696325
204,0.052894289989293936,0.05249675035698538
205,0.052941226452238796,0.0525520993114701
206,0.05281738668457939,0.05258399094674487
207,0.05288154881820423,0.05285980015364533
208,0.05279366095802524,0.053134714292533344
209,0.052734078337948416,0.05328206561561258
210,0.052915581388811195,0.05266996566437314
211,0.05278818117399997,0.0528317133431547
212,0.052883289649920284,0.05260835088068439
213,0.05286898010388269,0.052997820306726486
214,0.05270386246497669,0.052497076962337304
215,0.052767289988028536,0.052375444285479134
216,0.05275873088407626,0.05286598800503586
217,0.05270415001076306,0.052871245948167944
218,0.05266443877386573,0.053338981441987066
219,0.05279058815436118,0.05250181442602692
220,0.052742853294595805,0.05262224615063916
221,0.05270537024949112,0.053308549848738736
222,0.05275683354766955,0.052783552902951725
223,0.05266325556260836,0.05319592047565924
224,0.052673917761940546,0.052625631768413575
225,0.05272322685641452,0.0530477029883832
226,0.05273680257267109,0.052495476477791
227,0.05274700082614607,0.052566108837834656
228,0.05273001218006257,0.05550610973284795
229,0.052751944291351605,0.052469091557391524
230,0.0527352490304289,0.052349988157599794
231,0.05279095322240777,0.052362155361521626
232,0.052672693718990075,0.05450104704269996
233,0.052705502937240974,0.052669477728992775
234,0.05274865442305656,0.0538286998387306
235,0.05274350179202759,0.05540797518700287
236,0.05262713226877493,0.05251285128628202
237,0.05267747863252053,0.05316611517673687
238,0.05271182991011601,0.05269656081501367
239,0.052580732917471416,0.05256745614129911
240,0.05267963008183425,0.05293066118180604
241,0.05254637173337746,0.052578870310602946
242,0.05270486223986531,0.05274063773619626
243,0.05270881640535186,0.052499951268765825
244,0.05256803876372015,0.05305152643222371
245,0.05264749484388707,0.052382500602796714
246,0.05267437625356869,0.052352145329006845
247,0.0526865671553633,0.05228564643460527
248,0.0526335980543547,0.05295276243248885
249,0.05249973614783397,0.05301506729523834
250,0.052670960275019524,0.05243701997488071
251,0.05268605828855244,0.05264954554753623
252,0.05248040933575073,0.052773235257594815
253,0.052583660365939276,0.05311975722795089
254,0.05265015792781246,0.05265552865771147
255,0.052594612792925675,0.05333849253599756
256,0.05273475898882958,0.052636019305023304
257,0.05258277391950301,0.05258603129471206
258,0.05255206936654797,0.05266271774881235
259,0.05256972466114717,0.05289504832539606
260,0.052612985215866284,0.05233761345963028
261,0.05256382174602263,0.05275205339006987
262,0.05249763011379799,0.054383099811248684
263,0.052658873581172085,0.052637061837219425
264,0.052586272308853065,0.05291744269264247
265,0.05258704174875312,0.05268957369011034
266,0.052606562549532,0.05230741324943142
267,0.05260633416627687,0.05289530740963022
