epoch,loss,val_loss
0,0.7915404894863296,0.6272379908450815
1,0.6234864997617342,0.6212533402812573
2,0.6211679149659721,0.6218245431434276
3,0.6211028839882646,0.6215312360793122
4,0.6210464735055771,0.6214543239090794
5,0.6217264272753891,0.6213172170542931
6,0.6216625634397955,0.6213072104047436
7,0.6210307977920355,0.6211614812067313
8,0.6211952850492117,0.6213723924732948
9,0.6287910283689967,0.6220294019972631
10,0.6212306863577791,0.621201750844024
11,0.6210477401427829,0.6214460961578429
12,0.6210571182482618,0.6212859994681307
13,0.6211308504259864,0.622006776258927
14,0.6210587325022202,0.6216319637705189
15,0.621024676995684,0.6211765293003053
16,0.6212601632418867,0.621164457742558
17,0.6211845023071427,0.621255425981773
18,0.6213598916696947,0.6217912837516429
19,0.6212586025859035,0.621312537396601
20,0.6211526242953554,0.6212255252424137
21,0.6210720588378512,0.621306391649468
22,0.6211325127333017,0.6215984031211498
23,0.6222834938256315,0.6284063592437625
24,0.6241257654296027,0.6211946075276811
25,0.6211126402058958,0.6213822027509527
26,0.6212485178496486,0.6212399514146554
27,0.6210967202211227,0.6219302660735079
