epoch,loss,val_loss
0,0.6720411470373981,0.6690525703039714
1,0.6690721043489876,0.6686451517914425
2,0.6684740287701538,0.6680731220221697
3,0.6682632426309623,0.6681246410824229
4,0.6681444943452108,0.668025942742085
5,0.6680695059357495,0.6680695537006293
6,0.6680080331510452,0.6678943608298196
7,0.6679786733786107,0.6679262888342807
8,0.6679561739468896,0.6678827735685533
9,0.6679324908800885,0.6678495494071071
10,0.66790662235382,0.6678133436527205
11,0.6679034123619689,0.6678292135742698
12,0.6678905093648277,0.6678789745193557
13,0.6678857467706232,0.6679342143588859
14,0.6678629348659239,0.6678019489603066
15,0.6678583096145907,0.66805454936276
16,0.6678595291981476,0.6677810721894352
17,0.6678434591789918,0.66784696295007
18,0.6678416807304025,0.667839865294047
19,0.6678284899103745,0.6677779069017832
20,0.6678294207315502,0.6679775275604305
21,0.667816651814687,0.6678710980687484
22,0.6678230033738568,0.6677511237986922
23,0.6678135657958587,0.667833816088163
24,0.6678103498609762,0.6683413688953106
25,0.6678001312216179,0.667867533533508
26,0.667796612954932,0.6681254965200022
27,0.6677884580722656,0.6677306870077148
28,0.667791381420528,0.6679295102952432
29,0.6677857404109466,0.6677580160183587
30,0.6677802698608206,0.6679027046222544
31,0.6677898399185644,0.6677096601159638
32,0.6677770417432759,0.6678693260803412
33,0.667773083487173,0.667713563110929
34,0.6677842493387676,0.667736903786955
35,0.6677755887202232,0.6677295869988188
36,0.6677591091525291,0.6678185249676479
37,0.6677725819589045,0.6677264126299629
38,0.6677764459981606,0.6679824041077872
39,0.6677728446607698,0.6676828884309338
40,0.6677643802687526,0.6678078821515918
41,0.6677654990897667,0.6678275804365835
42,0.6677580857032064,0.6676975537766298
43,0.6677590058641584,0.6677086799079668
44,0.6677598872510508,0.6676816140451739
45,0.6677489417459822,0.6678585011669187
46,0.6677486633637908,0.6677236503761992
47,0.667741819239018,0.6676790374680134
48,0.6677477127327734,0.6676997433229357
49,0.6677374132259071,0.6676697948730317
50,0.6677460088631539,0.6677426994586405
51,0.6677449770940606,0.6676949962788716
52,0.6677420412499714,0.6677323567364412
53,0.6677373625594742,0.6677306011060331
54,0.6677387252419816,0.6678102652133251
55,0.6677370341639997,0.6677565507794136
56,0.6677322835221193,0.6677565250148253
57,0.6677333585095301,0.667658904645934
58,0.6677270170749697,0.6680489712554231
59,0.667732987745306,0.6677092345121777
60,0.6677318757571216,0.6677959722857322
61,0.6677408561839571,0.6677256956585583
62,0.6677266648071885,0.6677515282524431
63,0.6677256587128741,0.6677090396952097
64,0.6677341704164379,0.6678082409626793
65,0.6677296660538095,0.6678682753229259
66,0.6677340990890178,0.6677533334892973
67,0.6677183448117441,0.6676806302579402
68,0.6677467287579896,0.6677495834549366
69,0.6677313514751047,0.6676971047155319
70,0.6677247051000863,0.6676539631990286
71,0.667732642789173,0.6677189689120347
72,0.6677395740589481,0.6677136258215229
73,0.6677218959149798,0.6677312703049804
74,0.6677257829714528,0.6677067028381688
75,0.667730235971902,0.6677150990471946
76,0.6677275731964577,0.6676831570511716
77,0.6677328200901349,0.6677540018599915
78,0.6677250395758484,0.6679833224038628
79,0.6677239944929134,0.6677309893496871
80,0.6677136329596999,0.6676857840630316
81,0.667714682577608,0.6678165576889852
82,0.6677327257155223,0.6679000948853884
83,0.6677102016684184,0.6676671415345544
84,0.6677169911415984,0.6677784881579965
85,0.6677278963407032,0.6676757238047295
86,0.6677148128935981,0.667834272159832
87,0.6677258821634389,0.6677451441364903
88,0.6677305003326729,0.6678377742211221
89,0.6677110522555153,0.6677632254347317
90,0.6677293096612457,0.6676766928608897
