epoch,loss,val_loss
0,0.671909758542353,0.6694779834735483
1,0.6686966101077685,0.6681869051000913
2,0.668375143216183,0.668201569735856
3,0.6682105718425296,0.6680807377505243
4,0.6681102743397884,0.6683933868301714
5,0.6680929552853874,0.6679379870814662
6,0.6680166197530542,0.6680973544901713
7,0.6679500786235606,0.6679196873018819
8,0.6679278666700085,0.6678522126846219
9,0.6679162703611964,0.6678759544126449
10,0.6678991060890798,0.668120715961267
11,0.6679034584800186,0.6678378713042209
12,0.6678945267333466,0.6679119213047453
13,0.6678711142795685,0.668571335594944
14,0.6678787035511441,0.667990543173797
15,0.6678518463360548,0.667935203914311
16,0.6678524551662517,0.6681451157955615
17,0.6678586800064878,0.6678101365678659
18,0.667853273451624,0.667851293175747
19,0.6678518311487461,0.6677514488584646
20,0.6678365545061358,0.6677254214476119
21,0.6678249587597582,0.6677623983944024
22,0.6678268388236137,0.6677185457634275
23,0.6678236615839079,0.66777485194928
24,0.6678215853937064,0.6677985799815459
25,0.6678261981034607,0.6677398342944256
26,0.6678101658857392,0.6677426791960194
27,0.6678055461775014,0.6677944648650385
28,0.6678054947553712,0.6679743413298065
29,0.6677999487546202,0.6680311715040845
30,0.6678078027356288,0.667768569826784
31,0.6678089684966514,0.6677550907762115
32,0.6677955400792144,0.6677291894964781
33,0.6677979790964509,0.6677758618856482
34,0.6677986782206523,0.6678074674925792
35,0.6677926379259759,0.6677440225338521
36,0.6677889732054535,0.6678457812990799
37,0.667789697967359,0.6677738431665501
38,0.6677892601543188,0.6679450230030505
39,0.6677826987368823,0.6677113590997739
40,0.6677851502870208,0.6677611632619247
41,0.6677885028043442,0.6678997592062276
42,0.6677748875963424,0.6678654343555346
43,0.6677823661527301,0.6677420355250167
44,0.6677806017097849,0.6677123953627594
45,0.6677788192823464,0.6678593164933823
46,0.6677840496461294,0.6678239533682319
47,0.667778464595229,0.667737486729255
48,0.667784226351526,0.6677436911438595
49,0.6677737335659835,0.6676876250626728
50,0.6677736120296508,0.6677155020219221
51,0.667781423370553,0.6677856932502823
52,0.6677737965633781,0.6677957093449444
53,0.6677794456324168,0.6677118350199375
54,0.6677741983719345,0.6678090081321394
55,0.6677767792701709,0.6678017740509942
56,0.6677717391812065,0.6686790284684515
57,0.6677733474495857,0.6680288290267546
58,0.6677639463864432,0.6678082088974511
59,0.6677718740897541,0.6677273718654074
60,0.6677711465685278,0.667747301558407
61,0.6677746219915895,0.6678003555787704
62,0.6677658717905638,0.6677854019714052
63,0.6677662570810585,0.6677143876664987
64,0.6677645348822278,0.6676978150904919
65,0.6677663326705171,0.6677399929640606
66,0.667772313295076,0.6676978358264005
67,0.6677579911937043,0.6677043508063475
68,0.6677639193651346,0.6683921843545313
69,0.667767417963179,0.6678521800573647
