epoch,loss,val_loss
0,0.8549596162113416,0.5868201884188393
1,0.5762776717043047,0.5718144991601161
2,0.5713543129521746,0.5713666829951974
3,0.5713244377796656,0.5720112624094468
4,0.5718229078815273,0.5715720237687577
5,0.5712148671926454,0.5726888905199923
6,0.5713543317422695,0.5720637047937674
7,0.571555721821403,0.5807400770889696
8,0.5776410643444505,0.5713871149129646
9,0.5714838494010058,0.5727785756421644
10,0.5714807909280447,0.5713185917499454
11,0.5712169185473321,0.5727054860240729
12,0.5713224508041559,0.5713204856990843
13,0.5712438763266078,0.571364049301591
14,0.5713498735612677,0.571492849856384
15,0.5713236757027086,0.5713604060254356
16,0.5711933847237619,0.5713356201962907
17,0.5711420759058122,0.5714311225469723
18,0.5712109434512235,0.5716593076092328
19,0.5711838723153106,0.5715225532997487
20,0.5835457687538107,0.5747085546338281
21,0.5664224473696963,0.561877940514291
22,0.5611979357647957,0.5613640352737072
23,0.5612481991141958,0.5614090053610099
24,0.5612445270368295,0.5613613415134046
25,0.561207015076965,0.561515399651934
26,0.5612774485149433,0.561408120070317
27,0.5611433315954775,0.5615162290343942
28,0.5612237388773482,0.5614040595616481
29,0.5613952648732089,0.5613573087278263
30,0.5612257082949005,0.5615338433620541
31,0.5614219369506344,0.5625581574994464
32,0.5616089003954747,0.5614582397216974
33,0.5613355146822079,0.5614441679429638
34,0.5612397306341226,0.5613639410151992
35,0.5615539724820652,0.5621498550555503
36,0.5611913173389681,0.56201994141867
37,0.5613071516502736,0.5614653853482978
38,0.5614015455393828,0.5619574775991514
39,0.5612512434175773,0.5613566068715827
40,0.5612891297931819,0.5615127021952193
41,0.5611358837871897,0.5613443985465885
42,0.5614169760575898,0.5613484673721846
43,0.5613359654904644,0.5617799426234046
44,0.5615776068788474,0.562345004358957
45,0.5616515939549882,0.5631136732508045
46,0.5613926148537826,0.5613448772319528
47,0.5613247632056244,0.5613454270732495
48,0.5611963995975425,0.5614079703656278
49,0.5612165039207893,0.5613637751387072
50,0.5614550837558677,0.5613849056783573
51,0.5612333661826082,0.5614426357801571
52,0.5618437861287316,0.5627759075904077
53,0.5675548196454997,0.5615636461464933
54,0.5611460456860465,0.5614438662233279
55,0.5611287503279456,0.5617176950439926
56,0.5611393809010509,0.5613711443982383
57,0.5612487320136038,0.56145104604174
58,0.5611206675068661,0.561351618563482
59,0.5611593184237025,0.5613576293915741
60,0.5612145291126359,0.5616333918978077
61,0.5614271279453307,0.5620358900506367
