epoch,loss,val_loss
0,0.5314074241314045,0.5310654931269567
1,0.40024031747354744,0.2848023162734124
2,0.2859399201321382,0.2845102658046978
3,0.284832134915642,0.285232670534929
4,0.2847618095703863,0.28871776788465436
5,0.2842570697580029,0.2833891756037625
6,0.2842798066723585,0.2831841898023639
7,0.28413406764341936,0.2830497523099554
8,0.28397868625393025,0.28365670790151687
9,0.28375232896668373,0.29470843132908825
10,0.283608578570781,0.2867570206633868
11,0.2834317925815315,0.283277311499598
12,0.2834880219757446,0.28398769580696714
13,0.2832439751522734,0.2824933749570444
14,0.28323698214289006,0.282849869450032
15,0.28318491872808316,0.28243620611597825
16,0.2830781948955171,0.2825899956539902
17,0.2827400045723776,0.2820658356764772
18,0.2828514901302539,0.288579536623162
19,0.28289310012125474,0.28190209655548737
20,0.2826942809087717,0.2854029100526947
21,0.2826762752102196,0.28383705266947784
22,0.28257086732288117,0.28226910501200864
23,0.2826038502773302,0.2824499949480109
24,0.2826603997732786,0.2839015312289482
25,0.28246424223306366,0.2820962486136936
26,0.28235889093468,0.283389511963274
27,0.28243815333975975,0.2817239390709264
28,0.2822942112791231,0.28177944945342487
29,0.28245023890661825,0.28277841377494944
30,0.2823301744886869,0.28170354015773935
31,0.2822329520018044,0.28171958206013475
32,0.2823519311988574,0.2823003325065963
33,0.282318681154292,0.28246148274495053
34,0.28220352320887787,0.2824968092642706
35,0.2822926503865801,0.28166574681958845
36,0.28214365626848376,0.2841387870589793
37,0.2823061165944079,0.28201447624722426
38,0.2820796604141412,0.28215949008837526
39,0.2821127893929099,0.2823466902926897
40,0.2821409840574714,0.2833105967595027
41,0.28224431101769515,0.2839333542966961
42,0.2821116413213588,0.285993869872602
43,0.2820476435915773,0.28382588493321137
44,0.2821617870085264,0.2816860484130329
45,0.28211022322564505,0.28238146127601416
46,0.28208453655345467,0.2820489377744736
47,0.2820400826965172,0.2831153098170278
48,0.28204898746132184,0.28218175017508323
49,0.28207265714486435,0.2817048319811856
50,0.28208411551563417,0.28188750771967414
51,0.2819981658781814,0.28240914094832636
52,0.28206931125211976,0.28204512563591855
53,0.28199460439436147,0.28215988844854956
54,0.2821350689703339,0.28190057076532254
55,0.2820830781888521,0.28150889114765615
56,0.2819524449376103,0.2821652620217345
57,0.28196186980324817,0.2896826225090264
58,0.2819825717133039,0.28143938220760073
59,0.2820494638709352,0.28286412031419816
60,0.281934489249186,0.28307693146594404
61,0.2820246790486286,0.28508274580349696
62,0.2820480849535554,0.28199052341818515
63,0.28189631699892576,0.2816202997865511
64,0.2819262622782748,0.28188322587285386
65,0.2817880784735101,0.28142024799257
66,0.28193207407073095,0.28169829622095927
67,0.28184742353347475,0.28235420380573417
68,0.2820428299747839,0.2814517455716287
69,0.2818665066809758,0.28204868003984834
70,0.28189706921993957,0.28141746013691055
71,0.28197453867619077,0.28149410907742994
72,0.28188934165968765,0.28213206193878987
73,0.28186808639614197,0.28535338362156604
74,0.28185422909125535,0.281374996870978
75,0.28183622273560943,0.2816569719657709
76,0.2818649359998641,0.2826864375074212
77,0.28196711888947323,0.28167069421216806
78,0.2818943101522415,0.2813453957253591
79,0.28183370012861897,0.2831482370497275
80,0.2818390174883159,0.2816550956026792
81,0.28183131231540165,0.2819013557126445
82,0.28186261959137204,0.281148006528542
83,0.28178045853860617,0.2818069788125845
84,0.2819283363331185,0.2813169272750542
85,0.2818228879717959,0.2817885693042509
86,0.2818713069748559,0.2844174269263265
87,0.28185077687749016,0.28251919897259314
88,0.2817043292588061,0.2818707069007694
89,0.2818468991031582,0.2820409923274227
90,0.28186647830761563,0.28198468426321044
91,0.28177783348374136,0.2813023890662134
92,0.2817533953391853,0.28275720058540554
93,0.28184249096612746,0.2853329272483182
94,0.2817845814976908,0.2814310137746352
95,0.2818528287918994,0.28165309782655307
96,0.28180501501093635,0.2830542883565349
97,0.28178631419266903,0.28205823175072964
98,0.2817985104538115,0.2815738504341163
99,0.2817901160111317,0.28190185168836607
100,0.281848128490666,0.28134576670880945
101,0.28179474533084614,0.2817612528653062
102,0.28171861088934896,0.28113433507180985
103,0.28174617245699274,0.28452628831709587
104,0.28174496634898727,0.28127660396377147
105,0.2818691884703341,0.28151911894973397
106,0.28168256715936163,0.2813934840576229
107,0.2817519582855643,0.2815867891974248
108,0.28172983449736383,0.28135349812637783
109,0.28178005205150997,0.2815308758106184
110,0.28169507349268375,0.28160951795708156
111,0.28172536814520915,0.28172949412028786
112,0.28175974886095956,0.28298698406361467
113,0.28172086664839335,0.28142189167569354
114,0.2817386092845857,0.2814958274068667
115,0.28164131160778605,0.28121785406143435
116,0.28167687363748956,0.28132309495071617
117,0.2816639987092209,0.2815071949000394
118,0.28164710088590317,0.2814599433104986
119,0.2816608273348468,0.28161919591740403
120,0.28169198935639383,0.28129500109267885
121,0.28169333574605,0.28298577864471797
122,0.2817158493064723,0.2819721953153019
