epoch,loss,val_loss
0,0.7960256373543456,0.5719372371370478
1,0.5714515704825252,0.5718356287756632
2,0.5712044128151827,0.5713774159897206
3,0.5712622853828647,0.5715567284776258
4,0.5788751019679915,0.5716207498727843
5,0.5714494890944902,0.571567809396936
6,0.5712399399557779,0.5714973516242449
7,0.5712323837194024,0.5714225625807001
8,0.571218315791098,0.5714317093523897
9,0.5715561661609384,0.5723805626233419
10,0.5715224377868712,0.5713443991749786
11,0.5717931925788406,0.5743956099184908
12,0.5718827711211311,0.5715135659358298
13,0.5718271770834614,0.5789388533710509
14,0.5766297931510965,0.57180760581364
15,0.5712904711410365,0.5715496017951374
16,0.5713855191410666,0.5723036643146544
17,0.5715123126981179,0.5718861578046813
18,0.5713042570639026,0.572362458983133
19,0.5718405964454631,0.5713458869808404
20,0.5712042415480897,0.5713450224824654
21,0.5712453565856283,0.5722281281338182
22,0.571269466279397,0.5720011554947195
23,0.5713432842446852,0.5724435203759245
24,0.571525067476031,0.5724003314971924
25,0.5754056836283484,0.5725832161053207
26,0.5716793470912509,0.5723026459531266
27,0.5713304293556115,0.5718817244204439
28,0.5712727630169201,0.5714233277380004
29,0.5713025028083367,0.5713415746540986
30,0.571229445533851,0.5714431571405988
31,0.571576312992924,0.571325187535249
32,0.5714525930025165,0.5714899315390476
33,0.5717726403736637,0.5716496706008911
34,0.5712248682975769,0.5720374561095423
35,0.5715147239909307,0.5730370791383492
36,0.571723552637322,0.5717584717181302
37,0.5714394983087091,0.5744549789169963
38,0.5756991578010934,0.5730323093806127
39,0.572008460683108,0.5713357347850652
40,0.5711567275591907,0.5716669517894124
41,0.5712016132450843,0.5722679907037306
42,0.5713878141509162,0.571647936983626
43,0.5713898325459286,0.5713798704073411
44,0.5713919225589249,0.5714845888374388
45,0.5711934628104671,0.5713632018991219
46,0.5716282805423096,0.5723110326500827
47,0.5718315393117663,0.571321263793827
48,0.5711266712624897,0.5714124644449515
49,0.5712104952612589,0.571650552195172
50,0.5712950054065201,0.5717896440232447
51,0.571615548096886,0.5720664627792299
52,0.571254987279266,0.571551614953566
53,0.5717548111920517,0.5743096119673677
54,0.5727821727131688,0.5553338929664257
55,0.5440918849420178,0.5415123169736344
56,0.5418392781755413,0.5433725275734599
57,0.5417630962007114,0.5418970104335814
58,0.5412718342564211,0.5414113577946212
59,0.5413254716599635,0.5414551672085312
60,0.5413673635601073,0.5414209407429362
61,0.5412346532794549,0.5414158161296401
62,0.5414885730706445,0.5415701875390933
63,0.5412568867360591,0.5416634078173674
64,0.5415226167178585,0.5415753038354623
65,0.5412483663521996,0.5414760011111119
66,0.5418240238529767,0.5414108019466548
67,0.5411826216589265,0.5420128716978916
68,0.5413664402271734,0.5415784541026566
69,0.5412845129498524,0.542639833088069
70,0.5439056281279532,0.5419132529303085
71,0.5411915654359862,0.5416318996008053
72,0.5412888841111531,0.5414117214291595
73,0.5412756244649567,0.541517972946167
74,0.5411859419610765,0.5414786315703577
75,0.5414309184372579,0.5414181827574738
76,0.5413291284896299,0.5415567289027132
77,0.5413197765670698,0.5422451075657394
78,0.5414608764710044,0.5417291628297909
79,0.5413716882082227,0.5414459682250208
80,0.5412482115649437,0.541420461133469
81,0.5412690490099195,0.5414110385170279
82,0.5417198601927252,0.5420806634333707
83,0.5417796108457777,0.541911379311436
84,0.5411654475123383,0.5414061879002771
85,0.541405224522879,0.5414461077645768
86,0.5413170943580549,0.542775035828583
87,0.5412967725625641,0.5418175948682682
88,0.5455057280624251,0.5591384269470392
89,0.5360491140252244,0.5314999190411827
90,0.5312264569353996,0.5314636498458626
91,0.5314301632787523,0.5329501351644826
92,0.5315646462970309,0.5318911408269128
93,0.5312399704018921,0.53145568038142
94,0.5312565104597915,0.53150694130003
95,0.5312699600091584,0.5314540562703628
96,0.5312955981693218,0.5314397354458653
97,0.5315166771873947,0.5314911668614823
98,0.531193826549737,0.5315104561258656
99,0.5312148903999526,0.5314388686372328
100,0.5312276162226379,0.5315321438996367
101,0.5311718703240387,0.5314358190972676
102,0.5312375541805296,0.5314662026804547
103,0.531252398663405,0.5314875235853269
104,0.5314314274516833,0.5318874134573826
105,0.5314468491909116,0.5315324756526207
106,0.5313801614505068,0.5316370716390684
107,0.5313793114297458,0.5314366373904916
108,0.5312895516092463,0.5314368665680405
109,0.5312184589777806,0.5318143885265025
110,0.5315802255958242,0.534465302330579
111,0.5318748404197299,0.5317283411358678
112,0.5312991585842398,0.5315222989681155
113,0.531232504265561,0.5314325805782347
114,0.5312894490338111,0.5315910032553266
115,0.5314960388866198,0.5314544721167217
116,0.5312214817187583,0.5314412814702174
117,0.5312363576211363,0.5318176963532618
118,0.5312962636775133,0.5314722477003585
119,0.5314195767545576,0.5316889900569768
120,0.5243677282826229,0.5215465370998826
121,0.521408398638092,0.5215836379879205
122,0.5213259620259899,0.521525056325188
123,0.5219789786548269,0.5214629667673925
124,0.5213178316136047,0.5216623341390328
125,0.5214059018657498,0.5222923852676569
126,0.5214081700766118,0.521550271862237
127,0.5213519824567692,0.521478513876597
128,0.5213158176850903,0.5214962238489196
129,0.5217299177973154,0.5215246284654899
130,0.5214554972426836,0.5228429067042447
131,0.5215072693442806,0.5224683164626129
132,0.5214518778391894,0.5220110356345657
133,0.5213415462533325,0.5223168361094571
134,0.5214672441322367,0.5214615893918414
135,0.5212421689846719,0.5219507369884225
136,0.5213786725542034,0.5215423860291178
137,0.5218506671045485,0.52254716093226
138,0.5214458927319647,0.5214950636375782
139,0.5214778844084235,0.5222890039747076
140,0.5215543674868207,0.5225347192712533
141,0.5215521393204228,0.5229079709496609
142,0.5215929541784972,0.5215048896249874
143,0.5214303562499448,0.5225594635157622
144,0.5215246038227427,0.521459862705349
145,0.5214005469967845,0.5214865572692812
146,0.5215140504122396,0.5217887167782747
147,0.5212842788191113,0.5220671776653261
148,0.5216658699112037,0.5216269941292992
149,0.521335662027354,0.521544081758159
150,0.5213660502310563,0.5214698675066926
151,0.52122899943852,0.5214717004650323
152,0.5213683241405537,0.5218754664872044
153,0.5215022238958098,0.5224994818369547
154,0.5213477905714543,0.5214867282283399
155,0.5214648844351756,0.5217970933100974
156,0.5214061583043377,0.5216353983842126
157,0.5213200965901061,0.5214738078819688
158,0.5213177331966331,0.5214750378630882
159,0.5214567638798894,0.5228775878285252
160,0.5216840416270017,0.521808476411095
161,0.521306241821565,0.5214997617773307
162,0.521203626341906,0.5214646421661673
163,0.5213165292444155,0.5215615463811297
164,0.5214277381120727,0.5214598317478978
165,0.5214734342363145,0.5214563529620799
166,0.5213928599998316,0.5220435705295828
167,0.5213342580068328,0.5220452246739883
168,0.5213286924423789,0.5216279718302941
169,0.5212742302768915,0.5215345330016558
170,0.521647962180835,0.5218289619268373
171,0.5216487601437926,0.5219826545826224
172,0.5213481246346959,0.5219678291978762
173,0.5213213713902219,0.5215525539346444
174,0.5212961436858164,0.5216736132784408
175,0.521367392952744,0.5223113242969957
176,0.5219086132924378,0.5216159862141276
177,0.5212827637522104,0.5216260376826737
178,0.5213723573881834,0.5218190495357957
179,0.5213475162668746,0.5214562346768934
180,0.5216408154761144,0.5214660883873932
181,0.5213865177267898,0.5215709394262743
182,0.5212314626351191,0.5216425481692765
183,0.5212479554097473,0.5216866727023162
184,0.5213486693934261,0.5219757612361464
185,0.5213960834251817,0.5214763454688612
186,0.521347261060424,0.5215774386428124
187,0.5212412558168712,0.5214776724807976
188,0.5213204069347036,0.5214926452599755
189,0.5212458251982697,0.521773939908937
190,0.5214189888586985,0.5231126084808231
191,0.5215507936724089,0.5221149778181269
192,0.5216424600714553,0.5214658920155015
193,0.5212608488031136,0.5214535575504451
194,0.5213123074797696,0.5217117353003154
195,0.5213469233007703,0.5214879900910133
196,0.5212326548820319,0.5215567706167236
197,0.5215840185643474,0.5216023496879164
198,0.5212092849327304,0.5215577557105426
199,0.5216099644508164,0.5214576351550199
200,0.5211816678059501,0.5215360300485478
201,0.5212828995953542,0.521538373573806
202,0.5213342094914242,0.5214584640754286
203,0.521398811223279,0.521860611993213
204,0.5216600092498523,0.5214828613192536
205,0.521274507199763,0.521532627501229
206,0.5212836539714527,0.521456567816032
207,0.5212675137421265,0.522073696750079
208,0.5212293958787154,0.5214653264644534
209,0.5213598106874668,0.5215218640113062
210,0.5214225200103543,0.5215051469876785
211,0.5218531969905824,0.5214825452760209
212,0.5212044891460922,0.5214552948641222
213,0.5212114986215143,0.5215508568194486
