epoch,loss,val_loss
0,0.4528701221075506,0.44820692009724694
1,0.44809559007653726,0.4476467293781915
2,0.4472620569712728,0.44690966107709235
3,0.4470027800357982,0.44775558151027406
4,0.4468811548057843,0.44790839294050233
5,0.4467889001957753,0.4466300825327265
6,0.44675417513641685,0.44663825190392675
7,0.4466831906913119,0.44706467462532573
8,0.44665953290645344,0.4465494346234106
9,0.44658313416453077,0.44642185694526504
10,0.4465644194830029,0.4464819417697916
11,0.4465543439603436,0.44674343159121854
12,0.4465164079049558,0.446450236698534
13,0.4465051041535773,0.4467082079823496
14,0.4465022605195561,0.4466192649256798
15,0.44646353514851017,0.44662495353085824
16,0.44647324735584976,0.44641234317133505
17,0.4464657447224544,0.4478621119896768
18,0.44645705384722273,0.44625807797938366
19,0.44644397972248884,0.4465130054625329
20,0.44644190282470847,0.4463264182542749
21,0.4464452590420305,0.4463131548305303
22,0.4464341728510368,0.4462971257512682
23,0.44643209938189804,0.4463113046905243
24,0.4464166805545891,0.4464186602727355
25,0.446392869436918,0.44657314851621244
26,0.4464038601864091,0.44625074033701684
27,0.4463886371580825,0.4464600359387788
28,0.44636664810449306,0.446211938970438
29,0.44637092866316186,0.4466822163786545
30,0.4463761488139867,0.44665040898855507
31,0.4463418654301656,0.4462025524368949
32,0.4463377215967157,0.4463340846835532
33,0.44638141782403906,0.4462548315968762
34,0.4462972506006147,0.4464109001473221
35,0.44631275762680045,0.4463223497861668
36,0.4463164167975223,0.4468993745134131
37,0.4462918996490649,0.4461564810932718
38,0.4463096913128996,0.44649710403778414
39,0.4462965582678294,0.44615522379023265
40,0.4462801226520628,0.4461561015166952
41,0.44629747494294963,0.4467369235626817
42,0.4462877200588232,0.44644480593151253
43,0.4463008432502465,0.4462829176160893
44,0.44627623034672725,0.44617756680578513
45,0.44630282417327644,0.4461832109958895
46,0.4462721280979316,0.4461537608585642
47,0.4462779482141025,0.44615295993778903
48,0.44626002376051255,0.4464784537148535
49,0.4462821807295865,0.4466757579417737
50,0.4462632325064096,0.44619698200568964
51,0.44625735960304136,0.44645126774056676
52,0.4462529443910108,0.44638211749327683
53,0.44626187620315555,0.44614442072198646
54,0.4462637082147547,0.4471766448790027
55,0.44626003465107417,0.44620738913936
56,0.44626748914031467,0.44624584973893744
57,0.4462523415081838,0.4462426633456209
58,0.4462632540362911,0.4461523923773328
59,0.44626207125906175,0.4461359050670273
60,0.44625389380802166,0.4461830205568309
61,0.44624693671477333,0.44618415632851366
62,0.4462608321949989,0.44617298572294173
63,0.44625385423803454,0.44628864939396196
64,0.44624996041065507,0.4461396934820464
65,0.44624464846665785,0.4464011683505463
66,0.44622570011924056,0.44620026759710857
67,0.4462487848949834,0.44612667034045045
68,0.4462387537829552,0.4461534153291073
69,0.44624336789800684,0.44624631515803465
70,0.44623499939081374,0.4463558829895616
71,0.4462457397102393,0.44613211177123097
72,0.44625091171493725,0.4463941041500338
73,0.4462465450406868,0.4462493110383415
74,0.44625166929091103,0.4461160502569847
75,0.4462303043009736,0.4461488283597506
76,0.4462329124350799,0.4462182006824105
77,0.4462483199880623,0.44616965960628047
78,0.4462434656409156,0.4462319010096803
79,0.44623392650523575,0.4461179965187243
80,0.4462387227118027,0.4468264830023716
81,0.4462407752209884,0.446270092234718
82,0.44623212811704255,0.4464040650179605
83,0.4462199921444589,0.4464105537156609
84,0.446242712388509,0.44619273935299064
85,0.44623988163131867,0.4463257777779629
86,0.44623474540155555,0.4464029076673257
87,0.4462324090301892,0.44624596041426173
88,0.446223717771587,0.4461642557279052
89,0.4462284134782908,0.44611611419516817
90,0.4462252760168227,0.4461345175655545
91,0.4462379095076669,0.4465458258801595
92,0.44623102598921016,0.4461379837605261
93,0.44623456717924237,0.44613091655759596
94,0.44620969311956665,0.44620940253397373
