epoch,loss,val_loss
0,1.0920092753045627,0.8120985192845959
1,0.6000327885304927,0.522141294423924
2,0.5217571169214963,0.521501151166221
3,0.5212385927059854,0.5215520165687384
4,0.5214006520364943,0.5218828149544176
5,0.522614182427872,0.5234260027722795
6,0.5218063075413075,0.5215117187463036
7,0.5213798427766607,0.5215829194978227
8,0.5213339539769392,0.5218104415161665
9,0.5230861629626548,0.5231122919755389
10,0.5214767643955635,0.5215743701587352
11,0.522121317626894,0.5240394172742385
12,0.5221535703624558,0.5233565527339314
13,0.5218208424496712,0.5216915755308875
14,0.5214542999132044,0.5215408732724744
15,0.5221478555553644,0.5216621114302051
16,0.5214899836892614,0.5214777685875116
17,0.5215423989665601,0.5226489393286002
18,0.521836877177236,0.5221857770468837
19,0.5216098800494073,0.5218316187230192
20,0.52174245371683,0.5215019334194272
21,0.521355815482078,0.5215340376824371
22,0.5213652530381846,0.5215093036030614
23,0.5218644014316628,0.5221910102422848
24,0.5258742078022132,0.5244318967641786
25,0.521973430956365,0.5217088959937872
26,0.5213903570668026,0.5216077667798182
27,0.5212908578165434,0.5215556404387304
28,0.5213739100352738,0.5218249175899713
29,0.5212628082095498,0.5215206931727802
30,0.5213632465024943,0.5218990366588268
31,0.5212914534009396,0.5217786412830501
32,0.5215103509198171,0.521541250768558
33,0.5216692963311839,0.5215720141580863
34,0.5214097966519438,0.521466941796532
35,0.5212618910373027,0.5215684887050658
36,0.5213824441266615,0.5215485424034355
37,0.5215170469702984,0.5220242697139119
38,0.522919001197322,0.5267509018727975
39,0.5216291756284945,0.521743142327597
40,0.521339132650262,0.5217772615972416
41,0.5214021945184515,0.5214685224747473
42,0.5214296950542342,0.5215119160422983
43,0.5214037078911636,0.521894329278044
44,0.5214429185063956,0.5220841954844867
45,0.5217920603370174,0.5219759945721589
46,0.5214048604016465,0.5214730099190114
47,0.521271514954185,0.5216389450916025
48,0.5214552461946965,0.5225466859433078
49,0.5232581356083084,0.5245913424233134
50,0.5226803127801387,0.5220484354699305
51,0.5212552901694325,0.5215174560399018
52,0.52127852427559,0.5214805843294129
53,0.5214955367783244,0.5219812596491141
54,0.5216203318085781,0.5243568129317705
