epoch,loss,val_loss
0,0.32480557225092904,0.3192970336814672
1,0.31510572321592184,0.3120922827395257
2,0.3136768457866239,0.31803482198537725
3,0.31308817887878587,0.3131307607844805
4,0.31247783023495007,0.312288748833441
5,0.312190462945606,0.3114885886017205
6,0.31212214847479114,0.31129039073404546
7,0.3116245956391144,0.31295255055794347
8,0.3114468704383184,0.3108238807830858
9,0.31121904020064217,0.3109768779490781
10,0.31099063570552965,0.3099439286268674
11,0.31091539502330023,0.31127897437393814
12,0.310826348988407,0.31010055077578824
13,0.31068906292373133,0.30990678352990164
14,0.3105040605953966,0.31006330651030056
15,0.31051784753681116,0.30952252860992185
16,0.31031813079248965,0.3105633462037401
17,0.310262734701754,0.31030396860527343
18,0.3103074753375643,0.30982604324078145
19,0.31003184068152645,0.31277289613896503
20,0.3101825360925351,0.31072793957909045
21,0.3100309814082483,0.3102025113093942
22,0.3099495154515328,0.3096824394266304
23,0.3098740990089229,0.31068689965136886
24,0.3099559972229618,0.30977791386561715
25,0.30969633854119744,0.30972092169390125
26,0.30969082066453696,0.3101435902396739
27,0.30969160109286265,0.30891497286022745
28,0.30957564198871873,0.3089429387679467
29,0.30986248193302623,0.30928158655060134
30,0.3095694779229595,0.3087521095725502
31,0.3096474905177704,0.30979639998736513
32,0.3095780322910833,0.3090672591336016
33,0.30963844232862364,0.30966897186807013
34,0.30962433782707816,0.30907966037541995
35,0.30954633779593344,0.3089211257308648
36,0.3095428026077003,0.30945583061308185
37,0.30956078832010764,0.3087269704631777
38,0.30942989853800335,0.309308779269235
39,0.3094113963719098,0.31294657441581747
40,0.3095006279466807,0.3108442076826214
41,0.30960772406630355,0.30962458113878594
42,0.30956806708249285,0.31112079237294255
43,0.30946466562099884,0.3110733566893537
44,0.3094354541600914,0.3089579486965246
45,0.30945911435639756,0.31126340729722907
46,0.30947319123673056,0.3108233291369218
47,0.3094154828240271,0.30942093298097995
48,0.3094360578763154,0.3092133699664407
49,0.3095432309058952,0.3095745495324099
50,0.3093407170218732,0.30907290696210366
51,0.30937831011528555,0.30902376538766524
52,0.3092444186187851,0.30900194584288015
53,0.30933691159254967,0.3098842221365377
54,0.30941814049259786,0.3089425317111145
55,0.30935041361593696,0.3101036156525387
56,0.3092256668785046,0.3091060790915051
57,0.30931400034914225,0.30902454248137273
