epoch,loss,val_loss
0,1.1222027688063392,0.5551738997762518
1,0.5523090220853032,0.5517529156780983
2,0.5513416436291481,0.551374358724254
3,0.551125414303723,0.5515234313269918
4,0.5515046361496898,0.5514782366826553
5,0.5512032632063834,0.5516438830730527
6,0.5511327814070137,0.5514843399210494
7,0.5513096005109546,0.5519015428631805
8,0.5513000229532404,0.5515668600104576
9,0.5515674814697384,0.5518377617348073
10,0.5512671781756773,0.5514035243396611
11,0.5583574038759375,0.564365799574889
12,0.5541410694134635,0.5514372628788615
13,0.5511478561455582,0.5514090028844139
14,0.5511852545947683,0.5514376667118812
15,0.5513953290860474,0.5515117811602216
16,0.5511965349663136,0.5514140290807384
17,0.5512125949526943,0.5514532470887945
18,0.5511944939307772,0.5513713248940402
19,0.5512356243700328,0.5516393110733624
20,0.5513926769103806,0.5517965707668039
21,0.5514398489811624,0.5525968033213948
22,0.5514621012278613,0.551365830639536
23,0.5541977224731938,0.5804073117500128
24,0.5549024907193443,0.5513861724572588
25,0.5511367459629857,0.5513985480448996
26,0.5511767964338455,0.5514624821123226
27,0.551600789684966,0.5524502553681071
28,0.5516305473423744,0.5513668956682664
29,0.5512359895447428,0.5523986696272858
30,0.5512962057917001,0.5513892432515936
31,0.5511714218506826,0.5514392908229384
32,0.551285163838734,0.5514286160469055
33,0.5512604031143878,0.5515586669130843
34,0.5511358184715882,0.551479904688606
35,0.5512173269762242,0.5513855084892392
36,0.5519424318035135,0.5513978771461073
37,0.5671204755164548,0.5517460495926613
38,0.5513377616263792,0.5514978932779889
39,0.5513410931717826,0.5517585397690765
40,0.5512638283022306,0.5513670144155044
41,0.5511216031488522,0.5513671747473783
42,0.5512234171231588,0.5518092000207235
