epoch,loss,val_loss
0,0.6716522474637981,0.669104913831053
1,0.6686804831170763,0.6683752366685985
2,0.6683406542818857,0.6680820539039063
3,0.6682030827978827,0.6690853457297048
4,0.6680820215314919,0.6679266825207409
5,0.6680190369213282,0.6678740665279607
6,0.6679745292698598,0.6679009802879826
7,0.6679222729396319,0.66791920203429
8,0.6679151701581048,0.6677676294932591
9,0.6678846091597224,0.6680072182757091
10,0.6678612785910404,0.6677835363016531
11,0.6678523085846249,0.6679558030133211
12,0.6678402283715431,0.6677943549144357
13,0.6678342002445411,0.6677890439778936
14,0.6678340334381491,0.6677475295055001
15,0.6678069412840016,0.6677063024961032
16,0.6678130864170961,0.6677997760086438
17,0.6678006063107328,0.6678481563149256
18,0.6677983341314414,0.6677353555747948
19,0.6678003282779922,0.6677169433894288
20,0.6677875362058672,0.6678740676520184
21,0.6677693438500624,0.667803065652587
22,0.6677705046517224,0.6676976173746378
23,0.6677865873505021,0.6676725268659758
24,0.667756169832863,0.6676838484946315
25,0.6677678340526804,0.6678181165205338
26,0.6677729357861991,0.6678329606801641
27,0.6677605351022105,0.6677712007728464
28,0.6677430213949944,0.6677121425680723
29,0.6677619222557452,0.6676827862895748
30,0.667753270078451,0.6678324601490504
31,0.667747071343694,0.6677401550058691
32,0.6677503755303049,0.6678245324059101
33,0.6677502619161735,0.6677108534512389
34,0.6677382637214999,0.6676917998429859
35,0.6677380195925937,0.6677502164473901
36,0.6677432572916898,0.667939347457649
37,0.6677287950605169,0.6677458314978455
38,0.6677376468641876,0.667699818546068
39,0.6677393862389627,0.6678381979909191
40,0.6677350646004897,0.6677372878301824
41,0.6677233428853541,0.6676738777172476
42,0.6677268842749597,0.6677574906988121
43,0.6677222130617648,0.6678873267422243
