epoch,loss,val_loss
0,0.5352435939054286,0.529451626139894
1,0.5274968040793918,0.5263586778202957
2,0.5267887045777659,0.5254513910627246
3,0.5262850528658781,0.5252755488710427
4,0.5260442700693817,0.5248959637753129
5,0.5257688959029405,0.5250609620924919
6,0.5255385993928314,0.5254964735608538
7,0.5254866227108641,0.5255233123639677
8,0.5253056169859357,0.5262818464866051
9,0.525269177298525,0.5248792471128421
10,0.5251787523186429,0.5240624773591092
11,0.5249999389514841,0.5242138444342034
12,0.5248142278571014,0.524544555466465
13,0.5247880947831098,0.5253443053283408
14,0.5246899193748474,0.5242218073781015
15,0.5247161518435539,0.5237309938033224
16,0.5245575633639181,0.524590271430335
17,0.5245701680743668,0.5236539516200499
18,0.5245071322037826,0.5240430371341279
19,0.5244738950135667,0.5239900370389593
20,0.5243295665521597,0.5249873977736859
21,0.5244984007011397,0.5241785060087445
22,0.5243607839052693,0.5235881304030975
23,0.5243699810310893,0.5249873321937863
24,0.5243477613028468,0.5234933458250155
25,0.524306124620662,0.5240208588226262
26,0.5243080309272528,0.5256341021350832
27,0.524154699863473,0.5239026468681638
28,0.5242678393861495,0.523579787024789
29,0.5242445320303138,0.5238518757500661
30,0.5242381897106884,0.5246043587145084
31,0.5242417179663051,0.5237034821924441
32,0.5242142183413928,0.5239144478187372
33,0.5241617678387462,0.5255041589512127
34,0.5242226009697932,0.5236878869255482
35,0.524184952704556,0.5238761264987974
36,0.5242339389728794,0.5240936930362995
37,0.5241739996874768,0.5250700975765957
38,0.5241211046667507,0.5234916563069554
39,0.5241559026938973,0.5233748796855842
40,0.5240760015020823,0.5233795785430643
41,0.5240786483692291,0.523562927074527
42,0.5240865058242369,0.523689926380555
43,0.5240913909676294,0.523893337066357
44,0.5241561928919459,0.5235496587552149
45,0.5241228951039504,0.5238851688044243
46,0.5240359816581057,0.5240509506194823
47,0.5240637254253343,0.5235583636364334
48,0.5240291705647235,0.5246362244816631
49,0.5240537528167468,0.5241018599671111
50,0.5240043249529522,0.5236347935040003
51,0.524026716999918,0.5233036542352908
52,0.5240632896955894,0.5235380522666438
53,0.5240003503617957,0.5247421902994955
54,0.5240691790259097,0.5233453521953327
55,0.5240105938508189,0.5243400088314975
56,0.524072015916239,0.5248434546863471
57,0.5240079680808813,0.5233971187849494
58,0.5239763382929112,0.5232800601138075
59,0.5240398793408829,0.5234156932191872
60,0.5239642514197532,0.5233780546756299
61,0.5240027726976831,0.5238472037812321
62,0.5239982083391511,0.5235681257827702
63,0.5240106603230017,0.5246173589164507
64,0.5239758695199433,0.523271672571859
65,0.5239828112140826,0.5235862078796841
66,0.5239951142821638,0.5234677215367926
67,0.5239555844369433,0.5234001698328307
68,0.524060357579502,0.5233511504700994
69,0.5239537785568548,0.523369603062386
70,0.5239454999985538,0.5245854411468317
71,0.5239921413386973,0.5234686262850134
72,0.5239831685627061,0.525017652913891
73,0.5240329109748858,0.5275018103069467
74,0.5239517471697264,0.5232451569945286
75,0.5239628265586548,0.5245058055551117
76,0.5238975774413425,0.524047457195689
77,0.5239029272731507,0.5233551045505344
78,0.5239558837672555,0.5232954954095277
79,0.5239601048498584,0.524870386490455
80,0.5239454494551781,0.5239668867724113
81,0.5239392061989596,0.5234492013531347
82,0.5240000416176083,0.5234221244568269
83,0.5239957655434276,0.5236485170963089
84,0.5239167120271447,0.5243001907102524
85,0.5239221021073323,0.5257360718977954
86,0.5238942439686972,0.5235013129693403
87,0.5239204088080102,0.5234970708934604
88,0.5239321018216331,0.5236976893900642
89,0.5238983129068573,0.5246548133511697
90,0.5239751866976647,0.5233281370428005
91,0.5238541613750181,0.5233152057337702
92,0.5238849826945823,0.5235928900188607
93,0.5238763572830165,0.5236000074937976
94,0.5239749985195513,0.525652835238956
