epoch,loss,val_loss
0,0.8317230698058156,0.615449283936227
1,0.6120742397714954,0.6112739771835564
2,0.6110405336670789,0.6112114288086115
3,0.6110393278666553,0.6112860330315524
4,0.6109967461236071,0.6112373032311137
5,0.6110282201483577,0.6115120529204376
6,0.6110265968073862,0.6113474891167279
7,0.611011062789641,0.6112755310627841
8,0.611051521251984,0.6113353200661119
9,0.6111932108876625,0.6117572608844254
10,0.6110597382220186,0.6112657554389894
11,0.611139431942341,0.6112040244331656
12,0.611354513993867,0.6126167533933654
13,0.6111980998546886,0.6112684565921163
14,0.6111151782425183,0.6114377772161202
15,0.6109844178192375,0.611203226470208
16,0.6165794984314793,0.6127933577973713
17,0.6113681730065851,0.6113814304965411
18,0.611114175744759,0.6112094285876252
19,0.6110065457740803,0.6112267518228338
20,0.6111458857238139,0.6112032722133075
21,0.6110274836382509,0.6112087512201116
22,0.6112764503912717,0.6112212714298751
23,0.6110365617182828,0.6112715393997902
24,0.6115794147939954,0.61124358158703
25,0.6110918970071069,0.6112032994743466
26,0.6111082208248996,0.6128929137259491
27,0.6128626033009177,0.6123412699662438
28,0.6118273650336943,0.6114586540894915
29,0.6111275062388536,0.6112851759260015
30,0.61121933481798,0.6121785797814067
31,0.6113009060076041,0.6112018213715664
32,0.6113551325268216,0.6123550192330235
33,0.6111191695974779,0.6112394827280858
34,0.6112759379761472,0.611356816550558
35,0.6121565365360073,0.6121569825697315
36,0.6115448445620771,0.6119201206421667
37,0.6116039143052212,0.611207764740138
38,0.6115381075430286,0.6122975321703179
39,0.6113184202241035,0.6113047378007755
40,0.6113087722805427,0.6112244983976202
41,0.6110232906748158,0.611205116722935
42,0.6111131413654456,0.6120767075886098
43,0.6111385307878795,0.6114619110905847
44,0.611394876349496,0.6118639929350033
45,0.6113668329031893,0.613814633946086
46,0.6114459696974249,0.611216432364412
47,0.6152201513603368,0.6173252306243245
48,0.6125707490807664,0.6116562638171884
49,0.6113395749444493,0.6113358463427817
50,0.6112419574759728,0.6113092751466027
51,0.6110304355313304,0.6114467553390089
