epoch,loss,val_loss
0,0.614717532840411,0.6090424294211433
1,0.6090014458114406,0.6081732568906495
2,0.6084448725978652,0.6092644997625138
3,0.6081911949449341,0.6082954834471861
4,0.6080091306378543,0.6083671636380273
5,0.6079312416748982,0.6099615228383181
6,0.6078677741417671,0.6075177223451675
7,0.6077151161598157,0.6075649542489063
8,0.6077435258179151,0.6076266192324996
9,0.6076812919812656,0.6075534063888247
10,0.6075958608642288,0.6075485123594109
11,0.6075764218735829,0.6073717822803752
12,0.6075142270807721,0.6072961175707966
13,0.6074973164776494,0.6072247075087971
14,0.6074361302623839,0.6074645470153014
15,0.6074015090802565,0.6077932384410508
16,0.6073579549745254,0.6072685848986245
17,0.6073415046455359,0.6084462015859542
18,0.6073438980976914,0.6092589747225381
19,0.6072938387288344,0.6083603292185971
20,0.6072691711461133,0.6071096152880647
21,0.607244519342322,0.6070937580269561
22,0.6072314330814669,0.6071675079632042
23,0.6072272389460228,0.6072231503633353
24,0.6072207834547985,0.6077751908941246
25,0.6072105547965335,0.6075254337367586
26,0.6071682917264145,0.6070235283735668
27,0.6072208820756729,0.6071022705463854
28,0.6071751999103446,0.6076443686378801
29,0.6071959778429257,0.6074138338157616
30,0.6071410747528316,0.6083939307676651
31,0.6071732416783512,0.6070741042014092
32,0.6071332846101086,0.6075686013728159
33,0.6071515688675496,0.6077284770035566
34,0.6071429207819072,0.6070795895443957
35,0.6071224100009711,0.6072682686538318
36,0.6071150359690479,0.6079247285059605
37,0.6071227614507376,0.6071305809186647
38,0.6071198027771725,0.6071095723963849
39,0.6071068009296078,0.6071862950514327
40,0.6070921565745775,0.6070369318756217
41,0.6071133170927614,0.6070059704721418
42,0.6071096744673158,0.6070949879828517
43,0.607112811831758,0.6070599780780802
44,0.6070836299858263,0.6069190088335988
45,0.6070283893317079,0.6069565106266486
46,0.6070658436217335,0.6070240135819978
47,0.6070787220847412,0.607039139939301
48,0.6070517213928528,0.6070932340681109
49,0.607023842875631,0.6072974373329958
50,0.6070253322470966,0.6076076777046431
51,0.6070189924020251,0.6069943564405512
52,0.607025598079032,0.6068830810764587
53,0.6069952518943348,0.6073318941717408
54,0.6070143951462033,0.6069005210405544
55,0.6070399102640449,0.6069027554012706
56,0.6070140262018058,0.6074341924551403
57,0.6070106324066822,0.6075609493196454
58,0.607020356491013,0.6069752462744417
59,0.6070254652829662,0.6068755086834909
60,0.6070272942039366,0.6070981560510678
61,0.6070368531810113,0.6071645110180005
62,0.6070086639112455,0.6069482456957436
63,0.6070010324042325,0.6070033636045811
64,0.6069970298775155,0.6076622553262166
65,0.6070193133785707,0.6069572481860593
66,0.6070175946300744,0.607043660426554
67,0.6069954941213763,0.6080767766121895
68,0.6069794594811635,0.6070282725483253
69,0.6069981249847772,0.6075125694570707
70,0.6070255040349385,0.6076074859640439
71,0.6070286481012648,0.6072424168622228
72,0.6070035820980044,0.6069248247679054
73,0.6070105272543105,0.6069707556043015
74,0.6069884802328948,0.6072369947918591
75,0.6069749130455961,0.6071549401685559
76,0.6070166717027021,0.606973757016156
77,0.6069795967072883,0.6071526222430151
78,0.6069926507098046,0.6069380154089064
79,0.607014862928403,0.607016084359834
