epoch,loss,val_loss
0,0.5618758986775009,0.558285382308676
1,0.558375415004055,0.557794443638094
2,0.5579047348878851,0.5574897123921302
3,0.5576363272352726,0.5573396577432789
4,0.5574852805421234,0.5579259416897303
5,0.5574343134063824,0.557341064442476
6,0.5573542259635612,0.5572158804010813
7,0.5572890870881398,0.5571820241641762
8,0.5573029501648821,0.5572732291209787
9,0.5572478683168606,0.5573505628789329
10,0.5572279038167811,0.5571172298923616
11,0.5572342995574274,0.557208981318746
12,0.5571935958278319,0.557132827466534
13,0.5571913804236587,0.5570706678383404
14,0.5571625396520365,0.5571414871487961
15,0.5571600155091977,0.5570197649984147
16,0.557120796568765,0.5572108865671654
17,0.5571233665709179,0.5572637253008764
18,0.5571351997364293,0.5570115272223801
19,0.5571088228048884,0.5572774320323177
20,0.5571224695896816,0.5572775205075001
21,0.5570923062001344,0.5571252019174637
22,0.5570857184200607,0.5569532372815438
23,0.5570696511767912,0.5569573187058972
24,0.557066234904798,0.5569907564383286
25,0.5570706120830843,0.5570367020057981
26,0.5570499192224653,0.5573301391921032
27,0.5570725728969123,0.5573252748023192
28,0.557058866403349,0.5570109585378661
29,0.5570576284038098,0.5570460643425177
30,0.5570413437563434,0.5573795989784355
31,0.5570386287652077,0.5570445382565482
32,0.5570411391729706,0.557105603999003
33,0.5570565741404926,0.5569187439109197
34,0.5570172459513035,0.5570137774382277
35,0.557030856689805,0.5572385554869772
36,0.5570371962351218,0.5575529429516188
37,0.5570215138950323,0.5571126089794168
38,0.557028768781561,0.5574404680107723
39,0.5570290538009527,0.5570601823016372
40,0.5570088129278271,0.5573044171700111
41,0.5570171379425851,0.5570037754830297
42,0.5570197703528781,0.5569376601474753
43,0.5570131902260153,0.5572288652211798
44,0.5570234554937952,0.5570169201264015
45,0.5570085571360965,0.5569435376978985
46,0.5570031765952079,0.5570722445660726
47,0.5570036375082921,0.5571388808432642
48,0.5570085855086679,0.5569053768520024
49,0.5569984628026465,0.5569885698204893
50,0.5569991700273242,0.5571063521482217
51,0.5569975388119338,0.5569242753698571
52,0.5569905328353988,0.5570077035622325
53,0.557001103161172,0.556984962778115
54,0.5569980097415579,0.5569405678188238
55,0.5569864047580025,0.5571813098550139
56,0.5569891773178175,0.5571606360357393
57,0.5569928381691378,0.5573015253242133
58,0.5570041517619365,0.5571299643433715
59,0.5569870901763146,0.5571760181457766
60,0.5569861493378101,0.5570015737199902
61,0.5569853174735497,0.5568952996440916
62,0.5569938371584768,0.5570027271807934
63,0.5569806417916432,0.5569057182401936
64,0.5569886856380686,0.5569308806293951
65,0.5569726684404243,0.5569464277097073
66,0.5569919985104663,0.5569178134572713
67,0.5569761129106577,0.5571085882541855
68,0.5569838186519227,0.556914123382521
69,0.5569818874980336,0.5568810337530472
70,0.5569768576125615,0.5571046832477484
71,0.5569832299589311,0.5569167053729074
72,0.5569690575195602,0.5570215548534251
73,0.5569730288031601,0.5569309621827478
74,0.5569746435951483,0.5571346195992406
75,0.5569718397582966,0.5569074148279858
76,0.5569743302662915,0.557176914345242
77,0.5569718902622309,0.5569153024895908
78,0.5569675005052908,0.556905068889741
79,0.5569684617570905,0.5568918510347087
80,0.5569780113636754,0.5569303661363001
81,0.5569746698520824,0.5569699295105472
82,0.5569652503563922,0.5569063053237593
83,0.5569739301639705,0.556893067649813
84,0.5569670229250564,0.5577179005364922
85,0.5569659366077069,0.5569379909754391
86,0.5569613921260669,0.5573550389954824
87,0.5569739349639898,0.5573787119489154
88,0.5569658489128912,0.5569269567210384
89,0.5569653547136252,0.5569031831348504
