epoch,loss,val_loss
0,0.4336801693380826,0.42712546662420553
1,0.4269537717228987,0.426341442834059
2,0.42569937532143814,0.4278701490415237
3,0.4248642726615086,0.42423477010158983
4,0.42431862181548863,0.42711856374078
5,0.42410902084485896,0.4255531329818754
6,0.4238949446158103,0.4241631242832534
7,0.42363723885446497,0.4231188824839391
8,0.42350130651830825,0.4228901243387322
9,0.42316748242964747,0.422397572541651
10,0.42310555489812873,0.42244973475524866
11,0.42292559053917705,0.4227432851607983
12,0.42286289689814144,0.4218518227708547
13,0.4226992569250581,0.42758763559698765
14,0.42272309901488375,0.42256724460249206
15,0.4226420470336102,0.4229033627374001
16,0.4224340873367189,0.4221574974858731
17,0.42243850145780004,0.42193621445826207
18,0.42231427842456787,0.42183892108666393
19,0.42246535693786186,0.4220865559637103
20,0.4223104662941491,0.42373123273955976
21,0.42229343431167055,0.42317469853621265
22,0.42214853680619263,0.42384074327371846
23,0.422187475518576,0.4217832844843048
24,0.42220628634445234,0.4218904260814042
25,0.42210992428884775,0.4217937185657823
26,0.4220470490177613,0.4212970873558196
27,0.42198315711203865,0.4215119668626904
28,0.42208876133673456,0.42349312281786067
29,0.4219582762542418,0.4230409795386028
30,0.4218852689097995,0.4221776494760963
31,0.42191808915148027,0.4213407344173261
32,0.4218846176765391,0.42124696180187443
33,0.4218127619581076,0.4212327750237941
34,0.4217409986205254,0.4218111286536044
35,0.42177976509977333,0.4218011328067732
36,0.42184007611610885,0.42126557988209407
37,0.42183049133685946,0.42123132643865296
38,0.4217586855129924,0.4211297120261133
39,0.42168357602077466,0.42116688435190075
40,0.42170675962564264,0.42133233173017764
41,0.42167433594405007,0.42162509467406545
42,0.4217073747530548,0.42127142127039413
43,0.42171478185462663,0.4249071627633447
44,0.42171297656852563,0.4223080497521621
45,0.4216078318330789,0.42119638603319304
46,0.42163866680923073,0.42164839889216366
47,0.4216312227270002,0.4225946525486172
48,0.4216442481135917,0.42357853296081127
49,0.4215089338546701,0.42210980843077817
50,0.42169136030842064,0.4213918625568929
51,0.4216185750826067,0.4215979000622818
52,0.421521290904629,0.4225846804401123
53,0.4215210803679701,0.4219707477920996
54,0.42154731787649974,0.42121402659723833
55,0.4216161183396125,0.42182550029482496
56,0.42153852077411796,0.42102170465306077
57,0.421664365635291,0.42199971029539557
58,0.42152823490293534,0.420932219918845
59,0.4215294084264215,0.42283469364601683
60,0.42154271513437813,0.4211263674660297
61,0.42149959517403074,0.4210873081725525
62,0.42150219136961725,0.4243702816904035
63,0.42153504715510615,0.4224872360898011
64,0.42149177030512,0.4223219044303184
65,0.42143694516663055,0.42110260476545425
66,0.4215083006851802,0.4210811112713873
67,0.4215116774763239,0.4236837962720885
68,0.42153123158303013,0.42128457669584685
69,0.42153800802398006,0.42100859779873795
70,0.421437993784699,0.4211256650925866
71,0.4215101838791058,0.4210378025808642
72,0.4213859235682212,0.421571240812614
73,0.4214924290215988,0.4212502350286574
74,0.421444082984355,0.42098068410054623
75,0.42136100596562537,0.42183766931517247
76,0.42139116233696833,0.4209857541189596
77,0.4213875834141298,0.42105435717194606
78,0.4214835091885985,0.4211014245195365
