epoch,loss,val_loss
0,0.5652954652581058,0.5586394002064877
1,0.5585244368825919,0.5578706715302195
2,0.5581813881013278,0.5578356564192855
3,0.5579822250082788,0.559045528507706
4,0.557829816368599,0.5577114435046837
5,0.5576966778243561,0.5577239829612429
6,0.5575363463744664,0.5575555433410568
7,0.5573989047836414,0.5571957133543994
8,0.5572865988251499,0.5572970683758075
9,0.5572264376060991,0.5572892657284702
10,0.5572100791282609,0.5570501256225718
11,0.5571868452864771,0.5576571857663005
12,0.5571605182814482,0.556989911827201
13,0.5571539831004364,0.5571945194275149
14,0.5571285841162433,0.5570201875849929
15,0.5571170319305345,0.5577932634069666
16,0.557122207384778,0.5569533255496628
17,0.5571110242917664,0.5573372180941087
18,0.5570826126939384,0.5581505969203732
19,0.5570873966685416,0.5576053826152243
20,0.5570835654540031,0.5570492958608395
21,0.5570935982486017,0.5588415516813103
22,0.5570660098284584,0.557260712914668
23,0.5570651359803968,0.5570845535907792
24,0.5570533538078931,0.5570018244736248
25,0.5570540653900576,0.5575164842842235
26,0.5570461838316165,0.5569704929297379
27,0.5570450619531045,0.5572156105680443
28,0.5570377404808018,0.5569651384507456
29,0.5570165559625211,0.5569331506641568
30,0.5570186244521821,0.5569233782829777
31,0.5570145994020546,0.5570097838382863
32,0.5570385558995727,0.5569614941665612
33,0.5570140309764249,0.5568956776233228
34,0.5570060587153663,0.5571537726274495
35,0.5569955336060122,0.5572046041488647
36,0.5570054236053592,0.5569718483955629
37,0.5569935224720469,0.5570830814004241
38,0.5570091850464691,0.557342922776272
39,0.5570005072070172,0.55693558356898
40,0.5569911774760278,0.5570231596530223
41,0.5569991313920986,0.5569284531082173
42,0.5569852516521502,0.5569345485779547
43,0.5570037311918912,0.5570135633052135
44,0.5569732944899511,0.5572222293458565
45,0.5569959772650579,0.5571410170559847
46,0.5569897265536244,0.55690967051622
47,0.5569922018490683,0.5569523538608409
48,0.5569787923232769,0.5568982859994874
49,0.5569824150189789,0.557100612354042
50,0.5569712420971176,0.5570868595658106
51,0.556972948102095,0.5568874651681697
52,0.556968507683455,0.5569961628014634
53,0.5569787984453722,0.5568866963126228
54,0.5569902768685484,0.5572353659137603
55,0.5569644340399349,0.5569914045759821
56,0.5569631361288968,0.5569113563958824
57,0.5569543322946554,0.5569181094098623
58,0.5569658947619505,0.5568873779057865
59,0.5569550066646403,0.5568773479970454
60,0.5569737142104285,0.557260691527989
61,0.5569586576224778,0.5579655618880582
62,0.5569693572837278,0.5570934471066478
63,0.5569450069905697,0.5568711507409145
64,0.5569531931605275,0.5571447872346448
65,0.556954733569964,0.5568625503083316
66,0.5569619032662065,0.5570621400258086
67,0.5569696513912086,0.5574140722639211
68,0.5569566790379289,0.5569372622605885
69,0.556955091595402,0.556936979471306
70,0.5569524916091018,0.557035815597468
71,0.5569465656676887,0.5569946178431546
72,0.5569589038338902,0.5568785538744394
73,0.5569442347262211,0.5568629187922324
74,0.5569523348665795,0.5570328824573356
75,0.5569499404725632,0.5572984990647649
76,0.5569509657661661,0.5569452550215993
77,0.5569461580423135,0.5569458673964659
78,0.5569558493358465,0.5572521241959508
79,0.5569478701835852,0.5569244784101954
80,0.556943448797791,0.556908605264375
81,0.5569637666999867,0.5568735775521612
82,0.5569338049546385,0.5576144793784944
83,0.5569433528707647,0.5569821568931599
84,0.5569572482768403,0.5568962886374879
85,0.5569401839555624,0.5568770928950818
