epoch,loss,val_loss
0,0.5404280709176875,0.5349758658456447
1,0.5340239992662161,0.5333338801677411
2,0.533235597579867,0.5322556781118029
3,0.5327540570163918,0.5320550860897187
4,0.5322328143228923,0.5316919417594266
5,0.5319399913019536,0.5344199690274506
6,0.5316863463917019,0.532369474293872
7,0.5315009202551821,0.5312290512006869
8,0.5313264683094672,0.5314921792032701
9,0.5312363382298383,0.5311957172069597
10,0.5310418447557625,0.5316123991095398
11,0.5310144195197124,0.5308122793734813
12,0.530989646746756,0.5321820227443137
13,0.5309504314467652,0.5309706196004049
14,0.5308799749402902,0.5354887086463626
15,0.5308988360709216,0.5308238321439208
16,0.5307435807933629,0.5318020647276128
17,0.5307586561783,0.5320585456438751
18,0.5307142584610796,0.530417851745047
19,0.5307209102648134,0.5304807955514704
20,0.5307441055628755,0.5305139716446547
21,0.5306395505888882,0.5309051935489361
22,0.5305894621753783,0.5310230411016024
23,0.5306501661026829,0.5305666964935606
24,0.5305812261499029,0.5306778740350425
25,0.530520182583167,0.5310211673859627
26,0.530605232950993,0.5306287218855865
27,0.5304390737751071,0.5305632522325067
28,0.5304595567995467,0.5303160106277939
29,0.5304236001455394,0.5303990488608481
30,0.5304194854955762,0.5303327953845041
31,0.5304012016159837,0.5306358744429596
32,0.5304725828933227,0.5304805778983804
33,0.5303893855901307,0.5303302778203789
34,0.530377802472892,0.5303672356286061
35,0.5303959899860807,0.5306896521790744
36,0.5304100034284585,0.5303668866086538
37,0.5303033321294816,0.5303489642462719
38,0.5303814857182549,0.530578372348331
39,0.5303677398952972,0.5305807694607869
40,0.5302919966719439,0.5302022123455113
41,0.5303468067733965,0.5305386665441262
42,0.5302817021962237,0.5310027279865653
43,0.530400757915919,0.531190404968877
44,0.530291491877138,0.531026685770333
45,0.5302811808644241,0.5304368338868872
46,0.5302328090372325,0.5306713544109619
47,0.5302315508855001,0.5313218040738449
48,0.5302987882023877,0.5304255451812934
49,0.5302331453170445,0.5303949056724757
50,0.5302970435306316,0.5315256612768244
51,0.5302806578934397,0.5303137485501784
52,0.5302852001403295,0.5304712266543367
53,0.5302137092655723,0.5320801390311855
54,0.5302637514174658,0.5308442072004598
55,0.5302436109976626,0.5316321451078277
56,0.5302932668604051,0.5301297262643762
57,0.5302237062071421,0.5303914664696819
58,0.5302066624450926,0.5315586206634938
59,0.5302140283954713,0.5309677851998776
60,0.5301690823519628,0.5322648123239465
61,0.5302634992551337,0.5304713671615638
62,0.5302464634705034,0.5314503806992145
63,0.5302676910572242,0.5316477929983778
64,0.5301959304229561,0.5303176594135484
65,0.5302309025649877,0.5310966882457212
66,0.5303123360318432,0.5302354134046114
67,0.5301867885056415,0.5301834470580884
68,0.5302586025782846,0.5313725698970387
69,0.5301090301276657,0.5302682918295375
70,0.5301613603442723,0.5302984245066016
71,0.5301174138272948,0.5302824429779431
72,0.5302005611534897,0.5302782285302212
73,0.5301631985071535,0.5303047786575393
74,0.5302037374813102,0.5300585616906879
75,0.5302213908371424,0.5302932725059187
76,0.5300877057730279,0.5303228795972119
77,0.5300749349763872,0.5301075084037875
78,0.5301592369789914,0.5301583036299675
79,0.5302036468662527,0.5312106993594773
80,0.530254035114136,0.5301317874314472
81,0.530180978551155,0.5304163532280745
82,0.5301606981743039,0.5304426385806157
83,0.5300740172095287,0.5308889391700328
84,0.5301021812415262,0.5301162893955524
85,0.5301613575328887,0.5309611266954957
86,0.5301603918888939,0.5302974427900007
87,0.5301291326726736,0.5301718428472135
88,0.5301432041586052,0.5311610849856148
89,0.5301062720034062,0.5301570240084645
90,0.5301266631262095,0.530142466069451
91,0.530101491935869,0.5315873185694957
92,0.5301571784735284,0.5303202472608675
93,0.5300628729371175,0.5302834270609815
94,0.5301326971591679,0.5302905208419629
