epoch,loss,val_loss
0,0.7800062584309234,0.7779487358666193
1,0.7780029490725474,0.7778987263627936
2,0.777981206535606,0.77802667553716
3,0.7779259185146816,0.7778417436503334
4,0.7779006507404633,0.7779541149799343
5,0.7778953099427169,0.7779153553345705
6,0.7778912634733184,0.7778778294968344
7,0.7778900464219368,0.7778451563783045
8,0.7778788877345028,0.7778940926246346
9,0.7778790200789243,0.7778272483487801
10,0.7778778644480098,0.7780528265094878
11,0.7778652384652889,0.7778326866029274
12,0.7778693693889637,0.7778356289019258
13,0.7778661720361959,0.7778439432103349
14,0.7778622199098907,0.7778257854603502
15,0.7778655047790642,0.777841520087954
16,0.7778646612850145,0.7778270779686616
17,0.777859088616535,0.7778330470609991
18,0.7778583719314883,0.7778945321059518
19,0.7778567625445528,0.777821634707232
20,0.7778506360597217,0.7778530329754566
21,0.7778552554616954,0.777856897158681
22,0.7778588022620601,0.7778322999489123
23,0.7778541249683252,0.777863018622905
24,0.7778548926379877,0.7778823920161039
25,0.7778539946432369,0.7778332297179517
26,0.7778519294249422,0.7778317193833915
27,0.7778636188811148,0.7778269237888528
28,0.7778468540314823,0.7778252955133884
29,0.7778534592434415,0.7778583994522461
30,0.7778474507622158,0.7778363741398312
31,0.7778469821589681,0.7778183347093731
32,0.7778493076077966,0.7778251954623966
33,0.7778460495314683,0.7778247943260717
34,0.7778461672905452,0.7778735423780953
35,0.7778459636423611,0.7778186843530401
36,0.7778477679442587,0.7778314333388365
37,0.7778462578316125,0.7778332433767577
38,0.7778435163034992,0.7778204038339285
39,0.7778441435372087,0.7778629295472325
40,0.7778473648174982,0.7778200914987746
41,0.7778430815899489,0.7778439581185953
42,0.7778428366140583,0.7778213826345796
43,0.7778437631551612,0.7778171818275688
44,0.7778437712096191,0.7778428385035091
45,0.7778405124146922,0.7778388826889103
46,0.7778441103227257,0.7778219584389227
47,0.7778398577850983,0.7778166007982353
48,0.7778404106911724,0.7778429931329321
49,0.7778462180424645,0.7778199897865766
50,0.7778404591113927,0.7778338593860761
51,0.7778394066463226,0.7778200506596068
52,0.7778400204818345,0.7778155634246857
53,0.7778391417669839,0.7778540015769645
54,0.7778384517663223,0.7778155496664912
55,0.777840966087889,0.7778190382940723
56,0.7778357077345511,0.777814268654105
57,0.7778406938699303,0.7778147869504254
58,0.7778384370385989,0.7778142969797996
59,0.7778373043342164,0.7778270596575316
60,0.7778351757392254,0.7778141775953972
61,0.7778376434690151,0.7778116638923195
62,0.7778382442242168,0.7778274040004839
63,0.7778347721699469,0.7778168184635695
64,0.7778356750947105,0.7778226277535542
65,0.7778377743979312,0.7778114809372018
66,0.7778347091560996,0.7778282896316069
67,0.7778382130416879,0.7778155615647028
68,0.7778355302935268,0.7778214460017853
69,0.7778374259469858,0.7778106574238303
70,0.7778353229592706,0.7778201765847127
71,0.7778324048921281,0.7778153044469057
72,0.7778362088557697,0.7778299879191015
73,0.7778356846435539,0.7778396525704068
74,0.7778354211741989,0.7778135205623327
75,0.7778317154949002,0.7778737416802388
76,0.7778339659566548,0.7778251428670007
77,0.7778333940581991,0.7778340245790665
78,0.7778354673112315,0.7778127602694507
79,0.7778371225902768,0.7778182731974176
80,0.7778323669617921,0.7778104291807305
81,0.7778326305542003,0.777823722928559
82,0.7778371446645082,0.7778101752102328
83,0.7778302966983194,0.7778513896876107
84,0.7778358093756411,0.777815798833216
85,0.7778299943938722,0.777816327603181
86,0.7778333478963191,0.777823079521171
87,0.777830783771762,0.7778173381229307
88,0.7778353516519457,0.7778115017614384
89,0.7778319848195329,0.778189162697246
90,0.7778319671665371,0.7778126332558052
91,0.7778343893228931,0.777824419167982
92,0.777831696938726,0.7778188063357394
93,0.7778346057721515,0.7778247702220177
94,0.7778340839744589,0.7778889490807646
95,0.7778307312083588,0.7778157209363725
96,0.7778321650268861,0.7778182806373495
97,0.7778337885227297,0.7778216487825229
98,0.7778322615750756,0.7778155497564141
99,0.7778287848672679,0.7778115857683024
100,0.7778342285634549,0.7778225606805809
101,0.7778288986720802,0.7778086709572963
102,0.7778334100172424,0.777820261381951
103,0.7778308078231257,0.7778122519876951
104,0.7778315784314702,0.777812573031166
105,0.7778321305069358,0.7778196963494176
106,0.7778295293765186,0.7778114242053551
107,0.7778310341028298,0.7778625698984664
108,0.7778335613859921,0.7778141467991908
109,0.7778283254385769,0.7778129435463975
110,0.7778311806673806,0.7778214758987633
111,0.777829797160621,0.7778105203908872
112,0.7778328793459209,0.7778112459593545
113,0.7778322379480873,0.777830716985094
114,0.7778321978733929,0.7778134852273891
115,0.7778308653757019,0.7778108327970328
116,0.7778290410295551,0.7778251442158433
117,0.7778330808880035,0.777810851794416
118,0.7778305502689973,0.7778137789532479
119,0.7778317681636083,0.777814413709112
120,0.777830018363595,0.7778174839399156
121,0.7778312781207204,0.7778124737894798
