epoch,loss,val_loss
0,0.7797650404461459,0.7778940468113139
1,0.7780715511407396,0.7779616906290038
2,0.7779771745726718,0.7778442938100237
3,0.7779003529597961,0.7778520629446488
4,0.7779106710701704,0.777831952884611
5,0.6861021636329495,0.6667404387732507
6,0.6668179093735601,0.6667547107916588
7,0.6668187129159684,0.6667729027265212
8,0.6668076255279586,0.6668057527753386
9,0.666802600663187,0.666739665720791
10,0.6668005192669563,0.6667866900418891
11,0.666793077207788,0.6668146293712681
12,0.6667995214011875,0.6667493541495884
13,0.6667888921229916,0.6667495317424652
14,0.6667980142915108,0.6667983397351611
15,0.6667957087934585,0.6667376022897714
16,0.6667875190102768,0.666772411213009
17,0.6667919253012025,0.6667582874773645
18,0.6667857253568127,0.6668503433442293
19,0.6667849363946217,0.6668998068460343
20,0.6667825028026078,0.6667360168554413
21,0.6667779856920912,0.6667335939744322
22,0.6667789096463179,0.6667284264637588
23,0.666774012905088,0.6667310021710013
24,0.6667709101817486,0.6667624482923753
25,0.6667696408564543,0.6667354122473926
26,0.6667769802613163,0.6667343028693118
27,0.6667641896642814,0.6667468466748505
28,0.6667707980452529,0.6667323253146046
29,0.6667739115917453,0.6667270672658293
30,0.6667693069439197,0.6669094641899256
31,0.6667756208291901,0.6667942362341291
32,0.6667601524408262,0.6667229571483695
33,0.6667656437072992,0.6667329893190558
34,0.6667738233492472,0.6667242855690236
35,0.666775715838821,0.6667284179116234
36,0.6667704057227142,0.6667268234802766
37,0.666767571873996,0.6667876871158078
38,0.6667652935367653,0.6667437563533913
39,0.6667696783975164,0.666722120231762
40,0.6667618737339274,0.6667195874555766
41,0.6667670616882586,0.6667355871567825
42,0.6667603221484352,0.6667279473643313
43,0.6667672271292371,0.6667258908952326
44,0.6667586799287969,0.6684411724436864
45,0.6667703894335572,0.6667517926535077
46,0.6667546047000695,0.6667248094784224
47,0.6667646357732607,0.6667222450919922
48,0.666765327787734,0.6667202335180547
49,0.6667602805903984,0.6667201315692176
50,0.6667601357347873,0.6667387763886333
51,0.6667673684379997,0.6667358929275691
52,0.6667637492472976,0.6667242989959236
53,0.6667571353076381,0.6667208523528433
54,0.6667605621312087,0.6667214451668015
55,0.6667597938715223,0.6667367689984742
56,0.6667646371682572,0.6667267259329259
57,0.6667570606061106,0.6667207078184422
58,0.6667604264308288,0.6667208352675036
59,0.6667601118628761,0.6667241317015783
60,0.6667534003503731,0.6667243269666596
