epoch,loss,val_loss
0,0.031620417181024436,0.01954939344079095
1,0.018342380083146533,0.01583152170928557
2,0.01647737574309277,0.015464733259721926
3,0.015691544788000823,0.01482499596428103
4,0.015434704055255839,0.014169451206545683
5,0.015090557730622104,0.014904718178538707
6,0.014529703139174777,0.013768903246897496
7,0.014345653058692261,0.014083587605052426
8,0.013994982262220963,0.013294569027061564
9,0.013858362714275058,0.013770191805998928
10,0.01361422612613601,0.012550148492353917
11,0.013384819206257854,0.012530811503854928
12,0.012787644819120656,0.012053254869826729
13,0.012438961217626296,0.012360747907578719
14,0.011691344423165813,0.010749089712666327
15,0.011414228500636208,0.010765291241324323
16,0.011165176798600454,0.011001933614864037
17,0.011003445784387127,0.010641423254332252
18,0.010946096530023567,0.01099587938094141
