epoch,loss,val_loss
0,0.055421965629738335,0.00011030181227848205
1,0.00021747820712733347,9.294218387657441e-05
2,0.0003043590591928649,3.357981389762221e-05
3,0.0002498317224731389,0.00021798901434522122
4,0.00024547418017469984,0.0003857286807527103
5,0.0002594254257260207,0.00022582231566481566
6,0.00029704650739777275,4.146834577392142e-05
7,0.00029398867825462696,0.0005914578044764262
8,0.00021544266855420978,0.00039247333569854243
9,0.00027342468602938584,8.462348087021773e-06
10,0.00024300415399990325,0.0005360974686921537
11,0.0002827437352637547,2.5746207190236946e-05
12,0.00023904607423777733,6.907919579876135e-05
13,0.00025800697228872834,0.00030734919448219234
14,0.000210651807882511,2.2324376380116616e-05
15,0.00023424796727700308,3.0064693211091132e-05
16,0.00019602246492905046,3.146123308741924e-05
17,0.00017358087980831708,1.5214809825270026e-05
18,0.00019932956735124226,5.51754799854777e-05
19,0.00025578174486216176,0.00011796514485648817
20,0.00023319014991593365,0.00042696397290962004
21,0.000206651677616718,2.261490000400107e-05
22,0.00017359368880463138,3.6975965462937425e-05
23,0.0002497780006217572,6.060722066222649e-05
24,0.0002176447195518476,2.8044959470820717e-05
25,0.0002239461163751368,3.185718256342561e-05
26,0.0002064702355030202,0.00012323408746035608
27,0.00018448004565995089,0.00016876267239943163
28,0.00019231389953004239,2.0008924196139525e-05
29,0.00017326998482817497,0.00030559380717013965
30,0.00017656969777449125,9.675168197374348e-06
31,0.00014640515041246921,0.0003521787721894155
32,0.0002325092169483652,2.18088117861075e-05
33,0.00019763300836976857,3.642121675623571e-05
34,0.00018820199048920515,3.463083246276773e-05
35,0.00015111307922672945,8.672874172637312e-05
36,0.0002027731608154736,6.899275935255841e-06
37,0.00015993355581964697,0.00032002058091217645
38,0.00017315148032468015,3.068965148183388e-05
39,0.0002003977677168877,2.001012760622145e-05
40,0.0001785731131007106,4.355648724360784e-05
41,0.00016900353823799162,7.259229319337344e-05
42,0.0002073012874807042,1.4561585743399823e-05
43,0.00017347148138587996,1.6849557784001314e-05
44,0.0001731457196149104,7.905664940075413e-05
45,0.0001666490381606561,0.00025559165588971125
46,0.0001776237436486475,6.957238033389447e-05
47,0.00016654870876845452,3.951111234301953e-05
48,0.000160373477147706,3.0762890839042644e-05
49,0.00019609764886055803,0.00022587592024598697
50,0.00017937053520680616,2.5656896164356315e-05
51,0.00016816860124795388,6.210826876435992e-05
52,0.0001771988188926657,2.368103760708226e-05
53,0.00017265114311287912,1.8785814654943507e-05
54,0.00015729940215108775,3.516434893597707e-05
55,0.00018431513421010887,8.457946023841674e-05
56,0.00018520458992324124,0.0002801701235941419
57,0.00016156500622929102,4.8376541261900445e-05
58,0.00019702519564547254,3.2548255614741376e-05
59,0.00013363164541337785,4.7749201546398514e-05
60,0.0001730711105332641,2.4997327456778376e-05
61,0.00015922555615184824,7.558315189645516e-05
62,0.00020005250814874648,5.0314084128919785e-06
63,0.00016987168499067436,2.051535216142661e-05
64,0.00016982381201452283,0.00013173002614705855
65,0.00016995116991390245,9.523579762263949e-06
66,0.0001641851873381079,6.462072882168889e-06
67,0.00014276083783220197,3.384922028059065e-05
68,0.00019358623814409522,2.7335572719336733e-05
69,0.0001865067931253539,8.803849005516715e-05
70,0.00015922061142144994,5.261973592029769e-05
71,0.00017381378025369004,1.7450498272275952e-05
72,0.00012220677733745065,1.3578568983746523e-05
73,0.00016502209951912934,1.2848006533879652e-05
74,0.00014573582759147365,8.397140716275696e-05
75,0.0001664799906361648,0.0005230450978000584
76,0.00015471499685006858,6.0605640151378446e-05
77,0.00014663194652247155,0.00016544269374746317
78,0.00015685488881354175,0.00011627184374442791
79,0.0001465797174479266,1.1601963363073865e-05
80,0.00015425692742592595,0.00016935615803169465
81,0.00012591034082889665,0.0008584290850652498
82,0.00017894331017614503,5.919165645021446e-06
83,0.00016675665967335959,1.882260537167148e-05
84,0.0001284400150482599,8.003671865748762e-05
85,0.00014662821321334335,7.450158541995279e-05
86,0.00015235685581235005,0.00018492791521540846
87,0.00013717376815224053,0.0002782991708288647
88,0.00013414392674880704,4.457593557438557e-06
89,0.00015275175113444822,1.1199605643389792e-05
90,0.0001332161559480228,9.89641602832153e-06
91,0.00012899674979850804,3.9758514645186914e-05
92,0.00014808096329532294,4.8858956572920015e-05
93,0.00015725268195315479,3.8187722041626845e-05
94,0.0001275753587011898,2.7182600799936123e-05
95,0.0001429632084384886,0.00013757391372712472
96,0.0001704135548364696,0.00016335869243261188
97,0.00013953335960311322,6.126290659550941e-05
98,0.0001334385139092691,0.0003516250020990129
99,0.00014091773600172471,9.661191831066861e-05
100,0.0001553996750968715,1.236252512527677e-05
101,0.00011827197519917061,0.00021230230881233832
102,0.00014697679093658882,0.0001318569178601114
103,0.000161863370550668,5.718199439325565e-05
104,0.00013122220940540413,3.706313393895765e-05
105,0.00012408089684305101,0.00035107758833571753
106,0.00013844406549965173,3.580444886070921e-05
107,0.0001121030598394171,3.41379670317828e-05
108,0.00013893261917250488,9.151620218232046e-05
109,0.00011477350912162192,5.884101298474964e-05
110,0.00012281323184232468,3.659207370733488e-05
111,0.00014832989276067593,9.982138355651242e-05
112,0.00015964832944913044,0.0001185540901763466
113,0.00012929496392185142,2.3413350288260486e-05
114,0.00014862288325031853,0.00017376217488791198
115,0.00011287078848095294,2.5346831051169583e-05
116,0.0001393168805467346,1.6305104901165785e-05
117,0.00012103093799622184,2.1978731624230307e-06
118,0.00013335453738793168,4.7848515174909914e-05
119,0.00015539923703558587,0.00020742944079993737
120,0.00012923048536099118,5.42648575648299e-05
121,0.00013223153150873987,2.4038584508453316e-05
122,0.00012829460152842865,1.4690184548576724e-05
123,0.00011537346229564294,9.30256250581058e-06
124,0.00011266730496972058,1.803934575505437e-05
125,0.00012241384896835987,1.2532735012171035e-05
126,0.0001305804316679013,0.00010879697724140375
127,0.00012952416484053527,1.557363998274879e-06
128,0.00011337708940170937,5.427807710163565e-07
129,0.00014321339647722743,4.586929159204295e-05
130,0.00013091023490362463,9.634736780533508e-06
131,0.0001310697167577477,1.2193995497182617e-05
132,0.000116306429500858,8.070221544148205e-05
133,0.00012719144536285596,5.014099739184133e-05
134,0.000122431657946194,2.6160269681775565e-05
135,0.00013154526217751988,1.979903132471099e-05
136,0.0001561381319861299,3.498606022012559e-05
137,0.00013274323397126136,0.0002488125012931175
138,0.00014846017265560734,0.00021401150030572402
139,0.00014723417545886748,4.4658124417604274e-06
140,0.00012361348520151916,9.013485344022626e-05
141,0.00011430793104221961,9.316229966657285e-05
142,0.00014109810960277866,3.054104244082017e-05
143,0.00013301703581359518,1.9412464273574097e-05
144,0.00011464379659593969,1.9966659764869502e-05
145,0.00015215067281860648,2.936509383932555e-06
146,0.00012567018247789806,1.3851395740839033e-05
147,0.00011314521180824316,7.215734979315296e-05
148,0.00013200389821222698,3.16273068938998e-06
149,0.00011747723203966304,8.506985561243731e-05
150,0.00011634881746404629,5.479106716621919e-05
151,0.00012361523450729798,2.9880155700985886e-05
152,0.00013621981486294294,5.746330657799239e-06
153,0.00011511340789691398,0.00011387688795116751
154,0.00013874094267496203,1.9112158614239635e-05
155,0.00015210793318940434,5.5164305485643786e-06
156,0.00013483720400619923,1.9138935163325682e-05
157,0.00010766483501324754,0.0001380250436407198
158,0.00013644490507163786,1.008127646360123e-05
159,0.00012188596446689623,1.269769574716377e-05
160,0.00013279776243143825,7.856592374879334e-06
161,0.00011736130652967014,3.8320652391770176e-05
162,0.00012396841443831227,3.971849038909651e-05
163,0.00011171262526839966,1.5896059443693442e-05
164,0.0001300942434692652,3.947600637585636e-05
165,0.00013142875392465483,5.669676028896783e-05
166,0.00010912418024827856,1.6994420906343044e-05
167,0.00011151136922669576,7.051076914971046e-05
168,0.00014663994979476533,9.807741200947773e-05
169,0.00010725592145101784,7.498441857595258e-06
170,0.00011699762488836241,3.757486422102874e-05
171,0.00010489571430197147,2.0869585261784013e-05
172,0.0001247571466744072,6.769764652780099e-06
173,0.00012621087580585002,7.303143684255568e-06
174,0.0001299805678229268,0.0001087290195560953
175,0.00010204263202803762,1.0038592018776795e-05
176,0.00011058828803250429,3.2712762512595756e-05
177,0.00011521300903093065,5.77457078176706e-05
178,0.00014396729222502776,8.854762315057327e-05
179,0.00011574400971676532,9.22091258234942e-06
180,0.00010755952546851899,8.057838958266707e-05
181,0.0001061272026462881,5.416861356061647e-05
182,0.00014909259624555502,2.124452735263615e-05
183,0.00012060633262823419,3.516527017299481e-05
184,0.00012817504820798937,1.2913876524707413e-05
185,0.00012105058256953051,1.3128158048324953e-05
186,0.00011130036222264009,3.8645486547509205e-05
187,0.00011864720631671509,4.348556125759744e-05
188,0.00011632979020151956,1.799305910751317e-05
189,0.00011424292639533609,0.00011264373817636934
190,0.00012040521082982943,3.8175493588896385e-05
191,0.00011728240712705355,8.427516380103522e-05
192,0.0001151537165258865,9.967941965993447e-05
193,0.00012630686649326724,0.00020058036396353805
194,0.00011546476171976118,7.832874176663957e-05
195,0.00011887119550487369,6.97362083962452e-06
196,0.00014619889980400144,6.785112472851786e-05
197,0.00012206176532774609,5.95209121478254e-05
198,0.00013206242482158642,6.71653848224109e-07
199,0.00012161602754503951,0.00011551135919595633
200,0.00011674839380156555,9.906396004848906e-06
201,0.00012512400365697178,0.0001848058354313689
202,9.461037384235776e-05,5.4449840787637e-05
203,0.00012283989694993487,3.6953333688661165e-05
204,0.00010131554647819775,5.356306116325096e-05
205,0.00011651209578915097,5.056196379808095e-05
206,0.00010660327303252726,7.792857783934099e-06
207,0.0001101466874402547,3.258162432642819e-05
208,0.00010954350966649094,0.00028301991267154036
209,0.00012564020999489503,9.820495004808506e-06
210,0.00011786550642971947,6.5580502967597115e-06
211,0.0001077390496138807,9.451677299671731e-05
212,0.00011404248122064018,3.0557803743002027e-06
213,0.00011730083295558327,1.713954785752078e-05
214,0.00011299727043256277,4.220918345373696e-05
215,0.00010466636460702105,4.202372652165529e-06
216,0.00012004230412320177,6.279963978466008e-06
217,9.98573844673293e-05,2.6645634326907505e-05
218,0.0001071840469580784,0.00010583343304024426
219,0.00011748867673703579,3.090507606190999e-06
220,0.00012319937395124697,5.5983007625533725e-05
221,0.00011282668195514229,1.6260381890366898e-05
222,0.00010912650278313152,9.02993921639347e-06
223,0.00011449828349911592,4.1063337285628785e-05
224,0.00011467824253704937,6.708702413248002e-05
225,0.00011101680605955804,0.00013872634905298374
226,0.00012359351657630695,2.5491721536596188e-05
227,0.0001324887063950116,0.00012123097565961192
228,0.00011307096806102201,1.2001868990108513e-06
229,0.00010612009753772621,1.1290190510995326e-05
230,0.00011487393902043993,3.572008825684249e-05
231,0.00011283736620473357,1.030767958831952e-05
232,0.00010238486295026391,8.601069807267872e-06
233,0.00010790173848715849,5.104632398778885e-06
234,0.00010826528596610989,2.403885985779482e-05
235,0.00010112807635902655,7.827082870448347e-05
236,0.00011449472698840125,1.5959149038152392e-05
237,0.00011465867403734269,3.1592928579206866e-05
238,0.0001185728669149472,3.064171485298035e-05
239,0.00011666173324985741,1.553222475680326e-05
240,0.0001120016475586393,4.398320832934037e-05
241,0.00011441836214718067,1.9500038814931246e-05
242,9.337366242702662e-05,3.220250769652924e-05
243,0.00012409067953941143,1.1660100981409964e-05
244,0.00011839242956306753,1.1776811606188682e-05
245,9.525213170876906e-05,2.435677095996328e-05
246,0.00012274136465565026,2.139948468389623e-05
247,9.336395917854533e-05,5.906147019417785e-06
248,0.0001227532813440136,8.60529188553814e-06
249,0.00012788588916670614,5.702808096235557e-05
250,0.00011787792810252041,7.188329758203787e-05
251,0.0001005492297289032,9.913112529185344e-06
252,0.00012345270198988638,4.692499355744417e-06
253,0.00011140754745022167,2.890267115497584e-05
254,0.00011339236104545184,6.390390295842949e-05
255,0.00012977893870155254,4.647879824266514e-05
256,0.00012213550797167196,1.5620653867134797e-05
257,0.00010294808080246219,4.148776592500159e-05
258,0.00010726496728473097,4.311454203489752e-05
259,0.00010708017682780229,0.00014622393127370202
260,0.00012219062375518278,5.077326285312207e-05
261,0.00010182261405442549,7.939575288231406e-05
262,0.00012630051625113102,0.0001189473881659112
263,0.00010774794955882302,4.5195583197889676e-05
264,0.0001091950848805775,1.5251951321973095e-05
265,0.00012871861553849463,0.00022052544368605183
266,0.00012585534748742777,2.1011766868566464e-05
267,0.00011099127416398915,6.303749582872652e-05
268,0.00011944539591027012,0.0001376871096300867
269,0.00011780868636646087,3.266471807954783e-05
270,0.00011796229030686373,9.725891599109263e-06
271,0.00010154977518523869,2.226523383474005e-05
272,0.00010943923969992463,9.59196898536503e-05
273,0.00010350786422220519,6.616278965780473e-06
274,0.0001062974841490948,9.910514954890424e-06
275,0.000145854629832663,5.062548287933944e-05
276,0.0001035153758549996,5.522475241439567e-05
277,0.00011980173013316991,3.469513082521583e-05
278,0.00010977809082449379,4.391185160821844e-06
279,0.00010901195753290337,7.790638292472936e-05
280,0.00011167460011698978,7.634450295003206e-05
281,0.0001210916098523312,5.460214784415779e-06
282,0.00010971321792538788,1.7626834168050078e-05
283,0.00012255116142770043,2.963834160560716e-05
284,0.0001313488267624452,0.00038357975574073567
285,0.00011565435043186683,3.215182516175791e-05
286,0.00011384141456062435,5.725359555884506e-06
287,0.00011665942227312086,4.088884771075842e-05
288,0.000110540927324109,7.815145156829565e-05
289,0.0001070215856491128,2.7665838813877353e-05
290,0.0001041263508167188,6.262776133318685e-05
291,0.0001189009259844728,9.719516869772949e-05
292,0.00010859602428372985,2.6838441059030918e-05
293,0.00010222267058707416,1.4359498699619492e-05
294,0.00011798309995626698,2.2644763192903964e-05
295,0.00010052782239503297,6.935616472564686e-06
296,0.00011220926903616636,0.00012252854753838597
297,0.0001148388091795275,1.819031076492595e-05
298,0.00012638870026435313,2.1288487950608487e-05
299,0.00010180987995502944,4.709074646519349e-05
300,0.00012210111077499806,2.2203056659435448e-05
301,0.00010428962952743633,2.1662210665332008e-05
302,9.526362212038263e-05,5.2914554429405545e-05
303,0.00010616265020574302,1.7747858979869907e-05
304,0.00010890987122926442,2.4237741720214455e-05
305,0.00013875876446701126,8.397609310342446e-05
306,0.00010231967578595546,2.7800441795842736e-05
307,0.00012914836927686103,8.815781480675724e-05
308,0.00010986680451278088,0.00016707633111123129
309,0.00013114300606688846,1.5576619517540795e-05
310,0.00010419389996859805,4.606713659820007e-06
311,0.00012009983511246891,5.945068953214059e-05
312,0.00010518436050992688,7.966666927629341e-05
313,0.00011553623640460494,5.8547090624388155e-05
314,0.00010311468283783169,1.7039149760304415e-05
315,0.0001288724768788026,9.039902132178478e-06
316,0.00010323043885981094,7.45762515726375e-05
317,0.00011301254230234984,5.110815876669264e-05
318,0.00011391239905733607,3.114655593880298e-05
319,0.00010317528509946644,1.262283125931125e-05
320,0.00011485292699774208,4.661889600255302e-05
321,0.00011220759399221345,0.00015072563890580548
322,0.00011661227162165095,1.1317777857738923e-05
323,0.00011124426227437177,1.5835252556032958e-05
324,0.00012393023414839868,0.00012039370868846975
325,0.00011958656324241143,0.00011728441778763551
326,0.00010373181404264128,3.30442972022182e-05
327,0.00011045399811122832,5.4156886483529984e-06
328,0.00011521964440070094,7.945630758798269e-05
329,0.00011191229332506138,2.983608747827745e-05
330,0.00010608788235706544,1.1935265671800453e-05
331,0.0001228168694019854,1.885219519388825e-05
332,9.365508739876872e-05,5.676455504048984e-05
333,0.00010351403516397964,3.5990328005427384e-05
334,0.00010184431493258398,4.896312540717443e-05
335,0.0001113576250394018,1.5779490612512546e-05
336,0.00010830692966094399,9.15289873017994e-06
337,0.00010590837257754876,1.1942093928314732e-05
338,0.00010871346258212373,0.000120692718473624
339,0.00012000543431414392,1.8756943190692325e-05
340,0.00012458698755114195,1.086499720982447e-05
341,0.0001275585078220659,1.054491435777549e-05
342,0.0001074753952047268,2.514599231363268e-05
343,0.00010551690826659717,8.756444008690653e-06
344,9.780341350441865e-05,7.910750584928895e-06
345,0.00010721308090030138,1.3935988904008446e-05
346,0.0001101983958379434,3.848505224130855e-06
347,0.0001094762544992774,4.221506286106049e-05
348,0.00012042730490312882,1.6524514257126405e-05
349,0.00010588128538612933,5.357410801295517e-06
350,0.00010201297584462722,1.7620040607287116e-05
351,0.00011638369980825862,3.21901684979238e-05
352,0.00012477182148215368,1.9480868132433328e-05
353,0.00012002715303912529,2.1174286689188283e-05
354,8.994180172432587e-05,5.19568958083723e-05
355,9.686491413866843e-05,1.2813418280962585e-05
356,0.00013260329021538516,1.6285484365503937e-05
357,0.00011584286467844589,3.226506819764973e-05
358,9.369924094860433e-05,2.689335817242037e-05
359,0.00011219951361276485,5.776343598558052e-06
360,0.00012057861494722012,3.3480474411322216e-05
361,0.00010664620675505983,3.433434323127421e-05
362,0.00012361142709311763,7.963447312939465e-05
363,0.00012052903272944923,4.16346675925006e-05
364,0.00011615071924129162,8.206426657272994e-07
365,0.00010658992179162996,5.963960509132021e-06
366,0.00010433542104692242,7.720119803087141e-06
367,0.0001047082172406555,2.20706002069979e-05
368,0.00010300586768535199,4.1334598047178987e-05
369,0.00011670425270677732,1.2803560606707353e-05
370,0.00010352404956452072,3.731747498365866e-05
371,0.00010188099937252662,1.0990002361947555e-06
372,0.00011960414978953932,1.5379127663079757e-05
373,0.00010929733778391646,2.2521274566397528e-05
374,0.0001047940922643888,1.7375960616764155e-05
375,0.00011868651675114735,1.2209658481861932e-05
376,0.00011569629862496819,2.805298225351287e-05
377,0.00011624134983056713,9.777975007680785e-06
378,0.0001056879529109091,2.255161766198817e-06
379,0.00010278020653522385,1.942446093508342e-05
380,0.00012018471182295416,0.0001297880903050585
381,0.00012252118642500266,4.1604914306736485e-05
382,0.00012424984498516238,5.135486356753892e-05
383,0.00011562824187658037,0.00012078550470101293
384,0.00010250048615829928,3.012442864795227e-05
385,0.00010524680457762271,1.1922539194092076e-06
386,0.00010677947242308657,1.95708466656914e-05
387,0.00011660213469491605,9.102998541746112e-06
388,0.00011779245525115553,0.00013185592530923362
389,0.00013056676015349525,4.756110601405828e-05
390,0.00012085570462462396,4.802262352578009e-05
391,0.00010868365557013126,8.216216177480356e-07
392,0.0001045387553138956,5.3688277019974876e-05
393,0.00010662786109942411,2.844232273660058e-05
394,0.00010468119235573461,5.8943975721354524e-05
395,0.00010416243694941595,8.010181596760232e-06
396,0.0001033563795076963,1.2851961232910762e-05
397,0.00011437696344702747,1.608126382158672e-05
398,0.00012815029963290773,5.127542116502377e-05
399,0.00011105575084392746,3.780718806293725e-05
400,0.00013625267249857897,5.2279356553341646e-05
401,0.00010187569113350837,2.9460034187328718e-05
402,0.00012055983593235367,2.2980046730675797e-05
403,0.00011380029302459671,2.683015599156204e-05
404,0.00012447386863002031,1.7836269951991398e-05
405,0.0001094473175533512,8.47658263870398e-05
406,0.00011038826902059866,8.176010425207877e-05
407,9.659605582034381e-05,8.780570271193153e-06
408,0.00011882847662645022,1.8530608485530473e-05
409,0.00012496662539757212,1.2297811158923787e-05
410,0.00011074641073948985,4.483908479675396e-05
411,0.00010552908912432154,5.590693854676361e-06
412,9.485413405921228e-05,4.971661535707312e-05
413,0.00010566247639855115,1.994719102365803e-05
414,0.00012364423097062382,6.639001491404944e-06
415,0.00010621757163010884,5.363732948055672e-06
416,0.00012174287924125588,1.7460553700971912e-05
417,0.00010497379081930918,6.695643815747008e-06
418,0.0001314870935263682,5.8524010985346006e-05
419,0.00011012789939646321,0.00011236279647182284
420,0.00012435213234697275,2.8670010886167657e-05
421,0.00012229489145939464,5.372532984848177e-05
422,0.0001140658551738155,1.2189731877185525e-05
423,0.00011219041875119401,3.159371801055834e-05
424,0.00010596158771088214,2.1815989811169853e-05
425,0.00010934117436010374,7.95730468765601e-05
426,0.0001257461939200394,4.440605601388527e-06
427,9.595482150140417e-05,8.999973326229035e-05
428,0.00011725873596735842,2.2639416620445147e-06
429,0.0001066630232826061,7.335290056023924e-05
430,0.00010950919405884373,2.1717246702152592e-05
431,0.00013016092364057848,1.258720813350488e-05
432,0.00013240715678067782,1.6764614161010427e-05
433,0.00010728412380235372,9.5992590952049e-05
434,0.0001223594687206955,4.1017911765545275e-06
435,0.00010302542067625651,3.7278455234676284e-06
436,0.00011458942573416434,3.6320209800770258e-06
437,0.00010975682597208355,1.907563496359607e-06
438,0.0001037777948160427,2.165995910531737e-05
439,0.00010996042727723831,4.1600506431691425e-05
440,0.0001005726435444234,3.7661956781877946e-05
441,9.064032136108108e-05,5.859707145348915e-06
442,0.00011125319121461496,4.251629953645478e-06
443,0.00010011048743974528,2.8934284160000947e-05
444,0.00010273457725932801,6.453407282691053e-06
445,0.00011970999137365103,1.3423019135710816e-05
446,0.00010324822555990951,8.226257126313599e-06
447,0.00010369159866631977,2.301808604957395e-06
448,9.017803981834708e-05,5.0002904431052776e-05
449,0.00010186613667565216,7.703027099986754e-05
450,0.00012480273843514607,6.592816517259885e-05
451,0.0001036469416090894,4.2903616038503594e-06
452,0.00013015830571633217,2.5025441112385343e-05
453,0.00012108579841190027,1.8008879955922816e-05
454,9.652818845439378e-05,8.499591015354752e-06
455,9.497912105939521e-05,3.9975907825827176e-05
456,0.00010390486932928246,3.9083765682855496e-05
457,0.00011834811858211182,0.00010487549353106831
458,0.00012072505274554162,2.373225495668181e-06
459,0.0001279252549202585,4.2730106224876333e-05
460,0.00012382581706370336,6.3226827346420636e-06
461,0.00013098581970028374,0.00011336908570708355
462,0.00010880500552599292,1.5341441854255927e-05
463,0.0001030860206614282,1.5525500974455036e-05
464,0.00012024997532540687,5.165449300356486e-05
465,0.0001101918916656919,8.727807410140333e-06
466,0.00011292870843694444,4.313779763496354e-05
467,0.00011737640420551507,2.4712750277227092e-05
468,0.00012924621727025828,4.336846930616838e-05
469,0.00010687579710096337,0.00012200065196496189
470,9.864809311223065e-05,7.875447773824658e-05
471,0.00010117343871033674,1.3010818210418085e-05
472,9.108029330269523e-05,2.6498153955179862e-05
473,0.00011555898205518051,6.598282667777845e-06
474,0.00011108475401314093,1.5913919115061832e-05
475,0.00011310930783896046,3.594177838898911e-06
476,0.00010479654208387951,6.416961019315002e-06
477,0.0001076439538355575,5.933845813359427e-06
478,8.911490062011859e-05,2.0960362987489817e-05
479,0.0001100327562075707,5.6940673971888185e-06
480,8.702153752787756e-05,2.6366534845154857e-05
481,0.00010480304472104064,3.389985524311819e-05
482,0.00010549131852655638,8.506970279579241e-06
483,0.00011697146702814065,3.520780956023373e-05
484,0.00011362244841928195,7.676298714639073e-05
485,0.0001193785937456644,2.4726420614646897e-06
486,0.00020790585924471283,5.653736533996066e-05
487,0.00012764242311279485,8.417066444405946e-06
488,0.00013389104204346452,8.038494935410461e-05
489,0.0001324579025599229,4.985978446118739e-05
490,0.00011761246259470191,7.3785914327831355e-06
491,0.00012181285370997707,0.0001709307860354279
492,0.00013434706597067464,0.00011061561764591876
493,0.00011324600484565364,2.648591688414365e-05
494,0.00010654501574667299,2.091965713008434e-05
495,0.00011961453868647415,7.63518965741514e-06
496,0.00011796880207718556,7.502836583371218e-06
497,0.0001432368052252091,3.307644391912078e-05
498,0.00010065746590805638,4.474793859145912e-05
499,0.00013344769081918053,0.00013476034635369208
500,0.0001699839294222803,3.0526838222473174e-05
