epoch,loss,val_loss
0,0.33973798305868247,0.32451792858723305
1,0.3168073439305063,0.3131680981606692
2,0.3059674130498076,0.3001026892130452
3,0.3101935442403066,0.31070966790441273
4,0.3096520288003911,0.3105437135310651
5,0.30871640482275703,0.30916790120838755
6,0.30897695262678904,0.305739887288074
7,0.3070434499308646,0.3105247092698631
8,0.3018208708968475,0.29710999734540955
9,0.29902597313090196,0.3039443237793756
10,0.30018892870556346,0.2980659138455387
11,0.29790924904014854,0.29492979202104913
12,0.29197688858143145,0.2836334384513259
13,0.28761618966154817,0.28700042414260646
14,0.2851474559385714,0.2741437983399973
15,0.27075057470207686,0.2724549501969669
16,0.2746931648047136,0.2803916434486174
17,0.30245472616452773,0.2985073106676552
18,0.2966582100811622,0.29720160643839894
19,0.2952793702947722,0.2904801277448177
20,0.29160933271586464,0.28814697598460726
21,0.28972654013658505,0.28691784536499815
22,0.2878127233396998,0.2889063945885427
23,0.2858384478208925,0.2839241869918173
24,0.2880624570875621,0.2871572012706544
25,0.28746114244206633,0.28633587219955986
26,0.2835786228569196,0.2800153171395164
27,0.2805868459048031,0.28143250503545686
28,0.28305345630760104,0.28312719974963796
29,0.2845712266832614,0.2850190627828958
30,0.286748128382565,0.28912033464086273
31,0.2852581567663274,0.28059346756317904
32,0.2800298589263126,0.279976455393323
33,0.27777953679970413,0.2771498745200007
34,0.27763821497607194,0.2791939895150223
35,0.2774461531500927,0.2754301709529445
36,0.278301978961741,0.27960294092275445
37,0.2794820617774217,0.28262033432886746
38,0.2836866645778207,0.28531641518401646
39,0.2878982119804187,0.28896536479903284
40,0.28661753151485386,0.28715618413409194
41,0.2889700318566806,0.2903712328579262
42,0.2888891883224225,0.2894501951894331
43,0.2885851867074113,0.2881367422740292
44,0.2892265605578701,0.31237005677012447
45,0.2910626949332982,0.2881321358981806
46,0.288894623738351,0.2898452907400801
47,0.2888205557537498,nan
48,0.28987502823058936,0.29115765135450067
