epoch,loss,val_loss
0,0.805682376486008,0.8060675370486143
1,0.8027922179169766,0.8021045993042939
2,0.8026869353050164,0.8039275603613841
3,0.8026081975108948,0.8024115450033183
4,0.8025171358512375,0.8025645251309605
5,0.8024479120662523,0.8049337566638407
6,0.8024789602685727,0.8052262198244667
7,0.8024658788416564,0.802779166840442
8,0.802263801284128,0.8021509190055336
9,0.8023158481355156,0.8020858299939272
10,0.8022996212760227,0.8019371468730955
11,0.8022117928234294,0.8021355280509361
12,0.802243927885813,0.801726534260118
13,0.8020988777870489,0.8017810989254461
14,0.8020098330363679,0.8023829089796573
15,0.8020948917870707,0.802562192267283
16,0.8019455930519359,0.8016542796165712
17,0.8019237140098996,0.8023397955645994
18,0.8019519083786506,0.8037813886815206
19,0.8019155585837306,0.8016164721685367
20,0.8019289430768491,0.8026866461739647
21,0.8019242094350046,0.8021821297132052
22,0.8018291624364071,0.8033923136389285
23,0.801932674092068,0.8028550064001723
24,0.8018489637484494,0.8017910992537184
25,0.8018792632802714,0.8027141969493837
26,0.8018407307181546,0.8016909045262017
27,0.8018324919933093,0.8017744029721906
28,0.8018360131392179,0.8016517534445297
29,0.8018376168797234,0.8016804796590403
30,0.8018473383601326,0.8018599179779033
31,0.8017909099437853,0.8017394236536239
32,0.8017835873797443,0.8018282435076408
33,0.80181548962344,0.8026020620064463
34,0.8018522973867485,0.8016173453248169
35,0.8017658812039784,0.8016123114093657
36,0.8017412463954899,0.8016684148506846
37,0.8018526595977087,0.8022504319919842
38,0.8017658631595342,0.8017061260734539
39,0.8017547698706647,0.8040632621526127
40,0.8017580743728069,0.8020578146868249
41,0.8017722894499176,0.8015796478569656
42,0.8017063048268602,0.8017478113730552
43,0.8018089758165161,0.8021748555505246
44,0.8017535635110231,0.8021247935945875
45,0.8017476150185906,0.8016676626193612
46,0.8017679400076184,0.8016368470180123
47,0.8017398743211944,0.8018283093537646
48,0.8017778029793462,0.8017588808577942
49,0.8017264481243086,0.8015477333411981
50,0.8017291535895554,0.8017042734486886
51,0.8017232455718959,0.8020295343978825
52,0.8017329496042148,0.8018316115398265
53,0.8017154743973349,0.8017047317093122
54,0.8017364752070025,0.8015273544983592
55,0.8017012688311252,0.8016656415338256
56,0.8017352647691193,0.801721744945564
57,0.8017120367118123,0.8019299383494753
58,0.8017241664491038,0.8021371657144343
59,0.8017116691589078,0.8018156114642141
60,0.8017681540095994,0.8016371068232704
61,0.8016966896741768,0.801664196320858
62,0.8017000386654385,0.8020566665209257
63,0.8017027951781222,0.8016967816624985
64,0.8017352623245408,0.8015957145182134
65,0.801704360324421,0.8042827147408099
66,0.8017450664520541,0.8015878826749532
67,0.8017143004995498,0.8015678109661225
68,0.8016874691580241,0.8015945995711807
69,0.8017242203505209,0.8017766795146554
70,0.8016801268646021,0.8021367042591199
71,0.8016929167390519,0.8015782252138957
72,0.8017043427319753,0.8023373616244598
73,0.8016990967667489,0.802044174097312
74,0.8017273264868339,0.8025662518612504
