epoch,loss,val_loss
0,0.7085605470012252,0.704877843069971
1,0.7043991133159889,0.7029954171358208
2,0.7039481331553307,0.7031566193914295
3,0.7037706169616558,0.705645478777495
4,0.7034635706881912,0.7028963840628972
5,0.703525059138234,0.7032762856696438
6,0.7033703075937185,0.7026858875236796
7,0.7033558692711384,0.7029187106612894
8,0.703368266287076,0.70338557964519
9,0.7033019258883185,0.7044566132886239
10,0.703242452629973,0.7047896114235777
11,0.7032437024430028,0.7043039859376533
12,0.7032237796640448,0.7034260276825197
13,0.7032424419342519,0.703363122094062
14,0.7031976281385737,0.7039538809146834
15,0.7030968352612125,0.7026721116626825
16,0.7031929001360617,0.7027784861938533
17,0.7030795652269599,0.7028116876374995
18,0.7030379065128044,0.7028556465806796
19,0.7030308288830632,0.7028884206752919
20,0.7030153904060448,0.704320718928543
21,0.70301876685957,0.703702241670405
22,0.7030719779582191,0.7032643047219175
23,0.70303176378958,0.7028968086313669
24,0.70302124050163,0.7033212055935162
25,0.7029898138795083,0.7028014036325309
26,0.7029681518835409,0.7026584048720802
27,0.702969692919307,0.7029749204739744
28,0.7029602910113296,0.7028539748404813
29,0.7029582173083033,0.7027439933260972
30,0.7029587539197043,0.7028569436250786
31,0.702925452398974,0.7027324023672724
32,0.7028833427070251,0.7033047015554555
33,0.7029050767048607,0.7027773133282625
34,0.7029168503256782,0.7026914643886367
35,0.7029358840810983,0.702734751322725
36,0.7028676344460422,0.7028714077348449
37,0.7029553005925081,0.7036566579608112
38,0.7028942158702406,0.7027247533904707
39,0.7029233118230402,0.7030256014308031
40,0.7028944807137743,0.7031351898207558
41,0.702902450724306,0.703381711614339
42,0.7029373194982953,0.702709252574012
43,0.7028925500678905,0.703109491285556
44,0.7029714719350638,0.7027783664816958
45,0.7028622981252827,0.7027323897955731
46,0.7029230040443785,0.7028485013001018
