epoch,loss,val_loss
0,0.33173363129982597,0.32207398133597365
1,0.3212821303830234,0.32343874894655666
2,0.32009709404371245,0.31857560433761656
3,0.3192667998676714,0.31974029674127735
4,0.3186167188335744,0.3172089809815286
5,0.31870285247584523,0.3181418353659343
6,0.31832403388122893,0.3184372241088829
7,0.31834157449142947,0.3172312032348169
8,0.3178787619201684,0.3210315701683461
9,0.3180554735197669,0.3173652884386313
10,0.31792716626561784,0.3176474762022052
11,0.3178155884862355,0.317764109269561
12,0.31769899060797757,0.31948495996797055
13,0.31767865360194153,0.3170489712625224
14,0.31755059668240987,0.31979116461708884
15,0.3176111912808921,0.3202521463038016
16,0.3173798767608249,0.31818527239132166
17,0.31712788117114765,0.31658937897043254
18,0.3165978065571802,0.315801984855614
19,0.3162387088563358,0.3152086293726938
20,0.3159586146746622,0.3272201079144963
21,0.31571515208217615,0.31568271841659734
22,0.3156619849382156,0.3150967806355829
23,0.31527008371293136,0.31501532969048834
24,0.31506878927323817,0.3159630007394786
25,0.31497004208524876,0.31433481164369037
26,0.31481000122072217,0.31405655542023425
27,0.3149198419456675,0.3180988615411091
28,0.31477156476785106,0.31601365915599
29,0.31476839027366166,0.3144403172485882
30,0.3147779759218053,0.31474607097303897
31,0.3147252361475889,0.31700471188531026
32,0.3146255652335387,0.31454120387806195
33,0.3146182626236949,0.31861817756894206
34,0.31471117111348285,0.31762815477238693
35,0.31435909092539105,0.3143027128563921
36,0.3144160628037175,0.31417720317840575
37,0.3144617259515821,0.3146445442222188
38,0.31438827885989296,0.31418073578153
39,0.31445197756266674,0.3160998739172744
40,0.314447109751801,0.31468303926825225
41,0.31443338217956607,0.3139844733935136
42,0.31435897767372617,0.31451288704245023
43,0.31441228137330757,0.3149386775109076
44,0.31426783299463773,0.3140599902746991
45,0.3142184965662819,0.315831339270542
46,0.3143554299940047,0.31508802713886386
47,0.3142368072163356,0.31469529095122006
48,0.3142529654221415,0.31580111754147644
49,0.3143764408553152,0.31885982053747247
50,0.31425835505249977,0.3143943821969754
51,0.3142862521058029,0.3149652460076969
52,0.3142694462164634,0.31376404723813456
53,0.31413120256744737,0.31478532616317123
54,0.31438094901082675,0.31400800935979517
55,0.31407194556614537,0.31406486145320067
56,0.3141574753255523,0.31410806142071046
57,0.31433487325081244,0.3165266301732501
58,0.3139973495754244,0.315111078370002
59,0.3141269938373018,0.31417902379710383
60,0.3141776702200536,0.31481018291217816
61,0.314112839280468,0.31510057005633785
62,0.31417725796662355,0.3153335451340261
63,0.3141356755286016,0.3146600475086468
64,0.3141317491510168,0.31540451917991447
65,0.3140945091039592,0.3146522364308757
66,0.3141334455772538,0.31752452561932226
67,0.3142971518931521,0.3147656393406113
68,0.314029137838578,0.31692392772835476
69,0.31406461761874666,0.3142643182508407
70,0.3140952938562464,0.3136675180483693
71,0.31415971691034067,0.3141850062102893
72,0.3140054836543257,0.3144035335214203
73,0.3140278566002118,0.3148197615264959
74,0.314068143597411,0.31352740076576213
75,0.31390685667033813,0.31433333254629564
76,0.3140640714751461,0.31392259307889725
77,0.31401207290911354,0.3144462208150338
78,0.3140746074119557,0.31763609150798977
79,0.31392266043198574,0.3136122017285368
80,0.31404369167044927,0.31479780666585594
81,0.3139825547175026,0.314364607902082
82,0.31403895975771606,0.31370841351987117
83,0.3141150340132021,0.3139214509474137
84,0.3140594873324093,0.31423553232815365
85,0.3141029834947677,0.31435681075671174
86,0.3140328265966666,0.3168426078838983
87,0.3139828145661763,0.3148457900761966
88,0.31394750307855196,0.3144485727581138
89,0.31409754742037643,0.3135886835549073
90,0.3140278807135055,0.3163760749045436
91,0.3140562500285663,0.31708643890492083
92,0.31389763137309795,0.3134064727770188
93,0.3139444055345498,0.31463893610549626
94,0.3140074497747979,0.31371041716772036
95,0.31384857777119146,0.31436790962964667
96,0.31395149443901194,0.31432900628440136
97,0.3139599444009955,0.3136453806466559
98,0.3138916705169672,0.3135550008666131
99,0.31395076432451297,0.3139740602845885
100,0.3139909570748897,0.3136446219224196
101,0.3139402403743417,0.3149415330318896
102,0.31386132958803487,0.31373180411293844
103,0.31384337291022285,0.3136229498066914
104,0.3138786990515136,0.31421722212145403
105,0.313923690748452,0.31410540750541405
106,0.313934483296979,0.3139927154143454
107,0.31390045310530523,0.31442441483289374
108,0.31388444120306425,0.31362967619824944
109,0.31386454900697414,0.31490317081695157
110,0.3140191055910317,0.3143277157920762
111,0.3138388725307822,0.31427212604517973
112,0.31388482886438196,0.3148864388170077
