epoch,loss,val_loss
0,0.33283925254926683,0.3243139591465517
1,0.32160151768495243,0.3206658333318109
2,0.32065751463314046,0.31812192247464105
3,0.3199003406376914,0.31905529562651963
4,0.3192090128352259,0.31890383824225393
5,0.31880836324767436,0.3177580408807428
6,0.3186324727369436,0.3174675419519912
7,0.3184924249257095,0.32312416916449666
8,0.31860984729899505,0.31933107328769883
9,0.3183050699698376,0.31845317669305256
10,0.31820330137001845,0.3171556869896115
11,0.31815073378673514,0.3196653755959447
12,0.3180559841313917,0.3245335375848538
13,0.3180480521088521,0.31810122919141803
14,0.31800984151286604,0.3198109905418036
15,0.3178377346156272,0.31751646550358376
16,0.3177914445816834,0.32049077375059387
17,0.3176356509233821,0.3187434175470035
18,0.31746870942657457,0.318832522911706
19,0.3174397738790236,0.3180087701706378
20,0.3171981355482945,0.3190614434832675
21,0.31729588911275125,0.31666725413970853
22,0.31724794576143794,0.3186779059488188
23,0.3171320381683647,0.31722864705338966
24,0.31717818035638734,0.31730471358405743
25,0.31706474499632975,0.3177996322771456
26,0.31715416135330887,0.3176896546673834
27,0.31705283276696605,0.3179233540820129
28,0.3169404173806542,0.3167986349787369
29,0.3170687894721396,0.31682773233939043
30,0.31696789283547727,0.31658746252580555
31,0.3168234166596863,0.3164333128899558
32,0.31695208492143817,0.317532720888223
33,0.3169557021663376,0.31663610933732156
34,0.3168692594793358,0.3166202231317241
35,0.3169380494435401,0.3170523525319679
36,0.31695016409962035,0.317098040926841
37,0.3168621386470538,0.3169435399785527
38,0.3168070504442326,0.31642833925950026
39,0.3167756442783973,0.3168757860033447
40,0.31675748048014396,0.31772706866560146
41,0.3168312985356307,0.3166123787759256
42,0.3167641121265573,0.31668548597295587
43,0.3167237272081742,0.3170272042674403
44,0.3168665408319816,0.3190827855697045
45,0.3166989537509094,0.31976396071703794
46,0.31684501484813243,0.31888982020595824
47,0.3166841130096142,0.31638376700966886
48,0.31671393919287055,0.3169059356448076
49,0.31670432378776214,0.3169458427293129
50,0.3166288635131266,0.3163287158639496
51,0.31669168549610976,0.3171394249789472
52,0.3166137218993602,0.31657514965563793
53,0.31664133966548874,0.31655861736822954
54,0.31653268633340353,0.3163065386912959
55,0.3165880160014554,0.317813376176446
56,0.3166358642676192,0.3171774492222381
57,0.3166289271455279,0.3173488278246991
58,0.3166769745123143,0.3177934702513531
59,0.31668740743881507,0.31671457230009453
60,0.3166873476089599,0.31782929410709637
61,0.3165338665917073,0.31955626978176105
62,0.3165245399982819,0.3163183159035429
63,0.3164337019398555,0.3168814949746759
64,0.31648953427977955,0.3170610472227149
65,0.3164710981058668,0.31989082390853846
66,0.31646928176552236,0.3177771927405232
67,0.31644858504280066,0.31744523168201777
68,0.3163843354236215,0.3167990836996594
69,0.31646770998084006,0.3170988057742344
70,0.3163925096511153,0.31664316222330474
71,0.3162607313160091,0.31644754806168324
72,0.3163915868724371,0.31630792413692616
73,0.3164309785271904,0.31823849257996895
74,0.31635018967138284,0.3163537744257054
