epoch,loss,val_loss
0,0.41519952789448933,0.4092981391006309
1,0.4091651627995528,0.40721393660931077
2,0.4077319469648449,0.4061345885616378
3,0.40735499459646046,0.40706229493872403
4,0.40715116749813396,0.40575200771871334
5,0.4070464738118696,0.40649651343710075
6,0.4066033171096974,0.4062871051337524
7,0.4067507106280075,0.40592874204254625
8,0.4063234531968247,0.4077010945410054
9,0.406387831362258,0.40777053963161874
10,0.40642664075533563,0.40653311133976316
11,0.4062615358478943,0.4082822272262857
12,0.4062618568003808,0.405586633492936
13,0.4063721740086949,0.4054199774419108
14,0.4060893119765105,0.40567295487702043
15,0.4061398028462048,0.40550335993246167
16,0.40610611455198287,0.40581524764042043
17,0.4060074012011719,0.40540412515032087
18,0.406064449991033,0.40573265824661064
19,0.4060604204173704,0.4055257663981199
20,0.4059453284566433,0.40556475568941747
21,0.40600677327699486,0.405347883923178
22,0.4058990562462718,0.40691315821619245
23,0.40594692748232286,0.40584889459550827
24,0.40574372160707817,0.4056401980721921
25,0.40594215540522055,0.4059141337723649
26,0.40584338303901946,0.4060150102557379
27,0.4057663551005399,0.40589670061177713
28,0.4056987966024056,0.40780970356600454
29,0.4057927938202019,0.40718534048970223
30,0.4058839012780391,0.4058912019427893
31,0.4057821496317148,0.40673390319270475
32,0.4057485921571497,0.4053542121172543
33,0.40580950754009804,0.4053124508106383
34,0.40576285785178606,0.4054266114092938
35,0.4057048339090009,0.4066483278872062
36,0.40574449312085675,0.4093790898399968
37,0.4056548914547322,0.4066289198753556
38,0.4055772477723713,0.4054389774947249
39,0.4057735892124901,0.4062404743790922
40,0.40559146248622674,0.405424179288353
41,0.40570871752854953,0.405156280281526
42,0.4054939118129091,0.40563600331027216
43,0.4056737995876898,0.4068722921772571
44,0.40563575974302535,0.4054128088667138
45,0.40555478452459237,0.40731628640709683
46,0.40556791076128673,0.4050485789627946
47,0.4055229766791741,0.40501616867836887
48,0.4054445033996449,0.4086490681094508
49,0.40535225178008344,0.4047721690338835
50,0.40522900317839194,0.4051245830343024
51,0.40529876338782583,0.40531040326537326
52,0.4052939694022046,0.4048921758276653
53,0.40542280947901294,0.40497852818250063
54,0.40512234060661545,0.40524415734683905
55,0.4051856693186112,0.4048355206810215
56,0.40511853749250254,0.4063797704191421
57,0.40529570668421855,0.40544480749454453
58,0.40536765503395233,0.40512841728425797
59,0.4050700563487153,0.40516572877136114
60,0.4052777115606968,0.405129972802794
61,0.4051726187802338,0.4049226136864267
62,0.40510967153843785,0.4053201397062827
63,0.405030062522658,0.4048854754817101
64,0.40507158576662017,0.4045988468467154
65,0.4051405054429666,0.4053354094844894
66,0.40508636404613496,0.404998050685556
67,0.40510508250181115,0.40511958678957843
68,0.40509122318817364,0.40483854895194177
69,0.4049721892172596,0.40596234875340614
70,0.4051117497626328,0.40524268731585805
71,0.40497311749328124,0.40469328669401317
72,0.4050913037634207,0.40515089844060004
73,0.40506927856335834,0.40494981180349593
74,0.40516901723301474,0.4053567899220043
75,0.4050678392103033,0.4050973614303409
76,0.4051729201914746,0.40505786230487206
77,0.40508804866124787,0.40459909949350004
78,0.40503245435929336,0.4057786492053096
79,0.4051041433151128,0.4045784555652893
80,0.40505061944451975,0.4055940698157469
81,0.4051327270391899,0.40528211229788164
82,0.40511997860622206,0.4109749302378955
83,0.4050012608201171,0.4048996519805776
84,0.40509882703689926,0.40461982348124975
85,0.40519711598750974,0.4053993185459828
86,0.40508906345239265,0.40500909709752936
87,0.4050764056995606,0.4058516854535853
88,0.405033253806266,0.4051979797945425
89,0.4050849715644605,0.40481861389008705
90,0.4050258653072343,0.40922375599444655
91,0.40506148642884426,0.40498189300520543
92,0.4050541585382411,0.404879494414436
93,0.40506552604626145,0.4047511320404024
94,0.4050859114331008,0.4049244833495422
95,0.40511063872735276,0.40552466454044467
96,0.4051354940263283,0.40903983024450447
97,0.40506845487254095,0.40484014308777994
98,0.4050802813846812,0.40649466634388304
99,0.40505780461402113,0.40654152775224917
