epoch,loss,val_loss
0,0.3269278211094778,0.3109642819757996
1,0.3041463313783578,0.29754735917535086
2,0.29580661917118717,0.29617001217420214
3,0.29389638743169016,0.29352582018490186
4,0.29153519085676166,0.2896414458657591
5,0.2886146883384215,0.2868839363672645
6,0.28758807306428796,0.2870072412180355
7,0.287239252639522,0.2876493299487264
8,0.286934690206028,0.2870474668850368
9,0.28646957042882387,0.2859236779133918
10,0.2863932147288589,0.2861343888005781
11,0.28642313097187466,0.28745512346771634
12,0.2859280151571873,0.2863426001150023
13,0.28608194362226247,0.28592263316204913
14,0.2858032768578838,0.28643626943759876
15,0.2860293430116156,0.2873679417131826
16,0.28727020744344506,0.2877707345192133
17,0.2876974407800858,0.2871955510966874
18,0.2882647390286032,0.28868116681841105
19,0.28808277701254753,0.28357513512366384
20,0.28413998745352054,0.28538762084734
21,0.28545397620716634,0.2890431718414189
22,0.286217358728631,0.2856322249960692
23,0.2843817822057471,0.2834775307536972
24,0.28277039719071034,0.2818071635906021
25,0.2816249056638097,0.2821045607892942
26,0.28148051967723764,0.28245792723163055
27,0.2738051625023738,0.27567353961076335
28,0.2717901772970585,0.27331091031937876
29,0.27408742823665566,0.27634041091308126
30,0.2765076251970016,0.2766783358948195
31,0.27688310589554976,0.279461108436242
32,0.277440789881513,0.2756374825994707
33,0.27581571968649027,0.2764468886481558
34,0.27542551833805706,0.27563297602729525
35,0.27495013476966573,0.27441493038973097
36,0.27523137691566985,0.27438827957472844
37,0.27035785100752596,0.2685402274049448
38,0.2648384078747506,0.264232638044299
39,0.26454511157078425,0.2660326575294384
40,0.26647866092366185,0.2695738311089581
41,0.2673374870144349,0.26914843619340223
42,0.2693523094266486,0.2698133494984285
43,0.272784005820775,0.27379382976228644
44,0.2650507417895335,0.2622949062848806
45,0.2645019963979245,0.26686194658444073
46,0.2669549188602695,0.2672972223223808
47,0.2695798433924036,0.2701716103547656
48,0.27192152591703606,0.2745424778080871
49,0.2754887694732653,0.27799228792267705
50,0.27641075794740644,0.275669229917387
51,0.27828374953507234,0.27626120454933856
52,0.2765586695415701,0.27790904492022206
53,0.27607098122914253,0.27413270686589175
54,0.2713659283735579,0.2714402719614726
55,0.27209153456343926,0.27127663547727376
56,0.27350852388045865,0.27616534490893935
57,0.2753185361480827,0.2757929754755868
58,0.27580404118430035,0.27515508008690076
59,0.2755319880817434,0.2761424448232342
60,0.27520403287989154,0.273831179705114
61,0.27628696232819727,0.2776283522407747
62,0.27651536581125097,0.275481447847979
63,0.2735513750996759,0.2697147314202249
64,0.2700177321640803,0.2698902993359336
65,0.2702963713178341,0.2714291772413367
66,0.27371312917279395,0.27622646847247323
67,0.27897170996613546,0.28027535211691823
68,0.2780856627771418,0.27850662683443284
69,0.27644696787631007,0.27493682391970947
70,0.274922537574951,0.2756320262223412
71,0.2746456353474769,0.2737147271715475
72,0.2743655572102653,0.2729833403509625
73,0.2734681755113754,0.2736621816784449
74,0.2742149099874363,0.2751935005964213
75,0.2746531504759495,0.2765341669720934
76,0.2749494444474661,0.2772371337911512
77,0.27529011799586856,0.2743945135525483
78,0.27526270849503676,0.2764083203736872
79,0.2751956797963519,0.27582320064047516
80,0.27356508953108205,0.26839165590062514
81,0.26823991987047247,0.2695323004377763
82,0.269316495105112,0.2709583920715546
83,0.2719144571474273,0.2741317875101139
84,0.2752913820991318,0.27418976997472966
85,0.27375950702993895,0.2735007860901418
86,0.2738872667987474,0.27253658187464647
87,0.27361032992101114,0.27465461879004244
88,0.2745263404626069,0.2711645065209201
89,0.2769986486448039,0.27166650961164235
90,0.27069060466915584,0.27269089056124535
91,0.2701111250846601,0.27034983240603083
92,0.2713269878396218,0.2736293691862448
93,0.27295069871760674,0.27551804213610426
94,0.273959633144591,0.27403291935231994
95,0.2737612371726764,0.2740795338657209
96,0.27370215870803305,0.27319823646507774
97,0.2722305199034589,0.27076785622757066
98,0.2725484482527113,0.271882790181236
99,0.2712604183998468,0.2697005775869598
100,0.27087240506240506,0.2725930354824759
101,0.270895103446776,0.2709858544000322
102,0.27093662353728315,0.27167368061023145
103,0.2704583291741584,0.2697564944060374
104,0.27189397847326063,0.2790497645041843
105,0.2748517031125504,0.27537051131382834
106,0.2718634993689571,0.2704968725719975
107,0.2702182983334878,0.26857264088826943
108,0.2715224125634709,0.2735216035415737
109,0.2730760634463611,0.2718834606923263
110,0.2741377553749952,0.2717592714923333
111,0.2728217152847375,0.2748843460463593
112,0.2723448211453754,0.2720375603333927
113,0.2723620144738187,0.2727465764358463
114,0.27104169878063444,0.2703365628749438
115,0.2721712734404323,0.27368601438043244
116,0.2724964424110145,0.26916778990271156
117,0.27238643831676906,0.27152869200602986
118,0.2731635068401063,0.27331274947197115
119,0.2714839377057114,0.272993956022876
120,0.2723014518964014,0.26824237459178224
121,0.26851222037875966,0.2685316482819058
122,0.2684179749354708,0.2673752441672989
123,0.26902182684015696,0.269061383768481
124,0.27073462511733665,0.26776214540828
125,0.2670937313360991,0.265993969875146
126,0.2671086309160546,0.26776014348960997
127,0.2657996120331861,0.2651876051746303
128,0.2679623063269565,0.267125821480529
129,0.2718762967536013,0.2702464732711204
130,0.2726152465938569,0.2759794499357573
