epoch,loss,val_loss
0,0.43406201917514337,0.42118853309442417
1,0.4191560099343602,0.41145590112354213
2,0.4000400575361759,0.37570911935209383
3,0.38225671657912735,0.39369670417521446
4,0.37563574023479274,0.37491000299624977
5,0.37373672479943787,0.3633447330512677
6,0.3713954704806959,0.3687326888470736
7,0.37115431310747454,0.3662227626710589
8,0.3703178438625271,0.36046037080255944
9,0.36750675126803006,0.3600474444542142
10,0.36236303686190374,0.35561454102055895
11,0.36061355948067014,0.3550251005621717
12,0.35926861958585676,0.35187791930048506
13,0.3591855130166554,0.3551054587609766
14,0.35926864025213545,0.3514399256354349
15,0.35981522604739735,0.3617488181581625
16,0.36018593728447035,0.36131509048268845
17,0.3611320382137474,0.3585493666573406
18,0.3617872270188934,0.3544118402389061
19,0.36470703139817784,0.35792374139285593
20,0.3605961939223188,0.35807607985662493
21,0.3609748762919844,0.3579716610339277
22,0.3862704935667517,0.36598979766997375
23,0.3664244801627932,0.35903994148654456
24,0.36237940807446395,0.3622982165266796
25,0.36096523011879,0.3537593745959492
26,0.36107515362645987,0.36258422654495526
27,0.3599403961528119,0.3521958014324319
28,0.35892718089975234,0.35798379752987847
29,0.35886101824917094,0.3579876631992298
30,0.35830958348979575,0.35147503553503784
31,0.3585460064984816,0.3543541405670457
32,0.3583865027597768,0.36086795240899383
33,0.35747314165893507,0.3627932977398832
34,0.3582636740722721,0.3503887040368572
35,0.3583050146460724,0.3579316320105058
36,0.35775455055858113,0.3551557206011421
37,0.35863933424583727,0.3527967802115849
38,0.3586554316272267,0.35682613737204927
39,0.35800720206934583,0.3640404631278603
40,0.358532937894241,0.3567379071967472
41,0.35798625438976633,0.35662552372103334
42,0.35765778690838607,0.35196131003260517
43,0.3579712423691742,0.35984167005005274
44,0.3572330172363517,0.35111776184828714
45,0.3568813465267634,0.35434092964680064
46,0.35675780004639324,0.3552655861569655
47,0.35778128507016277,0.3523136641368588
48,0.35770143501216367,0.3519493295813322
49,0.3574594911292112,0.35550095780731283
50,0.35305904934136606,0.33243997903112926
51,0.34918840084787756,0.3162737515208847
52,0.31473087527149685,0.311995545615337
53,0.30112159765845864,0.30082590526356506
54,0.2944766971871531,0.288135991159065
55,0.2941956794429883,0.29638924906008246
56,0.29263764604640236,0.29017107110491114
57,0.2932784674967603,0.2955401461944866
58,0.29286787482343324,0.28778044500732947
59,0.29370914458287517,0.2868069184278068
60,0.2929080822747007,0.2820705427496379
61,0.29326929199359686,0.28462886088178585
62,0.2939459926081742,0.2866011548613881
63,0.2940917385996675,0.2945590642852019
64,0.2940858523164102,0.2934617535538248
65,0.29309692989876995,0.28555800797507436
66,0.2925316443165048,0.2870280595221384
67,0.2928071204218552,0.28492559198563555
68,0.29260655236746863,0.2909974747035291
69,0.29261310356293174,0.2856065369819033
70,0.29180795541234156,0.292354524164992
71,0.2917063058012252,0.2837456047135069
72,0.3010587733206179,0.2957541676915906
73,0.29412400626021323,0.28700393927595985
74,0.2914836087363134,0.28879277084696076
75,0.29149186018583395,0.29110514441388935
76,0.2995621595356009,0.2867536462472947
77,0.29312869215564286,0.2839853988509058
78,0.29122073134536935,0.281670140862559
79,0.2914542110143996,0.2877693092002112
80,0.29139940168181483,0.2843841686080362
81,0.2912892244553728,0.28337669244363917
82,0.2894420621575688,0.2840947270710918
83,0.28985482759529546,0.2885431600786046
84,0.290144728015748,0.29771951727727874
85,0.2901866688704986,0.2953471099662329
86,0.3053871747121203,0.3050608738151327
87,0.3132576519976274,0.3361120037587496
88,0.31798746895721014,0.3031613625286128
89,0.30374484438059046,0.2880597401648501
90,0.29953344782395996,0.30086633931748397
91,0.298227501525391,0.2933027309372186
92,0.29605380252456304,0.298109985211748
93,0.2974172591251864,0.29133995983458544
94,0.2957485849402553,0.28476778059703867
95,0.29747551615289647,0.29230741066850824
96,0.29640733086162335,0.2963760033390987
97,0.29528550046394103,0.29660579896787065
98,0.29476373334177774,0.2928584059193178
99,0.2948976259151523,0.2846900627616831
100,0.2938158609550729,0.2869315300939491
101,0.2936633147751923,0.2900224144805014
102,0.29509921526189425,0.3039343162206749
103,0.2918288880388895,0.2894324333992829
104,0.2905104773835265,0.2815663631955469
105,0.29262509609726695,0.28300671788092757
106,0.28795024495926214,0.27853938105097886
107,0.28568491107411237,0.27695717238589546
108,0.28482654382832806,0.27390309428500675
109,0.2838671471444156,0.27576928902726144
110,0.28444842569869483,0.27483682457325304
111,0.28588929761656756,0.27440068064567696
112,0.28473867423278537,0.286225514605512
113,0.28578292976597325,0.2773422705804916
114,0.2850920332612084,0.2767976359320891
115,0.28554499435791675,0.27820654435122966
116,0.28747858385816755,0.2757870413498231
117,0.28672894227395146,0.2911315415563222
118,0.28653469272285437,0.280991186100428
119,0.2869851550639724,0.2769078700593728
120,0.28570400483066516,0.28180756770962323
121,0.2853788273940555,0.28617687116435125
122,0.2942248727623031,0.28772497783990575
123,0.2851763126357711,0.28254859726332077
124,0.28491862562539383,0.28435693135530626
125,0.2864190242160186,0.27992419174621685
126,0.286481636277825,0.2773967034285616
127,0.2865201720028377,0.2815160246326308
128,0.28535615714143314,0.2911658988590775
129,0.2858401607933471,0.2939640486814323
130,0.28585315495729446,0.27873591035486867
131,0.28525916640933374,0.2830497824014315
132,0.28530484627631547,0.2730582477473422
133,0.2847464572724631,0.28614300670544746
134,0.2848595130852134,0.277135466414356
135,0.28531929545944257,0.27788971737321194
136,0.2859532083663866,0.29109439888311917
137,0.2851016226378705,0.2809543639256809
138,0.28502575085043524,0.290289367724801
139,0.285012067859169,0.28485478087377625
140,0.29077533313886916,0.2852928046645757
141,0.2890065158043596,0.27711359483220016
142,0.28826044261646117,0.2836490169214563
143,0.2878209079067103,0.28156775677166496
144,0.2862691619574166,0.2810010938142921
145,0.2875262679223963,0.28492978473371094
146,0.28665197766620476,0.2799055285240217
147,0.28527201029906074,0.27609965452761187
148,0.28591699462881287,0.28216774891047564
149,0.28699874435421185,0.2779353577540724
150,0.28574666394878157,0.29110948510920803
151,0.2868392780947266,0.28103395600839215
152,0.2860132814626947,0.27610473750539904
153,0.2888971051241425,0.27234579598635505
154,0.28625758050633465,0.2860346492776837
155,0.2864117514517763,0.27935492805401546
156,0.2861973366005529,0.27944734786073333
157,0.2847251290891716,0.2852274201510455
158,0.2851612460043886,0.2831745816963624
159,0.2852566289923174,0.274019039438151
160,0.28554280448874697,0.28782015089783597
161,0.2846653015433932,0.2865118007480675
162,0.28562430805749267,0.28124973353148447
163,0.28417836296127186,0.2833224425964122
164,0.2835624241690746,0.2877037808616611
165,0.28471757798231573,0.2764570494524211
166,0.2852688145032413,0.28567038722859656
167,0.2861482594951356,0.2788359301713102
168,0.28602761074567107,0.26904418131876107
169,0.28393986010306077,0.2828484608158881
170,0.284786751724595,0.2891914473630447
171,0.28561733374528464,0.28781147769284043
172,0.28426431946688707,0.28276743437586194
173,0.2827666273904885,0.289326668067908
174,0.2844709992992411,0.2882815656893914
175,0.28475618717088685,0.28509575736009896
176,0.2851147403766354,0.27940515379973446
177,0.28311179784073726,0.2802624299640061
178,0.28488561795424405,0.28080214344805965
179,0.2859721411671713,0.2750864300491684
180,0.28664593950664397,0.28825895033700316
181,0.28444613983257594,0.28182425257627103
182,0.2844520531368437,0.2932595095252464
183,0.28569746271466656,0.27804364596259057
184,0.28711670501638564,0.2810831424010581
185,0.28519665643120173,0.28347943520324853
186,0.28503532958128375,0.27583668517403087
187,0.2840818872632121,0.2833500227405033
188,0.2843298753209823,0.2791581077658481
189,0.2855838156914968,0.28736388861497936
190,0.2837762347639179,0.2746606974994092
191,0.28436325219490355,0.2780109678748657
192,0.28499912858592996,0.2767345726831089
193,0.2833655343966471,0.2917952075565341
194,0.28405900424023234,0.28075001566379015
195,0.2844321788113704,0.279355542106523
196,0.28409440038527706,0.269346520510497
197,0.28324369193135884,0.27182432184114924
198,0.2843934509137885,0.28167798517135156
199,0.28312055665633373,0.27222180608792296
200,0.2841004243107151,0.2846727567682985
201,0.28378138206392933,0.270940536070077
202,0.2844731154666244,0.2732393844339823
203,0.284046075928459,0.2744560827043175
204,0.2840661410954025,0.27769127394048454
205,0.28201132244486316,0.27955019858025526
206,0.2829201650187123,0.280520927481465
207,0.29144053756416466,0.28214206133146597
208,0.28824477418244693,0.29133495768413076
209,0.29671830875720145,0.2854129765667874
210,0.2905855613658659,0.2831249499742027
211,0.2886206739448863,0.2890148680030876
212,0.2881344767938034,0.27718254866191694
213,0.2875869431667667,0.27404846175740627
214,0.2874642716620942,0.27675917952217827
215,0.2869335122162299,0.28547659253476637
216,0.28661889825269377,0.289277706068853
217,0.2864862994389902,0.2760212060002332
218,0.28564937913613164,0.2893602599014235
219,0.2843730053711805,0.27820286588727156
220,0.28354773482234835,0.2779717355519651
221,0.28327275856698064,0.2787253593154187
222,0.28446222622867684,0.2804531335019181
223,0.28325714339776864,0.2774560183592452
224,0.2835649716839802,0.2787476080369084
225,0.2831148962072617,0.27767096095863253
226,0.2838202649407345,0.27827478331332145
227,0.285025962304583,0.2776526736467489
228,0.28402174480682274,0.2783882740029408
229,0.2850253969597683,0.29104427222365364
230,0.28472780740018083,0.2773603539511079
231,0.29240970357025653,0.2837418770945345
232,0.2867196717684408,0.2796985808210102
233,0.28426060536437087,0.2837087748059158
234,0.28474008480755447,0.28783780493389083
235,0.2839117695381649,0.2728955118778002
236,0.28399347941533365,0.27758015718696244
237,0.28412063266459603,0.27225927345237116
238,0.28580294843676757,0.28531979401349644
239,0.28473775161148834,0.2782957218675606
240,0.2840836507816919,0.27455610342635445
241,0.2855034970717846,0.2808828468786607
242,0.2843738329037726,0.27705454258887713
243,0.2834247234229037,0.2848502625406212
244,0.28394219003242555,0.28156106844367995
245,0.28350931170473187,0.2740428167459244
246,0.28438504106051726,0.28212932092685256
247,0.28409601013056285,0.27452300389568546
248,0.2842910387854782,0.282919953211895
249,0.28561992730966196,0.2830118879840519
250,0.283565395378428,0.2806572794808397
251,0.2837261444599413,0.2885531669845709
252,0.2850318358188196,0.28702916957044
253,0.2846179474160063,0.277145049989741
254,0.2837745192811358,0.28464941029461144
255,0.2833335374673303,0.2744301331083231
256,0.2842864935412157,0.27120337425345215
257,0.2839964911085572,0.27381264311926706
258,0.284634456833561,0.28018685857799924
259,0.2846523425865659,0.2790527390793919
260,0.2833018699150196,0.28320467166290947
261,0.2833070467374355,0.28493638921179165
262,0.28608151178339497,0.2727712786564605
263,0.282681902193075,0.27480754499112703
264,0.28562690510595445,0.27353787960244996
265,0.2832605484173262,0.2776106717954401
266,0.2869474741129233,0.28986243416732377
267,0.28626969089205984,0.28783757808811566
268,0.2838191333071267,0.27743074038575366
