epoch,loss,val_loss
0,0.05752034132841731,0.03534411861282744
1,0.050456613906354614,0.03650895291866907
2,0.034766563358767905,0.033095437915466534
3,0.03322238397410719,0.03250271469731477
4,0.032580699174137445,0.03251961987241996
5,0.03220032792920061,0.03107795690635788
6,0.031458339486529104,0.031007786811034662
7,0.03128141691440616,0.030134490965182996
8,0.03096647001131207,0.030466674973163858
9,0.03138222581280785,0.03099129265134337
10,0.03073883373450649,0.03118841186294778
11,0.030534498272787272,0.030988134825636192
12,0.030083889745395866,0.029537082051514292
13,0.030035720846990112,0.029625368240066504
14,0.029623287463889297,0.028793207545301375
15,0.02959021161101262,0.03068245365169761
16,0.02936314457763517,0.029058960079318553
17,0.029384653694136967,0.029690494062637827
18,0.02910394769566965,0.030022661575841367
19,0.029204258429541743,0.02877282918198219
20,0.02902282174966221,0.028913694975179767
21,0.028945577734168535,0.028951471734615108
22,0.02892654844969518,0.028600347710796125
23,0.028692585432265477,0.028653297626276008
24,0.028701114963218984,0.028913192096189533
25,0.028545408607316757,0.02935623535370238
26,0.028645945138947252,0.02909938334041462
27,0.028530109643529825,0.029161214648201834
28,0.028611664791653665,0.028349827883189183
29,0.028337091456186448,0.02831524436086847
30,0.028258847619249433,0.028188922864896535
31,0.02827218393484324,0.02828877682523849
32,0.0281755939888737,0.028917786103686737
33,0.030165350935768557,0.03350797423030084
34,0.0300008104547952,0.027764435215946775
35,0.028021489612735137,0.028257680629871516
36,0.028000136124840803,0.02827356997549023
37,0.02799597680620214,0.028185649174940725
38,0.027996970374195265,0.028400094173813135
39,0.028151991060612433,0.02743903304304829
40,0.027912014520723148,0.02803104850144846
41,0.027988815682414025,0.028349575051664834
42,0.027890791392821544,0.02803793490525795
43,0.027747144444415173,0.028748719530599834
44,0.02774907997599671,0.028380309043451256
45,0.02775744612435067,0.028268843577760296
46,0.027724897246555275,0.02818276638356498
47,0.027631314868316336,0.02793686260889736
48,0.02767511656593028,0.0276136143742094
49,0.027623795179414816,0.027718131881836097
50,0.027583589816642627,0.027621078591427577
51,0.027567406521598777,0.02811169734410143
52,0.027594671208881705,0.027558794354273625
53,0.027611504463564692,0.027885003656690815
54,0.027426892857730985,0.027705496742200932
55,0.027435582449071592,0.027861369399560035
56,0.027397048262836742,0.027883941603314834
57,0.027668134414416182,0.02760269696773523
58,0.027468864730265257,0.02787211818162962
59,0.027394716223258862,0.02730276025680842
60,0.027336021377348935,0.028095655791799862
61,0.027383107079695646,0.027729576842985694
62,0.02731602611154612,0.027490164974711188
63,0.027214570114293186,0.027402280969316
64,0.027367260134030142,0.0275457515660067
65,0.027237382361206347,0.02742579275508788
66,0.027337925022790234,0.02713610559651042
67,0.027265137374840653,0.02757658348361831
68,0.02722342980330531,0.028019487411014492
69,0.027195719902727733,0.027704598810284153
70,0.0271428768980746,0.027050977276112515
71,0.027164921144817233,0.02785642323100001
72,0.027133229231604595,0.02732337043825191
73,0.02711839320143976,0.026996605876346315
74,0.027143579584953538,0.027439289330390214
75,0.02711366960434582,0.02691034487720324
76,0.02705932188806058,0.027525456910646773
77,0.027076523766648573,0.027420995505998462
78,0.027151989020127224,0.026842798239186026
79,0.027050244539114452,0.027163570756245006
80,0.027070758818323517,0.027694041131850235
81,0.02703900750321288,0.02728898489008598
82,0.027054696388338698,0.02731601499454103
83,0.027047987241687357,0.027448908079339245
84,0.0269916907595707,0.02695053376284633
85,0.02702762505797353,0.02690775082067273
86,0.02698698929517808,0.027903665878986135
87,0.027024907429552096,0.0273614865018545
88,0.026970651372695293,0.027073365980331835
89,0.026972507814865317,0.027693128519881875
90,0.02699450007950262,0.027354198324865145
91,0.026937282937578827,0.026888061616831837
92,0.027076825228957012,0.02699433443279532
93,0.02690342147732332,0.02698922297939935
94,0.0268769665029145,0.026874814247151955
95,0.0269086940935952,0.026901491599981845
96,0.02696703497043322,0.026947271013749257
97,0.026860984395177197,0.027292228823864017
98,0.026899106118599823,0.02697941765771303
