epoch,loss,val_loss
0,0.36039216011423236,0.4466900470163286
1,0.4463106892636736,0.44577749467272787
2,0.4456404087459512,0.4452087917658418
3,0.4455583053458087,0.4458903626201455
4,0.44539703219525384,0.4450610038617764
5,0.44632755568241783,0.44613808773520713
6,0.44576902208677716,0.4451983756293602
7,0.44549286546164424,0.4453789087487759
8,0.44518717344986936,0.4451194458042267
9,0.4452979463897284,0.4451435676463657
10,0.4451298970869051,0.44521208057303985
11,0.4451139516588582,0.4449819154293173
12,0.44507290606657995,0.4453063637434688
13,0.4450759627205263,0.4449604634389019
14,0.4450876355850362,0.4452681821552519
15,0.44505652689323716,0.44497388029583146
16,0.44507030491723154,0.44501177674345466
17,0.44509542856843876,0.44521010931293153
18,0.445031378413499,0.44493887771665813
19,0.4450440581889711,0.4450847646163838
20,0.4450411005452626,0.44501510271244965
21,0.4450248273322927,0.4449401160440919
22,0.4450333968418301,0.4450997229827024
23,0.44502722439113623,0.4450189946889309
24,0.44502107995297285,0.4449511882623491
25,0.4450157345429036,0.4450993084502406
26,0.44501855916441235,0.4449345443444497
27,0.4450055199777874,0.44495437569337665
28,0.44506566193559766,0.4449372549193879
29,0.44501000899827364,0.44513858315470256
30,0.4450121093407411,0.44497726947348404
31,0.4449950499476851,0.4449741595985398
32,0.44500978457284596,0.44492700607015234
33,0.44499921811504367,0.4450456651171105
34,0.44500621510585964,0.4452914913315536
35,0.44502619574157803,0.4449546543784571
36,0.4449756985805882,0.4449137585592285
37,0.4450073529538232,0.4449313624626079
38,0.4449914326729833,0.4448972157524638
39,0.44498477549316656,0.4450462435079185
40,0.44499070548188197,0.4450194049240276
41,0.44503851876711814,0.4449649400723933
42,0.4455465284396869,0.44497863540379456
43,0.4449986393244299,0.44495767703297895
44,0.444996623739533,0.4449335635867936
45,0.44499440664193646,0.44497549876497344
46,0.44497953011187585,0.44498488043856577
47,0.4449857053657751,0.4449694709056935
48,0.4449799916768401,0.44491326532061753
49,0.4449791615778327,0.4449559195667898
50,0.4449761279574982,0.4449994120973433
51,0.44497668647195493,0.44493237118153456
52,0.44497216416934604,0.44488741725811
53,0.444976385378319,0.44515570636134083
54,0.4449779754579436,0.44491007649105313
55,0.4449907125682825,0.44496472098485845
56,0.44496648826915713,0.4448982028070851
57,0.44498339715266605,0.44502830707460844
58,0.44496976410122263,0.44499021171056335
59,0.44496462992031693,0.4449378222780832
60,0.44496453117255297,0.4449040170144293
61,0.4449651345168002,0.44491850551970896
62,0.4449605908496846,0.4449066042696576
63,0.44497102834682895,0.445049580944442
64,0.4452235256452158,0.4461064594490899
65,0.44502898251892736,0.4450081678298763
66,0.4449686256535723,0.4449229408478536
67,0.4449660963406251,0.44493633849679126
68,0.4449719200167675,0.4450110628010641
69,0.4449791064038891,0.4450636179992012
70,0.44498852142109063,0.4448858982459958
71,0.44498374994991086,0.4452155786306873
72,0.44498254684297217,0.4462986695580924
73,0.4449819885093483,0.445026697879351
74,0.4449713490520562,0.4449251895151915
75,0.4449714287204731,0.44495383795242527
76,0.4449909412313521,0.4449029070565828
77,0.44497827838593873,0.44500563059541104
78,0.44498845155097577,0.4451461003681242
79,0.4449725410698183,0.4452918063975221
80,0.44498249973255766,0.4448991846083194
81,0.44498028013189495,0.445210986221539
82,0.444976849520694,0.44491001514001216
83,0.4449830599232188,0.4451068150054392
84,0.44498536933629296,0.4449402701813057
85,0.4451990731929814,0.4450455923009074
86,0.44496069814964057,0.4449025811833087
87,0.44497440288800716,0.4449899392514564
88,0.44497574815127633,0.4449230673148629
89,0.4449754743075965,0.4449190207255233
90,0.44497884908186575,0.4450019358244513
