epoch,loss,val_loss
0,0.0648439266173868,0.11000135807595272
1,0.03920216666604562,0.03510479761616794
2,0.05011638418939693,0.0360820089595986
3,0.03430815525611534,0.0354547836244395
4,0.0329665622647128,0.03131986384889224
5,0.03179266856741499,0.033235173251220156
6,0.03280353813650008,0.03082395184886291
7,0.03913463737906306,0.03176624855307316
8,0.030861413822098536,0.034748441941399595
9,0.030715099431606538,0.03040965585703909
10,0.030030962387581094,0.029597017377034025
11,0.029965692740225463,0.030227769001027516
12,0.029636146525079423,0.0294070738881391
13,0.02946248996341947,0.02948199640009987
14,0.029318403744540877,0.028694661463864773
15,0.029204469111301312,0.029883820958298286
16,0.029098710630571224,0.02990268540478579
17,0.029050488453072346,0.028380480481494188
18,0.02880168501382232,0.029365397310891623
19,0.028774241717336172,0.027894664637132714
20,0.0287179998751441,0.029102680222624557
21,0.028764255871417736,0.028755961192929454
22,0.028621660425952492,0.02867665561692538
23,0.028407725434458537,0.02876886828215809
24,0.028369148072316927,0.028157373417890014
25,0.028399392744487554,0.029007514035638334
26,0.02835375424628171,0.028424707973606345
27,0.028250396218561104,0.02891141721957782
28,0.028162540850201295,0.028128594545357915
29,0.02812030586688413,0.02873026302381013
30,0.028072602187802352,0.028471949033596525
31,0.0281061647436065,0.028781377240525593
32,0.028016863811074613,0.02816452668266593
33,0.027971160141241097,0.029101425691183708
34,0.027885283608315745,0.028199665010867563
35,0.027889400771400095,0.028620084076800365
36,0.027903525620963966,0.02824006561451376
37,0.027884486962625705,0.027888633349988173
38,0.027818448428066977,0.02860553498837339
39,0.02778072636304219,0.028093141731692955
40,0.027783601995764188,0.028109284639163293
41,0.02776028227988344,0.028019335727303942
42,0.027732498467997826,0.02815507861702915
43,0.027691421709915842,0.027846497400284137
44,0.027660383771086018,0.028034638877906592
45,0.02774580892588349,0.027703308506413397
46,0.02764782813173656,0.027297426510305846
47,0.027629994471009302,0.02756595652791831
48,0.027663602216704428,0.027574992517110836
49,0.027589548611854774,0.02765641816176932
50,0.027558145440007474,0.027862769093530717
51,0.027610065724231327,0.028031356669536454
52,0.027655054590952022,0.027562803470635954
53,0.02752017410770067,0.028249645512950398
54,0.0274839553923796,0.0273939746050278
55,0.027496692630171644,0.02770619015023763
56,0.027475505415331097,0.027514117961278818
57,0.02743578815685487,0.027370093449505337
58,0.02753306364336498,0.027797248900736517
59,0.02745753508424389,0.02777397582357448
60,0.027368131604473333,0.0270732891902195
61,0.027418966901712357,0.027863689855200175
62,0.027382357081171427,0.027414682996707036
63,0.027354776378471612,0.02742046849470546
64,0.02742057220463749,0.027581687805304806
65,0.027332729257198683,0.027165258521436274
66,0.027309058011517815,0.02727656325966366
67,0.027327553431179888,0.027325256558438937
68,0.027307776971908823,0.028163901984109486
69,0.027241108569547163,0.027507819913591545
70,0.02727018560977149,0.027562928942873852
71,0.027262021885393162,0.027676094642563605
72,0.02727248936900824,0.02760443055985399
73,0.027296063633952653,0.027837464201953443
74,0.027207948743255415,0.027533216680577108
75,0.027205166874929455,0.027278014098876657
76,0.0272047911997749,0.02702933175015141
77,0.027188793464537602,0.02743059328281138
78,0.02716850794406501,0.026942575788629734
79,0.027144722087835277,0.02711433271510825
80,0.027230087348571567,0.02692591166589631
81,0.027139505684815324,0.02746780172442375
82,0.027142062498348152,0.02709208859572368
83,0.027134201940478962,0.027178516949554917
84,0.027133382456787633,0.02709915419149838
85,0.027074306965271824,0.02746075204883717
86,0.027103726637091336,0.02789717501232586
87,0.027088287240999518,0.028037754480699065
88,0.027052680085594995,0.027285114898408038
89,0.02702395080707565,0.02736724744544524
90,0.027057270187762626,0.027569556660117213
91,0.02702724254871184,0.02776073708855786
92,0.027125554258758972,0.027851738830490285
93,0.02707566551815488,0.0268511162101761
94,0.02703359561062554,0.026969510402275455
95,0.02704330593748557,0.02714956111449329
96,0.02706598180839753,0.027472821906728416
97,0.027031773882081406,0.027456144382238
98,0.027000831793745607,0.027215555553691755
99,0.02702158481839363,0.027785088103344437
100,0.02702692969117774,0.027502526672743645
101,0.027015599337748827,0.027063545896657663
102,0.026987768066958445,0.027905257349091096
103,0.027040952700614688,0.027074884004330085
104,0.027010608583477633,0.02739940409953677
105,0.026970415007860966,0.027646022416031254
106,0.027320527556638524,0.027086507046128742
107,0.0269868095431609,0.02702017287917912
108,0.026936802885226433,0.02852880627189612
109,0.026974821768345772,0.02704791668494869
110,0.02693654760918307,0.02773974881677097
111,0.026980401750018774,0.027016136719705767
112,0.02693963299652641,0.02755978378415941
113,0.02692234251042215,0.026829530191837758
114,0.02690025802334894,0.027402882482273787
115,0.026892500843524198,0.027254627118020545
116,0.026935184780623074,0.02708917104443738
117,0.026891068738533842,0.027434363339154878
118,0.026857498294437905,0.027214849757896408
119,0.026931395259935008,0.026808231398883282
120,0.026891611526878006,0.02697819121059504
121,0.027005351577364427,0.027189300942776155
122,0.026899319830616473,0.027202620075763274
123,0.026910816546578904,0.027412442148515057
124,0.026877788349745885,0.02706635902593306
125,0.026858754187850543,0.0279633195541902
126,0.026816727361004763,0.02690996885419777
127,0.026853776979812772,0.026874054681047695
128,0.02683235957046809,0.0270503508209548
129,0.02685767443614501,0.026886628067503377
130,0.026844338027435584,0.02713668110549843
131,0.02688923757267554,0.02783036424944197
132,0.026825484277020598,0.02677155301721442
133,0.026862159581406912,0.028061420229607174
134,0.026818714244401805,0.0277094706750688
135,0.02680203588292242,0.027894536885617032
136,0.026809141750694564,0.027450853617817794
137,0.026844273034816686,0.02691748707067314
138,0.026818474760360637,0.026747361628188724
139,0.02682349332130965,0.026761757989474822
140,0.026796698672623184,0.02708286622872528
141,0.02679815743146946,0.026729429865541988
142,0.026817363117794382,0.027072842775969604
143,0.02684344866983331,0.027292239466261747
144,0.026787517314566304,0.027513485510722784
145,0.026792075440719557,0.026983251701404466
146,0.02675351677872081,0.02715074641658746
147,0.02680753249854562,0.027120474315540828
148,0.026793768004022615,0.0272201766007504
149,0.026793363142624732,0.02741046896512279
150,0.026756547597600107,0.026695309189243347
151,0.02675922378296501,0.027900804592628073
152,0.02674399870663718,0.027127272656492975
153,0.026785051114892447,0.027211755588686198
154,0.026743437722724656,0.026912715323287116
155,0.026747310032515445,0.02697209802059682
156,0.02671712093226369,0.027052250623759797
157,0.02669587769051338,0.026663912589028324
158,0.02670085986968036,0.027172852675679687
159,0.02673852576261883,0.027172238331560825
160,0.026696366880693982,0.02685279967696686
161,0.026750666683404013,0.02682836278808629
162,0.026720264684895866,0.026963285761797344
163,0.026685157307934602,0.026979753714748766
164,0.026686226813754547,0.027247603285045486
165,0.026694198267272307,0.02696877573873408
166,0.026741439087162863,0.027515126179270145
167,0.026699664508888825,0.026878245669756218
168,0.026682040495542802,0.026897255062248823
169,0.026666649579817448,0.027284109790149672
170,0.02671300712825595,0.02670848359097531
171,0.026717557210415282,0.02679702963109729
172,0.026715225364697833,0.02689674507166344
173,0.026647740333775538,0.027032725032752034
174,0.02663551724789169,0.02698707739410371
175,0.02670393303616262,0.026834664317917232
176,0.02668152601401394,0.02689570312210614
177,0.026670565547571655,0.027190442459250473
