epoch,loss,val_loss
0,0.45694194909102126,0.44630028197874017
1,0.4535128843493501,0.4459296568236655
2,0.4455028323762392,0.44530420832611634
3,0.4455303687158112,0.44533899082623724
4,0.4453864482911219,0.4459546588518628
5,0.44529067542981315,0.44540804497009046
6,0.4452885347324293,0.44548347404462413
7,0.4453613116984337,0.44516709281496347
8,0.4451611991312465,0.44558129529783
9,0.4451482966787266,0.44510954270357933
10,0.4462111151865153,0.4687098619913097
11,0.5575015109878851,0.5561346748537046
12,0.5562354447703967,0.5560316744495503
13,0.556123871834189,0.5559940292132134
14,0.5561197671452821,0.5563933439665187
15,0.5560926047552739,0.5559817680872223
16,0.5560981066981827,0.5559785217401696
17,0.5597147847591758,0.5565387907010403
18,0.5564432519686093,0.5560644951977199
19,0.5560803358269625,0.556000346950601
20,0.5560804731597683,0.5561567462823382
21,0.5560763124596044,0.5560565715046635
22,0.5566591177083275,0.556100041918931
23,0.5560709845729702,0.5560161124217391
24,0.5560288399640736,0.5560003698903908
25,0.5560419952101043,0.5559739944659208
26,0.5560205078100073,0.5559608558775868
27,0.5561509904153138,0.5559706032058446
28,0.5560029895581698,0.5563027834029014
29,0.5560751512218849,0.5559466657173602
