epoch,loss,val_loss
0,0.06475757230299624,0.03971564120274201
1,0.03731017440115356,0.04174769662819922
2,0.03542589399796564,0.032635756786034156
3,0.03892250979606499,0.03434766923432807
4,0.0337372015330061,0.03279199791391544
5,0.03284282597623514,0.06858183399679331
6,nan,NA
