epoch,loss,val_loss
0,0.15862977578580903,0.06111512242595135
1,0.05344360773351124,0.04845509384982964
2,0.04829072366229636,0.048355641124304016
3,0.047958618895017464,0.04992554068635935
4,0.04794853744502786,0.04798108688316763
5,0.047908976021930755,0.048176705572627716
6,0.04797699126592881,0.04749295731746219
7,0.04794455148118863,0.048017926378897444
8,0.04785953837928535,0.04818877438120044
9,0.04782588705331159,0.048001277897780394
10,0.047877241341437365,0.04796295680676094
11,0.047806351784345724,0.04826619834789819
12,0.04786229548122671,0.04873253702646931
13,0.04776570047560832,0.0477855231615861
14,0.0477872404897456,0.049208329195169924
15,0.04777158828501364,0.04745826044288223
16,0.04781161782016857,0.04775464745281057
17,0.04774142899583998,0.04912313309387137
18,0.047720672525495264,0.04763486490959056
19,0.047679274592349094,0.04782248963767276
20,0.047746452572141336,0.048165981599733225
21,0.04769525944823317,0.047486514397018426
22,0.04771474707308862,0.04787332960937375
23,0.04773986422055536,0.04772299491074863
24,0.04770390992369249,0.04754368376924752
25,0.047581197397647906,0.04779382273201972
26,0.0476923261796661,0.04749247160076436
27,0.04769517073510505,0.047321887829450515
28,0.04764984478112414,0.047621835578871036
29,0.04767222024000091,0.04750810743507289
30,0.04755024053900839,0.04847120969970112
31,0.04758513292862023,0.04756961717919374
32,0.04763254286240426,0.047523183323260644
33,0.04756147880628288,0.047478330363508466
34,0.04758542376331431,0.047306688371590015
35,0.04755080884678377,0.048333476117467356
36,0.047589328650721636,0.04766251011248075
37,0.047614384914557044,0.04775300941002961
38,0.047616826342068895,0.04753574231770345
39,0.047561538320103236,0.04774816499783378
40,0.0475911204319754,0.04741913628865154
41,0.047492541697361675,0.047322682539425974
42,0.04766741713328804,0.04764100471430627
43,0.047474091680501575,0.04725042531515259
44,0.047574459936180945,0.0473732963974728
45,0.04755297066907374,0.0474817215126146
46,0.047472012836000714,0.0477281997910897
47,0.04760699529948233,0.04751929252951655
48,0.047481015293325164,0.047644320843063574
49,0.047550170164969235,0.04758626240251943
50,0.04751789521613567,0.04743598383905009
51,0.04748744816392017,0.047744192071288424
52,0.04753394244457606,0.04751164899240729
53,0.04747408614021173,0.04766747391332109
54,0.04744765995074805,0.047303185690173784
55,0.04753456144726915,0.04763450928696893
56,0.047439271482906276,0.047692114412314135
57,0.04746075099308809,0.04753755760432795
58,0.04749286410917672,0.0480671328593166
59,0.0475371488862091,0.04746446662656698
60,0.0474911106990086,0.04731631051416743
61,0.047430312738930294,0.0479674424502731
62,0.04747122370873948,0.047467958946560154
63,0.04743271140302781,0.04752805556781478
64,0.04741120466040812,0.04740689103304164
65,0.04745189532887736,0.04752319344064337
66,0.04741161975184743,0.047478298447149986
67,0.04750074876053966,0.047242194193620426
68,0.04742072452511862,0.048376290296699084
69,0.04747582578229056,0.047363145801737824
70,0.047383957848453125,0.04741650848886867
71,0.04747005937685021,0.047690613470213
72,0.04739668855903675,0.047950253249296734
73,0.047417743602018655,0.047253060586097774
74,0.04740439455875819,0.04720745329475346
75,0.04741087360389465,0.04735060013542518
76,0.047408497842441166,0.04781291106070415
77,0.0474363027541019,0.047453660268010164
78,0.04738063279905622,0.04730542159059336
79,0.04743821353024001,0.04878646591950234
80,0.0474488707921869,0.047410844318751
81,0.047379016368497284,0.04753797247876496
82,0.047452839213512024,0.048017596906814036
83,0.047405932232630336,0.04723892936331603
84,0.047380962896702,0.04754782794153681
85,0.047361123528209426,0.047594523776231454
86,0.04741742303795952,0.04724212236931781
87,0.04735974167926992,0.047526997529505365
88,0.04743589847225794,0.04805595608576603
89,0.04736868967916325,0.04729809768162756
90,0.04740186737810107,0.047137138872586
91,0.0473749095262836,0.04742718634990227
92,0.04740054344089864,0.04761652687260177
93,0.047342077150738404,0.047507678056407744
94,0.04735667572515331,0.04761831641444185
95,0.04738053219686214,0.047400763395059366
96,0.04736643225002251,0.04731105028371596
97,0.04738841622138767,0.04727313813665954
98,0.04742185782781131,0.047478823348491704
99,0.04737765839000305,0.04742952406806276
100,0.047321590111791184,0.04731665771004715
101,0.04740392602384567,0.047457409003821525
102,0.04734368519120508,0.047501347964922086
103,0.04733858419378265,0.04728935291107094
104,0.047394942480335225,0.047176090328591776
105,0.04731987249835742,0.047419707128379694
106,0.04732735227379534,0.047134738850635904
107,0.04734444884147099,0.04742675368110307
108,0.04734314310042073,0.04791941586955382
109,0.047395284654651516,0.04719462438876834
110,0.04738955723968961,0.04729698114126521
111,0.047356590162590445,0.04728892678431667
112,0.04726861206312879,0.048207078052606746
113,0.047342010796796695,0.047687396762897016
114,0.047291360729985195,0.047503136139548284
115,0.04731082069805915,0.047406636104987375
116,0.047344996868599235,0.04708351973141378
117,0.047368412457710264,0.04727892326845272
118,0.04729122776600669,0.04731833226184913
119,0.04729692594741555,0.04726830706729509
120,0.047401128168538705,0.04718832750440867
121,0.0472689766978784,0.04727865037550207
122,0.047316912329382746,0.047395131438264904
123,0.0473375955222846,0.04724275509826104
124,0.04730232297736916,0.047205771630499056
125,0.04734551456781457,0.04712172886084739
126,0.04728539620967601,0.04767457624543061
127,0.04731937473286971,0.047355596176050924
128,0.04737048709599806,0.0474215038208954
129,0.047327575658698925,0.047305468461037434
130,0.04731270258011911,0.04724751710421284
131,0.04729915008121591,0.047233679535451045
132,0.04724037440435635,0.04740531130707819
133,0.0473337341070199,0.047048593376599245
134,0.047385060465890916,0.04726692757495012
135,0.0472849615969413,0.047140093854001495
136,0.04730546589252903,0.047145727022176856
137,0.047285378515291555,0.047286541910508344
138,0.047302668104223684,0.04841531744931002
139,0.04728048516781353,0.047347058713342036
140,0.047281560931000395,0.04730835022741448
141,0.04735406307573561,0.047244973804128385
142,0.0472618819495066,0.0474762053544256
143,0.047284237017555776,0.04721789867944292
144,0.04729745339015595,0.04729896430999347
145,0.047291621116163446,0.04744985844901724
146,0.047393711848105556,0.04728668238070882
147,0.0472425964819513,0.04804628344448232
148,0.047304194282106075,0.047640386371981376
149,0.047256991497987656,0.04721458545858783
150,0.04727345140134211,0.04761778539739073
151,0.04732123405771623,0.04747889909802127
152,0.04731603282437526,0.04716875489386594
153,0.04724532869651163,0.04712523238611391
154,0.04733106404465499,0.04752696895620535
155,0.04729942080500028,0.04715681478863357
156,0.04726730886218455,0.04728960600735262
157,0.04727838640596321,0.04773985647729465
158,0.04726845464355749,0.04738360521660702
159,0.04728659469601538,0.04742828602207958
160,0.04724719564465405,0.04714999888930249
161,0.04725586431030985,0.04720412386138795
162,0.04725219533562088,0.04753835723039289
163,0.047292124563388875,0.047626469040255706
164,0.0472470147670697,0.04729180783033371
165,0.04728058890270577,0.04717540433711204
166,0.0472644537740903,0.047221055370479846
167,0.04727171922473313,0.047640965203295194
168,0.04727764725297999,0.047157055606452516
169,0.04725176537428781,0.047395046991490906
170,0.04732344231957631,0.04747421574362075
171,0.04726278411893012,0.04709911070934599
172,0.047207097380722075,0.04729659619852136
173,0.047295804329806096,0.04715987127612403
174,0.04723292550773358,0.047707607286034744
175,0.04731325827074422,0.04732329909114172
176,0.047282789125859884,0.04733447540307384
177,0.04723390847218218,0.04770309347497636
178,0.04732405249741104,0.0471688010821732
179,0.04720585728190738,0.047139311313699715
180,0.04728210410125536,0.04807917890451325
181,0.04725995448103054,0.047316718878902216
182,0.04725718924806987,0.04726035319321628
183,0.04723809640869486,0.04714614458399771
184,0.0472437537518694,0.04758184408179492
185,0.04725673402116882,0.04725338512445023
186,0.047309179730016554,0.04769301868757585
187,0.04721084680500553,0.04713872430556481
188,0.047265469057144495,0.04710136966128564
189,0.04719647432384874,0.047369600189136725
190,0.04728935397327613,0.047238014744272736
191,0.04722542567647618,0.04714149902350524
192,0.047260501905144164,0.04725523015165197
193,0.047253137345699005,0.04722296375995936
194,0.04727472482974247,0.047238193014261756
195,0.047236055560070545,0.047288527419671544
196,0.04724947613873166,0.04718279536892884
197,0.04725080200409194,0.04797339232104824
198,0.047268230606504764,0.04705693067919577
199,0.04724410938457858,0.04757933266572625
200,0.04726843824751562,0.047603403312913434
201,0.04721399823383843,0.04727120096512262
202,0.04726659048119371,0.047065789187246174
203,0.04722351596789728,0.04717949406194612
204,0.04727636467066886,0.047167070812730215
205,0.04725397036200185,0.0471299484036951
206,0.047237872057478966,0.04851490182724165
207,0.04726656046744397,0.04748283618004094
208,0.04724889448423275,0.04753790006641337
209,0.04721775797637199,0.04743124848053788
210,0.04730729415691156,0.04707362096471493
211,0.047203803455812945,0.04770706882722376
212,0.04721677313438899,0.04727456040662767
213,0.04727340527891303,0.047294832307377854
214,0.04725241360606716,0.04729777794763528
215,0.04721755909172894,0.04748357999731728
216,0.047265268769934116,0.04728037642569361
217,0.04726703020838573,0.04739641635469216
218,0.047213911831521876,0.047248556710126934
219,0.04727741610035479,0.04725611769397991
220,0.0472212537622852,0.04733126501140391
221,0.047232804983723266,0.04738336473397599
222,0.04722251267068916,0.04808263097843413
223,0.047301279245425376,0.04722454749347661
224,0.047212183069017866,0.04723912592162838
225,0.04722277078476789,0.047255283896388646
226,0.047224910243404666,0.04762831441734659
227,0.0472363573070958,0.04716452287881978
228,0.04724910395066563,0.04734376242535737
229,0.0472301140317409,0.0473328297009549
230,0.04724865920430751,0.04721627976001485
231,0.04720897044239046,0.04755302829096048
232,0.04732770028469755,0.047381810679290835
233,0.04724695357374198,0.047114993050847355
234,0.04720184399927263,0.04770117594721567
235,0.04722921972235235,0.047277901495124
236,0.047246214877858725,0.048236769177872264
237,0.047283471251527466,0.047063346070126466
238,0.047191091321057366,0.047783691336084
239,0.04725167626510564,0.047379108720650896
240,0.047253253659029465,0.04712287869066259
241,0.047230208131799595,0.047128057620402106
242,0.04720795564621472,0.04740383876480262
243,0.047258487523650285,0.047451622172566786
244,0.047244553520477454,0.047350116673895194
245,0.04721513789275186,0.0470915968517384
246,0.047271234537962434,0.047092712236584504
247,0.04722335968437574,0.04720281794867181
248,0.047214155202265455,0.047117880347825075
249,0.04723149944070003,0.04715212565665181
250,0.047287462706522024,0.04729331805772827
251,0.04717833315916389,0.04739801635364425
252,0.04725197746271757,0.04716753306039319
253,0.04719775392533206,0.04720631021280033
254,0.047236880260727386,0.04724771929309419
255,0.047222513846939894,0.0472409625867736
256,0.04723951317441406,0.04806675516133621
257,0.04718797452164163,0.04753814924628883
258,0.047252549781656855,0.047465433317347594
259,0.04723090903876687,0.04757229576876715
260,0.04723000594174309,0.047211152975518776
261,0.0472281695671862,0.047499316555595625
262,0.04724319935809794,0.04786062458766758
263,0.04722968729244147,0.04739961559401315
264,0.047204092725646865,0.047183842246068586
265,0.04723425847973278,0.047138424397643944
266,0.04725373818350734,0.04723342177888118
267,0.0472568365425872,0.0475731447292014
268,0.04723393651459524,0.04950205617435071
269,0.04725217370898556,0.047126347247596415
270,0.047241498139217124,0.04746954544096738
271,0.04721861809855409,0.04712364807630865
272,0.047243718327366284,0.04742859332471639
273,0.04719410289963372,0.047170454728833876
274,0.04728247496417815,0.04793358436876051
275,0.04721306443369265,0.047109372255222576
276,0.047255263937046106,0.04725806103709088
277,0.047185974566341875,0.04743865918259312
278,0.047237210624890745,0.04744308698560746
279,0.04720198898780927,0.04712036989141188
280,0.04724989271462916,0.04780979214887404
281,0.04722600707190214,0.04753414178362679
282,0.047281338545165474,0.04726957000245141
283,0.047243353566058056,0.04715092689234061
284,0.0472554866370442,0.04815802095721063
285,0.04716950128499648,0.04721061436381506
286,0.04725838029871789,0.04720089207355583
287,0.04724938281142502,0.0473808355411866
288,0.047216326221645025,0.0473153775862191
289,0.04729260543255592,0.047136927677734496
290,0.04720746885261518,0.04711879263231391
291,0.04720992461549674,0.04716097804017206
292,0.04721818818486661,0.047427111455983974
293,0.04722027031095813,0.047202955416882235
294,0.04726730742686087,0.04711092225236976
295,0.04724113735929429,0.04715260788915942
296,0.04719074307043823,0.04727939013818069
297,0.047243572944264525,0.04718287077150951
298,0.04720124029826155,0.04753616411935747
299,0.047238803305607334,0.05032514898663632
300,0.047229068676868886,0.04946294578634667
301,0.04723559241655538,0.0472045609993594
302,0.047209481707960965,0.04721347967070111
303,0.04723142439292537,0.04713779204505207
304,0.04728965869964027,0.047915838855806074
305,0.047174138177058206,0.04736846601612566
306,0.047233655835858444,0.04740552930271616
307,0.0472081110378702,0.04739803103428707
308,0.04721207309850781,0.047484970600847755
309,0.047226330229668594,0.04710090525842315
310,0.047255808188260605,0.0474165845177215
311,0.047209058956002636,0.04721818426543084
312,0.04721071805170686,0.048120697902922754
313,0.04718616116288707,0.048191229182853415
314,0.04724588816900619,0.047132729372596216
315,0.04720286683564325,0.04793504297721546
316,0.04721977524191356,0.04726268368719503
317,0.047215739665605085,0.04757527415453212
318,0.0472309646769155,0.04719279030809839
319,0.04725989321325656,0.04730680470826029
320,0.04721466504889045,0.04716310686569282
321,0.04721882189664957,0.04756215535804053
322,0.04719963661438937,0.047368226403807126
323,0.047254750189437665,0.04741421899660516
324,0.0471971243676498,0.047182907936205144
325,0.04720273082979101,0.0473386997323198
326,0.04723444628975184,0.0471176083957528
327,0.047214688605172556,0.04739294060591929
328,0.047245623234162135,0.04727391221199623
329,0.0472174807013177,0.04709693715387945
330,0.047241616447707066,0.04705610694900308
331,0.04722191407073507,0.04725559592987951
332,0.04718814154031227,0.0475589544398397
333,0.047234784890648175,0.04707599506252567
334,0.04722327087148964,0.0471915645111755
335,0.0472370763774589,0.04769384407312642
336,0.04717633875010968,0.04711436665519166
337,0.047217990290358676,0.04708297914092524
338,0.04722817306764882,0.04844841244318115
339,0.047248912775676125,0.049203511762661356
340,0.04718050457310858,0.047139113661616265
341,0.0472048584216957,0.04753501825593265
342,0.04722281782884154,0.047350751128762185
343,0.047228298883298506,0.04705649172709321
344,0.04724402999360975,0.04717369623711566
345,0.047184653955397844,0.047141533589024384
346,0.04722840343263271,0.047274682750218296
347,0.04724622322030538,0.04737662210260778
348,0.0472373114280897,0.04759439998310009
349,0.047219639326885735,0.04758341141462608
350,0.04722564435488791,0.047212758619741085
351,0.04720940319248002,0.04722175232613284
352,0.04722935614063681,0.04712023994140768
353,0.047241268926661174,0.04715567326206999
354,0.047201521810796336,0.048323401659374265
355,0.047214426545442625,0.04731806437613556
356,0.04725128475079338,0.047544661265428174
357,0.04717161906041878,0.04715910663309301
358,0.047221216333689066,0.0470800165619169
359,0.04723380883927825,0.04838593510856474
360,0.04723423160761476,0.0471990388371903
361,0.04719131818111185,0.04705968767039966
362,0.04723292665867258,0.04727054207682045
363,0.04724081061619649,0.04749180358888224
364,0.04721703128866869,0.04709146090069434
365,0.0472025998505495,0.04709840658537591
366,0.04723740649743856,0.04745253288108435
367,0.04718273346997994,0.048059543634411284
368,0.04720909205927171,0.04715459095203886
369,0.047197586197933135,0.04790482485715385
370,0.047255860818780776,0.04714052903965033
371,0.047219639600847935,0.04863112455420637
372,0.04721327191092175,0.04726719595756508
373,0.047190287206277284,0.0475062639367985
374,0.04723049690433258,0.04713244452166952
375,0.04724593876565484,0.04762459891806368
376,0.04722815375331399,0.04712920473343101
377,0.04718587170395967,0.04716453316967696
378,0.04718167527015213,0.04707760325300007
379,0.04727259263854852,0.04714808636583864
380,0.04724686839085498,0.04706171953840432
381,0.0471832298016329,0.047191173426260044
382,0.047219878425903555,0.04721840657146784
383,0.04717225551480155,0.04737878350016162
384,0.04718163314250876,0.047304324758692624
385,0.04722393430370412,0.04709860028282996
386,0.04723681308489909,0.0474519780627507
387,0.04718573316842389,0.04730416487405501
388,0.04724097812472344,0.04740632201626532
389,0.04725034841203051,0.04726785206733582
390,0.04723109251005853,0.04714918498540828
391,0.047234841428107494,0.04714433486325682
392,0.047203690904995904,0.047162352181271294
393,0.04719337418103675,0.04715488390922076
394,0.04724426302972505,0.047402271802442324
395,0.04719731888527588,0.04813062869476915
396,0.04721060990066313,0.04744764991639727
397,0.047276510000169324,0.047358640370377424
398,0.04718655977639363,0.0470474166082602
399,0.04723116241657524,0.04747066637993612
400,0.04719072233715789,0.04730811501370233
401,0.04727036088740797,0.048296687955473386
402,0.04720499428461115,0.047040142010141756
403,0.04719723610849165,0.0474968242217164
404,0.04720697403519893,0.047899795294795905
405,0.04716865510659681,0.04708250030734074
406,0.04721211356897768,0.04716097930153713
407,0.04720112211633024,0.047318936690935114
408,0.047249824481664135,0.047178324311971664
409,0.047204883772132396,0.04754301132641633
410,0.0471836110006729,0.04769027214894261
411,0.04721735423798565,0.047144952691038855
412,0.04716517493057308,0.04728253706466427
413,0.04719903922344235,0.04795170109645532
414,0.04720756250301854,0.047154487473059566
415,0.04723190546607514,0.04756589393236549
416,0.047197970267620494,0.047102195123282585
417,0.0472140834033251,0.04785538245442352
418,0.04721159232612089,0.04730651544696624
419,0.04723017849177003,0.04717231971147781
420,0.04717058687806606,0.047189527735902084
421,0.047246101046566194,0.04724977553866939
422,0.04719735391819172,0.04714080762491512
423,0.0472227863365893,0.04736042927124412
424,0.047160227164375984,0.04722737410379943
425,0.04724842215107261,0.04718783902976112
426,0.04721252747374378,0.04723086069325528
427,0.04720700620788989,0.04729374745991537
428,0.0472241016707832,0.04714114481808166
429,0.04722984641980973,0.047080475604712915
430,0.04719918611184727,0.047161353612355385
431,0.04720224062357541,0.0477226476619445
432,0.047214864320654,0.048027663558556886
433,0.04720248281806826,0.04737575993165315
434,0.04724235183222117,0.04722432961838868
435,0.04715440583249314,0.04720478615449372
436,0.047183422861601425,0.04716917685135293
437,0.04718843933870848,0.04702701682743823
438,0.047224105857640246,0.04718034877055916
439,0.04717783427400459,0.047220923271156616
440,0.047213448869655554,0.047520976493042474
441,0.04718773009822809,0.04758128709944102
442,0.0471917646576008,0.04707391269287446
443,0.047234299030604596,0.04734031921333465
444,0.04718212654097951,0.0473289621821895
445,0.047254860003610594,0.04720270690738261
446,0.047201515466487,0.04749417689282685
447,0.04717089572726346,0.0472571510606943
448,0.0471889830792217,0.04722346296650082
449,0.04719675079786139,0.04710199611574623
450,0.047255016243953306,0.04725668003640028
451,0.04716121627212905,0.04724006855532515
452,0.047224829052325536,0.04731517743198723
453,0.04723385343258139,0.04770572128652021
454,0.04715429605554334,0.047420874229193485
455,0.04720527886433138,0.047501479705535435
456,0.047225463676819505,0.048259718001077
457,0.04719453376325534,0.04785932679884812
458,0.04719392799114962,0.047336638685324665
459,0.04718839350066406,0.047767536363313774
460,0.04724555187743249,0.04718385118147286
461,0.04721140556132717,0.04746187806435241
462,0.047222623491375376,0.04706877753456089
463,0.047129124513180326,0.04729025731864367
464,0.04723047125313303,0.04748819448530157
465,0.047212707331414513,0.04713565634817896
466,0.047256607583148494,0.047443594542444456
467,0.04718059358848847,0.04737549588883967
468,0.047247482293980014,0.04741546039152729
469,0.04717682715323713,0.047350348994406356
470,0.04720816378452652,0.04749489035207452
471,0.047205084558132646,0.047491427978475734
472,0.04726062503179534,0.04735133846620452
473,0.04725405847211536,0.0471437009817376
474,0.04713819203950423,0.047189395577773956
475,0.04720608917155045,0.047237283134893254
476,0.04717758979252298,0.04781901414764144
477,0.04725088161244381,0.04729971679217155
478,0.047182351240603854,0.04720672879488617
479,0.04717968560332398,0.05021266522504913
480,0.047209585876130375,0.04706914915211481
481,0.0471836544058139,0.048098029934851884
482,0.04718166147675112,0.04714280225471803
483,0.047254515183474614,0.04736876075803622
484,0.04716380397163087,0.047166401260159765
485,0.04718949146967807,0.04716208633608769
486,0.04718369622822765,0.04739731475534454
487,0.047206363709960626,0.04723550029681156
488,0.047193964264339965,0.047107282299739504
489,0.047178580758454415,0.04773250058728499
490,0.04723136883071191,0.04723314943281609
491,0.047206246069998,0.0471651233944398
492,0.047166552126622026,0.047148955143523574
493,0.047212058635090565,0.04738117995265439
494,0.04721795691461634,0.04732911725070595
495,0.04722992105961894,0.04726434518136937
496,0.04724621750432238,0.0470982314526282
497,0.04714914416666511,0.04825474847557983
498,0.04721293187916851,0.04717413218134769
499,0.04721050398002902,0.04720731403887413
500,0.04718004383420725,0.04810055729292845
501,0.04720156681802061,0.04792225943920927
502,0.047211463505820596,0.04716151115655805
503,0.04718058442415522,0.04729220272580657
504,0.047207747171405884,0.047341757448832636
505,0.047212503692634,0.04726893372757283
506,0.04716432154279866,0.04741141977760391
507,0.04718889229351001,0.047367410253565806
508,0.04720334817531059,0.047303234465896564
509,0.04718406374255816,0.047481009373536893
510,0.0471972813286322,0.04718864586236633
511,0.047229863948923506,0.04706160466597602
512,0.04716842190074406,0.047288285705077905
513,0.04721480860954804,0.04721657394915937
514,0.047204333405903014,0.0474977819418098
515,0.047189268924528176,0.047422609064836814
516,0.047209667019563896,0.047152305714309735
517,0.04714650199930969,0.04712457997223102
518,0.047267581338433624,0.04717386274612505
519,0.04716742382519584,0.04734553195883086
520,0.04720340734816712,0.04708215075044436
521,0.04717904020645779,0.04722835075907003
522,0.04720200739241094,0.04703681624620189
523,0.04717779539668446,0.047078091583575614
524,0.047168136359178284,0.04765590025963234
525,0.04720606285331251,0.047179355788108585
526,0.04719813842382982,0.04717416691152054
527,0.047194426364118726,0.047458846589525386
528,0.047243670121931154,0.04804094147816265
529,0.04719425142883397,0.04724296044202517
530,0.04721176766341539,0.047613736265577855
531,0.04720090877720349,0.04755324576911535
532,0.04720043110326945,0.04751273714470506
533,0.04718897609616355,0.04725526229440931
534,0.047174185413203173,0.04703619197046277
535,0.04720979455045516,0.0470954232276568
536,0.04714112557309995,0.04704806908976872
537,0.047207027898548984,0.04712663753209569
