epoch,loss,val_loss
0,0.20609508808568228,0.07638065494896863
1,0.07335701702143267,0.07236255392220516
2,0.0721661749092652,0.07290681672077434
3,0.07203819869096569,0.07139393256796375
4,0.07178312816696582,0.07150205923060592
5,0.07176373920274629,0.07176663452243372
6,0.07176745279456119,0.07137887007847205
7,0.07169054735967105,0.07179040867238413
8,0.07171840418121225,0.07156724705645298
9,0.07164057423409036,0.07152011505112746
10,0.0715718597745438,0.07204707635488676
11,0.07168553746212349,0.07227055338265018
12,0.07161147036343266,0.07148065826405008
13,0.0716231987029195,0.07158408446888709
14,0.07171620795135494,0.07098939457074713
15,0.0714056665564684,0.07098993196224922
16,0.07145519605536255,0.0718054430384333
17,0.0715901398067947,0.0715945641309517
18,0.0714871564315711,0.07225212777046679
19,0.07146571064702899,0.07151143593623964
20,0.07148743709392971,0.07114092254718647
21,0.0714185923266468,0.07193469572238971
22,0.07144361037424476,0.07122271622647991
23,0.07140709465737347,0.07111414633073859
24,0.07141276264933945,0.07110440801908487
25,0.07136286334763708,0.07150503877776762
26,0.07138197139638076,0.07145978189011022
27,0.07139795628948797,0.07120000232002259
28,0.07144764916067549,0.07178909461224936
29,0.07134859830730682,0.07118417422015928
30,0.07129708054415185,0.07086884560270769
31,0.07133164725226941,0.07092484197305146
32,0.07128887953643176,0.07130531762927277
33,0.07131808802789207,0.07076304064565224
34,0.07130260144670804,0.071117212806241
35,0.07132063670415911,0.07110383665011262
36,0.07128512222829053,0.07068600506178488
37,0.07132280233958595,0.07125513300581908
38,0.07120137659164308,0.07092585645163257
39,0.07123944293007814,0.07131950180880554
40,0.07126052398606837,0.07119860824994337
41,0.0712071539927944,0.07196530360425657
42,0.07121363508371378,0.07085109492374295
43,0.07123205775051095,0.07085508936406029
44,0.07122360901396385,0.0714159546994796
45,0.07127281142284068,0.07082989723983955
46,0.07125672544363877,0.07103543025283429
47,0.07117574306265961,0.07097984669581585
48,0.07121676543234683,0.07129489806287384
49,0.07120598488741164,0.07098732381212307
50,0.07114327377338203,0.0711835071991397
51,0.0712329052629874,0.07107301066087848
52,0.07114593008105799,0.07081109426780394
53,0.07114345944381589,0.07107047608744091
54,0.07116313941097803,0.07082092736119253
55,0.07118994691264001,0.07091384017053512
56,0.07110437184578175,0.07083085506578177
57,0.0711208613310977,0.0707320892432118
58,0.07117801476612413,0.07085473353856177
59,0.07109763093298668,0.07096266861190548
60,0.07119678970363787,0.07329051237738593
61,0.07115688592010884,0.07117385081447009
62,0.07108192149844529,0.07089881187609169
63,0.07109679227514709,0.07076431724118641
64,0.07116329087187155,0.07110579406523573
65,0.07116599937083481,0.07085206388145238
66,0.07108086593103685,0.07086615967428299
67,0.07113959956065499,0.07095836798918463
68,0.07116713027635829,0.0707881429365703
69,0.07106829733311607,0.0711164212099849
70,0.0710967233647212,0.07074834344924766
71,0.07106776593727984,0.07090537820743498
72,0.07110983455817191,0.07090387164652583
73,0.07104489895448887,0.07192543884349697
74,0.07109946700082503,0.07078678186191945
75,0.07106945013179243,0.07081873387086551
76,0.07112617634064097,0.0707798648622672
77,0.07103720138059388,0.07116304700216536
78,0.07106386804930884,0.07066296737555829
79,0.07112223416161861,0.07068276148063043
80,0.07114576377707134,0.07124085844609807
81,0.07102550787748478,0.07073558069583273
82,0.07104601070797034,0.07066157934474211
83,0.07104343210580014,0.07101131326444712
84,0.0710457318442331,0.07079209707789094
85,0.07102642738097291,0.07093959606025477
86,0.07109536796504502,0.07101125995192645
87,0.0710267574786187,0.07075895784215468
88,0.07106128665391537,0.0709735354218976
89,0.07104802662305695,0.07077165309930751
90,0.07108304565020507,0.07099901862742398
91,0.07101158837197448,0.07077909609701281
92,0.07099987425618796,0.07062431772687158
93,0.07103520264174584,0.0710019923411398
94,0.07104508631336365,0.07083337884264003
95,0.07100339478654541,0.07113207430941153
96,0.07106871812416019,0.07074431620167763
97,0.07102806262558789,0.07067281519369338
98,0.0710182412252795,0.07075370345985033
99,0.07105075752438544,0.07064237570847313
100,0.07102455840193682,0.07080614340110096
101,0.07101242916046573,0.07068854772089594
102,0.07101722550448135,0.07089188673196106
103,0.07105202946534975,0.07104375074605068
104,0.07101386941695433,0.07100231835843544
105,0.07101511949454423,0.070727899611796
106,0.07098256553456986,0.07080637736814928
107,0.07098485511257875,0.07076365052595229
108,0.07102676280301443,0.0708869049574036
109,0.07100563062180718,0.07073507781986561
110,0.07099925321813444,0.07058777436672842
111,0.0709874557955064,0.07070684392996068
112,0.07108712130092935,0.07055339931077438
113,0.07093954179361522,0.07064753743483969
114,0.07099381939237781,0.0706319358514441
115,0.07099383444392042,0.07080779417220212
116,0.07104446439982223,0.07073306732450119
117,0.07098481156003418,0.0706631820604805
118,0.07100707911353984,0.07067950807023726
119,0.07099385387885818,0.07057544649317685
120,0.07088479249150775,0.07098552285919249
121,0.07101578858765148,0.07079004958248458
122,0.07104726122032634,0.07121334801815397
123,0.0709945449886991,0.07317970207382961
124,0.07100943769726584,0.07073425492764272
125,0.07093835063874245,0.07112605089723076
126,0.07102111480879984,0.0706972795102713
127,0.07098504952002439,0.07076851728988992
128,0.0709734793728609,0.07059359165009967
129,0.0709753082730144,0.07074074080800483
130,0.07097561947620219,0.07121977930698888
131,0.07099647635071397,0.07064608432170248
132,0.0710183276901309,0.0732990342891395
133,0.07098412945074477,0.0708732366614814
134,0.0709883571892,0.07061723558542383
135,0.0709578726384089,0.07116600703492161
136,0.07096918848760837,0.07062636987962587
137,0.07095666077854536,0.07070617077559022
138,0.07100239732145644,0.07091599232689923
139,0.07093254899789246,0.07080503571087578
140,0.0709731143152566,0.07072827148809147
141,0.07103134155255571,0.07382151979038634
142,0.07094772988788897,0.07077401509507021
143,0.07097812744674922,0.07055693784259677
144,0.07102358414918827,0.07056495168297049
145,0.07093581849996515,0.07094554409043659
146,0.07097617687313534,0.0709143781706679
147,0.07094822873731406,0.0705676205903174
148,0.07098003212425062,0.07064297491274392
149,0.07096539594554643,0.07076711053853442
150,0.07099872059840188,0.07070457789497105
151,0.071001531093193,0.07060563997986662
152,0.07091952941948466,0.07208005382716891
153,0.0709870240563969,0.07132403090325697
154,0.07096780289700039,0.070568949631
155,0.07102800063270745,0.07098272783592073
156,0.07090866342067814,0.0712471061254592
157,0.07093958868432959,0.07074641454273918
158,0.07098648629838424,0.0706718373358626
159,0.07095600976545414,0.07058739368439944
160,0.07091649016328186,0.07080931149734788
161,0.0709814966263936,0.07070758063772484
162,0.07095287674568969,0.07057909171766621
163,0.0709643019385618,0.0705942699028548
164,0.07098864960662134,0.07059972535086695
165,0.07090475709496928,0.07108634204589766
166,0.07093652342405203,0.07062053419326174
167,0.07094392650645319,0.07100008320189784
168,0.07097455462385759,0.0706277004815785
169,0.07094983582635768,0.07072905775368354
170,0.07092895155562629,0.07075490298568497
171,0.07095596390656478,0.07191558601224432
172,0.07095241314358562,0.07057998195031824
173,0.07093730953028447,0.07138139990635434
174,0.07099122631785681,0.07060754478224733
175,0.07094536152043693,0.07069601277337831
176,0.07098816665444824,0.07070396747072569
177,0.07092120198251532,0.07071990832604097
178,0.07096241531874255,0.07082469811649801
179,0.07093635470800691,0.07072604830129088
180,0.0709902749439295,0.07121063330767187
181,0.07093424992792183,0.07069993030276935
182,0.07101746279296639,0.07089828415211487
183,0.07097570866578631,0.07081349223158259
184,0.07094722550412973,0.07055979608407431
185,0.07095226141319667,0.07059264284482883
186,0.07093357865651734,0.0705673317700601
187,0.0709347072184729,0.07068440799131671
188,0.07096159840665228,0.07074929824967786
189,0.07098814896453055,0.07070254039639738
190,0.07093437418168921,0.07059502892707781
191,0.07092919032112491,0.07075861254567317
192,0.07105457465455448,0.07072775452247076
193,0.07092069044000478,0.07087030038590401
194,0.07093506011304905,0.07075225114351949
195,0.07106497329023244,0.07058461449140625
196,0.07092864038668377,0.07055946651202256
197,0.0709365690149349,0.0708402569134497
198,0.07090359665364099,0.07060378408257945
199,0.07096268402950036,0.07061982986053426
200,0.07091860553557924,0.07060310228976943
201,0.07098852893074067,0.07076876185064064
202,0.07099232618227232,0.0708001838775018
203,0.07096488006281958,0.07075303003791758
204,0.07089392708199059,0.07066482479589233
205,0.0709544363410043,0.07083782582781215
206,0.07091529360063356,0.07080548384242295
207,0.0710167097185346,0.07060588868048216
208,0.07096508724524153,0.07057186428107609
209,0.0708675651173059,0.07067419142530675
210,0.071033809526111,0.07074394621007915
211,0.07091025873679194,0.07059168583333446
212,0.07095117875628715,0.07099326996054815
213,0.07093478999972391,0.07075162303076077
214,0.07097535060017372,0.07054994012734131
215,0.07095586252566292,0.07059168320769575
216,0.0709688978554081,0.07066808478361335
217,0.07090653312190784,0.07068016352727362
218,0.07094614127044864,0.07081143785306292
219,0.07093142127271274,0.07075844102648646
220,0.07094958680514381,0.07086523208581941
221,0.07092614762699433,0.07078921471170393
222,0.07096812805737095,0.07067762352320371
223,0.07095142041178916,0.07058504700437247
224,0.07095854961686283,0.07111475687259375
225,0.0709348538135596,0.07060475197003974
226,0.07096503465790019,0.07063167080306687
227,0.07088376968193778,0.07095202417263574
228,0.07099835556164252,0.07101609451724208
229,0.07095986853341023,0.07079710684652016
230,0.07094163654281271,0.07067795887577694
231,0.07095368592728146,0.07075231931603793
232,0.07091389558196878,0.07070958717845986
233,0.07099571797868712,0.07066387961594345
234,0.07093953507260786,0.07075274063843202
235,0.07093069442271663,0.0707942620184399
236,0.0709481020997778,0.07058612569202187
237,0.07095866314590359,0.07074268108444037
238,0.0709005201743137,0.07067721877202991
239,0.07100935748143257,0.07064326238342881
240,0.07094373703777171,0.07066682715559909
241,0.07100286865554792,0.07089538179520273
242,0.07087943002694755,0.07089969505215594
243,0.07099413575915743,0.07056138006457213
244,0.07090269238632217,0.07180281211905058
245,0.07095627230164006,0.07061855050999062
246,0.07091365458010483,0.07063262561231781
247,0.07101173850474693,0.07050842633022505
248,0.07092192562238918,0.07263855007789506
249,0.07094756227662619,0.07061320975799211
250,0.0709781613674381,0.0707830967794701
251,0.07088992704334353,0.07129361859766065
252,0.07093986327931892,0.0707464274680558
253,0.07097411053411537,0.07124408997812888
254,0.07091456597639645,0.07058784330077028
255,0.07097485733570622,0.07060213256759633
256,0.07084684529238278,0.07072501444061534
257,0.07093468503200179,0.07068696179689624
258,0.07099531617441433,0.07055467625325744
259,0.07091897637170139,0.07074138305746107
260,0.07092062564794537,0.07072084279467764
261,0.07090336698845184,0.07114154504407741
262,0.07100613840776,0.07090607859141354
263,0.0709068885446786,0.07066474109888077
264,0.07094932762946156,0.07069734706239805
265,0.07102058439714302,0.07062379795919747
266,0.07092471018755178,0.07191303943672703
267,0.07093245071842134,0.07143586804912423
268,0.07098385726334713,0.07062714474588844
269,0.070914045421423,0.07057952805001057
270,0.07093499570215445,0.07079448800860377
271,0.07088797017753268,0.07060215764494514
272,0.07102867407198671,0.07091123118243918
273,0.07096203867879083,0.07078387361569675
274,0.07089548557847858,0.0707431256788729
275,0.07088015766011821,0.07056510566653657
276,0.07099487895159412,0.07107324150244645
277,0.07093521458305996,0.07078937175606496
278,0.07098765758950885,0.07059349330478798
279,0.07093754228648189,0.0705233389554338
280,0.0708945824278535,0.070750233179933
281,0.07097270125173312,0.0706262851211859
282,0.07092381306111717,0.07074384644756943
283,0.07091205065353788,0.07082327697264368
284,0.0709061888169399,0.07067845465693308
285,0.07098264418554297,0.07090904890620624
286,0.07085621158192626,0.07057561908849319
287,0.07095341344209884,0.07050799240300104
288,0.0709846275214621,0.07090990733128885
289,0.0709588277793164,0.07071166656082224
290,0.07089446598647547,0.07065221052778548
291,0.07092997168364237,0.07182053364254681
292,0.07090111651110183,0.07059820904598617
293,0.07096199738643438,0.07089903503773998
294,0.07093535070951514,0.07081275652938221
295,0.0708708462315045,0.07066342801196705
296,0.07098946876401048,0.07062956523782359
297,0.0709645313625451,0.07065720996733435
298,0.07086733979084414,0.07050537358566636
299,0.07089888871156817,0.07239947018772952
300,0.07095030232442083,0.07059681432023233
301,0.07095873358396651,0.07074192413897051
302,0.07098210211262572,0.07055057685501762
303,0.07093559332388483,0.0705615402608757
304,0.07094234757893662,0.07061712166857513
305,0.07093620371016905,0.07067018947266365
306,0.0709004803813047,0.07113131647010723
307,0.070917954324461,0.0706692671766409
308,0.07100826322728639,0.0705840797725868
309,0.07087011308484464,0.07103543297256083
310,0.07094390859170784,0.07069688741979208
311,0.0709653485679536,0.07058462135099762
312,0.07096412366064046,0.07061670998430383
313,0.07091745249271916,0.07075783238402952
314,0.07094372024716471,0.07057695267773464
315,0.07092118507279432,0.07065514596245283
316,0.07091932907867299,0.07093873610918505
317,0.0709310477312139,0.07095387485392844
318,0.07089759741160129,0.0706980782101591
319,0.07092264474635358,0.07100393617821191
320,0.07093490604504787,0.071076941630129
321,0.0709077624007047,0.07057139729373833
322,0.07092458071808021,0.07078485695708428
323,0.07091669373357182,0.07058681791976106
324,0.07086225575227723,0.07064047340236033
325,0.07099651372421989,0.07067983431687201
326,0.07092090791089833,0.07074260561423407
327,0.07090030655675798,0.07083897668671307
328,0.07094164108850068,0.07070672895168355
329,0.07096457886074087,0.07068983072028352
330,0.07094848346259953,0.07245978921792973
331,0.07094753936951538,0.07058097703210368
332,0.07089584106229525,0.07074623915419018
333,0.071009775983999,0.07069849869458339
334,0.07086372043011334,0.07055847796052106
335,0.07090170199809362,0.07058546215813274
336,0.0709898297762056,0.07081383400271046
337,0.07103223763078713,0.07058613907895694
338,0.07086659279420413,0.07063655419408946
339,0.07093006048610599,0.07064653351173782
340,0.07096737860251578,0.07092671630273396
341,0.07091078195545218,0.07106038939204852
342,0.07091702744186068,0.07144057057392154
343,0.07094521732251945,0.07076816817403028
344,0.07089253892745379,0.07067705567958511
345,0.07097121282107681,0.07091294039678837
346,0.0709400508645103,0.07067598472183957
347,0.07095364307006485,0.07064108412651067
348,0.07093025016621482,0.07054764242003353
349,0.0709336231977081,0.07069242397806921
350,0.07096484474998584,0.0706066380695226
351,0.0709522634470682,0.0708319918556108
352,0.07094210286518271,0.07070042512540566
353,0.07088920737741043,0.070563643221062
354,0.07092199114551076,0.07063574965193503
355,0.07093313329821106,0.07095439574771635
356,0.07092244543438907,0.0706814190618335
357,0.0709194035100327,0.07100649263589233
358,0.07092872856677675,0.07070378788938744
359,0.07099165454905906,0.07064229883577001
360,0.07095553516019448,0.07087294872623781
361,0.07087109989071969,0.07060274523230829
362,0.07095218625226371,0.07058624596862033
363,0.0709361090517635,0.07087314539921971
364,0.07086789182913628,0.07070736993095399
365,0.07091990719399721,0.07053040523720051
366,0.07096562136729939,0.07053603098713797
367,0.07093500966082612,0.07066499029345746
368,0.07089716181468717,0.07063838352626388
369,0.07102727554559851,0.07132580307707037
370,0.07089439676933104,0.07066390422579333
371,0.07089642545790505,0.07168352159053298
372,0.07093698581566009,0.07055106864332118
373,0.07092204036192595,0.0707063884183988
374,0.07103568806702332,0.07058196617459442
375,0.0708659158529733,0.07129394294195694
376,0.07096132799852,0.0706244718633304
377,0.07091080308925334,0.07079746962275765
378,0.07088759293307742,0.07100515840273725
379,0.07101023663356483,0.07058222619809311
380,0.07091245327969725,0.071231496382884
381,0.07092089706556878,0.07055765417152347
382,0.07095276290397469,0.07062524260442936
383,0.07099058255434132,0.070691524618897
384,0.07088054165684825,0.07054195518075432
385,0.07096747021458084,0.07288507743199792
386,0.07088922021343268,0.07084482349896393
387,0.07095372997266021,0.07127856098603524
388,0.0709118117004347,0.07093170645110891
389,0.07090309179789252,0.07156787468701153
390,0.0710467289951589,0.07053379925892592
391,0.07086564139496508,0.07094533293086804
392,0.07089919612841974,0.07073606910873513
393,0.07093041074975169,0.07082643212593251
394,0.07092885186018752,0.07069142673520376
395,0.07095394706685576,0.07062923230507191
396,0.0709347894205321,0.07060459655457439
397,0.07096390122418209,0.07078527418959771
398,0.07090831187804587,0.07075200150496581
399,0.0709564734390266,0.07061856872186759
400,0.07097193576562272,0.07074166044604618
401,0.07094071955114102,0.07066839992788333
402,0.07085920691186433,0.07066001272639047
403,0.0709839265296261,0.07051999719950187
404,0.07089991359669956,0.07050858656769206
405,0.07090816740765513,0.07079436980487798
406,0.0710268549168472,0.07059294007124634
407,0.07085695768223345,0.07067285512809972
408,0.07091080111791666,0.07056550035913252
409,0.07090252630716319,0.07054930235881832
410,0.0709518205142207,0.07055347470159407
411,0.07099724825557997,0.07054864133883859
412,0.07091940130195695,0.07074921137426157
413,0.07093245197358511,0.07053331598851185
414,0.07093174145560709,0.07091215873267957
415,0.07091498900082806,0.07104075779431245
416,0.07095408218977549,0.07061688437022934
417,0.07088632899657381,0.07053502436489126
418,0.07091748229653048,0.07054752745939788
419,0.07095313223926045,0.07070327791860938
420,0.07093888243956627,0.07078776499160934
421,0.07087228016303979,0.07064148010399367
422,0.07099655932701415,0.07058957270578126
423,0.07092620854338201,0.07097789377044672
424,0.07090396809426668,0.07088265440705355
425,0.07100875275455219,0.07077252097433726
426,0.07090819280871527,0.07056702265623242
427,0.07094535042645692,0.07063706736385399
428,0.0709373712596252,0.07072482085783084
429,0.07098540436211441,0.07072156811487326
430,0.07088705885419838,0.07056975494937907
431,0.07095913485371523,0.0706530909782427
432,0.07088002850629872,0.07059862089197091
433,0.07093149808933027,0.07059514013890121
434,0.07092807135975761,0.07097446476274714
435,0.07092190616065078,0.07064737083468271
436,0.07091558051647709,0.07087991594527308
437,0.07098266225513651,0.07060409004152433
438,0.07089565703563458,0.07050104496887376
439,0.07089182302998982,0.07071293619679671
440,0.07093597833903954,0.0705729193203357
441,0.07092158348082925,0.07062985125308725
442,0.07097555880697606,0.0705940105791344
443,0.0709033605786298,0.07074083482233577
444,0.0709114130363047,0.07058805780045706
445,0.0709630175099837,0.07093421481520337
446,0.07090398903897435,0.07052362349175428
447,0.0709875734101573,0.07074377439098746
448,0.07086774299321748,0.0710062779686116
449,0.07091208197307482,0.07061970311245677
450,0.0709721964704309,0.07055699504506145
451,0.07096796665194748,0.07157461394297861
452,0.07092698445196727,0.07054423972458565
453,0.07087077834545899,0.07058540053942021
454,0.07096367865669832,0.07052706258449389
455,0.07088167815030717,0.07060573757835609
456,0.07094851759322685,0.07078793534351882
457,0.07093362361758494,0.07063132034645554
458,0.07092012818173157,0.07058671183866502
459,0.07091700953902673,0.07054685860072522
460,0.07089717814521633,0.07070991487463535
461,0.07095903990943607,0.07068446932776574
462,0.07090224039038832,0.07240755658158658
463,0.07094997381992477,0.07115489192124701
464,0.070952954221901,0.07067532249635942
465,0.07089213907962842,0.07063884832605943
466,0.07095809217741926,0.07063520008781903
467,0.0710312534960435,0.07058623165844836
468,0.07085997575401164,0.07053813973666649
469,0.07089812668274156,0.07078219921384728
470,0.0709759267813844,0.07065990067365702
471,0.07091181254614409,0.07063122811685327
472,0.07092704442586545,0.07064073331706996
473,0.07098845540315842,0.07064871680529548
474,0.07090722826524652,0.07062526621165573
475,0.0708913469134713,0.07064269435751504
476,0.07090813191317254,0.07087097436942354
477,0.07094514349864113,0.0706938307353052
478,0.07089688005499083,0.07068899367372164
479,0.0709375770499023,0.07065468949237111
480,0.07098611341350132,0.07069708595100875
481,0.07095013233981164,0.07062760239500837
482,0.07086404509913864,0.07081564749284532
483,0.07092925913179284,0.07067418931127065
484,0.0709369625705633,0.07090978025978441
485,0.07092004022497735,0.07099257575696438
486,0.07094151017923864,0.07053066415516711
487,0.07091737934332386,0.0706067823385195
488,0.07091392963219413,0.07073070008334158
489,0.0708658077093742,0.07127196900987587
490,0.07093677736616297,0.0705221547453349
491,0.07097988653865507,0.07061676471402256
492,0.07088659716834077,0.07058331019876506
493,0.07091002310994718,0.0706417259760936
494,0.07096680665580775,0.07075852651116692
495,0.07088652590392448,0.07089200907261144
496,0.07091224092623885,0.07065130312704344
497,0.07090574082472532,0.07071998231730409
498,0.07098538336529435,0.07058456943215304
499,0.07088955927887361,0.07056711761732222
500,0.07098542034423513,0.0707019400601323
501,0.07088902773116704,0.07058219364370148
502,0.07102271754422682,0.0711380552291729
503,0.07086862572919217,0.07062892446731053
504,0.07094852933042246,0.07072550319164592
505,0.07084569143954751,0.07071125093074229
506,0.07090777983750514,0.070617495482492
507,0.07092466878501488,0.07076792917034244
508,0.07095605377509868,0.07072366883753319
509,0.07090809210229644,0.07058137958985478
510,0.0709434913055931,0.07054696914217279
511,0.07093949718393391,0.07066856602525842
512,0.07100047067188912,0.07066485969659937
513,0.07090689059790614,0.07085007295635806
514,0.07091927735490812,0.07060484789258961
515,0.07090706611387164,0.0709019320845698
516,0.07098175674605427,0.07064387595373622
517,0.07092919658056551,0.07462250221970519
518,0.07089562315216882,0.07059203903907477
519,0.07088461243432108,0.07133998406643743
520,0.07097664759378973,0.07062681721730692
521,0.07095889340666273,0.0714373651953692
522,0.07091359740091885,0.0706506055010146
523,0.07091371083764626,0.07087193582950846
524,0.07090222143190657,0.07054032611748132
525,0.07095279523598061,0.0705663531977498
526,0.07093879663133078,0.07136543946900797
527,0.07092610070799038,0.07073359241401858
528,0.07087538035796415,0.07117427906996167
529,0.0709080924045482,0.07059167052347921
530,0.07095219964663282,0.07049491437006486
531,0.07089284441168074,0.07058053824465484
532,0.0708820957163398,0.07061697746132337
533,0.07097036568827624,0.0710223825455841
534,0.0709434806955137,0.07060747967052385
535,0.07097283527433729,0.07064762440728407
536,0.07085391761009975,0.07058349287912144
537,0.07100402160907249,0.07063138864540451
538,0.07085858833947056,0.07081453964678716
539,0.07098418834219447,0.07066674970954821
540,0.07087788624252728,0.0709691538189515
541,0.0709527311705166,0.07060006733957293
542,0.07091808131933927,0.07052841405042438
543,0.0708569919289969,0.07069914289636224
544,0.07097923836345486,0.07059130539798605
545,0.07087521820063357,0.07156397708954074
546,0.07090467312108936,0.07057659327983856
547,0.07099236531568755,0.07061149893532895
548,0.07097712618639047,0.07066491405878748
549,0.07085928189561522,0.0712994400973431
550,0.07088946640568909,0.07061735660590425
551,0.07090602834209454,0.07064362483917962
552,0.07088313129195255,0.07059144353069183
553,0.07100226716112366,0.07061320552403944
554,0.0709543123418431,0.07122415646134443
555,0.07090121454638924,0.07057625195268769
556,0.07086412577653865,0.07086531779689871
557,0.07100094992110578,0.070506585237071
558,0.07095126696318078,0.07053876395654095
559,0.07088136163612398,0.07055236453862292
560,0.07094796372057913,0.07052500848529747
561,0.07083170609675246,0.07064656144994493
562,0.07094694911200794,0.0706010616039703
563,0.07092369181497825,0.07064202741000157
564,0.07096624304261281,0.07089766718876485
565,0.0708831546904086,0.07087882356490313
566,0.07091590679949708,0.07051240811866856
567,0.07090278843836152,0.07056358701534034
568,0.07093069512251136,0.07056027577032983
569,0.07090870876439946,0.07060469268294141
570,0.07094146139758954,0.07054620224103367
571,0.0709609237687884,0.07096608651135979
572,0.0709463066513018,0.07069701886638094
573,0.07084487066518584,0.0707601354866867
574,0.07086895265542775,0.0706144962680321
575,0.07089507833367391,0.07073297545948928
576,0.07106411121755862,0.07126293999408302
577,0.07084835306715241,0.07162808831237204
578,0.07092539132010642,0.07059319247951071
579,0.07088176380667231,0.07083767258812804
580,0.07093386617388657,0.07090832598525046
581,0.07089964609941561,0.0713914130544606
582,0.07092278493161824,0.07072993436712116
583,0.07092240228832102,0.0705371800142663
584,0.0709813279118374,0.07052869235048542
585,0.07097494056959042,0.07055466309566148
586,0.07087351718871332,0.07056708665948358
587,0.07098676887996715,0.07090250139831085
588,0.07083908825677981,0.07341678575528073
589,0.07095904635201446,0.0706233168351622
590,0.07087349958664221,0.07056921542913969
591,0.07099979135284512,0.07057920280305909
592,0.07091152936899119,0.07060533388273021
593,0.07098668395466418,0.07080357011051844
594,0.0708951826611583,0.07123511691519663
595,0.07092326281846856,0.0706727050638801
596,0.07087354188104518,0.07059734564012868
597,0.07097406140852461,0.07055033157978739
598,0.07091719408234437,0.07052073224602766
599,0.07094861904559709,0.07093251287502009
600,0.07091740089700185,0.07080256320012773
601,0.07086664922297191,0.07065372991404292
602,0.07093767427223668,0.07058797751706984
603,0.0709092017802165,0.07053050307679007
604,0.07094175719189272,0.07100426658823346
605,0.07089433593483423,0.07052555500920024
606,0.07092501066154618,0.07061213963821636
607,0.07089642178621605,0.07071428166756784
608,0.07103128665589171,0.07056440234819358
609,0.070828481860977,0.07090083771953455
610,0.07099892630827703,0.07060185208881381
611,0.07089071435858306,0.07060231829404642
612,0.07091538869976093,0.07076282120341378
613,0.07089714003618149,0.07061432459301241
614,0.07093931893728,0.07052258688489
615,0.07091300422214061,0.07057901718245779
616,0.070920211887605,0.07064700139291002
617,0.07098942097249648,0.07175836172587023
618,0.0709160554880123,0.0707513027410622
619,0.07093038064219968,0.07072818224283778
620,0.07087868891007228,0.07060904761492594
621,0.07100069045359425,0.07052070117351947
622,0.07090107540783884,0.07077792889329046
623,0.07092615073289184,0.0705797516409346
624,0.07089414182070682,0.07054365000848518
625,0.07099423667700361,0.07053100163353741
626,0.07081810917726142,0.07057717142019483
627,0.07095194225617164,0.07061833454312164
628,0.0709347420220943,0.07150623132934134
629,0.07093295638861177,0.0707165933851426
630,0.07087582858840673,0.07072564816042111
