epoch,loss,val_loss
0,0.5532646369066933,0.4306874894070268
1,0.41439969561321083,0.40110149977239173
2,0.40952003793083697,0.4056009359498991
3,0.40892701191629627,0.4253527130916915
4,0.4072823534718901,0.40443506465244217
5,0.4065117787161796,0.4053109974821628
6,0.4083929738218931,0.400880834862484
7,0.40616520962936226,0.3982978076236683
8,0.40455396326897525,0.39483714839936057
9,0.3887126651122797,0.36418427024757005
10,0.3258710767117907,0.28181846706812647
11,0.2990763394071234,0.30453168734284775
12,0.2979996393410136,0.28101592290420274
13,0.2957939908897086,0.27702320424138605
14,0.2962044959695791,0.3247839075755019
15,0.2947059790257641,0.2924337892336646
16,0.2944996607163065,0.2807396549169906
17,0.2928482457209262,0.27509847783204977
18,0.2928721819707244,0.2916716811641898
19,0.28970377913696305,0.29405249814019957
20,0.29104296505737076,0.2742862596155248
21,0.2948499618054961,0.2713415146156287
22,0.2875047217872884,0.2723914616533218
23,0.2880828087802509,0.2673612465257238
24,0.28637597614602983,0.2731510626465294
25,0.2836269386273494,0.26183523138913
26,0.28325261206006547,0.26433525273860115
27,0.28212399250097414,0.2650674132611117
28,0.28088185529438237,0.2514681119145421
29,0.27957228571772097,0.26847920261599834
30,0.2777865564496778,0.2598891828412039
31,0.2739226444841003,0.2732672264186435
32,0.27505817354249534,0.27212338157780264
33,0.2741793888411838,0.26863226757900116
34,0.27248559009542855,0.2559935274374419
35,0.26913807451200905,0.26877136302681165
36,0.266340566910714,0.26018871656297793
37,0.2655595365009434,0.2525061109847879
38,0.2637596395876196,0.27338418084613525
39,0.22419301974925873,0.15807721859113194
40,0.17760326513807645,0.17550857428640668
41,0.1764446564084239,0.13551140735374254
42,0.17295352686390125,0.13793158185416163
43,0.1699184847773789,0.14646743894234923
44,0.19952221146578505,0.2204861220357544
45,0.1997268009219143,0.22978612625326053
46,0.22480987037698047,0.22620258322125264
47,0.22037078041753036,0.13980690823263697
48,0.20569026496091622,0.22949231276619406
49,0.21867004081571131,0.22321049326879355
50,0.2204732561050702,0.2264215589251778
51,0.2095745280891252,0.21991697954632866
52,0.23018587798440007,0.13348151495255348
53,0.2167099964686578,0.24672660002251168
54,0.22429529204071283,0.1647850130614843
55,0.21141702263391943,0.26324839987619336
56,0.22685654176701364,0.17175229678214207
57,0.229344666200719,0.24446260054090782
58,0.23274442183075666,0.23917165375075758
59,0.22531766371189546,0.22843516673878037
60,0.23137829883647956,0.1903426524872091
61,0.2250927726743366,0.2497457039337414
62,0.2254406800635046,0.17761988920213298
63,0.22401396286108796,0.23550387615986293
64,0.22370040574543576,0.2208794092181732
65,0.23254369594138874,0.2382720475038771
66,0.22110724334510493,0.22383429945079755
67,0.2315016983867549,0.2100666979799707
68,0.23347142288129297,0.2316804828611809
69,0.2190700337844644,0.24511499594729438
70,0.22954915857596173,0.20808953318477336
71,0.22050240955097403,0.15509087934607865
72,0.22409727131660512,0.22167261936293875
73,0.2340048916762967,0.2488592591521866
74,0.23023071447960575,0.19048031928177978
75,0.23350932780834888,0.22158847058863743
76,0.23323995730788302,0.2278331005864945
77,0.22811102815311876,0.19543803795501766
78,0.21280856136021187,0.23343182654482414
79,0.22851226876655834,0.21214779132966838
80,0.2329354623465134,0.21785578856152066
81,0.2225517389817918,0.18905624114535602
82,0.2308949511691773,0.2550082329275482
83,0.2318445138281865,0.21754415093347043
84,0.2273484009484069,0.20305887289233535
85,0.23477464818137345,0.2204948958206478
86,0.2362081653815951,0.23468043565185595
87,0.23172626512156402,0.22894249931742286
88,0.22587538710672506,0.20566143495366623
89,0.23246684645136578,0.2714051368698513
90,0.23746656778928854,0.21792544099930805
91,0.2367496133047185,0.25945910118702553
92,0.2365473191634261,0.21833863924974142
93,0.24223933110443904,0.23289174489506417
94,0.23253375874291793,0.23726681144150957
95,0.22937037951523642,0.2102773757011945
96,0.23306429914707283,0.22637936864533384
97,0.23112672996475733,0.25406574347918676
98,0.23494953109468106,0.2329151141968127
99,0.23792454343941286,0.2132533939574399
100,0.2292479021634034,0.14078812335853794
101,0.22725157484972028,0.23209196632550097
102,0.23606332101457886,0.20600224864369973
103,0.23513268762164646,0.2025076094911902
104,0.22972967920543477,0.21320580474109094
105,0.23192803816293642,0.24355971768510182
106,0.22758207435635544,0.19381484972649704
107,0.23264801514734754,0.22793326735637653
108,0.23177437124540098,0.24602571339144327
109,0.23550654784273758,0.2335974607137403
110,0.23551693385977635,0.24744494031194447
111,0.23019445048485823,0.23584122921692263
112,0.22243189112507372,0.20701154157366447
113,0.23207917551009014,0.24024557387537154
114,0.22318915566570943,0.22867226630049423
115,0.22454762764924246,0.20897242505670818
116,0.23197968663583748,0.1464224203644819
117,0.23076809070807852,0.21493626872243707
118,0.2304992821993683,0.20483155910810713
119,0.22617276775524867,0.22918503412178584
120,0.23555022648436655,0.21567028795016874
121,0.22564893924325205,0.2389622416873569
122,0.22639692231988925,0.1149955881552237
123,0.23535109854204286,0.14270436522075297
124,0.23211774221069806,0.15321850548509358
125,0.23282042098083466,0.22161498985708278
126,0.2266362644166207,0.1562855373759296
127,0.23438170911382428,0.24026521618147959
128,0.22585783532852655,0.22698747100280606
129,0.23351333917473718,0.19535453585818138
130,0.22825418948102816,0.2250161584240297
131,0.22963543046864388,0.20834876492254925
132,0.2365408014657972,0.22278635230888602
133,0.23551208328166834,0.2240242226300695
134,0.23121614277446204,0.2532399857524068
135,0.2404450848400831,0.2272057999469393
136,0.2293909880713069,0.19474302641547564
137,0.2276280475058239,0.23573440567376394
138,0.2305662669152093,0.2300039317279513
139,0.23313643942943676,0.23181644552508582
140,0.22921649096526212,0.22719816048500946
141,0.23050164097218775,0.22228727877234133
142,0.2289849689645733,0.22754130319007854
143,0.22830123601140354,0.2195963785346324
144,0.22409123750470525,0.22190996149485753
145,0.22682822952501114,0.19192778944216474
146,0.231433063778255,0.2388802084075059
147,0.23251473273245168,0.23319836267826588
148,0.23210259390880258,0.19791400032713363
149,0.23190772275832727,0.21823980351696828
150,0.23700044729667222,0.22413681554530865
151,0.2353040336174883,0.2224288279133325
152,0.22701439542247714,0.22597254698635935
153,0.2315978757846508,0.2162963348104903
154,0.23835249594170793,0.16558047263473624
155,0.23428203487138954,0.20911010115421375
156,0.21974680385143636,0.2132176479534926
157,0.23272423510499995,0.21001768172163612
158,0.23047988657816518,0.16569929937490255
159,0.23540814015433656,0.19941092835887736
160,0.229401879661756,0.2284279400401917
161,0.23096281332935362,0.22595849906071586
162,0.22812641211908213,0.19808720285109677
163,0.2321644233529278,0.24117334030609763
164,0.2337176332221948,0.2244186554612752
165,0.22777769515375726,0.21279965217600869
166,0.22754558937238464,0.15478640752414502
167,0.23354960378887746,0.22713874634458214
168,0.2227093706980979,0.15706575006811094
169,0.21793438473956095,0.23478720128395092
170,0.2299933453156746,0.2159844950582441
171,0.23765863438876128,0.2220736586304283
172,0.2364280552005501,0.23347215032191754
173,0.2322612323676892,0.24356056145306357
174,0.22851870210467579,0.21495152498288897
175,0.23725616292273113,0.22755816951688104
176,0.23600721738928798,0.16595221236171737
177,0.23196867296545148,0.1279016689124687
178,0.23221482361832874,0.1928281729957111
179,0.23034143719455893,0.21806677387940573
180,0.2281514964134192,0.23018502477547648
181,0.23280431781050495,0.2394551231386912
182,0.23126090576144145,0.23487295109217055
183,0.23345201099805124,0.23833313994785887
184,0.2319476104838004,0.2070204356145746
185,0.23136838410588667,0.2443246191871759
186,0.22784202902032127,0.1807197955596513
187,0.22510617145364709,0.20258106627658115
188,0.23428158021623569,0.20403683593683386
189,0.2349452529159143,0.21851295048125446
190,0.23348682174246183,0.22257603534395148
191,0.23324042446702886,0.1883033374419999
192,0.2257482652916468,0.2201871042916788
193,0.23550833499343465,0.20306106241039149
194,0.22927935782084458,0.22614853609803162
195,0.22757999349436123,0.21759435361590834
196,0.2229628553219455,0.1205956832738777
197,0.22466415147796617,0.2210582546013589
198,0.23914743292865326,0.23341044633051686
199,0.23358256614012873,0.21084617908629452
200,0.22944211562593683,0.2392229750787732
201,0.22467515468716526,0.24065332605129353
202,0.23105789458663534,0.22434739793203154
203,0.22417691620074207,0.23867858786374072
204,0.23358166302672678,0.2560332995422637
205,0.23513388238567337,0.2402510693342364
206,0.23143646104944696,0.2371541025865332
207,0.235832312017036,0.23725458797311444
208,0.22730215564131928,0.21913623404060656
209,0.22815962202793402,0.21645154602290517
210,0.2270756745867306,0.18030711753262998
211,0.2339171925120407,0.2226245940178515
212,0.23866337207819727,0.14716617621322645
213,0.23091068092903358,0.2240407065486193
214,0.235380840342608,0.2252019154409207
215,0.23242641334756195,0.24702357022707727
216,0.23710673125527745,0.23359571947718383
217,0.23153522714293545,0.2394111624197783
218,0.23456553066615388,0.23547542560919119
219,0.2310817481742965,0.14092613237997445
220,0.22074742504446912,0.21147205073154152
221,0.23459302367780993,0.22197408940063845
222,0.2300820548257096,0.23572486576689636
223,0.2410529320337456,0.22662702082834943
224,0.23811492511479976,0.1835875177863271
225,0.23023434185224184,0.11272573494591295
226,0.22678112744582263,0.19087050668160183
227,0.23069563931186232,0.19432724478353924
228,0.23405531564836118,0.21494876709197014
229,0.23352487252163087,0.2101762389445173
230,0.2367578032795045,0.20367522589456594
231,0.2320928035451354,0.1588321649179086
232,0.23599305174810042,0.24529303667953659
233,0.23300729833430142,0.17401195741490105
234,0.22757116572069322,0.15356916748428306
235,0.22457579295519445,0.23746097630041269
236,0.23837986547383758,0.14739615170265993
237,0.23610092252254677,0.22747829795213034
238,0.23777824549449625,0.22591907432818845
239,0.2377155180231368,0.2512259043006325
240,0.2128687083578224,0.2713834355102342
241,0.22955240933991355,0.1935928320216681
242,0.22635090389221216,0.22659728584933111
243,0.22640578846017614,0.2114345614211053
244,0.23522734032760706,0.2462780922651291
245,0.23291315065978244,0.20948067812018256
246,0.23292937556461846,0.21496816561649235
247,0.22950834513818333,0.22512542338190628
248,0.23441676708529416,0.20812540927691636
249,0.2261577805818366,0.242907597850229
250,0.23469338164352876,0.24346347170828267
251,0.2322848065853786,0.2067731344379961
252,0.23467561362279976,0.2501828765648034
253,0.230762989633232,0.2169218409362513
254,0.2286872956738007,0.2145397389438459
255,0.221398054666037,0.19450427682360233
256,0.23268283310113289,0.21022234144367002
257,0.22529358023123966,0.2182065206855512
258,0.22719620370107302,0.23870539598184584
259,0.2399229046931084,0.26077780819070934
260,0.23172832624636872,0.15013952802605016
261,0.23229320964021838,0.22952246188458816
262,0.23558830465677735,0.198694715077894
263,0.2331375272856723,0.23130495775705637
264,0.23596208574746153,0.20138115056547107
265,0.23005401046215582,0.22548122107747415
266,0.23253328275742483,0.23403227919655328
267,0.2306020351366507,0.22719327637362688
268,0.23893218896657728,0.21616597954645436
269,0.23824731351362524,0.23315086659711462
270,0.2316732572929131,0.23594376529495642
271,0.23686189986437822,0.2355659668522739
272,0.23541009304025096,0.2120384046926965
273,0.23737911791276398,0.22214775534248202
274,0.23347728030918408,0.23267070783247792
275,0.23462957929638173,0.2238999645518993
276,0.23111186898667083,0.22399591589265672
277,0.22670168240817426,0.22971260418267164
278,0.2311091119353529,0.22802724603978122
279,0.23307717634702949,0.23273919245203178
280,0.23116555544946024,0.23511523312955931
281,0.22372335596955556,0.22899068301600928
282,0.23135984077346888,0.22432506574874989
283,0.22734135012034412,0.17397135016291557
284,0.2284007307341535,0.22074244077881208
285,0.22300118437821537,0.170842835351813
286,0.23259728400112628,0.2477859673461485
287,0.2264244783458283,0.19869736440320981
288,0.23114283124117446,0.23306535823004587
289,0.2337600307868158,0.2281727344856172
290,0.23510205194794778,0.22731455441949494
291,0.23467080218852948,0.22112929891580282
292,0.2368632514390061,0.22787724428272849
293,0.23124285820695897,0.20396898443433556
294,0.23831885744580072,0.24059273650680083
295,0.23811977732476952,0.21412848084341754
296,0.23556293717784277,0.19873554691754652
297,0.2340353245762803,0.2109855739921684
298,0.2357705050199438,0.23840861348251519
299,0.22738741702741858,0.18938405263725
300,0.23548489541029757,0.22266369524111218
301,0.23624858395051326,0.2200841789605021
302,0.2349846468870636,0.15060128992527794
303,0.23285103966887716,0.23723791452637788
304,0.22870413123441638,0.14476687505241445
305,0.2366800100671397,0.22006854047997315
306,0.22599493430779993,0.21617987381489895
307,0.2266278868253759,0.21907179909093039
308,0.2152907751607809,0.19467483734933994
309,0.22590335764937836,0.21650465144448705
310,0.2347770050930367,0.2030877559177501
311,0.23406558179800555,0.23681719210689803
312,0.23684329771214158,0.2383257952396006
313,0.23082912748725676,0.22298194659725362
314,0.225761678168099,0.2135265429446146
315,0.22595204828347235,0.21366120204505906
316,0.22812741221212368,0.12997755017234475
317,0.2217001568951862,0.20450732945784303
318,0.23232479770180228,0.24016611921382686
319,0.22724698772199814,0.21651808852837043
320,0.22626678125082636,0.2156124511923297
321,0.22703724945013184,0.2520239102671065
322,0.23664583163938935,0.2465006606307854
323,0.22746134717627872,0.21774869902028562
324,0.23549016967689773,0.14561712390198517
325,0.23559390107611958,0.23843799800786242
326,0.23159650254616443,0.22879779831621716
327,0.23099021425397753,0.2109844053977102
328,0.23190915320726702,0.15009855248486798
329,0.22156227421429422,0.22412910182455345
330,0.22006760731780176,0.23579893432316482
331,0.23546287934664342,0.2285763896301965
332,0.2299234644918562,0.24889109879379304
333,0.2346600370346118,0.22165264431519496
334,0.23682827569788498,0.1878299689377587
335,0.2273985383262356,0.23116099939114856
336,0.2328129854086015,0.14269496810393908
337,0.23086891552026895,0.11535652105320883
338,0.22076888253196156,0.23957993451214815
339,0.22998618830343803,0.23146832684362226
340,0.22693658776158432,0.2251038818304804
341,0.2200570328624176,0.17251708130951274
342,0.23421594714946883,0.23838726445832586
343,0.2338911131512728,0.22175112866517965
344,0.22889149139265266,0.24658752793200672
345,0.22684173472374558,0.19831814456381192
346,0.231427746937334,0.22773834245592567
347,0.22802690245943674,0.20730187451641863
348,0.2350044394050428,0.1313260926467373
349,0.23115653583376433,0.21465335257098536
350,0.23046132113090712,0.21492268673152368
351,0.23483173459541978,0.23195077088421126
352,0.23436837439699995,0.2312872487090193
353,0.2310967847293944,0.2193507488402402
354,0.23336299256883936,0.2313293342102957
355,0.22580940729315332,0.22822610978639868
356,0.2367062997296274,0.20977464444117933
357,0.23437533494260768,0.22935496924567053
358,0.23537349549652956,0.24900724428934476
359,0.23311526254772377,0.21943530516776874
360,0.23367317665002044,0.22793543717479178
361,0.2238419671817649,0.23196342028824476
362,0.23225381787863375,0.20395930141986782
363,0.23439088370874345,0.23103027551448901
364,0.22478321436747944,0.22719724348142756
365,0.23064190491164427,0.18198609080433187
366,0.21332886233794793,0.14008903100604417
367,0.22608283395282655,0.1754979981313847
368,0.2338877317490433,0.22320181345412746
369,0.23137520036870818,0.24862143104482845
370,0.23772862843936868,0.22172346625303602
371,0.23475444754012387,0.2373812208988578
372,0.24032021883866198,0.2399859953180673
373,0.23372111986759755,0.1938877095128009
374,0.22718111551899037,0.23364028767421666
375,0.22510870622335483,0.22172032028507227
376,0.22910277301566206,0.19817684528483306
377,0.23148473277152012,0.21844512092474416
378,0.23288110820509547,0.2303051493632671
379,0.22882375887615217,0.1837734515825029
380,0.21873973980009984,0.1695564621272949
381,0.23197121221384556,0.18394632278790884
382,0.23661493179466514,0.22701452390218027
383,0.23021384481367446,0.2004990116784962
384,0.23465755428198717,0.2241789721769899
385,0.23581502741451363,0.2281306851728751
386,0.22834259516698754,0.213087865884321
387,0.22669087667807306,0.1474959371168969
388,0.22839904628056798,0.2412173975826533
389,0.2271755343611292,0.21099070331997635
390,0.23014564587653494,0.18406394696790776
391,0.23730234332757888,0.2105149601680986
392,0.23152854000564388,0.21840064188769792
393,0.23299416468786202,0.23751517308209952
394,0.2362225650192546,0.17795791317603676
395,0.23355851685710186,0.23990218481306214
396,0.2346261377981622,0.22925686223495637
397,0.22305391931669605,0.18004950798677477
398,0.23222862350509513,0.22672024785578487
399,0.2336344740969195,0.22285461439894425
400,0.22975440807551217,0.20741887376500381
401,0.2252860781249049,0.26451669965048147
402,0.23522415657123502,0.18001327775977405
403,0.2334004247324358,0.21277197058170727
404,0.23628143134186688,0.23349901940894108
405,0.226686009906417,0.214877696915132
406,0.2334059563865193,0.23325231859508988
407,0.22603562793774093,0.2121276350805114
408,0.2367338745904674,0.23699522407721044
409,0.2398741835003181,0.2280157447425794
410,0.23449348516875415,0.20629351008051292
411,0.2182199652228567,0.2496461944379671
412,0.216078037263559,0.2415563906965617
413,0.22929310787031404,0.2160661533510205
414,0.2318307647435404,0.2449291336461137
415,0.23144067438553087,0.24134022670179817
416,0.2279685036771351,0.2078358006576148
417,0.22791646585332975,0.2108083594452234
418,0.22841088023248146,0.21094839820592726
419,0.21786922002307993,0.23187329164384948
420,0.22360938930397126,0.17946371197371194
421,0.2245798950745381,0.17078327103543678
422,0.22224541506368956,0.16818907005446299
423,0.22066213780765434,0.23162301094069102
424,0.22336185490973084,0.2149167565986126
425,0.21266079292618495,0.2304314772209598
426,0.21524918492106224,0.20945795455502073
427,0.22752726062250841,0.2190065184092089
428,0.23765429303192978,0.22378634325660113
429,0.2167919597489466,0.2468755327417988
430,0.21769347965872163,0.14858194985136614
431,0.21608694566847036,0.22371725980324733
432,0.21854470299183132,0.2460195965765025
433,0.21055469864742649,0.21482144005673084
434,0.22101809826495644,0.23977621531241883
435,0.22536604657626266,0.24698890122307882
436,0.2327828168642702,0.22587046041296707
437,0.22771989981488264,0.23117792642812796
438,0.2300812592692703,0.2258573480850143
439,0.23066986178596624,0.23336227608649113
440,0.22740066731028516,0.17613722361630121
441,0.22661455400246416,0.2604628796288604
442,0.23590772251168982,0.22921638343639042
443,0.24101116585669566,0.23746149350125298
444,0.2100643576990119,0.1211665216965664
445,0.21171450160807082,0.23576932508077975
446,0.22135574719031081,0.2408368007559991
447,0.2198767253934003,0.19078033920245183
448,0.22405965897819693,0.22247648755442748
449,0.22209225383570058,0.21213132499378312
450,0.23002318867879043,0.22221780901785054
451,0.2177303687160869,0.2205069549646355
452,0.22681200011766595,0.18672302328844004
453,0.22244107806615881,0.13397499298546006
454,0.2233930094827184,0.14853552455448596
455,0.2293936731837255,0.22874141849677396
456,0.2348395222775656,0.22239537741738977
457,0.2296660480965718,0.2303293058509044
458,0.22407078961555144,0.2362524244901978
459,0.23295585064591168,0.1161339509858799
460,0.23432676064120017,0.21733024749308003
461,0.2327535063099804,0.2313941232830686
462,0.23511058391689016,0.20888291053538635
463,0.21175247695830038,0.2423048397995114
464,0.21519285010145628,0.24400429533472565
465,0.23314254682400912,0.18316832438828726
466,0.22093033860865638,0.21032565708647774
467,0.20349066828687987,0.23857012060606866
468,0.20305596099947568,0.10247565871773504
469,0.1980870172089572,0.23240099289846308
470,0.21171606921380182,0.17721065991773507
471,0.20435764638485193,0.23195329015661434
472,0.21417761367144916,0.23818617131217032
473,0.20845595059944666,0.13044082528037543
474,0.21970873151263365,0.20679068741783346
475,0.23150678634119454,0.17712285424323185
476,0.2190490641879092,0.10333447190091284
477,0.21164299240358156,0.19568483814914675
478,0.227844856432278,0.2339986067709249
479,0.21488592355585784,0.24518716582277203
480,0.2146441372815701,0.24600738279915457
481,0.22336644201065234,0.23733901313043712
482,0.23385846308119101,0.2527300127044661
483,0.22671246038471385,0.22239408647346046
484,0.2234242924576183,0.20234970924839224
485,0.22355647095375591,0.19337847190243856
486,0.2187057307375659,0.1984236580984933
487,0.21548941709714636,0.15281478196805917
488,0.21835038816328528,0.2215225378194002
489,0.23525346571104608,0.24655953461294017
490,0.22423153171698443,0.2224924749949831
491,0.22302426309656087,0.23821758822888583
492,0.22426887622161162,0.23304998211345054
493,0.23447995290136356,0.23750071165217315
494,0.22275105182477514,0.20814731473657402
495,0.23059161805765901,0.2339216240791232
496,0.2158441902916256,0.1468889682414782
497,0.2267571848204477,0.19583166025479007
498,0.21963207452274341,0.21727096122978423
499,0.22018117938551018,0.2083510715329186
500,0.21919496496804328,0.16354005525642806
501,0.19728266333730862,0.1364415574762985
502,0.20526186599255467,0.1806137932386564
503,0.20465732639511044,0.1455326527063077
504,0.20542151762319982,0.23269681404355763
505,0.19267013590696522,0.2700126660604033
506,0.19102052426178584,0.23773178741653414
507,0.20620650642638583,0.14134365190834913
508,0.2086093850302801,0.23501188930744435
509,0.21965616445937794,0.21491983372956255
510,0.2071880728935452,0.23918641448585462
511,0.2218484924190479,0.1492601112472136
512,0.20859917982233514,0.22380211663556646
513,0.2038075320071263,0.24725420750683466
514,0.21054345601909072,0.2344850347139935
515,0.22999458460749198,0.20543304079851016
516,0.23002992159456945,0.22642546260601532
517,0.23342098124462257,0.21459079061612052
518,0.2263314455336661,0.19026414279685588
519,0.22714718641470566,0.21810423784493083
520,0.20942364592584584,0.22891944709168519
521,0.20966798963425734,0.13955170233111355
522,0.2022633228263409,0.2539667661442188
523,0.21893773322030127,0.2428151686406079
524,0.2246195271426587,0.23633350239039033
525,0.22371628236094063,0.23447750598168693
526,0.21006206669312397,0.22601030652882456
527,0.1997600855063096,0.2306490234248546
528,0.20793697088778162,0.22628017200337872
529,0.21464036280910173,0.2522502593996022
530,0.22357460862691167,0.12846658851042825
531,0.2229097555611107,0.23226519594676118
532,0.22209322113665841,0.236084107947613
533,0.2319499767816467,0.2344923086093934
534,0.22968652097286463,0.22853015427901788
535,0.22444530826309125,0.23299306869836142
536,0.21753861621427212,0.13404672728129607
537,0.20771935673580944,0.16711756134230787
538,0.20649213882253992,0.14304666753914191
539,0.2108979973849728,0.19866012401390754
540,0.2119242183024363,0.12831805074247865
541,0.2201664410829306,0.10796839752085301
542,0.2145820452059678,0.17099530218667464
543,0.21344975073286573,0.13418918145907235
544,0.20561498437794468,0.21973265788643587
545,0.21087047123282457,0.14025611433934865
546,0.21509885287685074,0.2580667713446794
547,0.19267847874372315,0.17980972694522673
548,0.2071661189001956,0.23029870006543215
549,0.20672621770049457,0.18821646955272958
550,0.21916562209514787,0.14195556806337203
551,0.21135982186745683,0.10762387166577432
552,0.2240762510578886,0.2357921819801677
553,0.2421400428181596,0.22194666734763555
554,0.23016395063685188,0.2048834286036224
555,0.22464407670150083,0.22127052953418258
556,0.22446820315578098,0.19974409607139834
557,0.22554459442480576,0.19495340138556172
558,0.2235994462927373,0.21656223692899626
559,0.22498142993826564,0.21999355029805778
560,0.2260820827931523,0.20664706138192712
561,0.22152186258376647,0.20331988299608042
562,0.21881904708538696,0.1997835357286089
563,0.21748419808779212,0.2151303133018015
564,0.2289579200813715,0.23473511462194674
565,0.2283875981299616,0.20833208560708383
566,0.22815468519044627,0.2425190151655119
567,0.2402131909208237,0.24569531918842208
568,0.24015623908772837,0.2093767636318139
