epoch,loss,val_loss
0,0.5069954816812406,0.5001233805202077
1,0.5001870402374944,0.5003829942151867
2,0.5001835281544326,0.5001358598988346
3,0.5001294517325878,0.5002028062976619
4,0.5001107539446039,0.5000377372831624
5,0.5001066400456051,0.500095894880981
6,0.5000860551613626,0.5002110134283307
7,0.5000856004090264,0.5000361814984021
8,0.5000801449207853,0.5000316024122404
9,0.5001000813157062,0.5000742944830996
10,0.5000681169028854,0.5000279283701042
11,0.5000689639970511,0.5001402585145558
12,0.500072493822436,0.5000204312594297
13,0.5000687526021472,0.5000884724609905
14,0.5000690331686038,0.5001637098511159
15,0.5000687435605988,0.5000328393491267
16,0.5000616496573326,0.5002319598907868
17,0.500059457827289,0.5000542074220057
18,0.5000657854060827,0.500142213961031
19,0.5000541882768893,0.5000413361021662
20,0.5000577629936961,0.5000237110234963
21,0.5000582729419164,0.5000506354916481
22,0.5000628484418574,0.5000229181190282
23,0.5000528319878341,0.5000189346060268
24,0.5000485801267339,0.5000726120051912
25,0.5000613863354484,0.5000550624454584
26,0.5000453281676469,0.5000525739293536
27,0.5000471037598894,0.5000284073666367
28,0.5000483386277809,0.5000225121566735
29,0.5000534236973047,0.5000554393893731
30,0.5000479908563201,0.5000276408479468
31,0.5000617773741339,0.5000219541507087
32,0.5000343080938633,0.5000382039150588
33,0.5000447455620423,0.5000542962225731
34,0.5000459129890699,0.5000335122456325
35,0.5000421232053641,0.5000235344280972
36,0.5000458626152923,0.5000330757562339
37,0.5000500052047602,0.5000175939304361
38,0.5000390921631258,0.5000234331741522
39,0.5000422340688517,0.500021873100224
40,0.5000405974988957,0.5000302483958583
41,0.5000420115664584,0.5000330417978557
42,0.5000405437899527,0.5000672068844362
43,0.5000391061245955,0.5000275181185815
44,0.5000367769714011,0.5000207775579788
45,0.500039122101521,0.500046122192449
46,0.5000400975088422,0.5000196436794461
47,0.5000376736158079,0.5000158012061202
48,0.5000362559377787,0.5000175885172103
49,0.500034487855969,0.5000764227090935
50,0.5000371095492426,0.5000389860818167
51,0.500035780039326,0.5000199873453335
52,0.5000341875814296,0.5000184561715233
53,0.5000373171199076,0.5000532236643523
54,0.5000350906539971,0.5000377657395735
55,0.5000345212028908,0.5000207265316701
56,0.5000352965255263,0.5000533031766528
57,0.5000334294363163,0.5001584167220161
58,0.5000350486867612,0.500020460484933
59,0.5000338153192209,0.5000277302401237
60,0.5000342610962702,0.5000178654791404
61,0.5000362851117994,0.5000165471663842
62,0.5000329189516929,0.5000359109554338
63,0.5000351210664781,0.5000311618111566
64,0.5000329967143731,0.5000365572886787
65,0.5000345722085198,0.5000222149617027
66,0.5000318834743184,0.5000778063651055
67,0.5000330723196084,0.500021814116769
