epoch,loss,val_loss
0,0.5060394109869153,0.5002910710150196
1,0.5002088173156024,0.5000881439994641
2,0.5001973193318543,0.5000884361065943
3,0.49060372245592404,0.45017929834408443
4,0.45012170747623564,0.4500738114932039
5,0.450135866817115,0.4501584914274902
6,0.4501530586295893,0.4500663956844481
7,0.45010426681056326,0.4500606410852437
8,0.45044142227121986,0.45002066657205964
9,0.45002554531126504,0.4500195968683541
10,0.4500743631115299,0.4500708296932003
11,0.45008008287889817,0.45003215521204265
12,0.4500734308716467,0.4500240432121618
13,0.45008660429998587,0.45002554260175814
14,0.45006211470726826,0.4500325272308094
15,0.4500696301362451,0.450157076904259
16,0.4500598551310844,0.45017518491366365
17,0.45006404591755855,0.4500493675840108
18,0.4500599629362852,0.4500579139878673
19,0.4500528157196732,0.4500276609922461
20,0.45005754396948283,0.45010700344151955
21,0.4500508319888094,0.4500674065526011
22,0.4500494700343904,0.45006880224786383
23,0.450047992466555,0.45003250835847025
24,0.4500477991295054,0.4500196063784748
25,0.45004654656977594,0.4500490549480353
26,0.45004766731040324,0.45002393207834024
27,0.4500456049728131,0.45002564975700665
28,0.45004377697003867,0.4500254054075435
29,0.45004330982678975,0.45003876903512635
