epoch,loss,val_loss
0,0.5082057516908155,0.5001036852228434
1,0.5002047085566079,0.5037885270994296
2,0.5001795243016953,0.5000372368703705
3,0.5001535654916772,0.500109778621948
4,0.5001198478096621,0.5000524490406141
5,0.5001198787238378,0.5001016424252437
6,0.5001108506399489,0.5000600447134108
7,0.500093344317742,0.5000524853950102
8,0.5001016775323687,0.5000410805860761
9,0.5002022224857714,0.5000202272429359
10,0.5000359697453995,0.5000501505494414
11,0.5001295720486032,0.5000357903558622
12,0.5000438835495583,0.5000450223018751
13,0.5000622758220284,0.5000742251169001
14,0.50006253950914,0.5000263243987602
15,0.50006648344249,0.5001971140097152
16,0.5000567138285753,0.5001444395363479
17,0.5000590115911416,0.500031801932503
18,0.5000594607759287,0.5000856309315703
19,0.50005599971585,0.5000363048193768
20,0.5000608442708783,0.500089557117623
21,0.500054833093427,0.5000237230627471
22,0.5000554553439576,0.5000571654984732
23,0.5000536878245824,0.500026880896121
24,0.5000531323956856,0.5000447589469607
25,0.5000505579350759,0.5000394818800554
26,0.5000506008702039,0.5000370367880791
27,0.5000493481369322,0.5000272798774852
28,0.500054137966218,0.500037976677897
29,0.500064468790351,0.5001861749748439
