epoch,loss,val_loss
0,0.7054219520146755,0.7000445070396878
1,0.7001229705088422,0.7004486360561759
2,0.7000903332011452,0.7000342861594396
3,0.7000837670112984,0.7000204637979456
4,0.7000720758940183,0.7000310516830709
5,0.7000649877168558,0.7000139008088976
6,0.7000557727848177,0.7000591978541675
7,0.7000586007519227,0.7000166641275581
8,0.7000437899304853,0.7000338304427363
9,0.7000477908211727,0.7000413220514434
10,0.7000490864974608,0.7000330942736074
11,0.7000417243192584,0.7000153327698152
12,0.577013791256658,0.5501177562081784
13,0.5500486184568409,0.5500229299216354
14,0.5500513003006284,0.5500178207534714
15,0.5500531685005083,0.5500210091138892
16,0.5501308113475002,0.5500192064505357
17,0.5500221585074466,0.5500325837738756
18,0.5500452713784876,0.5501474205968397
19,0.5500443651632287,0.5500221935454432
20,0.5500424682642027,0.550109266081164
21,0.5500414216454191,0.5500224060219512
22,0.5500396993590285,0.5500286777025417
23,0.5500401191954637,0.5500284435435501
24,0.5500385930133319,0.5500237832885818
25,0.5500392076721802,0.5500566950506963
26,0.5500389290115324,0.5500281481825684
27,0.5500363266224616,0.5500197403188379
28,0.5500362056327869,0.5500177579837164
29,0.5500367969880735,0.5500310845469718
30,0.5500351919499457,0.5500665663785438
31,0.5500322970476157,0.5500326990489628
32,0.5500365769973091,0.5500538324304017
33,0.5500349905092643,0.5500151859323676
34,0.5500348199606715,0.5500242998818902
35,0.5500337068278973,0.5500218114545269
36,0.5500343133910022,0.5500515313361478
37,0.5500335793887636,0.550054597144683
38,0.5500355941552826,0.5500240205239422
39,0.5500338157627,0.5500282605587696
40,0.5500327528057077,0.5500174350833182
41,0.5500330142067954,0.5500207433629568
42,0.550034253012517,0.5500319517871582
43,0.5500342445696892,0.550024931898188
44,0.550032633395267,0.5500205763516296
45,0.5500319851717804,0.5500179415896868
46,0.5500324148504246,0.5501664969228929
47,0.5500314157853581,0.5500207343113334
48,0.5500315617248788,0.5500483484481168
49,0.5500313537613774,0.5500465405490204
50,0.5500330721478015,0.5500185383460657
51,0.5500302387259497,0.5500270066722747
52,0.5500319939822021,0.550048437100782
53,0.5500331639555672,0.5501267973010061
