epoch,loss,val_loss
0,0.3108282188872258,0.29665206431542784
1,0.3004899302439438,0.29492701354841594
2,0.2939046679092921,0.29218692035541444
3,0.29186917149382147,0.29069347983048294
4,0.29114480947347565,0.2908786796474419
5,0.2913484967631592,0.2928375493449871
6,0.29161951778461037,0.29132215194139505
7,0.2918584574636319,0.291429041146103
8,0.29183203790732903,0.29187336121851193
9,0.2912169656545805,0.286843636888355
10,0.28574119123528235,0.28475765580489304
11,0.2865070565272388,0.2875327904838789
12,0.2881079990860465,0.2882060581949064
13,0.2884932559647625,0.28828452745101163
14,0.28787322727133996,0.2871118344795826
15,0.28745101336285556,0.28742671849084067
16,0.28752440338631235,0.2872512652564444
17,0.2876605799348711,0.28717758656488973
18,0.29114349505050385,0.2902266595339154
19,0.28948591031926235,0.2887760350317492
20,0.28817677896895666,0.28784495371010893
21,0.28821394053532734,0.28816981053813384
22,0.2884411770496056,0.2882017642847647
23,0.2887271245201524,0.28937841110937035
24,0.28884932374377714,0.2890697909370594
25,0.2888115507890757,0.28829508424746114
26,0.29729836399582843,0.30000914053457783
27,0.2961967984477965,0.2909016714217443
28,0.2887642257612386,0.2876750723809451
29,0.28794734630224517,0.2868722402494351
30,0.2876329044822595,0.28674703210756924
31,0.2873280689858799,0.2865527453225903
32,0.2860256246954417,0.28597401619992485
33,0.28579533665919665,0.2852866599055473
34,0.29272063524364755,0.292131742308153
35,0.2925522748848422,0.29274623230064395
36,0.29257356563655973,0.29206457990497325
37,0.29237369109067224,0.2916886911866415
38,0.29185226003972176,0.29251012817648514
39,0.2923601845757281,0.2921685638654486
40,0.29215111013510814,0.29160221347963144
41,0.29216795995962513,0.29174173298132355
42,0.29211235332260316,0.29190088787366764
43,0.29210605942826573,0.29196197550740877
44,0.29208516695802444,0.2922308552001721
45,0.292181673721015,0.2918250578637187
46,0.2919202677065806,0.29057722235864414
47,0.29022199761190953,0.2878706357849802
48,0.2793201638235272,0.2758628622156104
49,0.2758756746336234,0.27632017637108286
50,0.2769921671488969,0.27737440533447943
51,0.27806858290775976,0.27670677922424974
52,0.27476065992999327,0.2699144166536282
53,0.2698646526244714,0.26863061052753684
54,0.2696599497331037,0.2698796931433696
55,0.2710674862585051,0.2712577957874598
56,0.25965695891329804,0.2540309648099337
57,0.2518617995798016,0.24960387125317282
58,0.24763549429228265,0.24681756917707734
59,0.24748874565870832,0.24771737231451785
60,0.2472613396571218,0.2463816949052423
61,0.24676865103731244,0.24759808898960028
62,0.246691246538592,0.24616156481412235
63,0.2471334946682032,0.24655473879711215
64,0.24772113695335712,0.24741368068657058
65,0.2479269112572729,0.24679067950245895
66,0.24804996384038247,0.24587491626285998
67,0.2482396813331367,0.24884875118732452
68,0.24841795059190475,0.2481764904219707
69,0.24842954265306608,0.24768868549164583
70,0.24937820760942667,0.25141308104417975
71,0.2511761509161964,0.2516202382572824
72,0.2592893545951346,0.2602151952678045
73,0.26283580544505186,0.2619360355864666
74,0.2665426044804539,0.2676784249041715
75,0.26324562376720917,0.2565816274734586
76,0.25643226264013375,0.25520415420055204
77,0.2553326597006963,0.25477993945225824
78,0.254031880108787,0.25382393229261757
79,0.2556707723457798,0.2570602306544828
80,0.257882710587945,0.258778176278511
81,0.2613174374268162,0.2569012062678491
82,0.2571294002211113,0.25831921827915433
83,0.25814694552708395,0.2598871758123882
84,0.2593629414753186,0.2561619072717386
85,0.2622189149975205,0.2670277301354397
86,0.2695025535796186,0.27144457986718007
87,0.2731935204349929,0.27115846376486813
88,0.2721166491008205,0.27006033450459155
89,0.26641762577336753,0.260765046357591
90,0.27361494672598596,0.27999081142134996
91,0.2813278394375297,0.28199674306700523
92,0.28061129351695185,0.2816157539763974
93,0.28180814489162415,0.2821693020889678
94,0.2815339328716699,0.28026986510243673
95,0.28177907336339486,0.28248889250320625
96,0.2825751064075745,0.28249569251345386
97,0.2848395221084237,0.2830855325511241
98,0.28104699368504504,0.2795307224861919
99,0.2800027913719916,0.280469533358866
100,0.28145153367881487,0.28248326300445653
101,0.28372402264655444,0.28526288307409353
102,0.2864864134578873,0.2876942023317364
103,0.28711880492768604,0.2874274264312487
104,0.2875835350591788,0.28598116926302003
105,0.28456107943916586,0.28267066265385077
106,0.28515665006818625,0.28758990953969693
107,0.28723747155768314,0.28859885133385377
108,0.288106624302056,0.2880173431505062
109,0.28684961975073453,0.2859624449131333
110,0.28631637530099097,0.285749438706118
111,0.2854928018199168,0.2834895059360513
112,0.28504587163170464,0.28499679948367185
113,0.285508443084028,0.2844048179127423
114,0.2857866785961756,0.2852893426438063
115,0.28656048043597515,0.2877660173078927
116,0.28681150209203327,0.28805064751627696
