epoch,loss,val_loss
0,0.12472943820172458,0.06706122597995572
1,0.04513262960461261,0.041158792604681256
2,0.04169495031982065,0.04125469868918903
3,0.04206548500314748,0.041677420322313585
4,0.04258622008068361,0.04187910254359622
5,0.04321196096704351,0.04282202965329271
6,0.04353292504821321,0.04349512730055469
7,0.0441585615780547,0.0436871666769955
8,0.04428399498347375,0.04366248763874232
9,0.044437920058266724,0.04458990397303708
10,0.04460392443300913,0.04471776320730596
11,0.04467107008079545,0.04399603627616247
12,0.045022987552898394,0.045314824324756885
13,0.04487504731330702,0.04392937321771574
14,0.04236049649657772,0.04246970952356906
15,0.040586138505199786,0.04135484363069286
16,0.04243270796891168,0.04328447759398439
17,0.04265582707705353,0.04331197684899784
18,0.04262089165750977,0.043785671044167515
19,0.042676327663729134,0.04416314358422393
20,0.04260038564816939,0.04171118668288627
21,0.042950753886386646,0.043050979132504566
22,0.04337981458958819,0.04459516831395093
23,0.04420332586784347,0.04468544653742541
24,0.04467651911889859,0.0452860545516955
25,0.04474974854839601,0.045478567134092054
26,0.04545060264692604,0.04417880992063313
27,0.04438410103350854,0.043637335717960336
28,0.04432757701024973,0.0436109540941401
29,0.04399714105688839,0.04338696006547304
30,0.044009366185128164,0.043570993893030784
31,0.04395474233537269,0.04356260992286708
32,0.04381666741639876,0.04370434587819894
33,0.043877176112598844,0.04352381681669106
34,0.043660041674387924,0.04346156708643299
35,0.043456486581886514,0.042818575003717295
36,0.042970722374453436,0.04243663425580102
37,0.0424589233995556,0.04215932822982533
38,0.0418202750992289,0.040639801078785474
39,0.03388760283013893,0.009155115274743317
40,0.00843609041488952,0.0069665415576367325
41,0.006421766345028867,0.005653225552348012
42,0.002962487851866701,5.6538361026333964e-05
43,0.00022193083868936734,9.763855645835515e-05
44,0.00021708791481480982,0.00013913666916548603
45,0.00021782169302368029,4.339556485747028e-05
46,0.00019784393333089083,9.853852186083717e-05
47,0.0002134075459969399,3.108507458939672e-05
48,0.00024137746545896863,0.00013086158821546534
49,0.0001908854083386969,9.013441293468665e-05
50,0.0001799964761084521,0.0003577387228454871
51,0.00022276795993621213,0.00017505087674266108
52,0.00017655656073494304,2.5735680892373598e-05
53,0.00018119452467652358,2.234714932419363e-05
54,0.00017175917474374148,0.00012177115245799416
55,0.00022450966924015834,4.289146164247392e-05
56,0.00020643987136154566,0.00014928847688434744
57,0.00016073498921931816,0.00010498717838933952
58,0.00017969943272525693,2.6404491525476506e-05
59,0.00020096361004379797,9.775805701591713e-05
60,0.00017232498095667823,0.00011747767441742852
61,0.0001632530640187479,3.713976824966233e-05
62,0.00019781018470390376,4.943055452821845e-05
63,0.00018753728351267367,6.358602651755635e-05
64,0.00020401459178890372,0.0001068623605878063
65,0.00015285440676863878,4.523062243958284e-06
66,0.0001715515817894332,0.0001043879241114203
67,0.00014600078206900488,2.8526923583456883e-05
68,0.00019886767000766692,0.0001461927543064225
69,0.00014605286497758219,4.072808215108218e-05
70,0.0001867462776977681,2.351316618611823e-05
71,0.00016711957542072626,1.9001885947845153e-05
72,0.00015556650338822305,4.42849770874896e-06
73,0.00016400465487037628,5.079473011813478e-05
74,0.00014000480430166194,0.00014136335291075003
75,0.00019214823029526726,2.179073661330745e-05
76,0.00013588474053667057,6.242000879351404e-05
77,0.0001789503920586041,0.00019733743750745316
78,0.00014430770450338668,8.187147325224367e-05
79,0.00012215448682843788,1.6856164241533008e-05
80,0.00018088043528326588,1.1578130528183837e-05
81,0.00014886072422035836,2.0537147855241146e-05
82,0.0001681219220736573,2.6147589127627503e-05
83,0.0001537975140711429,4.246683706621413e-05
84,0.00014755733649327303,0.000323682058638957
85,0.00016952556168369377,5.4245900617176064e-05
86,0.00016815362825926147,0.000361660046898227
87,0.00020750291228697684,2.7209757586719503e-05
88,0.0001503827069688278,3.145564020322926e-05
89,0.00015935358796512775,7.865174283042341e-05
90,0.00014670271278080415,2.9831947881916586e-05
91,0.0001494107893579245,1.880871104910799e-05
92,0.00014641483995936921,2.3395542493981756e-05
93,0.00016946131295899678,7.431447707771176e-05
94,0.0001458168123413492,4.955803556799603e-05
95,0.00017188480241628372,5.093851678853306e-05
96,0.0001984130711459673,3.455167865935984e-05
97,0.00015485435109975087,6.48770456183676e-05
98,0.00015871739241984258,0.000281726020848086
99,0.00016163896896804938,2.513829019709381e-05
100,0.00013725035457244755,4.5404601788643346e-05
101,0.00015225798170200283,5.4102531240462094e-05
102,0.00013488890692515474,6.301662791139044e-05
103,0.0001606405019417967,2.6982581193382734e-05
104,0.00016249788843828214,1.8720015203433707e-05
105,0.00015948443954713626,9.306595162248248e-06
106,0.00016058339202644798,4.308595397048751e-05
107,0.00016530878157163063,1.857934222224403e-05
108,0.0001605113455419535,6.756509352033357e-05
109,0.0001659838084700384,9.699040717674469e-05
110,0.00012382719397193285,3.1383273412868524e-06
111,0.00013465329409922166,1.9728444503416196e-05
112,0.0001618000230891914,7.747078849571105e-05
113,0.00016647749952517844,1.3913231627359503e-05
114,0.00015432502609245022,2.0217459616217752e-05
115,0.00015740818540595794,8.99681143825181e-06
116,0.00015961707562418058,6.812383093054431e-05
117,0.00016035284509909004,2.3600352361034557e-05
118,0.00014040578418748109,3.658070533653801e-05
119,0.00016008901313249708,6.728447006858504e-05
120,0.00017267352043361767,3.8012652910100898e-06
121,0.00015942179464459866,0.00018007964340831362
122,0.00017820150124937877,1.6616987058428012e-05
123,0.0001604286423558198,7.80006406291236e-06
124,0.00015510874652082245,0.00014562550397411917
125,0.00013345216223669478,1.8349902598359975e-05
126,0.00016341126761609955,4.585753284056521e-05
127,0.00012558278870556546,4.147484389606212e-05
128,0.0001760681022672737,5.195028382352474e-05
129,0.00015796304449736725,1.0380731781999027e-05
130,0.00013695006846595566,1.797070175154871e-05
131,0.0001271913766454785,0.00010337508310890597
132,0.00014472110862736706,0.00011985695092401695
133,0.0001371079844594176,4.06263467054351e-05
134,0.0001573605517654546,0.00012365155455594054
135,0.0001409924300302034,4.3225761806148004e-05
136,0.00015263560798368182,6.988826706165142e-05
137,0.00014460368472335352,1.1269623702446193e-05
138,0.00014571761576619304,8.955581609104395e-05
139,0.0001700939336723336,8.72925641695563e-05
140,0.00016288847945511106,1.9885013688994454e-05
141,0.00015344533895465524,4.365824557377827e-05
142,0.00017177594964936415,2.3689639820450263e-05
143,0.0001357916277356526,0.00042559658518541036
144,0.00013870626076636984,3.578021849193018e-05
145,0.00016640979893711502,5.151880626283158e-05
146,0.00014051574321843563,1.8872719542601857e-05
147,0.00014030868516583337,2.2319694008515933e-05
148,0.00013868049336283682,1.169624134912818e-05
149,0.000128669777121676,1.3325398285728886e-05
150,0.00012472887870284232,0.00011322928186257582
151,0.0001566537301201231,0.00015018818720909837
152,0.00017827139311129889,1.2802955145245101e-05
153,0.00016281723480297426,1.7581559694075798e-05
154,0.00012558593195883164,4.2712674287358735e-06
155,0.0001590887343320928,4.458229200414293e-05
156,0.00013469770074801482,5.555887830897879e-06
157,0.00014743275146616574,2.729879423951182e-05
158,0.00014126250055615476,4.705722330307335e-05
159,0.00015450641250473206,4.288357840225458e-06
160,0.00015924058444418898,0.00016363506862019346
161,0.0001711536111958898,3.564578747409326e-05
162,0.0001793083411383749,3.3067583857185405e-05
163,0.00013844791519408974,1.7878231434667912e-05
164,0.00016058898758145834,6.577140763188817e-05
165,0.00014094233559329533,1.057360759623895e-05
166,0.00013607991058220843,6.235691129283989e-05
167,0.00013890276869079149,2.459471983637645e-06
168,0.0001519303160577749,5.3899508518295106e-05
169,0.00013477001889515973,0.00022060094307657866
170,0.0001470527329471976,2.017839211122629e-06
171,0.00014586571378429676,8.955723764203032e-05
172,0.00016289277534119295,2.2563444169026606e-05
173,0.0001446340071403046,2.0967739158929838e-05
174,0.00013221602268053862,4.0616177007020835e-05
175,0.00015244557583883738,0.00018218028070925182
176,0.00012453053876673967,1.662743025273838e-05
177,0.00016696770580602112,0.00010360881413365093
178,0.00013439903178226345,8.249239362205917e-06
179,0.00017069979408573547,0.0003787197745116626
180,0.00013080716270132218,0.00021869253825266562
181,0.0001325841943787482,2.1636134638209298e-05
182,0.00013883280394465773,1.9411529068957377e-05
183,0.00012897091268522325,5.1377683480161966e-05
184,0.00014404302037115626,0.00017694274090874012
185,0.00014587759801520424,0.00010400861890816763
186,0.00013648498677404865,5.309022911822448e-05
187,0.00014965667218903319,4.8849102057848825e-05
188,0.00015461566199441286,9.354451491405391e-06
189,0.00013280763845515038,4.8335379530145915e-05
190,0.00013219199383510707,5.701758314524344e-05
191,0.0001327653403091986,5.024561719907951e-06
192,0.0001496044548045577,4.576305233724669e-05
193,0.00018730169091218336,3.280288295143364e-05
194,0.0001195158651997711,6.77450558184183e-05
195,0.00012501508557505553,6.863821712737038e-06
196,0.00014759051685492053,2.0803295915654912e-05
197,0.00014509540659391902,2.7219886016901402e-05
198,0.00014200638031706912,0.00036002864702637787
199,0.00014115390712204375,2.7694667676879858e-05
200,0.0001573776042166808,1.0977060488957103e-05
201,0.0001717109931608067,0.00020991188232853477
202,0.0001602947224429429,0.0001838581310066004
203,0.0001506316494434856,7.906449905355665e-06
204,0.00013759573907088206,9.917037042611322e-06
205,0.00014524991263737994,0.00016437949094380713
206,0.00015565855477470898,0.000664526700400898
207,0.0001474873282994105,6.0374318967439567e-05
208,0.00014357102785676743,1.7016838731860922e-05
209,0.000168005669102996,8.020434653342921e-05
210,0.00012512055130625596,1.247177262532288e-05
211,0.0001224337070438004,3.46356638292692e-05
212,0.00013897915630941082,4.2087105989734396e-05
213,0.00012689105069161368,6.662005817897067e-06
214,0.00014216584380586056,7.942490913469588e-06
215,0.00015249182796079643,0.00016471987084195976
216,0.00014478451927914148,1.6082739770693054e-05
217,0.0001515433617311205,4.7076954301783884e-05
218,0.00013092370030397566,9.956454744410166e-05
219,0.00012832420532590298,2.2333550117945285e-05
220,0.00014840033425878873,3.321624356717545e-05
221,0.00012956344383185546,5.097620836371122e-06
222,0.00012831317956748072,3.5258845309152625e-05
223,0.0001585446910170628,5.684016390058418e-05
224,0.0001350018721822937,1.1055853318440215e-05
225,0.00012875261994873454,1.5426112984163726e-05
226,0.00013782940728466003,3.408758316157627e-05
227,0.0001375553444768484,7.615811771278776e-06
228,0.00010161265135997423,8.01405686000725e-06
229,0.00014076066556854505,0.000455704479600136
230,0.00013805225778047652,6.650714777120508e-05
231,0.00011280782394823458,9.582782912864416e-06
232,0.00013564381710924134,5.69928714750267e-05
233,0.0001315943320823688,0.00011724265322814885
234,0.00013584026798458998,5.4507253207056835e-05
235,0.00014531721103676253,5.02334482855906e-06
236,0.00015409233166207664,7.313977900415442e-05
237,0.00012399828361319527,0.000324753006644938
238,0.00014997296735530893,1.3992864756728064e-05
239,0.00014325059463900005,5.915064672179977e-05
240,0.00012689833218923471,7.335287063592541e-06
241,0.00013837380407231132,0.0001250412360152734
242,0.00012804549576355285,8.261012676725298e-06
243,0.00011739624653373823,7.476596413989833e-06
244,0.0001152976760463618,1.8166344774843185e-05
245,0.00015032639089985897,1.5016417249464948e-05
246,0.00014411853056434958,7.718227960789132e-06
247,0.00011823731518660884,2.5494817301509047e-05
248,0.00015520436095490262,1.9229809334232867e-05
249,0.00012506953109766265,2.118108443204764e-05
250,0.00013308937972062354,6.388109550451998e-05
251,0.0001413770918794961,0.000125929574127384
252,0.0001428984381139,1.2359095612417856e-05
253,0.00013869555522401085,3.7214536136543655e-05
254,0.00011873838898229265,4.986747118522833e-06
255,0.00016631116111777162,5.8919065992335765e-05
256,0.00012362597480961208,4.9125713238187744e-05
257,0.00015099160001043276,3.5803898785105446e-05
258,0.00012229430902359508,0.00017192426418143912
259,0.000131411619055106,0.00012183006685156406
260,0.00013089980459364645,6.812941278738022e-05
261,0.00012492869490724414,2.6462331383717676e-05
262,0.00013481804571736556,9.070422038133275e-05
263,0.00013612383786973468,2.2242668065229237e-05
264,0.0001479336907791356,3.1063746584030536e-05
265,0.00012019282182874055,7.995140583204964e-05
266,0.0001399284267903114,1.5625802300573728e-05
267,0.0001523547739255876,2.98550782014204e-05
268,0.00012979833744709027,0.00019992248758799732
269,0.00013722735401623884,2.2376187538232686e-05
270,0.00012751850785924188,1.6210938383126678e-05
271,0.00011784894436144239,4.212893647789619e-05
272,0.00012071826428035914,6.560130017548876e-06
273,0.000152534428720254,0.000249357662851784
274,0.0001335346347443285,9.211959127726691e-05
275,0.00012563212588292171,6.19951451586895e-06
276,0.0001308954833300906,2.9175168166042548e-05
277,0.0001390697472367929,6.398953675007504e-05
278,0.0001256642984708451,0.00011461745886405564
279,0.0001785709480455741,0.00028424225678213893
280,0.00012765588199407812,1.0087835810455906e-05
281,0.00011598149251019784,0.00012815900461268798
282,0.0001324456676775044,3.9068877953757044e-05
283,0.00012042244787817268,0.00011372889675352144
284,0.0001502658702068945,4.136330816333734e-05
285,0.00012157100256687215,1.0985328505733284e-05
286,0.00013501805742941296,0.00013756613633141506
287,0.00016388844843125602,7.050959918491437e-05
288,0.0001478220518096849,0.00013379049616507103
289,0.00013100739035631516,3.1396825007751176e-06
290,0.00015383971202777448,0.00011553514497903167
291,0.00011771995617826958,1.0399422969845472e-05
292,0.00012236886710974255,7.911150261908999e-06
293,0.0001555062903348404,1.6988236859210912e-05
294,0.0001308030089505052,2.04163513143883e-05
295,0.00013099377881819097,1.5951434268367184e-05
296,0.00011898951828730807,1.8893857100351762e-05
297,0.00015445838374198917,9.262547284369203e-06
298,0.00013823926842161576,4.17638320577996e-06
299,0.00013616499751174324,6.702434395994618e-05
300,0.000120804748812763,0.0001788562239605666
301,0.0001337588331818361,1.766359064915784e-05
302,0.0001226359144688984,7.033815489692416e-05
303,0.00012857641578805363,5.642413829452187e-05
304,0.00015558143519415387,1.344858821823936e-05
305,0.00012378305204130554,4.64256799629989e-06
306,0.0001317160744185816,2.1815141638089543e-05
307,0.00011736548393184776,9.536414698507613e-05
308,0.00012734314549756734,0.000629644050167678
309,0.00012649366407704822,3.1552399459520826e-05
310,0.00013051368589110375,1.448954731759484e-05
311,0.00013657935582809595,4.4357647490439583e-05
312,0.00012749393872708777,1.4492922247132816e-05
313,0.00016839388511318007,0.00016645639175097088
314,0.00011082733543045381,2.361903128039328e-05
315,0.00012750214813449725,1.3779989485635105e-05
316,0.0001077819818062757,5.395514806120023e-06
317,0.00015521058630064256,9.43105952769107e-05
318,0.00015189549196652555,2.0365537800894586e-05
319,0.00014608657697759637,4.685045064667531e-06
320,0.0001085800149699,4.83965491116596e-05
321,0.00016070906396351939,3.325978766395137e-05
322,0.0001345853348574491,0.0002711949431342562
323,0.00013627747802906238,8.137777748202718e-05
324,0.00012322076414541782,8.33465341325567e-06
325,0.00012742372776054997,0.00017611152141839382
326,0.0001275987580259662,1.85381224235239e-05
327,0.00015393500781037126,2.843129981730274e-05
328,0.00011322929843114801,3.732410689842801e-05
329,0.00012946809823683912,8.990778962180354e-05
330,0.00013458013375425764,1.983164458296441e-05
331,0.0001352950715913572,1.8499883410061256e-05
332,0.00014680823385016336,0.00015172410494759648
333,0.00012591755315082597,8.19651036342825e-05
334,0.00013575273029276343,5.959770400282462e-06
335,0.00012710164662230766,1.2055392317044704e-05
336,0.00013326135029242893,0.00010397550359591784
337,0.00012907952923065972,6.657766597051446e-05
338,0.0001484323730854915,8.385061997814242e-05
339,0.00012950098961104353,2.5169847713610275e-05
340,0.00014977089897884639,0.00011226202492976499
341,0.00014502545948228592,5.235932670971845e-06
342,0.00011953974861997152,6.422031762381342e-05
343,0.00012368551543574788,2.2897715793087147e-05
344,0.00014907268290145371,6.941863042253272e-05
345,0.00013618719919417837,7.14382611946512e-06
346,0.00015618604697343024,0.0005266222657039306
347,0.0001438748892784903,0.00012974526814751815
348,0.00012951058294002898,0.0001350144032685155
349,0.0001671278422075685,1.5836437687209523e-05
350,0.00011862496629462077,3.2361776726820457e-06
351,0.00015020525036283148,0.0004897994369131696
352,0.0001497825699090958,2.5473275330156472e-05
353,0.00016057196526846746,6.744942788917485e-05
354,0.00013759282159876685,4.4144194886897306e-05
355,0.00012152412691861457,4.9216738086596796e-05
356,0.0001365493159667165,1.4354624551693215e-05
357,0.00013610776663859742,6.29481800981669e-05
358,0.00013104618060142228,7.972907650853407e-05
359,0.00011455160266978724,1.6609638328316687e-05
360,0.00012728048084887104,1.0756352037180733e-05
361,0.00014192413743122035,0.0001376965131247971
362,0.00014122994287744668,3.1649243747465416e-05
363,0.0001258914845079802,2.2478227267643084e-05
364,0.0001693465181559362,1.956166209719497e-05
365,0.000111871143480943,6.401448811054977e-05
366,0.0001534095685574786,2.7372065158412023e-05
367,0.00014600796778180736,3.0972053036640876e-05
368,0.0001231604974060615,5.137207861820673e-05
369,0.00014432591644930623,3.1650768976899705e-06
370,0.00014396400709935773,0.00021814290308840088
371,0.0001516142099411008,2.7264309198092157e-05
372,0.00013730687441698496,6.0206304785238517e-05
373,0.0001547286348675703,0.0006367973329083319
374,0.000126770209573819,3.7787105488533493e-06
375,0.00013073367339027067,8.815243400926625e-05
376,0.00012080985722930666,4.023333773275671e-05
377,0.00011087207061548737,2.0383625268742193e-05
378,0.00016733159498021446,1.835282100749899e-05
379,0.00015443838745947747,0.00011074400960745057
380,0.00015382250129570768,2.2773708959901006e-05
381,0.00014687692905960607,9.234794633553852e-06
382,0.0001126174229623486,6.68313807373074e-05
383,0.00013248913708900845,8.154204518636417e-05
384,0.0001385240115316045,6.340680371977932e-05
385,0.0001318739176174344,2.4457694698458108e-05
386,0.00015099942551359004,2.678604854357461e-05
387,0.000158582149787372,1.4742651443758773e-05
388,0.00013855680886216653,1.643874597727181e-05
389,0.0001759489523590573,5.565400469494872e-05
390,0.00013332912213237744,0.00015141364518836384
391,0.0001221716517636569,8.701032277339248e-05
392,0.00012624772715676832,2.5645027219735183e-05
393,0.0001424220480494063,7.871745005687339e-05
394,0.00013883940252124152,0.0001283094276972343
395,0.00013465789015436056,1.1228824580558375e-05
396,0.0001244196959881986,2.6802185249372735e-05
397,0.00016416042184408928,0.00020073841445110503
398,0.00013054885997278108,4.90734845430419e-06
399,0.0001396514074509586,7.643994055475213e-05
400,0.0001478840999042165,0.00010321083036421349
401,0.00015952735453278753,8.239350350223219e-05
402,0.0001239185541627564,5.693849350894792e-05
403,0.00014073675161191006,5.8098016375555065e-05
404,0.00013544534232500923,6.861192639273956e-05
405,0.000142063735782583,3.291324595893464e-06
406,0.000131902038893629,6.640063366955058e-05
407,0.00015658127841875215,9.404602886295715e-06
408,0.0001627002418085173,4.39483684313707e-05
409,0.00013232087091893095,8.62341691659368e-05
410,0.00014748957365212393,9.403526602325235e-05
411,0.0001558716027954043,1.8685173243847007e-05
412,0.00014770439764129678,0.0002705307937232335
413,0.0001604663620221543,6.31387971202224e-05
414,0.00012137335588220072,6.457843672871537e-05
415,0.00013226487879260904,9.058874469171789e-05
416,0.00016570367197029807,1.5009368646144711e-05
417,0.00015807251690244553,9.2455066571265e-05
418,0.00011130771488704015,1.5693604473952954e-06
419,0.00014875084029648591,3.111097973631915e-05
420,0.00013935418426255572,6.932331285101395e-06
421,0.00012867194751236933,3.4738960860809055e-05
422,0.000136427335995387,5.600906419219758e-06
423,0.0001265812810679432,2.2838704279552626e-05
424,0.0001570981872293042,3.4091829140821745e-05
425,0.0001362390089811241,4.22158891186923e-05
426,0.00014556050423183636,2.9399441980616515e-05
427,0.00013678775165727747,0.00017590562107508976
428,0.0001392152367228552,5.9811220424612335e-06
429,0.0001329676819967253,8.777231326132488e-05
430,0.0001586991090803156,5.898878482117478e-05
431,0.00013813815249547894,1.0409325006194288e-05
432,0.00015897443826287476,2.1819471958432485e-05
433,0.00013627385733238126,8.961565322190304e-05
434,0.0001387508283942712,3.3262743836143085e-05
435,0.00013439538032502296,4.007887652619053e-05
436,0.00011777792022151237,1.6715838899798042e-05
437,0.00013919426800325575,2.0130962855513367e-05
438,0.00015735274105412722,0.00010171055272397061
439,0.00013019389727434382,1.2287372807834218e-05
440,0.00012959283401473793,2.93579545148061e-05
441,0.00016566511607256788,1.0574445008281317e-05
442,0.00012478619722608634,5.6709770565453204e-05
443,0.00013896122166141017,2.2952303772762542e-05
444,0.00016344730444942194,4.655873692923317e-05
445,0.00013211530154966678,4.844310721860403e-06
446,0.00011960000346140051,6.54018990260504e-05
447,0.000159430205415003,2.4134243376652385e-05
448,0.00012701977237366386,0.00011332826525908832
449,0.00015571205023729218,0.00023700592936209204
450,0.00014192870279872852,1.85003665635087e-05
451,0.0001275264562921313,0.00021602422346845386
452,0.00016376191201628992,0.00015806234947971016
453,0.00017803583562025303,8.40637291831887e-06
454,0.00017147626290592405,9.468352610385743e-05
455,0.00013040645821046237,7.989651689146094e-06
456,0.00015182771527039515,7.051778688189483e-06
457,0.00011922186123527297,3.0150466347087524e-05
458,0.0001376369638089311,6.699207253244099e-05
459,0.00012655375336581388,6.023710534374315e-05
460,0.00014858090971591216,2.303734078226742e-05
461,0.00012667885786102554,0.0003811963642982291
462,0.00011875338262682022,3.608136515462666e-05
463,0.00012409603924094418,1.456771180252801e-05
464,0.00015745533840186673,0.00022266432088195186
465,0.00015852896522739187,1.1908237141715858e-05
466,0.00013678418393266487,2.0298638829152668e-05
467,0.00013960668570230523,2.9348228988623586e-05
468,0.0001203602336544555,6.14343118649566e-05
469,0.00013793062036894515,8.352072716190598e-06
470,0.0001527117805287055,6.99264249829298e-05
471,0.00016537740711526045,0.0001904694113324322
472,0.0001415123049281933,2.477504648220214e-05
473,0.0001242921816566845,8.73319377945285e-06
474,0.00016213764699710842,2.2898082028729502e-05
475,0.00016317833505510374,1.2739168506006979e-05
476,0.00014428294051260614,5.7857869925928776e-05
477,0.00014478348562455421,2.031930003564281e-06
478,0.00013497578425478418,9.731413128809862e-05
479,0.00015412252850923459,1.6524696261588243e-05
480,0.00015245595541113418,2.1745776214341737e-05
481,0.00013804587695735344,5.841843591579501e-06
482,0.00014284814214144483,9.444623841071096e-05
483,0.00013553345953653615,6.041308432565723e-06
484,0.00014447592863991426,2.331187751358441e-05
485,0.00016856198834125662,1.0581137745060198e-05
486,0.00014861757150532,2.481746419670866e-05
487,0.00014249284131590562,9.495726909538792e-05
488,0.00014595511901344165,1.2475731156865602e-05
489,0.00013561553026588855,0.0001753327247375018
490,0.00014009219676473295,5.4253792811647106e-05
491,0.00012351121844778818,1.701490337164121e-05
492,0.00016049113859889022,4.106690288100435e-05
493,0.00018096960083320294,0.00010661959074485949
494,0.00010777963077814785,2.0578825117772565e-06
495,0.00014989043813779977,1.618853122461059e-05
496,0.00013176953722605198,5.814209969716765e-05
497,0.00014561405136467834,2.666084332657482e-05
498,0.0001476670119419075,0.00014497320121181753
499,0.00012628472083790496,1.9715130671050403e-05
500,0.0001474213655749683,4.144826843503432e-05
501,0.00014974125370955415,6.613269226647889e-05
502,0.00014019891712454044,2.1413101047076596e-05
503,0.00012786920799738062,0.000679768444679901
504,0.0001464803609070291,5.426459548966048e-05
505,0.00014811238141590593,2.2585172667908195e-05
506,0.00014070574610950296,0.0002205749283294431
507,0.00015465650381247324,0.0004270786901711006
508,0.0001326079267740727,6.133110078102498e-05
509,0.00013919314914851707,5.741276476940088e-05
510,0.00014056750680258706,0.00017907479584059767
511,0.00015483155751375857,0.00011001179364740322
512,0.00012152172670336748,4.640466135703454e-05
513,0.00013867405073933063,6.48371646504038e-05
514,0.00014613832855138318,3.3241923364353233e-06
515,0.0001486156840135534,4.44687303622792e-05
516,0.00015883691476404919,0.00020480071454130307
517,0.00013206592094296157,7.939165848216899e-05
518,0.00015272477773453383,3.301079456869277e-05
