epoch,loss,val_loss
0,0.13759112349457497,0.06176644511044543
1,0.03890128475133714,0.06432407640726338
2,0.037524712161807944,0.03688678291538802
3,0.03200292721488249,0.04627586304612205
4,0.029126086328133977,0.039145891693580216
5,0.024849437884978957,0.03370862343034692
6,0.025856470550521374,0.012891459594103608
7,0.023603941591420798,0.017840839165315068
8,0.023768464503303575,0.029963972809964875
9,0.022219084425279194,0.027117031466895047
10,0.021728604061374193,0.02198871329791356
11,0.02197344546157161,0.012147190844626905
12,0.020686423794242095,0.03160078676554191
13,0.019804356994924787,0.017148534690148265
14,0.02114065722592151,0.010460118164808945
15,0.019701192107462556,0.014697153367478498
16,0.01809851839158723,0.01491639937767384
17,0.018926141773451782,0.024527499369906457
18,0.01875775719644408,0.020349094863237126
19,0.0186606159001562,0.015627286982029417
20,0.01852667251368054,0.007579213563990856
21,0.01693157379111226,0.009973994215866573
22,0.016926102128607942,0.023063104939312566
23,0.0168063200056943,0.027321769161283642
24,0.01610891505268862,0.020503020969578952
25,0.016459278656068527,0.014022022496023889
26,0.015023740565331338,0.016434542151151817
27,0.016112890856569077,0.00804234433613406
28,0.01697210538134777,0.025148319747907585
29,0.014837506323789272,0.018299955776183267
30,0.014687659543865233,0.020044827378033744
31,0.014512975140177697,0.015045360157791093
32,0.015088110282975468,0.023765961810852377
33,0.015538601621279685,0.013046761525569935
34,0.01264435362261009,0.0067689930770219835
35,0.013819595507113822,0.01394381923284955
36,0.01303274322442225,0.015337187505011824
37,0.013872039178181604,0.016433844658904125
38,0.013245184292203838,0.009742164860120089
39,0.013520853623910119,0.014248819723313684
40,0.013791228445126957,0.01347098630597931
41,0.013459597275291623,0.027062110761628906
42,0.013265352671892255,0.00778693130391267
43,0.013295045503296798,0.008351616611396974
44,0.013382648054002631,0.011112879721364028
45,0.014152285082900017,0.010439675273381074
46,0.013137387772679603,0.013040783243943314
47,0.011994444485232651,0.019181728924623886
48,0.012301686130535545,0.009831887291304785
49,0.01282885469954839,0.024225994432969834
50,0.012856543478969154,0.015358088205802978
51,0.013145187380556152,0.02239063669263658
52,0.013114118365199417,0.015021440035706914
53,0.014275044312054435,0.007315890928590707
54,0.011827748458029228,0.01809834178328373
55,0.012829135020291782,0.013353498565840175
56,0.01170653814813204,0.010889409437787373
57,0.011517290953735855,0.009338255300559251
58,0.013047966423990141,0.014639301865781352
59,0.012727789888098884,0.012291299310037257
60,0.011949985906638825,0.016615579828719924
61,0.012133851929993587,0.010171616066250165
62,0.010737178901446423,0.0057411314618215845
63,0.011813067425180861,0.00911986648274884
64,0.01321851724027682,0.009941541945566177
65,0.011807818804941268,0.006207926183771386
66,0.01143089002243978,0.022425810039784368
67,0.011795094121432901,0.006939880166940785
68,0.012658580896637435,0.015647082652046913
69,0.011558565071603055,0.01636179901612445
70,0.011776201847883359,0.012198382418164608
71,0.011948567761430632,0.01219600007002666
72,0.011365891605199461,0.0083797123465443
73,0.01197413005075119,0.015651661864442907
74,0.012570182721280932,0.014886329853179517
75,0.011434504027321315,0.009551214215205285
76,0.01110659389513553,0.00692175891310647
77,0.011044663109378867,0.00956635091133304
78,0.0109911946641046,0.008190285980086935
79,0.011285258649229008,0.012974973557033262
80,0.011172802658840198,0.006031589610862304
81,0.011606014653970357,0.007287516364138265
82,0.010884860488247397,0.007761643484275973
83,0.010372630018144579,0.017169147293247287
84,0.011484258449271614,0.01427789574566914
85,0.010470924230175559,0.009680926902682742
86,0.011775943496879443,0.010591075416057479
87,0.010917167865773953,0.01383721679757807
88,0.010631117489479994,0.005506220748890618
89,0.010326060821297769,0.009768491951218015
90,0.01060362420488539,0.016294076212556134
91,0.009847599056755587,0.02581775243428625
92,0.010350180397217395,0.005502897534143083
93,0.01113710631441465,0.014650366784329948
94,0.010359149022537062,0.009914249700700662
95,0.010442492938756818,0.009926905715874828
96,0.010054199912899481,0.005994951699058442
97,0.010305053278093609,0.013875389540010817
98,0.009761880779602407,0.010532982168894117
99,0.009933458866836647,0.007180849285009769
100,0.009437121627059468,0.013687576481891648
101,0.010265402776709528,0.007518898443948851
102,0.00986361192694927,0.00932303707438044
103,0.010376684887663757,0.012309820907985778
104,0.01029008234522382,0.0039341814083509565
105,0.010047619300838605,0.010196520571303632
106,0.010651782920530482,0.01185299641575485
107,0.0098853264564014,0.007462558965033307
108,0.010155060520893683,0.005716437064831593
109,0.009450764529299821,0.012081717619497473
110,0.010151703356501672,0.01661081829688261
111,0.009651161520816326,0.01124646383739755
112,0.009451554493336893,0.013705382594763763
113,0.009198915211113094,0.010514188235171357
114,0.010480303072752498,0.005330927482928902
115,0.010041679225048328,0.00989677234616751
116,0.009985758032523941,0.005669797542442486
117,0.010733916512247529,0.004863056093277946
118,0.009984118123107004,0.005014723566329164
119,0.009655583998933584,0.005726717829619018
120,0.009553758683781936,0.006783769252080097
121,0.010023824123425229,0.012367922615703863
122,0.008869543223255437,0.009744530483409938
123,0.009025965125015606,0.007987155352999186
124,0.008883952080617569,0.007332953474842359
125,0.009563041758425027,0.011216376727298432
126,0.009521716007617392,0.011808268387743875
127,0.009510282382870064,0.015320648852332945
128,0.00954056531581715,0.0060499586920594265
129,0.010259470580868589,0.011818551190856083
130,0.009632010804880098,0.011728272221294462
131,0.00996791754572315,0.007404402903580323
132,0.009699862866329668,0.006231473766167331
133,0.009803050544580444,0.009133903542717281
134,0.008982365926281719,0.007487839648328081
135,0.008612106893685082,0.01874528764272969
136,0.00955712314809395,0.0037686552173563153
137,0.009000291587408189,0.005755423396184817
138,0.00937184090731661,0.009979497796422916
139,0.009581924008159376,0.007827802399877567
140,0.00897983055486218,0.008898166462561467
141,0.010689790800513832,0.008659739591969263
142,0.009644947202818886,0.007168704828345926
143,0.009517013928558913,0.012114566194383102
144,0.009601689383594526,0.008613072302642306
145,0.010250948481451569,0.00986663148104086
146,0.009736193949710295,0.007509826593565584
147,0.009196825909892098,0.011069169876642743
148,0.010138600953291806,0.012720356133767208
149,0.009388372348118975,0.00853991142019112
150,0.008967491157120653,0.007114139209474248
151,0.009575020693663916,0.008638576389052967
152,0.008836234947178903,0.003909281910350803
153,0.009574532361539583,0.013686095652535805
154,0.009030341078507916,0.006610348621117217
155,0.009508493318997448,0.0054535490347494405
156,0.00891766541999103,0.006437962297379571
157,0.008941852288945265,0.008975436845566452
158,0.00958047984268436,0.009493591606428799
159,0.008449364801218136,0.01060644744277212
160,0.009082615176188967,0.005769131376592541
161,0.010145317964653353,0.005248945679415632
162,0.008796626925289774,0.010766885277904106
163,0.009077370341168903,0.0093127282273139
164,0.009426827510658035,0.007386379561371566
165,0.00935818127756246,0.008944433768321748
166,0.009617924115428483,0.009345695572657527
167,0.00920333845667812,0.009561073780353839
168,0.009898374217553444,0.00849693573808449
169,0.009649171097800403,0.010070543770767285
170,0.00908297606368663,0.013832137612706814
171,0.009214578165418113,0.009537343801335148
172,0.008698563400781055,0.009876124254312446
173,0.009470251526387273,0.007687995408021425
174,0.009278150823739298,0.005288690019872307
175,0.008350843657478154,0.003381660955112013
176,0.008674365840833649,0.01620272200057708
177,0.009389625402907435,0.005295412858981924
178,0.00876689464909856,0.00825850067449985
179,0.009027575740205804,0.008768987671002428
180,0.008764736607003,0.014428639627887258
181,0.009177666872074986,0.009095343761146069
182,0.009002342012332682,0.007991223768775823
183,0.009937700239657093,0.009350563711159655
184,0.00885158384239843,0.008936473984350674
185,0.0092334898722769,0.0047660844575837195
186,0.008973967587099977,0.0072079495230620546
187,0.00897257656791805,0.005299941342964992
188,0.008884229439423888,0.010104425849823757
189,0.009123813827614412,0.008609990549627354
190,0.008516644567923455,0.011350735833084808
191,0.009283700570587715,0.00964362714542539
192,0.00926286766627918,0.00846662254446872
193,0.008868110090063112,0.012386448956267422
194,0.00966950012132716,0.008024183395609036
195,0.008475912945455969,0.006163686279783756
196,0.009004211684370296,0.013974307817954572
197,0.00899889742813001,0.006500597270654004
198,0.008745259618283145,0.00921227423960803
199,0.009103704451231195,0.01191083813158188
200,0.008462543977773655,0.011582488160295192
201,0.008696104589139494,0.010441347629555163
202,0.008700950785527389,0.006567645723907234
203,0.009148271800819889,0.010737033105134117
204,0.009108412763860216,0.007628836538186907
205,0.009292402976307181,0.0061764763410908086
206,0.008523817416645294,0.008525607627085112
207,0.008703569522647517,0.010716031584080129
208,0.008271263179303759,0.0087117082619453
209,0.008096938109699843,0.010953941988158198
210,0.009182170351898725,0.007664709888184009
211,0.008528548223580673,0.013690264132564803
212,0.008945317523513767,0.008746065370644419
213,0.008217341563892182,0.011115408588521294
214,0.009260783178752644,0.011496442839085774
215,0.009229310092793184,0.010271443645804297
216,0.008701089292494423,0.009841518547906354
217,0.008630392138383163,0.00709285115934879
218,0.009520059274650997,0.007646573216072927
219,0.008205740223936499,0.007143191767205214
220,0.008722061910450631,0.00821008588001426
221,0.008379729990799018,0.010149224445182644
222,0.009620061631390392,0.005994007121492251
223,0.00864934300131676,0.015916177909600752
224,0.008671963652543765,0.008236685680297527
225,0.008363603522608743,0.004182796882672769
226,0.00803663021210934,0.007145555865610549
227,0.00869669787921488,0.008467247747855103
228,0.008946272098536727,0.01050308426355483
229,0.007994535359988387,0.007354105260787678
230,0.008330337266135458,0.011278823394425383
231,0.008272120146919117,0.0022144166075704647
232,0.007709162971034622,0.015971921256433912
233,0.008338575709524076,0.006656688861122565
234,0.008061804715432316,0.004846693399923118
235,0.008466928997423222,0.009754673333804769
236,0.007977336358740929,0.003688038144872216
237,0.009007016347600616,0.017478939736792678
238,0.008231525825296375,0.003641521437615509
239,0.007919847612458316,0.00899712001315326
240,0.008505761263109252,0.006496096548095828
241,0.008101629406987257,0.0049046541096667605
242,0.00825626141880062,0.0035028936818827182
243,0.00772970823439316,0.0106324350848006
244,0.008855794724408271,0.006724734273140084
245,0.008277540825747347,0.006000855503178951
246,0.008401677605966263,0.008110012004597388
247,0.00912158559182574,0.014586082184077157
248,0.008500609997857948,0.0070159668433638
249,0.007053154864911285,0.011445236955376102
250,0.0077114560002785664,0.00526495874971857
251,0.008309755195341677,0.007289622380709145
252,0.008493173189258737,0.009841473754010241
253,0.00814407201410144,0.007788360662443744
254,0.0077523996410102285,0.01039346004964897
255,0.008447749754242735,0.004310766123264628
256,0.007684378221463174,0.005098605948561345
257,0.007798397453776527,0.014815596899645433
258,0.008587611111370083,0.003724962839894967
259,0.007863039330109957,0.010375545177852769
260,0.008475611946336347,0.00998156011948434
261,0.00844623966605591,0.003994724931946611
262,0.007814318185523644,0.010376685967149938
263,0.007672372861109454,0.0050342810426962925
264,0.008048307049634615,0.009886669350792408
265,0.007452410019969167,0.009044359896799524
266,0.007492504625240241,0.00479894133884498
267,0.008451077276837084,0.010168660498255806
268,0.00838611596928378,0.012179560743966202
269,0.007436986910959082,0.004859405194483433
270,0.00868665399340664,0.008771037335206932
271,0.008424116735183578,0.0069651839473294334
272,0.0072150202443842576,0.006363028282595133
273,0.007609860309649804,0.009142606512547103
274,0.008232058494721802,0.010572496821461415
275,0.006821811916850072,0.006071903557246867
276,0.008168924826947,0.006941573216926069
277,0.007566177157694838,0.010195717187605698
278,0.008358140898158225,0.007205513598883984
279,0.007261229726308354,0.008038778434306877
280,0.007643357411750572,0.011116347883569978
281,0.007714056076003993,0.006316991113846638
282,0.007637558298862556,0.008950059230850264
283,0.007258852221928597,0.014752205311311167
284,0.008098671445529983,0.008404261484777447
285,0.007589076475562642,0.00670229423322201
286,0.008388996508782455,0.009915776938882133
287,0.008740867704073403,0.009414980044675184
288,0.00846997057606982,0.012223974151070793
289,0.007954433933021404,0.0030785430273836466
290,0.007866760940762977,0.012659003457529345
291,0.007438162018524127,0.011947121299162283
292,0.007921760487980652,0.014556404716984297
293,0.007986162892832376,0.012812612773799106
294,0.007997475630643932,0.006476386004416441
295,0.00837582042756238,0.006243866380604003
296,0.007914486214061447,0.011305639013830329
297,0.007859180252597058,0.002835868679364848
298,0.007979919212117648,0.020929978147513677
299,0.007716444783101825,0.024945127668231138
300,0.008156105173103285,0.009175964750955213
301,0.007835009342638685,0.00464106522884217
302,0.00795803735234427,0.011409335494800025
303,0.007347422986582434,0.00932528421315111
304,0.00794144752623363,0.010549559295412679
305,0.007430675604248898,0.013216822466209543
306,0.007532932219184119,0.004827299102370487
307,0.0073210850171335365,0.0031008394646378206
308,0.008250163934233752,0.007692931319903744
309,0.008166636266618324,0.005633299069548204
310,0.00706650669362469,0.009771298026870393
311,0.007848801805066774,0.01074136525316086
312,0.008044374116464146,0.008092652457959556
313,0.0077209017763612605,0.00656969789356793
314,0.0070808930031722225,0.00634311686763165
315,0.007169831923231837,0.005704019313873672
316,0.00803731582730526,0.0033653730766563996
317,0.008018165596014114,0.014962830873325337
318,0.00745743652507901,0.006606852426616315
319,0.007576692648206672,0.009281880254603646
320,0.008135704844633563,0.007634190811269167
321,0.007705784430565442,0.013123970267810545
322,0.008177006543951957,0.007807250076209525
323,0.007343660598694474,0.010592685983719888
324,0.007908202335722357,0.011964511393107056
325,0.00829494788062399,0.0056550426385861595
326,0.006818270834116675,0.008816736521700657
327,0.008315769977477506,0.011256430957439901
328,0.00838337564194347,0.01106046961404342
329,0.0073775354646992,0.014315861280222483
330,0.008068024948370351,0.005729614424018664
331,0.00729175373849695,0.010835375547873616
332,0.007681806449596729,0.009986427702280181
333,0.007935772047487558,0.010678908237841954
334,0.006874860738397395,0.00830190620019785
335,0.007186145294825439,0.0065324710988555025
336,0.00844435170778616,0.00846612274693803
337,0.009066416990204747,0.007758604468455819
338,0.008301322956083358,0.013058750058841122
339,0.007875738893453178,0.005720674353574521
340,0.007623373206405581,0.004328798360816823
341,0.00723169162826833,0.005850492028376909
342,0.007378161533597594,0.007684692074842427
343,0.008015035231142482,0.010861698058805037
344,0.007895229874438584,0.004075058738296027
345,0.007533766601668696,0.006567920684952645
346,0.007847430120971572,0.006209903032810743
347,0.007420433745066226,0.006371586940059439
348,0.007398585953199186,0.0036879617771561585
349,0.007412912137210846,0.00467373612656566
350,0.007720094955460035,0.006688610799448901
351,0.0070607626773819005,0.010353869860719863
352,0.007892344070008125,0.009749174969977955
353,0.007225474881927306,0.011286840844684778
354,0.008321394624883125,0.006310309711608509
355,0.0076086801084258755,0.006589776822737026
356,0.0069095790482049495,0.00898739845133971
357,0.0075663847293776215,0.007306664555106421
358,0.007564164057886191,0.007352218393533364
359,0.007318048850543124,0.012153123046735327
360,0.008206327276346799,0.012112559917535053
361,0.007609635658973871,0.004423151806734896
362,0.007039969622661515,0.00708493114476281
363,0.007397647185162153,0.003987069460750802
364,0.00839074212331161,0.004699611010936977
365,0.007476545658969818,0.00738039055887695
366,0.007464612976487482,0.010120180085589544
367,0.007496529604636987,0.010627194462842422
368,0.007289328209958676,0.006961073243480408
369,0.007883239014957884,0.01299120340608031
370,0.007047055632206906,0.008423030770794674
371,0.007454455528370321,0.00516067277132912
372,0.006936533597679876,0.007933684924268991
373,0.008196140338069677,0.00996233577801072
374,0.006869454468268422,0.005723495308336255
375,0.0075869029153326,0.009324179003757573
376,0.007264480441730532,0.00774814824528857
377,0.007470025608188016,0.00513026511021717
378,0.007563102919944107,0.006657298388960753
379,0.007491756771537785,0.004557790901936773
380,0.006770620951371314,0.013092318982703298
381,0.00784267965952853,0.007366392669586234
382,0.00687902844302523,0.005308188523747315
383,0.00820027890089947,0.009332228537234342
384,0.00675913452068984,0.005278478121133587
385,0.007201942274014545,0.002521376124779446
386,0.0070997658300121945,0.006779957966601157
387,0.006910144574621947,0.003889101233087839
388,0.007890166999218684,0.0040400430544308185
389,0.00798749251521567,0.007929213370410424
390,0.006805348302536219,0.0037954417182295783
391,0.00671829376486037,0.004209291979916035
392,0.007060632537149614,0.0062861480575934015
393,0.0075097524799309,0.009447430562589615
394,0.007574511995389432,0.00477374210768477
395,0.007008374648929523,0.014065595838405198
396,0.008196823209967855,0.011057913401138387
397,0.007621394622111343,0.012818944220002609
398,0.0072660534634261574,0.006304666946473772
399,0.007037491414608132,0.006814125206780156
400,0.007863164949640305,0.009826834585544108
401,0.007380791632797298,0.006217566436787313
402,0.006518437667404764,0.006899863076870401
403,0.007391749844263992,0.006097198481250322
404,0.007312351454914414,0.014125966578692598
405,0.008081833628820721,0.0038851835004523713
406,0.006668170456209486,0.006669444901590848
407,0.00804577024405462,0.007898267352660998
408,0.007563238240611687,0.010471841449766246
409,0.007408101187539112,0.008508369513297044
410,0.006584993812708195,0.006222098336599902
411,0.0068530536759335795,0.008758319794673005
412,0.007661886668825845,0.007754094553589468
413,0.007336364260954346,0.004493989512925613
414,0.007592519800972304,0.013559295310717496
415,0.007205945399761435,0.0031300870598394543
416,0.007268587391425987,0.004227938500785026
417,0.007451337217044333,0.003956148785891065
418,0.006897114410190184,0.006234641998400581
419,0.007104545324887458,0.008173963693782817
420,0.007171962590836775,0.00421556074083316
421,0.006970773580659785,0.011184237897396088
422,0.007875447623713833,0.007149262750710948
423,0.007957167394184169,0.005831726870831064
424,0.007327804471774445,0.005710071827128424
425,0.00711294977699029,0.008300509179950396
426,0.0068304402728864315,0.0064270474254091185
427,0.007532143276456526,0.0061212769969004105
428,0.007909768183637846,0.005047689484183889
429,0.007604099351767195,0.005788511995390798
430,0.00659819988185446,0.008577946078799659
431,0.007230079383310154,0.009783764697623093
432,0.007129594721195983,0.007018768072022447
433,0.00655464399064393,0.00757077249243338
434,0.00814956486973127,0.0070233318683468595
435,0.007422376102001089,0.007933645513226244
436,0.007300896471259083,0.005266125486677053
437,0.006817585094362873,0.004859670370026259
438,0.007744451350574162,0.008123464890091952
439,0.007281744089029688,0.0065619685700355835
440,0.0071500998867346606,0.005692099801381578
441,0.00733594976340999,0.011308029029391936
442,0.007899579738847818,0.021171331854026997
443,0.0074355510246048835,0.009259431006941113
444,0.006798293071768829,0.0021247042091445735
445,0.007895621744790028,0.006286597206097776
446,0.00723609146155822,0.007555548494186284
447,0.008212591964443646,0.0033365806813506907
448,0.00705087499218069,0.004392020551902378
449,0.007695875344021867,0.009154265656796796
450,0.007210524471189684,0.005417438489682649
451,0.007625902560055643,0.008527601238093159
452,0.007010247310449322,0.005277532624740862
453,0.006991610173686898,0.005973838708174563
454,0.0074239479904852175,0.005390295259369318
455,0.006813036846938721,0.00487444940704526
456,0.008289499483968345,0.006304421407724095
457,0.007306424604872499,0.004946377537791759
458,0.006961410483929792,0.011449480274193806
459,0.007605950854592871,0.004351061945244517
460,0.007056561312999287,0.0051369693452946626
461,0.007792137783589504,0.004128320038248068
462,0.007817930794398424,0.006881775102198077
463,0.0071766265321986005,0.011302338387514299
464,0.006307949414767092,0.004049366816360835
465,0.007150221508082678,0.008621838935389939
466,0.007149930510723548,0.005757367783450267
467,0.006435322786698477,0.008041130295780435
468,0.00785241443157601,0.009373289216883133
469,0.0077567968561185995,0.007464220659511829
470,0.007288560921271934,0.005896719786740587
471,0.006879271640774342,0.006669918362612835
472,0.006888857479378444,0.007994488842753016
473,0.007171822207545092,0.006195708280157272
474,0.007482441219439407,0.00327412495128634
475,0.007137360208402414,0.004138672932939811
476,0.007618118073701186,0.01065306278164686
477,0.0069982223784093925,0.010645729364664092
478,0.007111843394666097,0.0063360268128822665
479,0.008039725859996398,0.0045065138222180725
480,0.007112737995232541,0.008691679218808967
481,0.0076647329761246165,0.006556678215672439
482,0.006878437447476295,0.004477242634123766
483,0.006944332447600551,0.009081497323135504
484,0.007637453934108521,0.014443933563902327
485,0.0076793631585091535,0.0061092870151910755
486,0.007293421804322768,0.007603692586571213
487,0.007630157734978003,0.009243122242455794
488,0.006834246594158056,0.007421909730025841
489,0.007454514955926082,0.00416101278143993
490,0.007693407628888102,0.006058741086724949
491,0.007489881756306767,0.007981023103610305
492,0.007538295500326625,0.007513363268990849
493,0.0071254579001757724,0.008246956789688205
494,0.0068172310334466526,0.00902387267309399
495,0.0072406288756107495,0.00444807315020342
496,0.006847277258356793,0.00639801350331791
497,0.007163521048356426,0.018533726226488436
498,0.007163281059147586,0.01003036239193995
499,0.0075118719572409825,0.00851773578841195
500,0.006717461320258183,0.0036259609059193236
501,0.006671791320289228,0.007097425437278769
502,0.007492316165956841,0.005303477030835499
503,0.007594480208005104,0.010728483686654373
504,0.007617726752111654,0.006879567520379808
505,0.007326864850629928,0.00933781535612403
506,0.006876651587351475,0.008635811670517935
507,0.007674020382376175,0.004900890439248923
508,0.007468639034098557,0.004847215149322291
509,0.007029470431876721,0.007112808998206655
510,0.006981137563376952,0.004894831550440618
511,0.006655086889761767,0.0053870950482973875
512,0.0071416775875860344,0.006213967158402527
513,0.006794351155960487,0.0017565867626354475
514,0.006647172535601765,0.010573567811549651
515,0.0062361395100133865,0.003911491985680519
516,0.007022802338307853,0.01016992395604066
517,0.007178607695124788,0.008411445887208033
518,0.0073634046873879535,0.006133211495085739
519,0.00666465147135617,0.012190992959378833
520,0.007117509220385824,0.008579074711654255
521,0.007013305184681885,0.007911558524685622
522,0.007488631715846928,0.008714462413975194
523,0.008163819680728173,0.012342231999421176
524,0.00798366412854114,0.007684555799268839
525,0.0065395656952092485,0.012909401890299127
526,0.006964398146602143,0.003813268749841622
527,0.006917892957616562,0.010896894618451313
528,0.007505302591821466,0.006546083450737838
529,0.007633074024402954,0.008769745143511183
530,0.006544771804593408,0.004647728929335829
531,0.007415942754670918,0.005769337652781838
532,0.007467145978934321,0.0070493092132701395
533,0.007567190623050816,0.005674667440313661
534,0.006766781160182846,0.01012326303895948
535,0.00703147171734483,0.005564480929561224
536,0.007012319254387784,0.0051943235846872915
537,0.006698506959746752,0.0056848971620819515
538,0.007328484350793826,0.00462125949693907
539,0.00766861370074556,0.006546862794993402
540,0.007532991891109692,0.005455201886073872
541,0.007064814711569159,0.00198569473234941
542,0.006621458914458862,0.010635512153270354
543,0.007775439636883803,0.008246693069199078
544,0.0073276439111763176,0.009480737947991915
545,0.007188474747548096,0.012286134108301214
546,0.006550047366930504,0.005033996211983787
547,0.00778497210278516,0.007246942330304689
548,0.0074499920094318745,0.00381485952653179
549,0.006514204930488786,0.006187355444981954
550,0.0067269212565292495,0.009578347885312297
551,0.006554489322512937,0.013859968862533805
552,0.006949787962620409,0.0048780820031827515
553,0.006953169999690317,0.008448982931417725
554,0.006630604582171303,0.006079749545654328
555,0.0078082954510860295,0.010040010851179415
556,0.007306488050664548,0.0032593847183332776
557,0.006585139368292611,0.0024713431240589415
558,0.006499961520795324,0.005731277598542968
559,0.006535192550946143,0.009728924355865842
560,0.007230102640504448,0.0056185464539374765
561,0.006979650058413221,0.0057441645956818
562,0.006709257806212061,0.004738137484678812
563,0.007331591877743131,0.015181020514535312
564,0.007492870421072157,0.005210754962163171
565,0.00688581811439106,0.007837132885963924
566,0.006533590926862077,0.006466039946712936
567,0.006895789735411538,0.009673496282673437
568,0.0066135787968724805,0.006937084069744564
569,0.007304785550145029,0.003006042760628516
570,0.006929796384165449,0.009293389023702824
571,0.007062805773724588,0.010288891745635676
572,0.006884600544127998,0.006999312805551403
573,0.006802311747569031,0.007238902462515524
574,0.007358908552570725,0.006282278663686814
575,0.006734679778637684,0.005310347208190172
576,0.00666634753199598,0.007938689581649973
577,0.007673335215811961,0.009865301711912595
578,0.006326301940402268,0.005441483616279092
579,0.006330530376604972,0.0077672039787854705
580,0.006967134207102219,0.005081516912908255
581,0.006687157937484852,0.0068551013951837405
582,0.007075336146753558,0.006269647912199491
583,0.007516408160006513,0.005317140018880579
584,0.007082852000658357,0.0033015833512292595
585,0.0064379494005574476,0.004677157786225675
586,0.0070859549054727074,0.009031300901949124
587,0.006388199852835714,0.004285565983384977
588,0.006723737142489498,0.007386561436835903
589,0.007379640853196251,0.008189611483127137
590,0.006821565908708533,0.0077076390015891946
591,0.006834080492851319,0.004919242675782967
592,0.006813964236285359,0.01168348718781521
593,0.006910518783298757,0.007880291896383406
594,0.006573097940266719,0.0058001421006791875
595,0.0070110508352428744,0.006455534053253394
596,0.006629092814477099,0.004552311795060218
597,0.006955366578979714,0.007322152287073745
598,0.006512278028362566,0.00555668720216935
599,0.006877260506718898,0.0064648872295772365
600,0.006211067013173393,0.006469924768819617
601,0.0063095976450412775,0.004888715228725933
602,0.006502949204219567,0.006902739534267734
603,0.007728109486958684,0.00877643986799899
604,0.007447598151863365,0.006725197864494977
605,0.006912171650829789,0.00773911781376779
606,0.007082889137332135,0.005134265841188493
607,0.006645858238118408,0.006283913550482388
608,0.006732796596327453,0.009512263270067059
609,0.0072425184965444105,0.005450120150540156
610,0.0063913029004007485,0.004927805511335289
611,0.0064051116132817654,0.004706987271330892
612,0.006329208021013098,0.0044880058140815155
613,0.006779439526321225,0.009473843624978528
