epoch,loss,val_loss
0,0.5153305951474692,0.5018762815678978
1,0.49978117259976734,0.45253278385320905
2,0.4514584331918477,0.4519978643203196
3,0.451318244671418,0.45170069819052816
4,0.45123808634844226,0.45102704866944116
5,0.45118579145832166,0.45095874634629146
6,0.4510994858629494,0.45102333142503026
7,0.4510233458515366,0.4514451908710281
8,0.4509702748941269,0.45099403781275593
9,0.45091863515616504,0.45083285685508484
10,0.45087266210374677,0.4508307080262944
11,0.4508343612760736,0.45085888981227545
12,0.45081571300243906,0.45076799160493514
13,0.45078565587198954,0.450748037966546
14,0.45080129847998773,0.4506971323016855
15,0.45073685937757896,0.450690199453245
16,0.4507118793471223,0.45126586254713846
17,0.45072132015458294,0.45061131561956097
18,0.45069828400694106,0.45060376242431754
19,0.4506671772999969,0.450580642906667
20,0.45066876466955713,0.4505919744004091
21,0.4506596579450222,0.45060899512051944
22,0.4506445319043014,0.4506181415198163
23,0.4506186231205821,0.45071198054342054
24,0.4505984452815317,0.4505747854561723
25,0.45059828628808823,0.4505997017062923
26,0.4505865002310003,0.45098991689847656
27,0.4505869470244547,0.45052409490048145
28,0.45058252381804514,0.4505367806028787
29,0.45057763850268806,0.4509259608779888
30,0.45055095899520153,0.45065402811573396
31,0.45056307513546195,0.45059415973149813
32,0.45055220698761594,0.45078214165886343
33,0.450555445599336,0.45059086063659515
34,0.4505590447469398,0.45064488482238635
35,0.4505443733804612,0.45046118752240544
36,0.45052785611624685,0.4507712992338034
37,0.4505411050082266,0.4505666137924857
38,0.4505328508452254,0.4504944200994951
39,0.45055016158656086,0.4505930574005354
40,0.45053749497952716,0.4506250984763389
41,0.45051850738278143,0.45066438234473577
42,0.45052667320057815,0.4507456741025371
43,0.4505328265280196,0.4505086171715786
44,0.4505414762954437,0.45086356811132977
45,0.4505258275803379,0.45046290571873004
46,0.4505120184787682,0.45060490207104176
47,0.4505199125365859,0.45055033134171746
48,0.450510407611989,0.45063663506626195
49,0.4505198985561844,0.4506385054540989
50,0.45049240612104635,0.4508101574540434
51,0.45051062659620866,0.4504683945522119
52,0.4505129619231666,0.45067940979974147
53,0.4505089343405062,0.4504771158801711
54,0.4505009595086567,0.4504760846014946
55,0.45050257228558327,0.45054565637046584
