epoch,loss,val_loss
0,0.2622562942819463,0.07304851542026299
1,0.05159191883874121,0.040539124345475984
2,0.02640208268432404,0.01751408123226738
3,0.01757666765604999,0.017786753705710808
4,0.0164317524575775,0.012456164119402043
5,0.016522812620207345,0.012172425439950276
6,0.015671644701535325,0.01538677621616643
7,0.016729189193718953,0.013110500829472209
8,0.016626588141487587,0.014975864427339142
9,0.015018415130707596,0.012590202050108606
10,0.0152674814977264,0.01333428116481466
11,0.015315514249015423,0.015520373177027364
12,0.015455299355223667,0.020508992249747383
13,0.01578048943950654,0.01192850596400091
14,0.014485236563474882,0.010880016935320355
15,0.014183579826449081,0.011489286104727305
16,0.014362292635968502,0.012595897032522788
17,0.013423401659889091,0.01958201454853861
18,0.013902031619259589,0.011126916769939021
19,0.013614084000224999,0.012677295240055366
20,0.01440599042256709,0.012863086862893865
21,0.013393618658722507,0.009899998911389611
22,0.01532328890920948,0.014270249490303465
23,0.01384504515749159,0.01262127044526147
24,0.014187937489428598,0.016385855594239745
25,0.01457223598082229,0.015350135222250844
26,0.013726607139455341,0.013546406326340637
27,0.014055985695519429,0.02152097945181681
28,0.013781035763414787,0.011425418492947611
29,0.013141544810648885,0.015350856501447373
30,0.013204108775525594,0.013404273208239555
31,0.012867064796668068,0.012117069872829771
32,0.013453046210388616,0.013631379601913898
33,0.014115920069524729,0.011402246896574464
34,0.013339210257714363,0.012709642897912057
35,0.012871537996689789,0.012304454266028251
36,0.0129595128242388,0.010090300778218125
37,0.013412200861225585,0.011952906295336671
38,0.013388626798756605,0.014485541190849154
39,0.012684630098671532,0.009007966873583684
40,0.02064794624357564,0.011866414650095643
41,0.01297969859270982,0.009707817289759217
42,0.012791113500359753,0.2458721277463502
43,0.012552424345342672,0.01019307986363451
44,0.013280010882498538,0.00948743864338207
45,0.012884633740124335,0.01181712818362154
46,0.012883719341229382,0.01205693254682464
47,0.013475526420721154,0.009593102297045132
48,0.012810215154822044,0.011305134506027296
49,0.013304472738262014,0.01861679696881498
50,0.013414586095033671,0.009752231664388149
51,0.013164609198556762,0.012037147054464896
52,0.01387498399029098,0.01654806174852407
53,0.013855992946111196,0.01664960449936358
54,0.013209119786602929,0.013835464475195687
55,0.01352192346489788,0.013792806467439776
56,0.01369807369680219,0.014149278365942961
57,0.014182543326772268,0.012284438795797475
58,0.015151411163353388,0.016308564783883265
59,0.0137878874591146,0.01385360912676392
60,0.017348310857494588,0.010032993837994036
61,0.015304590400262214,0.014560930134291925
62,0.015396094398400326,0.01186551596681222
63,0.015550545185058415,0.020448844599072258
64,0.01543443623429937,0.01463756835655601
65,0.014095574464026591,0.014088072029001947
66,0.0751225501257959,0.08510740734078137
67,0.08502152396275175,0.08166160491525233
68,0.07500726196596282,0.07258821849512037
69,0.07019298577861344,0.07095631554534611
70,0.07094111836565246,0.07189022654104439
71,0.07293452781965311,0.07112056998963796
72,0.07430736245743805,0.07609156975206562
73,0.0778896928036051,0.07671165109068838
74,0.08162360389134009,0.08202724276373682
75,0.08064644542380536,0.07570294699475064
76,0.06865888015686465,0.06299016871963699
77,0.06258355124706892,0.060359727511889553
78,0.0582632378538807,0.058741790581356375
79,0.054975948866001136,0.052054372760919294
80,0.05377742829773542,0.05347872442538661
81,0.053624600237555546,0.052491394777935886
82,0.05233272914287093,0.053495434572260116
83,0.050576768937609276,0.048724269204800205
84,0.04948087642676562,0.047843224991586324
85,0.048895954047973686,0.04798723755796876
86,0.047722699671542995,0.04727072923222958
87,0.0469405946778141,0.04511748598307818
88,0.04555972489557392,0.04596708132205465
89,0.04456660582153179,0.04497051257978252
90,0.04393183584544632,0.0415370285249335
91,0.043246221415948666,0.04020678175535368
92,0.041963455238960966,0.041208617718509546
93,0.040822683833539486,0.041196098111587524
94,0.038471139606749485,0.019109660353814416
95,0.02130817850794104,0.022845573555722233
96,0.021262032430258683,0.02143199103072156
97,0.02055435343872574,0.018385734897174513
98,0.01962057483210552,0.01871754337269769
99,0.019157950398992363,0.018262738977200935
100,0.018873733131856703,0.01763313868793864
101,0.018970073957136162,0.01677043231839245
102,0.01937176143976865,0.017951717998997117
103,0.019091810570280855,0.019983599732770353
104,0.018574996120322474,0.018861338626314027
105,0.019218568806629553,0.02029848076703046
106,0.019248646251272133,0.018160141506118388
107,0.019232012567852588,0.01751407011520138
108,0.018430632608514623,0.018184986346987116
109,0.019158439425979373,0.017781840207315422
110,0.01900898223276809,0.018383690580907965
111,0.018989791352894428,0.01846487729147888
112,0.019564692915188704,0.01655171650528743
113,0.018742331414394898,0.017530130856062545
114,0.019227420624202605,0.019013321748254753
115,0.018899174770794447,0.018568763445809943
116,0.01975302064611162,0.018646575224563044
117,0.018591375904437674,0.017557197495201203
118,0.018813396227634626,0.019491865809774578
119,0.01901546892167317,0.01782427347781932
120,0.019033016339554894,0.017773159146353003
121,0.019402273132917668,0.018573351863745216
122,0.019890530942027255,0.01891561548998131
123,0.020157596060662246,0.019898205195078015
124,0.02054122056392171,0.02109398306865648
125,0.020914447977379572,0.022095715000067014
126,0.02203984936024788,0.021030257231810946
127,0.023439876039882453,0.024363259201238687
128,0.026520959759349944,0.026912530138059543
129,0.03144819185109459,0.0327539565254829
130,0.03576832511674443,0.03690787490189734
131,0.038894667170292656,0.03917976681381205
132,0.03994847461506784,0.0419498217184076
133,0.038187165349293097,0.038126821670131414
134,0.03831722381726491,0.03834653560339746
135,0.037657786956537875,0.03645274655242181
136,0.036585966536818414,0.03469415231304274
137,0.03641893548576785,0.03661222534508524
138,0.036532635201992604,0.03463467227584655
139,0.03580191569085673,0.034314102174945016
140,0.03631447880364341,0.03474947193015628
141,0.03547505941688657,0.034765682957225555
142,0.035868756825939645,0.035953311842073114
143,0.0370487654998565,0.03738554098864616
144,0.03776631043996099,0.03924227251444121
145,0.03846168092159416,0.03642206580393551
146,0.037880585828928545,0.036797635385144765
147,0.038285565401742355,0.036228538445993115
148,0.03800409850176814,0.037545856649986664
149,0.03746651704136512,0.03661410484959878
