epoch,loss,val_loss
0,0.3328668118642865,0.32805096779691956
1,0.32634603949211577,0.3245934071203057
2,0.32412913836520924,0.3222244657346745
3,0.32195822706373095,0.32138719303267343
4,0.319513016324535,0.31831502969705316
5,0.31528783686679424,0.3126924830858596
6,0.3133395980302093,0.3122927016786637
7,0.3125020244376932,0.311696500938618
8,0.3122700889238255,0.31319641590635894
9,0.3120496630918779,0.3133667641228922
10,0.31245352980568347,0.31343575422935066
11,0.31211366119096984,0.311548698790542
12,0.31217542231130563,0.3117857367952884
13,0.3119515596593408,0.3114050476331831
14,0.3119767423537519,0.31676357515279757
15,0.311656050178573,0.30994683238306475
16,0.3118533033261196,0.3168091531240197
17,0.3119697181476678,0.31569815881626756
18,0.31094030448072535,0.3121260830216645
19,0.31071707061964643,0.31017225675561244
20,0.31030313444616414,0.31136019503214085
21,0.30856551704325264,0.30867105241403303
22,0.30654413906409206,0.30754045732819196
23,0.3037618760832494,0.2965639994289335
24,0.298387163301571,0.30061509323783436
25,0.2993235853310826,0.3038376656720369
26,0.30173226529888686,0.30074222626983416
27,0.3017544514722199,0.3007407570470951
28,0.3032200170590056,0.30058753346964046
29,0.30425022277448005,0.30585097867904354
30,0.3065393141312279,0.30938195818836706
31,0.30586368400904296,0.30562589171136
32,0.3416848003768997,0.3253851141765914
33,0.3199811807686953,0.3166570230648098
34,0.3244040755690526,0.32652657600773916
35,0.3216550931346407,0.3196808626756201
36,0.32190815062760164,0.32509002831618244
37,0.32517060163400346,0.32578651926935237
38,0.3268324731351089,0.32566290573990997
